Odd_Even_Sort_Serial,5.311,65536,1,Sorted-correctly: Unknown
Odd_Even_Sort_Serial,5.423,65536,2,Sorted-correctly: Unknown
Odd_Even_Sort_Serial,5.413,65536,4,Sorted-correctly: Unknown
Odd_Even_Sort_Serial,5.335,65536,8,Sorted-correctly: Unknown
Odd_Even_Sort_Serial,5.460,65536,1,Sorted-correctly: Unknown
Odd_Even_Sort_Serial,5.348,65536,2,Sorted-correctly: Unknown
Odd_Even_Sort_Serial,5.200,65536,4,Sorted-correctly: Unknown
Odd_Even_Sort_Serial,5.353,65536,8,Sorted-correctly: Unknown
Odd_Even_Sort_Serial,5.544,65536,1,Sorted-correctly: Unknown
Odd_Even_Sort_Serial,5.573,65536,2,Sorted-correctly: Unknown
Odd_Even_Sort_Serial,5.405,65536,4,Sorted-correctly: Unknown
Odd_Even_Sort_Serial,5.357,65536,8,Sorted-correctly: Unknown
Odd_Even_Sort_Serial,5.450,65536,1,Sorted-correctly: Unknown
Odd_Even_Sort_Serial,5.368,65536,2,Sorted-correctly: Unknown
Odd_Even_Sort_Serial,5.423,65536,4,Sorted-correctly: Unknown
Odd_Even_Sort_Serial,5.400,65536,8,Sorted-correctly: Unknown
Odd_Even_Sort_Serial,5.193,65536,1,Sorted-correctly: Unknown
Odd_Even_Sort_Serial,5.331,65536,2,Sorted-correctly: Unknown
Odd_Even_Sort_Serial,5.453,65536,4,Sorted-correctly: Unknown
Odd_Even_Sort_Serial,5.220,65536,8,Sorted-correctly: Unknown
Odd_Even_Sort_Serial,21.979,131072,1,Sorted-correctly: Unknown
Odd_Even_Sort_Serial,21.803,131072,2,Sorted-correctly: Unknown
Odd_Even_Sort_Serial,21.150,131072,4,Sorted-correctly: Unknown
Odd_Even_Sort_Serial,21.503,131072,8,Sorted-correctly: Unknown
Odd_Even_Sort_Serial,21.640,131072,1,Sorted-correctly: Unknown
Odd_Even_Sort_Serial,21.530,131072,2,Sorted-correctly: Unknown
Odd_Even_Sort_Serial,21.840,131072,4,Sorted-correctly: Unknown
Odd_Even_Sort_Serial,21.961,131072,8,Sorted-correctly: Unknown
Odd_Even_Sort_Serial,21.958,131072,1,Sorted-correctly: Unknown
Odd_Even_Sort_Serial,21.890,131072,2,Sorted-correctly: Unknown
Odd_Even_Sort_Serial,21.385,131072,4,Sorted-correctly: Unknown
Odd_Even_Sort_Serial,21.828,131072,8,Sorted-correctly: Unknown
Odd_Even_Sort_Serial,21.977,131072,1,Sorted-correctly: Unknown
Odd_Even_Sort_Serial,21.808,131072,2,Sorted-correctly: Unknown
Odd_Even_Sort_Serial,21.776,131072,4,Sorted-correctly: Unknown
Odd_Even_Sort_Serial,21.926,131072,8,Sorted-correctly: Unknown
Odd_Even_Sort_Serial,21.801,131072,1,Sorted-correctly: Unknown
Odd_Even_Sort_Serial,21.667,131072,2,Sorted-correctly: Unknown
Odd_Even_Sort_Serial,21.746,131072,4,Sorted-correctly: Unknown
Odd_Even_Sort_Serial,21.881,131072,8,Sorted-correctly: Unknown
Odd_Even_Sort_Serial,88.302,262144,1,Sorted-correctly: Unknown
Odd_Even_Sort_Serial,88.196,262144,2,Sorted-correctly: Unknown
Odd_Even_Sort_Serial,87.466,262144,4,Sorted-correctly: Unknown
Odd_Even_Sort_Serial,88.306,262144,8,Sorted-correctly: Unknown
Odd_Even_Sort_Serial,86.930,262144,1,Sorted-correctly: Unknown
Odd_Even_Sort_Serial,87.296,262144,2,Sorted-correctly: Unknown
Odd_Even_Sort_Serial,86.994,262144,4,Sorted-correctly: Unknown
Odd_Even_Sort_Serial,86.537,262144,8,Sorted-correctly: Unknown
Odd_Even_Sort_Serial,84.890,262144,1,Sorted-correctly: Unknown
Odd_Even_Sort_Serial,82.685,262144,2,Sorted-correctly: Unknown
Odd_Even_Sort_Serial,87.900,262144,4,Sorted-correctly: Unknown
Odd_Even_Sort_Serial,84.969,262144,8,Sorted-correctly: Unknown
Odd_Even_Sort_Serial,86.841,262144,1,Sorted-correctly: Unknown
Odd_Even_Sort_Serial,87.296,262144,2,Sorted-correctly: Unknown
Odd_Even_Sort_Serial,90.731,262144,4,Sorted-correctly: Unknown
Odd_Even_Sort_Serial,87.776,262144,8,Sorted-correctly: Unknown
Odd_Even_Sort_Serial,87.308,262144,1,Sorted-correctly: Unknown
Odd_Even_Sort_Serial,87.402,262144,2,Sorted-correctly: Unknown
Odd_Even_Sort_Serial,86.973,262144,4,Sorted-correctly: Unknown
Odd_Even_Sort_Serial,85.118,262144,8,Sorted-correctly: Unknown
