%!PS-Adobe-3.0 EPSF-3.0
%%BoundingBox: 0 0 997 513
%%Creator: yExport 1.5
%%Producer: org.freehep.graphicsio.ps.EPSGraphics2D Revision: 12753 
%%For: 
%%Title: 
%%CreationDate: Wednesday, January 17, 2018 1:49:03 PM CET
%%LanguageLevel: 3
%%EndComments
%%BeginProlog
100 dict dup begin

%
% File: org/freehep/graphicsio.ps/PSProlog.txt
% Author: Charles Loomis
%

% Redefinitions which save some space in the output file.  These are also
% the same as the PDF operators.
/q {gsave} def
/Q {grestore} def

/n {newpath} def
/m {moveto} def
/l {lineto} def
/c {curveto} def
/h {closepath} def

/re {4 -2 roll moveto
     dup 0 exch rlineto exch 0 rlineto
     neg 0 exch rlineto closepath} def

/f {fill} def
/f* {eofill} def
/F {gsave vg&FC fill grestore} def
/F* {gsave vg&FC eofill grestore} def

/s {closepath stroke} def
/S {stroke} def

/b {closepath gsave vg&FC fill grestore
    gsave stroke grestore newpath} def
/B {gsave vg&FC fill grestore gsave stroke grestore newpath} def
/b* {closepath gsave vg&FC eofill grestore
    gsave stroke grestore newpath} def
/B* {gsave vg&FC eofill grestore gsave stroke grestore newpath} def

/g {1 array astore /vg&fcolor exch def} def
/G {setgray} def
/k {4 array astore /vg&fcolor exch def} def
/K {setcmykcolor} def
/rg {3 array astore /vg&fcolor exch def} def
/RG {setrgbcolor} def

% Initialize the fill color.
0 0 0 rg

/vg&FC {mark vg&fcolor aload pop
        counttomark 1 eq {G} if
        counttomark 3 eq {RG} if
        counttomark 4 eq {K} if
        cleartomark } def

/vg&DFC {/vg&fcolor exch def} def

/vg&C {mark exch aload pop
       counttomark 1 eq {G} if
       counttomark 3 eq {RG} if
       counttomark 4 eq {K} if
       cleartomark } def

/w {setlinewidth} def
/j {setlinejoin} def
/J {setlinecap} def
/M {setmiterlimit} def
/d {setdash} def
/i {setflat} def

/W {clip} def
/W* {eoclip} def

% Setup the default graphics state.
% (black; 1 pt. linewidth; miter join; butt-ends; solid)
/defaultGraphicsState {0 g 1 w 0 j 0 J [] 0 d} def

% Emulation of the rectangle operators for PostScript implementations
% which do not implement all Level 2 features.  This is an INCOMPLETE
% emulation; only the "x y width height rect..." form is emulated.
/*rf {gsave newpath re fill grestore} def
/*rs {gsave newpath re stroke grestore} def
/*rc {newpath re clip} def
/rf  /rectfill where {pop /rectfill}{/*rf} ifelse load def
/rs  /rectstroke where {pop /rectstroke}{/*rs} ifelse load def
/rc  /rectclip where {pop /rectclip}{/*rc} ifelse load def

% Emulation of the selectfont operator.  This includes a 20% increase in
% the fontsize which is necessary to get sizes similar to the Java fonts.
/*sf {exch findfont exch
      dup type /arraytype eq {makefont}{scalefont} ifelse setfont} bind def
/sf /selectfont where {pop {1.2 mul selectfont}}{{1.2 mul *sf}} ifelse def

% Special version of stroke which allows the dash pattern to continue
% across path segments.  (This may be needed for PostScript although
% modern printers seem to do this correctly.)
/vg&stroke {
  currentdash pop length 0 eq
  {stroke}
  {
    currentdash /vg&doffset exch def pop
    flattenpath
    {m vg&resetdash}
    {2 copy
     currentpoint
     3 -1 roll sub dup mul
     3 1 roll sub dup mul
     add sqrt
     3 1 roll l
     currentdash 3 -1 roll add setdash}
     {}
     {h vg&resetdash}
     pathforall
     stroke
     vg&resetdash
  } ifelse
} def
/vg&resetdash {currentdash pop vg&doffset setdash} def

% Initialize variables for safety.
/delta 0 def
/xv 0 def  /yv 0 def  /width 0 def  /height 0 def

% Initialize to portrait INTERNATIONAL (Letter-height, A4-width) page.
/pw 595 def  /ph 791  def  /po true def /ftp false def

% Initialize margins to 20 points.
/ml 20 def  /mr 20 def  /mt 20 def  /mb 20 def

% Temporary matrices.
/smatrix 0 def  /nmatrix 0 def

% set page size (usage: <page width><page height> setpagesize)
/setpagesize {/ph exch def /pw exch def} def

% set page orientation (usage: portrait or landscape)
/portrait {/po true def} def
/landscape {/po false def} def

% force natural size for image (usage: naturalsize)
/naturalsize {/ftp false def} def

% resize image to fill page (usage: fittopage)
/fittopage {/ftp true def} def

% set margins of the page (usage: <left><bottom><top><right> setmargins)
/setmargins {/mr exch def /mt exch def /mb exch def /ml exch def} def

% set the graphic's size (usage: <width><height> setsize)
/setsize {/gh exch def /gw exch def} def

% set the graphic's origin (usage: <x0><y0> setorigin)
/setorigin {/gy exch def /gx exch def} def

% calculate image center
/imagecenter {pw ml sub mr sub 2 div ml add
              ph mt sub mb sub 2 div mb add} def

% calculate the necessary scaling
/imagescale {po {gw}{gh} ifelse pw ml sub mr sub div
             po {gh}{gw} ifelse ph mt sub mb sub div
             2 copy lt {exch} if pop
             ftp not {1 2 copy lt {exch} if pop} if
             1 exch div /sfactor exch def
             /gw gw sfactor mul def /gh gh sfactor mul def} def

% calculate image origin
/imageorigin {pw ml sub mr sub 2 div ml add
              po {gw}{gh} ifelse 2 div sub
              ph mt sub mb sub 2 div mb add
              po {gh}{gw} ifelse 2 div po {add}{sub} ifelse} def

% calculate the clipping origin
/cliporigin  {pw ml sub mr sub 2 div ml add
              po {gw}{gh} ifelse 2 div sub floor
              ph mt sub mb sub 2 div mb add
              po {gh}{gw} ifelse 2 div sub floor} def

% Set the clipping region to the bounding box.
/cliptobounds {cliporigin po {gw}{gh} ifelse 1 add
                          po {gh}{gw} ifelse 1 add rc} def

% set the base transformation matrix (usage: setbasematrix)
/setbasematrix {imageorigin translate
                po {0}{90} ifelse rotate
                sfactor sfactor neg scale
                /defaultmatrix matrix currentmatrix def} def

% The lower-right bias in drawing 1 pt. wide lines.
/bias  {q 0.5 0.5 translate} def
/unbias {Q} def

% Define the composite fonts used to print Unicode strings.
% Undefine particular values in an encoding array.
/vg&undef { {exch dup 3 -1 roll /.notdef put} forall } def
/vg&redef { {3 -1 roll dup 4 2 roll put} forall } def

% usage: key encoding basefontname vg&newbasefont font
/vg&newbasefont {
findfont dup length dict copy
  begin
    currentdict /FID undef
    /Encoding exch def
    dup /FontName exch def
    currentdict
  end
definefont
} def

% usage: key encoding basefontname vg&newskewedbasefont font
/vg&newskewedbasefont {
findfont dup length dict copy
  begin
    currentdict /FID undef
    /Encoding exch def
    dup /FontName exch def
    exch FontMatrix exch matrix concatmatrix /FontMatrix exch def
    currentdict
  end
definefont
} def

% usage: basekey suffix vg&nconcat name
/vg&nconcat {
  2 {dup length string cvs exch} repeat
  dup length 3 -1 roll dup length 3 -1 roll add string
  dup 0 4 -1 roll dup length 5 1 roll putinterval
  dup 4 -2 roll exch putinterval cvn
} def

%usage: fontname vg&skewmatrix matrix
/vg&skewmatrix {
findfont dup /FontInfo known
  {
    /FontInfo get dup /ItalicAngle known
    {
      [ 1 0 4 -1 roll /ItalicAngle get neg dup sin exch cos div 1 0 0 ]
    }
    {pop matrix} ifelse
  }
  {pop matrix} ifelse
} def

% usage: newfontname basefontname vg&newcompositefont --
/vg&newcompositefont {
/vg&fstyle exch def
/vg&bfont exch def
/vg&fname exch def
<<
/FontStyleBits vg&fstyle
/FontType 0
/FontMatrix matrix
/FontName vg&fname
/FMapType 2
/Encoding [ 0 1 255 {pop 6} for ]
          dup 16#00 0 put % Latin
          dup 16#03 1 put % Greek
          dup 16#20 2 put % Punctuation
          dup 16#21 3 put % Arrows
          dup 16#22 4 put % MathOps
          dup 16#27 5 put % Dingbats

/FDepVector [
vg&bfont /-UC-Latin vg&nconcat UCLatinEncoding
vg&bfont vg&newbasefont

vg&bfont vg&skewmatrix
vg&bfont /-UC-Greek vg&nconcat UCGreekEncoding
/Symbol vg&newskewedbasefont

vg&bfont /-UC-Punctuation vg&nconcat UCPunctuationEncoding
vg&bfont vg&newbasefont

/Arrows-UC findfont
/MathOps-UC findfont
/Dingbats-UC findfont
/Undefined-UC findfont ]
>>
vg&fname exch definefont pop
} def

% Null encoding vector (all elements set to .notdef)
/NullEncoding [ 256 {/.notdef} repeat ] def

% Unicode Latin encoding (unicode codes \u0000-\u00ff)
/UCLatinEncoding
  ISOLatin1Encoding dup length array copy
  dup 16#60 /grave put
  [ 16#90 16#91 16#92 16#93 16#94 16#95 16#96
    16#97 16#98 16#9a 16#9b 16#9d 16#9e 16#9f
  ] vg&undef
  def

% Unicode Greek encoding (unicode codes \u0370-\u03ff)
/UCGreekEncoding
  NullEncoding dup length array copy
  << 16#91 /Alpha    16#92 /Beta      16#93 /Gamma    16#94 /Delta
     16#95 /Epsilon  16#96 /Zeta      16#97 /Eta      16#98 /Theta
     16#99 /Iota     16#9a /Kappa     16#9b /Lambda   16#9c /Mu
     16#9d /Nu       16#9e /Xi        16#9f /Omicron  16#a0 /Pi
     16#a1 /Rho      16#a3 /Sigma     16#a4 /Tau      16#a5 /Upsilon
     16#a6 /Phi      16#a7 /Chi       16#a8 /Psi      16#a9 /Omega
     16#b1 /alpha    16#b2 /beta      16#b3 /gamma    16#b4 /delta
     16#b5 /epsilon  16#b6 /zeta      16#b7 /eta      16#b8 /theta
     16#b9 /iota     16#ba /kappa     16#bb /lambda   16#bc /mu
     16#bd /nu       16#be /xi        16#bf /omicron  16#c0 /pi
     16#c1 /rho      16#c2 /sigma1    16#c3 /sigma    16#c4 /tau
     16#c5 /upsilon  16#c6 /phi1      16#c7 /chi      16#c8 /psi
     16#c9 /omega    16#7e /semicolon 16#87 /dotmath  16#d1 /theta1
     16#d2 /Upsilon1 16#d5 /phi       16#d6 /omega1
  >> vg&redef
  def

% Unicode punctuation encoding (unicode codes \u2000-\u206f)
/UCPunctuationEncoding
  NullEncoding dup length array copy
  << 16#10 /hyphen          16#11 /hyphen              16#12 /endash
     16#13 /emdash          16#18 /quoteleft           16#19 /quoteright
     16#1a /quotesinglbase  16#1b /quotesingle         16#1c /quotedblleft
     16#1d /quotedblright   16#1e /quotedblbase        16#1f /quotedbl
     16#20 /dagger          16#21 /daggerdbl           16#22 /bullet
     16#24 /period          16#26 /ellipsis            16#27 /periodcentered
     16#30 /perthousand     16#44 /fraction
     16#70 /zerosuperior    16#74 /foursuperior        16#75 /fivesuperior
     16#76 /sixsuperior     16#77 /sevensuperior       16#78 /eightsuperior
     16#79 /ninesuperior    16#7b /hyphensuperior      16#7d /parenleftsuperior
     16#7e /parenrightsuperior
     16#80 /zeroinferior    16#84 /fourinferior        16#85 /fiveinferior
     16#81 /oneinferior     16#82 /twoinferior         16#83 /threeinferior
     16#86 /sixinferior     16#87 /seveninferior       16#88 /eightinferior
     16#89 /nineinferior    16#8b /hypheninferior      16#8d /parenleftinferior
     16#8e /parenrightinferior
  >> vg&redef
  def

% Unicode mathematical operators encoding (unicode codes \u2200-\u22ff)
/UCMathOpsEncoding
  NullEncoding dup length array copy
  << 16#00 /universal       16#02 /partialdiff         16#03 /existential
     16#05 /emptyset        16#06 /Delta               16#07 /gradient
     16#08 /element         16#09 /notelement          16#0b /suchthat
     16#0f /product         16#11 /summation           16#12 /minus
     16#15 /fraction        16#17 /asteriskmath        16#19 /bullet
     16#1a /radical         16#1d /proportional        16#1e /infinity
     16#20 /angle           16#23 /bar                 16#27 /logicaland
     16#28 /logicalor       16#29 /intersection        16#2a /union
     16#2b /integral        16#34 /therefore           16#36 /colon
     16#3c /similar         16#45 /congruent           16#48 /approxequal
     16#60 /notequal        16#61 /equivalence         16#64 /lessequal
     16#65 /greaterequal    16#82 /propersubset        16#83 /propersuperset
     16#86 /reflexsubset    16#87 /reflexsuperset      16#95 /circleplus
     16#97 /circlemultiply  16#a5 /perpendicular       16#03 /existential
     16#c0 /logicaland      16#c1 /logicalor           16#c2 /intersection
     16#c3 /union           16#c4 /diamond             16#c5 /dotmath
  >> vg&redef
  def

% Unicode arrows encoding (unicode codes \u2190-\u21ff)
% Also includes those "Letterlike" unicode characters
% which are available in the symbol font. (unicode codes \u2100-\u214f)
/UCArrowsEncoding
  NullEncoding dup length array copy
  << 16#11 /Ifraktur        16#1c /Rfraktur            16#22 /trademarkserif
     16#35 /aleph
     16#90 /arrowleft       16#91 /arrowup             16#92 /arrowright
     16#93 /arrowdown       16#94 /arrowboth           16#d0 /arrowdblleft
     16#d1 /arrowdblup      16#d2 /arrowdblright       16#d3 /arrowdbldown
     16#d4 /arrowdblboth
  >> vg&redef
  def

/ZapfDingbats findfont /Encoding get
dup length array copy /UCDingbatsEncoding exch def
16#20 1 16#7f {
  dup 16#20 sub exch
  UCDingbatsEncoding exch get
  UCDingbatsEncoding 3 1 roll put
} for
16#a0 1 16#ff {
  dup 16#40 sub exch
  UCDingbatsEncoding exch get
  UCDingbatsEncoding 3 1 roll put
} for
UCDingbatsEncoding [ 16#c0 1 16#ff {} for ] vg&undef
[ 16#00  16#05 16#0a 16#0b  16#28 16#4c 16#4e  16#53 16#54 16#55  16#57 16#5f
  16#60  16#68 16#69 16#6a  16#6b 16#6c 16#6d  16#6e 16#6f 16#70  16#71 16#72
  16#73  16#74 16#75 16#95  16#96 16#97 16#b0  16#bf
] vg&undef pop

% Define the base fonts which don't change.
/Undefined-UC NullEncoding       /Helvetica    vg&newbasefont pop
/MathOps-UC   UCMathOpsEncoding  /Symbol       vg&newbasefont pop
/Arrows-UC    UCArrowsEncoding   /Symbol       vg&newbasefont pop
/Dingbats-UC  UCDingbatsEncoding /ZapfDingbats vg&newbasefont pop

% Make the SansSerif composite fonts.
/SansSerif /Helvetica 16#00 vg&newcompositefont
/SansSerif-Bold /Helvetica-Bold 16#01 vg&newcompositefont
/SansSerif-Italic /Helvetica-Oblique 16#02 vg&newcompositefont
/SansSerif-BoldItalic /Helvetica-BoldOblique 16#03 vg&newcompositefont

% Make the Serif composite fonts.
/Serif /Times-Roman 16#00 vg&newcompositefont
/Serif-Bold /Times-Bold 16#01 vg&newcompositefont
/Serif-Italic /Times-Italic 16#02 vg&newcompositefont
/Serif-BoldItalic /Times-BoldItalic 16#03 vg&newcompositefont

% Make the Monospaced composite fonts.
/Monospaced /Courier 16#00 vg&newcompositefont
/Monospaced-Bold /Courier-Bold 16#01 vg&newcompositefont
/Monospaced-Italic /Courier-Oblique 16#02 vg&newcompositefont
/Monospaced-BoldItalic /Courier-BoldOblique 16#03 vg&newcompositefont

% Make the Dialog composite fonts.
/Dialog /Helvetica 16#00 vg&newcompositefont
/Dialog-Bold /Helvetica-Bold 16#01 vg&newcompositefont
/Dialog-Italic /Helvetica-Oblique 16#02 vg&newcompositefont
/Dialog-BoldItalic /Helvetica-BoldOblique 16#03 vg&newcompositefont

% Make the DialogInput composite fonts.
/DialogInput /Courier 16#00 vg&newcompositefont
/DialogInput-Bold /Courier-Bold 16#01 vg&newcompositefont
/DialogInput-Italic /Courier-Oblique 16#02 vg&newcompositefont
/DialogInput-BoldItalic /Courier-BoldOblique 16#03 vg&newcompositefont

% Make the Typewriter composite fonts (JDK 1.1 only).
/Typewriter /Courier 16#00 vg&newcompositefont
/Typewriter-Bold /Courier-Bold 16#01 vg&newcompositefont
/Typewriter-Italic /Courier-Oblique 16#02 vg&newcompositefont
/Typewriter-BoldItalic /Courier-BoldOblique 16#03 vg&newcompositefont


/cfontH {
 dup /fontsize exch def /SansSerif exch sf
 /vg&fontstyles [{cfontH} {cfontHB} {cfontHI} {cfontHBI}] def
} def
/cfontHB {
  dup /fontsize exch def /SansSerif-Bold exch sf
 /vg&fontstyles [{cfontH} {cfontHB} {cfontHI} {cfontHBI}] def
} def
/cfontHI {
 dup /fontsize exch def /SansSerif-Italic exch sf
 /vg&fontstyles [{cfontH} {cfontHB} {cfontHI} {cfontHBI}] def
} def
/cfontHBI {
 dup /fontsize exch def /SansSerif-BoldItalic exch sf
 /vg&fontstyles [{cfontH} {cfontHB} {cfontHI} {cfontHBI}] def
} def

/cfontT {
 dup /fontsize exch def /Serif exch sf
 /vg&fontstyles [{cfontT} {cfontTB} {cfontTI} {cfontTBI}] def
} def
/cfontTB {
 dup /fontsize exch def /Serif-Bold exch sf
 /vg&fontstyles [{cfontT} {cfontTB} {cfontTI} {cfontTBI}] def
} def
/cfontTI {
 dup /fontsize exch def /Serif-Italic exch sf
 /vg&fontstyles [{cfontT} {cfontTB} {cfontTI} {cfontTBI}] def
} def
/cfontTBI {
 dup /fontsize exch def /Serif-BoldItalic exch sf
 /vg&fontstyles [{cfontT} {cfontTB} {cfontTI} {cfontTBI}] def
} def

/cfontC {
 dup /fontsize exch def /Typewriter exch sf
 /vg&fontstyles [{cfontC} {cfontCB} {cfontCI} {cfontCBI}] def
} def
/cfontCB {
 dup /fontsize exch def /Typewriter-Bold exch sf
 /vg&fontstyles [{cfontC} {cfontCB} {cfontCI} {cfontCBI}] def
} def
/cfontCI {
 dup /fontsize exch def /Typewriter-Italic exch sf
 /vg&fontstyles [{cfontC} {cfontCB} {cfontCI} {cfontCBI}] def
} def
/cfontCBI {
 dup /fontsize exch def /Typewriter-BoldItalic exch sf
 /vg&fontstyles [{cfontC} {cfontCB} {cfontCI} {cfontCBI}] def
} def

% Darken or lighten the current color.
/darken {0.7 exch exp 3 copy
         q 4 -1 roll vg&C
         currentrgbcolor 3 {4 -2 roll mul} repeat
         3 array astore Q} def

/displayColorMap
<< /Cr   [1.00 0.00 0.00]       /Cg     [0.00 1.00 0.00]
   /Cb   [0.00 0.00 1.00]       /Cc     [1.00 0.00 0.00 0.00]
   /Cm   [0.00 1.00 0.00 0.00]  /Cy     [0.00 0.00 1.00 0.00]
   /Co   [1.00 0.78 0.00]       /Cp     [1.00 0.67 0.67]
   /Cw   [1   ]                 /Cgrl   [0.75]
   /Cgr  [0.50]                 /Cgrd   [0.25]
   /Ck   [0   ]
   /CGr  [1.00 0.00 0.00]       /CGg    [0.00 1.00 0.00]
   /CGb  [0.00 0.00 1.00]       /CGc    [1.00 0.00 0.00 0.00]
   /CGm  [0.00 1.00 0.00 0.00]  /CGy    [0.00 0.00 1.00 0.00]
   /CGo  [1.00 0.78 0.00]       /CGp    [1.00 0.67 0.67]
   /CGw  [1   ]                 /CGgrl  [0.75]
   /CGgr [0.50]                 /CGgrd  [0.25]
   /CGk  [0   ]
   /CIr  [1.00 0.00 0.00]       /CIg    [0.00 1.00 0.00]
   /CIb  [0.00 0.00 1.00]       /CIc    [1.00 0.00 0.00 0.00]
   /CIm  [0.00 1.00 0.00 0.00]  /CIy    [0.00 0.00 1.00 0.00]
   /CIo  [1.00 0.78 0.00]       /CIp    [1.00 0.67 0.67]
   /CIw  [1   ]                 /CIgrl  [0.75]
   /CIgr [0.50]                 /CIgrd  [0.25]
   /CIk  [0   ]
>> def

/printColorMap
<< /Cr   [1.00 0.33 0.33]       /Cg     [0.33 1.00 0.33]
   /Cb   [0.33 0.33 1.00]       /Cc     [1.00 0.00 0.00 0.00]
   /Cm   [0.00 1.00 0.00 0.00]  /Cy     [0.00 0.00 1.00 0.00]
   /Co   [1.00 0.78 0.00]       /Cp     [1.00 0.67 0.67]
   /Cw   [1   ]                 /Cgrl   [0.75]
   /Cgr  [0.50]                 /Cgrd   [0.25]
   /Ck   [0   ]
   /CGr  [1.00 0.33 0.33]       /CGg    [0.33 1.00 0.33]
   /CGb  [0.33 0.33 1.00]       /CGc    [1.00 0.00 0.00 0.00]
   /CGm  [0.00 1.00 0.00 0.00]  /CGy    [0.00 0.00 1.00 0.00]
   /CGo  [1.00 0.78 0.00]       /CGp    [1.00 0.67 0.67]
   /CGw  [1   ]                 /CGgrl  [0.75]
   /CGgr [0.50]                 /CGgrd  [0.25]
   /CGk  [0   ]
   /CIr  [1.00 0.33 0.33]       /CIg    [0.33 1.00 0.33]
   /CIb  [0.33 0.33 1.00]       /CIc    [1.00 0.00 0.00 0.00]
   /CIm  [0.00 1.00 0.00 0.00]  /CIy    [0.00 0.00 1.00 0.00]
   /CIo  [1.00 0.78 0.00]       /CIp    [1.00 0.67 0.67]
   /CIw  [1   ]                 /CIgrl  [0.75]
   /CIgr [0.50]                 /CIgrd  [0.25]
   /CIk  [0   ]
>> def

/grayColorMap
<< /Cr   [0   ]                 /Cg     [0   ]
   /Cb   [0   ]                 /Cc     [0   ]
   /Cm   [0   ]                 /Cy     [0   ]
   /Co   [0   ]                 /Cp     [0   ]
   /Cw   [0   ]                 /Cgrl   [0   ]
   /Cgr  [0   ]                 /Cgrd   [0   ]
   /Ck   [0   ]
   /CGr  [0.75]                 /CGg    [1   ]
   /CGb  [0.50]                 /CGc    [0.75]
   /CGm  [0.50]                 /CGy    [1   ]
   /CGo  [0.75]                 /CGp    [1   ]
   /CGw  [0   ]                 /CGgrl  [0.25]
   /CGgr [0.50]                 /CGgrd  [0.75]
   /CGk  [1   ]
   /CIr  [1   ]                 /CIg    [1   ]
   /CIb  [1   ]                 /CIc    [1   ]
   /CIm  [1   ]                 /CIy    [1   ]
   /CIo  [1   ]                 /CIp    [1   ]
   /CIw  [1   ]                 /CIgrl  [1   ]
   /CIgr [1   ]                 /CIgrd  [1   ]
   /CIk  [1   ]
>> def

/bwColorMap
<< /Cr   [0   ]                 /Cg     [0   ]
   /Cb   [0   ]                 /Cc     [0   ]
   /Cm   [0   ]                 /Cy     [0   ]
   /Co   [0   ]                 /Cp     [0   ]
   /Cw   [0   ]                 /Cgrl   [0   ]
   /Cgr  [0   ]                 /Cgrd   [0   ]
   /Ck   [0   ]
   /CGr  [1   ]                 /CGg    [1   ]
   /CGb  [1   ]                 /CGc    [1   ]
   /CGm  [1   ]                 /CGy    [1   ]
   /CGo  [1   ]                 /CGp    [1   ]
   /CGw  [0   ]                 /CGgrl  [1   ]
   /CGgr [1   ]                 /CGgrd  [1   ]
   /CGk  [1   ]
   /CIr  [1   ]                 /CIg    [1   ]
   /CIb  [1   ]                 /CIc    [1   ]
   /CIm  [1   ]                 /CIy    [1   ]
   /CIo  [1   ]                 /CIp    [1   ]
   /CIw  [1   ]                 /CIgrl  [1   ]
   /CIgr [1   ]                 /CIgrd  [1   ]
   /CIk  [1   ]
>> def

%
% The following routines handle the alignment of and printing of
% tagged strings.
%

% Predefine the bounding box values.
/bbllx 0 def /bblly 0 def /bburx 0 def /bbury 0 def

% This routine pops the first unicode character off of a string and returns
% the remainder of the string, the character code of first character,
% and a "true" if the string was non-zero length.
% <string>      popfirst <remaining string> <true>
% <null string> popfirst <false>
/popfirst {
  dup length 1 gt
    {dup 0 get /vg&fbyte exch def
     dup 1 get /vg&cbyte exch def
     dup length 2 sub 2 exch getinterval true}
    {pop false} ifelse
} def

% This routine shows a single unicode character given the font and
% character codes.
% <font code> <char code> unicharshow --
/unicharshow {
  2 string
  dup 0 5 -1 roll put
  dup 1 4 -1 roll put
  internalshow
} def

% This is an internal routine to alternate between determining the
% bounding box for stringsize and showing the string for recshow.
% <string> internalshow --
/internalshow {show} def

% This is an internal routine to alternate between determining the
% bounding box for stringsize and stroking various ornaments.
% <string> internalstroke --
/internalstroke {S} def

% Sets up internalshow to use the null device to determine string size.
% -- nullinternalshow --
/nullinternalshow {/internalshow {false charpath flattenpath
                                  pathbbox updatebbox} def} def

% Sets up internalstroke to use the null device to determine string size.
% -- nullinternalstroke --
/nullinternalstroke {
 /internalstroke {flattenpath pathbbox updatebbox} def} def

% This routine tests to see if the character code matches the first
% character of a string.
% <char code> <string> testchar <char code> <true or false>
/testchar {exch dup 3 -1 roll 0 get eq} def

% Raise the text baseline for superscripts.
% -- raise --
/raise {
  0 fontsize 2 div rmoveto
  /fontsize fontsize 2 mul 3 div def
  currentfont /FontName get fontsize sf
} def

% Un-raise the text baseline for superscripts.
% -- unraise --
/unraise {
  /fontsize fontsize 1.5 mul def
  0 fontsize 2 div neg rmoveto
} def

% Lower the text baseline for subscripts.
% -- lower --
/lower {
  0 fontsize 3 div neg rmoveto
  /fontsize fontsize 2 mul 3 div def
  currentfont /FontName get fontsize sf
} def

% Un-lower the text baseline for subscripts.
% -- unlower --
/unlower {
  /fontsize fontsize 1.5 mul def
  0 fontsize 3 div rmoveto
} def

% Compare the top two elements on the stack and leave only the
% larger one.
/maxval {2 copy gt {pop} {exch pop} ifelse} def

% Tokenize a string.  Do not use the usual PostScript token because
% parentheses will not be interpreted correctly because of rescanning
% of the string.
/vg&token {/vg&string exch def /vg&index -1 def /vg&level 0 def
0 2 vg&string length 2 sub {
  dup dup 1 add exch vg&string exch get 8 bitshift vg&string 3 -1 roll get or
  dup 16#f0fe eq {pop 1}{16#f0ff eq {-1}{0} ifelse} ifelse
  /vg&level exch vg&level add def
  vg&level 0 eq {/vg&index exch def exit} if pop
} for
vg&index 0 ge {
  vg&string vg&index 2 add dup vg&string length exch sub getinterval
  vg&index 2 gt {vg&string 2 vg&index 2 sub getinterval}{()} ifelse
  true}
{false} ifelse
} bind def

% Recursively show an unicode string.
% <string> recshow --
/recshow {
  popfirst
  {
    % Test to see if this is a string attribute.
    vg&fbyte 16#f0 and 16#e0 eq
    {
      q

      % Font style.
      currentfont dup /FontStyleBits known {/FontStyleBits get}{pop 0} ifelse
      vg&cbyte or vg&fontstyles exch get fontsize exch exec

      vg&token pop recshow currentpoint Q m recshow
    }
    {
      vg&fbyte 16#F8 and 16#F0 eq {

        % Superscript and/or subscript.
        vg&cbyte 16#00 eq {
          vg&token pop exch vg&token pop 3 -1 roll
          q raise recshow unraise currentpoint pop Q exch
          q lower recshow unlower currentpoint pop Q
          maxval currentpoint exch pop m recshow } if

        % Strikeout.
        vg&cbyte 16#01 eq {
          vg&token pop currentpoint 3 -1 roll recshow
          q 0 J vg&underline vg&uthick w
          currentpoint 4 -2 roll fontsize 3 div add moveto
          fontsize 3 div add lineto internalstroke Q
          recshow} if

        % Underline.
        vg&cbyte 16#02 eq {
          vg&token pop currentpoint 3 -1 roll recshow
          q 0 J vg&underline vg&uthick w
          currentpoint 4 -2 roll vg&uoffset add moveto
          vg&uoffset add lineto internalstroke Q
          recshow} if

        % Dashed underline.
        vg&cbyte 16#03 eq {
          vg&token pop currentpoint 3 -1 roll recshow
          q 0 J [ vg&uthick 5 mul vg&uthick 2 mul] 0 d
          vg&underline vg&uthick w
          currentpoint 4 -2 roll vg&uoffset add moveto
          vg&uoffset add lineto internalstroke Q
          recshow} if

        % Dotted underline.
        vg&cbyte 16#04 eq {
          vg&token pop currentpoint 3 -1 roll recshow
          q 1 J [ 0 vg&uthick 3 mul] 0 d
          vg&underline vg&uthick w
          currentpoint 4 -2 roll vg&uoffset add moveto
          vg&uoffset add lineto internalstroke Q
          recshow} if

        % Thick underline.
        vg&cbyte 16#05 eq {
          vg&token pop currentpoint 3 -1 roll recshow
          q 0 J vg&underline vg&uthick 2 mul w
          currentpoint 4 -2 roll vg&uoffset vg&uthick 2 div sub add moveto
          vg&uoffset vg&uthick 2 div sub add lineto internalstroke Q
          recshow} if

        % Gray thick underline.
        vg&cbyte 16#06 eq {
          vg&token pop currentpoint 3 -1 roll recshow
          q 0 J vg&underline vg&uthick 2 mul w 0.5 setgray
          currentpoint 4 -2 roll vg&uoffset vg&uthick 2 div sub add moveto
          vg&uoffset vg&uthick 2 div sub add lineto internalstroke Q
          recshow} if

        % Overbar.
        vg&cbyte 16#07 eq {
          vg&token pop dup stringsize relative 4 1 roll pop pop exch
          3 -1 roll recshow
          q 0 J vg&underline vg&uthick w
          vg&uoffset neg add dup currentpoint pop exch m l internalstroke Q
          recshow} if
      }
      {
        vg&fbyte vg&cbyte unicharshow recshow
      } ifelse
    } ifelse
  } if
} def

% Get the underline position and thickness from the current font.
/vg&underline {

currentfont dup /FontType get 0 eq {/FDepVector get 0 get} if
dup dup /FontInfo known {
  /FontInfo get dup
  dup /UnderlinePosition known {
    /UnderlinePosition get /vg&uoffset exch def
  }
  {
    pop /vg&uoffset 0 def
  } ifelse
  dup /UnderlineThickness known {
    /UnderlineThickness get /vg&uthick exch def
  }
  {
    pop /vg&uthick 0 def
  } ifelse
}
{
  pop /vg&uoffset 0 def /vg&uthick 0 def
} ifelse
/FontMatrix get
currentfont dup /FontType get 0 eq
{/FontMatrix get matrix concatmatrix}{pop} ifelse
dup 0 vg&uoffset 3 -1 roll transform /vg&uoffset exch def pop
0 vg&uthick 3 -1 roll transform /vg&uthick exch def pop
} def

% Make a frame with the coordinates on the stack.
% <llx> <lly> <urx> <ury> frame --
/frame {4 copy m 3 1 roll exch l 4 -2 roll l l h} def

% Resets the accumulated bounding box to a degenerate box at the
% current point.
% -- resetbbox --
/resetbbox {
  currentpoint 2 copy
  /bbury exch def
  /bburx exch def
  /bblly exch def
  /bbllx exch def
} def

% Update the accumulated bounding box.
% <llx'> <lly'> <urx'> <ury'> updatebbox --
/updatebbox {
  dup bbury gt {/bbury exch def} {pop} ifelse
  dup bburx gt {/bburx exch def} {pop} ifelse
  dup bblly lt {/bblly exch def} {pop} ifelse
  dup bbllx lt {/bbllx exch def} {pop} ifelse
} def

% Set the bounding box to the values on the stack.
% <llx'> <lly'> <urx'> <ury'> updatebbox --
/restorebbox {
  /bbury exch def /bburx exch def /bblly exch def /bbllx exch def
} def

% Push the accumulated bounding box onto the stack.
% -- pushbbox <llx> <lly> <urx> <ury>
/pushbbox {bbllx bblly bburx bbury} def

% Make the relative bounding box relative to the currentpoint.
% <llx'> <lly'> <urx'> <ury'> inflate <llx> <lly> <urx> <ury>
/inflate {
  2 {fontsize 0.2 mul add 4 1 roll} repeat
  2 {fontsize 0.2 mul sub 4 1 roll} repeat
} def

% Make the relative bounding box relative to the currentpoint.
% <llx'> <lly'> <urx'> <ury'> relative <llx> <lly> <urx> <ury>
/relative {
  currentpoint 3 -1 roll add 3 1 roll add exch 4 2 roll
  currentpoint 3 -1 roll add 3 1 roll add exch 4 2 roll
} def

% Returns the size of a string appropriate for recshow.
% <string> stringsize <llx> <lly> <urx> <ury>
/stringsize {
  pushbbox /internalshow load /internalstroke load 7 -1 roll
  q
  nulldevice 0 0 m
  nullinternalshow nullinternalstroke
  resetbbox
  recshow
  /internalstroke exch def /internalshow exch def
  pushbbox 8 -4 roll restorebbox
  Q
} def

% Calculate values for string positioning.
/calcval {4 copy
  3 -1 roll sub /widy exch def sub neg /widx exch def
  pop pop /dy exch def /dx exch def} def

% Utilities to position a string.
% First letter (U=upper, C=center, B=baseline, L=lower)
% Second letter (L=left, C=center, R=right)
/align [
{calcval dx neg widy dy add neg rmoveto} % UL
{calcval dx neg widy 2 div dy add neg rmoveto} % CL
{calcval dx neg 0 rmoveto} % BL
{calcval dx neg dy neg rmoveto} % LL
{calcval widx dx add neg widy dy add neg rmoveto} % UR
{calcval widx dx add neg widy 2 div dy add neg rmoveto} % CR
{calcval widx dx add neg 0 rmoveto} % BR
{calcval widx dx add neg dy neg rmoveto} % LR
{calcval widx 2 div dx add neg widy dy add neg rmoveto} % UC
{calcval widx 2 div dx add neg widy 2 div dy add neg rmoveto} % CC
{calcval widx 2 div dx add neg 0 rmoveto} % BC
{calcval widx 2 div dx add neg dy neg rmoveto} % LC
] def

/vg&str {m q 1 -1 scale dup stringsize 4 copy align 11 -1 roll get exec
         q inflate relative frame exch exec Q recshow Q} def

end /procDict exch def
%%EndProlog

%%BeginSetup
save
procDict begin
printColorMap begin
997 513 setpagesize
0 0 0 0 setmargins
0 0 setorigin
997 513 setsize
naturalsize
portrait
imagescale
cliptobounds
setbasematrix
/Helvetica 10 sf
defaultGraphicsState
%%EndSetup

0.00000 0.00000 0.00000 RG
[ 1.00000 0.00000 0.00000 1.00000 0.00000 0.00000 ] defaultmatrix matrix concatmatrix setmatrix
cliprestore
1.00000 1.00000 1.00000 RG
newpath
0.00000 0.00000 m
997.000 0.00000 l
997.000 513.000 l
0.00000 513.000 l
0.00000 0.00000 l
h
f
0.00000 0.00000 0.00000 RG
0.00000 0.00000 0.00000 RG
[ 1.00000 0.00000 0.00000 1.00000 0.00000 0.00000 ] defaultmatrix matrix concatmatrix setmatrix
cliprestore
1.00000 1.00000 1.00000 RG
newpath
0.00000 0.00000 m
997.000 0.00000 l
997.000 513.000 l
0.00000 513.000 l
0.00000 0.00000 l
h
f
0.00000 0.00000 0.00000 RG
0 0 997 513 rc
q
[ 1.00000 0.00000 0.00000 1.00000 0.00000 0.00000 ] concat
[ 1.00000 0.00000 0.00000 1.00000 -145.000 -159.000 ] concat
1.00000 1.00000 1.00000 RG
newpath
145.000 159.000 m
1142.00 159.000 l
1142.00 672.000 l
145.000 672.000 l
145.000 159.000 l
h
f
0.00000 0.00000 0.00000 RG
[ 1.00000 0.00000 0.00000 1.00000 -145.000 -159.000 ] defaultmatrix matrix concatmatrix setmatrix
[ 1.00000 0.00000 0.00000 1.00000 -145.000 -159.000 ] defaultmatrix matrix concatmatrix setmatrix
[ 1.00000 0.00000 0.00000 1.00000 0.00000 0.00000 ] defaultmatrix matrix concatmatrix setmatrix
[ 1.00000 0.00000 0.00000 1.00000 -145.000 -159.000 ] defaultmatrix matrix concatmatrix setmatrix
0 J
1.45000 M
0.00000 .800000 1.00000 RG
newpath
651.800 181.000 m
651.800 622.000 l
651.800 624.209 653.591 626.000 655.800 626.000  c
1125.00 626.000 l
1127.21 626.000 1129.00 624.209 1129.00 622.000  c
1129.00 181.000 l
1129.00 178.791 1127.21 177.000 1125.00 177.000  c
655.800 177.000 l
653.591 177.000 651.800 178.791 651.800 181.000  c
h
S
2 J
10.0000 M
0 J
1.45000 M
newpath
633.288 397.873 m
633.288 401.170 l
634.773 401.170 l
635.325 401.170 635.752 401.027 636.054 400.740  c
636.356 400.454 636.507 400.045 636.507 399.514  c
636.507 398.993 636.356 398.589 636.054 398.303  c
635.752 398.016 635.325 397.873 634.773 397.873  c
633.288 397.873 l
h
632.101 396.904 m
634.773 396.904 l
635.762 396.904 636.507 397.126 637.007 397.568  c
637.507 398.011 637.757 398.660 637.757 399.514  c
637.757 400.378 637.507 401.032 637.007 401.475  c
636.507 401.917 635.762 402.139 634.773 402.139  c
633.288 402.139 l
633.288 405.654 l
632.101 405.654 l
632.101 396.904 l
h
639.650 404.654 m
641.587 404.654 l
641.587 397.982 l
639.478 398.404 l
639.478 397.326 l
641.571 396.904 l
642.759 396.904 l
642.759 404.654 l
644.696 404.654 l
644.696 405.654 l
639.650 405.654 l
639.650 404.654 l
h
f
2 J
10.0000 M
0.00000 0.00000 0.00000 RG
0 J
1.45000 M
0.00000 .800000 1.00000 RG
newpath
330.600 180.500 m
330.600 382.000 l
330.600 384.209 332.391 386.000 334.600 386.000  c
529.100 386.000 l
531.309 386.000 533.100 384.209 533.100 382.000  c
533.100 180.500 l
533.100 178.291 531.309 176.500 529.100 176.500  c
334.600 176.500 l
332.391 176.500 330.600 178.291 330.600 180.500  c
h
S
2 J
10.0000 M
0 J
1.45000 M
newpath
312.088 277.623 m
312.088 280.920 l
313.573 280.920 l
314.125 280.920 314.552 280.777 314.854 280.490  c
315.156 280.204 315.307 279.795 315.307 279.264  c
315.307 278.743 315.156 278.339 314.854 278.053  c
314.552 277.766 314.125 277.623 313.573 277.623  c
312.088 277.623 l
h
310.901 276.654 m
313.573 276.654 l
314.562 276.654 315.307 276.876 315.807 277.318  c
316.307 277.761 316.557 278.410 316.557 279.264  c
316.557 280.128 316.307 280.782 315.807 281.225  c
315.307 281.667 314.562 281.889 313.573 281.889  c
312.088 281.889 l
312.088 285.404 l
310.901 285.404 l
310.901 276.654 l
h
318.450 284.404 m
320.387 284.404 l
320.387 277.732 l
318.278 278.154 l
318.278 277.076 l
320.371 276.654 l
321.559 276.654 l
321.559 284.404 l
323.496 284.404 l
323.496 285.404 l
318.450 285.404 l
318.450 284.404 l
h
f
2 J
10.0000 M
0.00000 0.00000 0.00000 RG
0 J
1.45000 M
.600000 .800000 0.00000 RG
newpath
330.600 420.000 m
330.600 621.500 l
330.600 623.709 332.391 625.500 334.600 625.500  c
529.100 625.500 l
531.309 625.500 533.100 623.709 533.100 621.500  c
533.100 420.000 l
533.100 417.791 531.309 416.000 529.100 416.000  c
334.600 416.000 l
332.391 416.000 330.600 417.791 330.600 420.000  c
h
S
2 J
10.0000 M
0 J
1.45000 M
newpath
312.088 517.123 m
312.088 520.420 l
313.573 520.420 l
314.125 520.420 314.552 520.277 314.854 519.990  c
315.156 519.704 315.307 519.295 315.307 518.764  c
315.307 518.243 315.156 517.839 314.854 517.553  c
314.552 517.266 314.125 517.123 313.573 517.123  c
312.088 517.123 l
h
310.901 516.154 m
313.573 516.154 l
314.562 516.154 315.307 516.376 315.807 516.818  c
316.307 517.261 316.557 517.910 316.557 518.764  c
316.557 519.628 316.307 520.282 315.807 520.725  c
315.307 521.167 314.562 521.389 313.573 521.389  c
312.088 521.389 l
312.088 524.904 l
310.901 524.904 l
310.901 516.154 l
h
321.840 520.186 m
322.403 520.311 322.843 520.563 323.161 520.943  c
323.478 521.324 323.637 521.795 323.637 522.357  c
323.637 523.222 323.340 523.891 322.746 524.365  c
322.153 524.839 321.309 525.076 320.215 525.076  c
319.851 525.076 319.473 525.040 319.082 524.967  c
318.692 524.894 318.293 524.785 317.887 524.639  c
317.887 523.498 l
318.210 523.686 318.567 523.829 318.957 523.928  c
319.348 524.027 319.757 524.076 320.184 524.076  c
320.924 524.076 321.489 523.930 321.879 523.639  c
322.270 523.347 322.465 522.920 322.465 522.357  c
322.465 521.847 322.283 521.446 321.918 521.154  c
321.554 520.863 321.054 520.717 320.418 520.717  c
319.387 520.717 l
319.387 519.748 l
320.465 519.748 l
321.038 519.748 321.481 519.631 321.793 519.396  c
322.106 519.162 322.262 518.826 322.262 518.389  c
322.262 517.941 322.103 517.597 321.786 517.357  c
321.468 517.118 321.012 516.998 320.418 516.998  c
320.085 516.998 319.733 517.032 319.364 517.100  c
318.994 517.167 318.585 517.274 318.137 517.420  c
318.137 516.373 l
318.595 516.248 319.020 516.154 319.411 516.092  c
319.801 516.029 320.168 515.998 320.512 515.998  c
321.418 515.998 322.132 516.201 322.653 516.607  c
323.174 517.014 323.434 517.566 323.434 518.264  c
323.434 518.753 323.296 519.165 323.020 519.498  c
322.744 519.831 322.351 520.061 321.840 520.186  c
h
f
2 J
10.0000 M
0.00000 0.00000 0.00000 RG
0 J
1.45000 M
0.00000 .800000 1.00000 RG
newpath
205.700 180.500 m
205.700 262.000 l
205.700 264.209 207.491 266.000 209.700 266.000  c
231.700 266.000 l
233.909 266.000 235.700 264.209 235.700 262.000  c
235.700 180.500 l
235.700 178.291 233.909 176.500 231.700 176.500  c
209.700 176.500 l
207.491 176.500 205.700 178.291 205.700 180.500  c
h
S
2 J
10.0000 M
0 J
1.45000 M
newpath
187.188 217.623 m
187.188 220.920 l
188.673 220.920 l
189.225 220.920 189.652 220.777 189.954 220.490  c
190.256 220.204 190.407 219.795 190.407 219.264  c
190.407 218.743 190.256 218.339 189.954 218.053  c
189.652 217.766 189.225 217.623 188.673 217.623  c
187.188 217.623 l
h
186.001 216.654 m
188.673 216.654 l
189.662 216.654 190.407 216.876 190.907 217.318  c
191.407 217.761 191.657 218.410 191.657 219.264  c
191.657 220.128 191.407 220.782 190.907 221.225  c
190.407 221.667 189.662 221.889 188.673 221.889  c
187.188 221.889 l
187.188 225.404 l
186.001 225.404 l
186.001 216.654 l
h
193.550 224.404 m
195.487 224.404 l
195.487 217.732 l
193.378 218.154 l
193.378 217.076 l
195.471 216.654 l
196.659 216.654 l
196.659 224.404 l
198.596 224.404 l
198.596 225.404 l
193.550 225.404 l
193.550 224.404 l
h
f
2 J
10.0000 M
0.00000 0.00000 0.00000 RG
0 J
1.45000 M
1.00000 .600000 0.00000 RG
newpath
205.700 300.000 m
205.700 381.500 l
205.700 383.709 207.491 385.500 209.700 385.500  c
231.700 385.500 l
233.909 385.500 235.700 383.709 235.700 381.500  c
235.700 300.000 l
235.700 297.791 233.909 296.000 231.700 296.000  c
209.700 296.000 l
207.491 296.000 205.700 297.791 205.700 300.000  c
h
S
2 J
10.0000 M
0 J
1.45000 M
newpath
187.188 337.123 m
187.188 340.420 l
188.673 340.420 l
189.225 340.420 189.652 340.277 189.954 339.990  c
190.256 339.704 190.407 339.295 190.407 338.764  c
190.407 338.243 190.256 337.839 189.954 337.553  c
189.652 337.266 189.225 337.123 188.673 337.123  c
187.188 337.123 l
h
186.001 336.154 m
188.673 336.154 l
189.662 336.154 190.407 336.376 190.907 336.818  c
191.407 337.261 191.657 337.910 191.657 338.764  c
191.657 339.628 191.407 340.282 190.907 340.725  c
190.407 341.167 189.662 341.389 188.673 341.389  c
187.188 341.389 l
187.188 344.904 l
186.001 344.904 l
186.001 336.154 l
h
194.362 343.904 m
198.503 343.904 l
198.503 344.904 l
192.940 344.904 l
192.940 343.904 l
193.388 343.446 194.000 342.824 194.776 342.037  c
195.552 341.251 196.039 340.743 196.237 340.514  c
196.623 340.097 196.891 339.740 197.042 339.443  c
197.193 339.146 197.268 338.857 197.268 338.576  c
197.268 338.107 197.104 337.727 196.776 337.436  c
196.448 337.144 196.024 336.998 195.503 336.998  c
195.128 336.998 194.735 337.061 194.323 337.186  c
193.912 337.311 193.471 337.508 193.003 337.779  c
193.003 336.576 l
193.482 336.389 193.927 336.245 194.339 336.146  c
194.750 336.048 195.128 335.998 195.471 335.998  c
196.378 335.998 197.102 336.225 197.643 336.678  c
198.185 337.131 198.456 337.738 198.456 338.498  c
198.456 338.852 198.388 339.191 198.253 339.514  c
198.117 339.837 197.873 340.217 197.518 340.654  c
197.414 340.769 197.102 341.097 196.581 341.639  c
196.060 342.180 195.320 342.936 194.362 343.904  c
h
f
2 J
10.0000 M
0.00000 0.00000 0.00000 RG
0 J
1.45000 M
.600000 .800000 0.00000 RG
newpath
205.700 419.500 m
205.700 501.000 l
205.700 503.209 207.491 505.000 209.700 505.000  c
231.700 505.000 l
233.909 505.000 235.700 503.209 235.700 501.000  c
235.700 419.500 l
235.700 417.291 233.909 415.500 231.700 415.500  c
209.700 415.500 l
207.491 415.500 205.700 417.291 205.700 419.500  c
h
S
2 J
10.0000 M
0 J
1.45000 M
newpath
187.188 456.623 m
187.188 459.920 l
188.673 459.920 l
189.225 459.920 189.652 459.777 189.954 459.490  c
190.256 459.204 190.407 458.795 190.407 458.264  c
190.407 457.743 190.256 457.339 189.954 457.053  c
189.652 456.766 189.225 456.623 188.673 456.623  c
187.188 456.623 l
h
186.001 455.654 m
188.673 455.654 l
189.662 455.654 190.407 455.876 190.907 456.318  c
191.407 456.761 191.657 457.410 191.657 458.264  c
191.657 459.128 191.407 459.782 190.907 460.225  c
190.407 460.667 189.662 460.889 188.673 460.889  c
187.188 460.889 l
187.188 464.404 l
186.001 464.404 l
186.001 455.654 l
h
196.940 459.686 m
197.503 459.811 197.943 460.063 198.261 460.443  c
198.578 460.824 198.737 461.295 198.737 461.857  c
198.737 462.722 198.440 463.391 197.846 463.865  c
197.253 464.339 196.409 464.576 195.315 464.576  c
194.951 464.576 194.573 464.540 194.182 464.467  c
193.792 464.394 193.393 464.285 192.987 464.139  c
192.987 462.998 l
193.310 463.186 193.667 463.329 194.057 463.428  c
194.448 463.527 194.857 463.576 195.284 463.576  c
196.024 463.576 196.589 463.430 196.979 463.139  c
197.370 462.847 197.565 462.420 197.565 461.857  c
197.565 461.347 197.383 460.946 197.018 460.654  c
196.654 460.363 196.154 460.217 195.518 460.217  c
194.487 460.217 l
194.487 459.248 l
195.565 459.248 l
196.138 459.248 196.581 459.131 196.893 458.896  c
197.206 458.662 197.362 458.326 197.362 457.889  c
197.362 457.441 197.203 457.097 196.886 456.857  c
196.568 456.618 196.112 456.498 195.518 456.498  c
195.185 456.498 194.833 456.532 194.464 456.600  c
194.094 456.667 193.685 456.774 193.237 456.920  c
193.237 455.873 l
193.695 455.748 194.120 455.654 194.511 455.592  c
194.901 455.529 195.268 455.498 195.612 455.498  c
196.518 455.498 197.232 455.701 197.753 456.107  c
198.274 456.514 198.534 457.066 198.534 457.764  c
198.534 458.253 198.396 458.665 198.120 458.998  c
197.844 459.331 197.451 459.561 196.940 459.686  c
h
f
2 J
10.0000 M
0.00000 0.00000 0.00000 RG
0 J
1.45000 M
.800000 .600000 1.00000 RG
newpath
205.700 540.250 m
205.700 621.750 l
205.700 623.959 207.491 625.750 209.700 625.750  c
231.700 625.750 l
233.909 625.750 235.700 623.959 235.700 621.750  c
235.700 540.250 l
235.700 538.041 233.909 536.250 231.700 536.250  c
209.700 536.250 l
207.491 536.250 205.700 538.041 205.700 540.250  c
h
S
2 J
10.0000 M
0 J
1.45000 M
newpath
187.188 577.373 m
187.188 580.670 l
188.673 580.670 l
189.225 580.670 189.652 580.527 189.954 580.240  c
190.256 579.954 190.407 579.545 190.407 579.014  c
190.407 578.493 190.256 578.089 189.954 577.803  c
189.652 577.516 189.225 577.373 188.673 577.373  c
187.188 577.373 l
h
186.001 576.404 m
188.673 576.404 l
189.662 576.404 190.407 576.626 190.907 577.068  c
191.407 577.511 191.657 578.160 191.657 579.014  c
191.657 579.878 191.407 580.532 190.907 580.975  c
190.407 581.417 189.662 581.639 188.673 581.639  c
187.188 581.639 l
187.188 585.154 l
186.001 585.154 l
186.001 576.404 l
h
196.596 577.436 m
193.612 582.107 l
196.596 582.107 l
196.596 577.436 l
h
196.284 576.404 m
197.784 576.404 l
197.784 582.107 l
199.034 582.107 l
199.034 583.092 l
197.784 583.092 l
197.784 585.154 l
196.596 585.154 l
196.596 583.092 l
192.659 583.092 l
192.659 581.951 l
196.284 576.404 l
h
f
2 J
10.0000 M
0.00000 0.00000 0.00000 RG
0 J
1.45000 M
newpath
175.700 191.000 m
1111.80 191.000 l
S
2 J
10.0000 M
0 J
1.45000 M
newpath
175.700 251.000 m
1111.80 251.000 l
S
2 J
10.0000 M
0 J
1.45000 M
newpath
175.700 311.000 m
1111.80 311.000 l
S
2 J
10.0000 M
0 J
1.45000 M
newpath
1111.80 371.000 m
175.700 371.000 l
S
2 J
10.0000 M
0 J
1.45000 M
newpath
175.700 431.000 m
1111.80 431.000 l
S
2 J
10.0000 M
0 J
1.45000 M
newpath
1111.80 491.000 m
175.700 491.000 l
S
2 J
10.0000 M
0 J
1.45000 M
newpath
175.700 551.000 m
1111.80 551.000 l
S
2 J
10.0000 M
0 J
1.45000 M
newpath
175.700 611.000 m
1111.80 611.000 l
S
2 J
10.0000 M
0 J
1.45000 M
newpath
221.322 190.706 m
220.890 243.069 l
S
newpath
220.824 251.068 m
225.923 239.110 l
220.898 242.069 l
215.923 239.027 l
h
f
2 J
10.0000 M
0 J
1.45000 M
newpath
220.700 371.435 m
220.700 319.068 l
S
newpath
220.700 311.068 m
215.700 323.068 l
220.700 320.068 l
225.700 323.068 l
h
f
2 J
10.0000 M
0 J
1.45000 M
newpath
220.700 431.033 m
220.700 482.932 l
S
newpath
220.700 490.932 m
225.700 478.932 l
220.700 481.932 l
215.700 478.932 l
h
f
2 J
10.0000 M
0 J
1.45000 M
newpath
220.700 610.973 m
220.700 558.565 l
S
newpath
220.700 550.565 m
215.700 562.565 l
220.700 559.565 l
225.700 562.565 l
h
f
2 J
10.0000 M
0 J
1.45000 M
newpath
345.600 190.331 m
345.600 302.666 l
S
newpath
345.600 310.666 m
350.600 298.666 l
345.600 301.666 l
340.600 298.666 l
h
f
2 J
10.0000 M
0 J
1.45000 M
newpath
345.600 550.163 m
345.600 438.631 l
S
newpath
345.600 430.631 m
340.600 442.631 l
345.600 439.631 l
350.600 442.631 l
h
f
2 J
10.0000 M
0 J
1.45000 M
newpath
380.600 610.170 m
380.600 498.605 l
S
newpath
380.600 490.605 m
375.600 502.605 l
380.600 499.605 l
385.600 502.605 l
h
f
2 J
10.0000 M
0 J
1.45000 M
newpath
380.600 250.671 m
380.600 362.631 l
S
newpath
380.600 370.631 m
385.600 358.631 l
380.600 361.631 l
375.600 358.631 l
h
f
2 J
10.0000 M
0 J
1.45000 M
newpath
518.100 190.733 m
518.100 243.068 l
S
newpath
518.100 251.068 m
523.100 239.068 l
518.100 242.068 l
513.100 239.068 l
h
f
2 J
10.0000 M
0 J
1.45000 M
newpath
518.100 311.068 m
518.100 363.435 l
S
newpath
518.100 371.435 m
523.100 359.435 l
518.100 362.435 l
513.100 359.435 l
h
f
2 J
10.0000 M
0 J
1.45000 M
newpath
518.100 490.932 m
518.100 439.033 l
S
newpath
518.100 431.033 m
513.100 443.033 l
518.100 440.033 l
523.100 443.033 l
h
f
2 J
10.0000 M
0 J
1.45000 M
newpath
518.100 610.973 m
518.100 558.565 l
S
newpath
518.100 550.565 m
513.100 562.565 l
518.100 559.565 l
523.100 562.565 l
h
f
2 J
10.0000 M
0 J
1.45000 M
newpath
666.800 190.733 m
666.800 423.033 l
S
newpath
666.800 431.033 m
671.800 419.033 l
666.800 422.033 l
661.800 419.033 l
h
f
2 J
10.0000 M
0 J
1.45000 M
newpath
701.800 250.331 m
701.800 482.631 l
S
newpath
701.800 490.631 m
706.800 478.631 l
701.800 481.631 l
696.800 478.631 l
h
f
2 J
10.0000 M
0 J
1.45000 M
newpath
736.800 310.265 m
736.800 542.565 l
S
newpath
736.800 550.565 m
741.800 538.565 l
736.800 541.565 l
731.800 538.565 l
h
f
2 J
10.0000 M
0 J
1.45000 M
newpath
771.800 370.265 m
771.800 602.565 l
S
newpath
771.800 610.565 m
776.800 598.565 l
771.800 601.565 l
766.800 598.565 l
h
f
2 J
10.0000 M
0 J
1.45000 M
newpath
901.800 191.135 m
901.800 303.470 l
S
newpath
901.800 311.470 m
906.800 299.470 l
901.800 302.470 l
896.800 299.470 l
h
f
2 J
10.0000 M
0 J
1.45000 M
newpath
936.800 251.475 m
936.800 363.435 l
S
newpath
936.800 371.435 m
941.800 359.435 l
936.800 362.435 l
931.800 359.435 l
h
f
2 J
10.0000 M
0 J
1.45000 M
newpath
1066.80 189.929 m
1066.80 242.265 l
S
newpath
1066.80 250.265 m
1071.80 238.265 l
1066.80 241.265 l
1061.80 238.265 l
h
f
2 J
10.0000 M
0 J
1.45000 M
newpath
1066.80 310.265 m
1066.80 362.631 l
S
newpath
1066.80 370.631 m
1071.80 358.631 l
1066.80 361.631 l
1061.80 358.631 l
h
f
2 J
10.0000 M
0 J
1.45000 M
newpath
1066.80 430.229 m
1066.80 482.128 l
S
newpath
1066.80 490.128 m
1071.80 478.128 l
1066.80 481.128 l
1061.80 478.128 l
h
f
2 J
10.0000 M
0 J
1.45000 M
newpath
1066.80 549.761 m
1066.80 602.170 l
S
newpath
1066.80 610.170 m
1071.80 598.170 l
1066.80 601.170 l
1061.80 598.170 l
h
f
2 J
10.0000 M
1.00000 0.00000 0.00000 RG
0 J
1.45000 M
[ 6.00000 2.00000 ] 0.00000 d
newpath
592.450 170.978 m
592.450 631.022 l
S
2 J
10.0000 M
[ ] 0.00000 d
0.00000 0.00000 0.00000 RG
1.00000 0.00000 0.00000 RG
0 J
1.45000 M
[ 6.00000 2.00000 ] 0.00000 d
newpath
285.600 175.820 m
285.600 385.947 l
S
2 J
10.0000 M
[ ] 0.00000 d
0.00000 0.00000 0.00000 RG
1.00000 0.00000 0.00000 RG
0 J
1.45000 M
[ 6.00000 2.00000 ] 0.00000 d
newpath
285.600 415.487 m
285.600 624.683 l
S
2 J
10.0000 M
[ ] 0.00000 d
0.00000 0.00000 0.00000 RG
0 J
1.45000 M
newpath
901.800 431.435 m
901.800 543.771 l
S
newpath
901.800 551.771 m
906.800 539.771 l
901.800 542.771 l
896.800 539.771 l
h
f
2 J
10.0000 M
0 J
1.45000 M
newpath
936.800 491.775 m
936.800 603.735 l
S
newpath
936.800 611.735 m
941.800 599.735 l
936.800 602.735 l
931.800 599.735 l
h
f
2 J
10.0000 M
Q
[ 1.00000 0.00000 0.00000 1.00000 0.00000 0.00000 ] defaultmatrix matrix concatmatrix setmatrix
cliprestore

%%Trailer
%%EOF
