%!PS-Adobe-3.0 EPSF-3.0
%%BoundingBox: 0 0 451 262
%%Creator: yExport 1.5
%%Producer: org.freehep.graphicsio.ps.EPSGraphics2D Revision: 12753 
%%For: 
%%Title: 
%%CreationDate: Monday, January 15, 2018 4:54:24 PM CET
%%LanguageLevel: 3
%%EndComments
%%BeginProlog
100 dict dup begin

%
% File: org/freehep/graphicsio.ps/PSProlog.txt
% Author: Charles Loomis
%

% Redefinitions which save some space in the output file.  These are also
% the same as the PDF operators.
/q {gsave} def
/Q {grestore} def

/n {newpath} def
/m {moveto} def
/l {lineto} def
/c {curveto} def
/h {closepath} def

/re {4 -2 roll moveto
     dup 0 exch rlineto exch 0 rlineto
     neg 0 exch rlineto closepath} def

/f {fill} def
/f* {eofill} def
/F {gsave vg&FC fill grestore} def
/F* {gsave vg&FC eofill grestore} def

/s {closepath stroke} def
/S {stroke} def

/b {closepath gsave vg&FC fill grestore
    gsave stroke grestore newpath} def
/B {gsave vg&FC fill grestore gsave stroke grestore newpath} def
/b* {closepath gsave vg&FC eofill grestore
    gsave stroke grestore newpath} def
/B* {gsave vg&FC eofill grestore gsave stroke grestore newpath} def

/g {1 array astore /vg&fcolor exch def} def
/G {setgray} def
/k {4 array astore /vg&fcolor exch def} def
/K {setcmykcolor} def
/rg {3 array astore /vg&fcolor exch def} def
/RG {setrgbcolor} def

% Initialize the fill color.
0 0 0 rg

/vg&FC {mark vg&fcolor aload pop
        counttomark 1 eq {G} if
        counttomark 3 eq {RG} if
        counttomark 4 eq {K} if
        cleartomark } def

/vg&DFC {/vg&fcolor exch def} def

/vg&C {mark exch aload pop
       counttomark 1 eq {G} if
       counttomark 3 eq {RG} if
       counttomark 4 eq {K} if
       cleartomark } def

/w {setlinewidth} def
/j {setlinejoin} def
/J {setlinecap} def
/M {setmiterlimit} def
/d {setdash} def
/i {setflat} def

/W {clip} def
/W* {eoclip} def

% Setup the default graphics state.
% (black; 1 pt. linewidth; miter join; butt-ends; solid)
/defaultGraphicsState {0 g 1 w 0 j 0 J [] 0 d} def

% Emulation of the rectangle operators for PostScript implementations
% which do not implement all Level 2 features.  This is an INCOMPLETE
% emulation; only the "x y width height rect..." form is emulated.
/*rf {gsave newpath re fill grestore} def
/*rs {gsave newpath re stroke grestore} def
/*rc {newpath re clip} def
/rf  /rectfill where {pop /rectfill}{/*rf} ifelse load def
/rs  /rectstroke where {pop /rectstroke}{/*rs} ifelse load def
/rc  /rectclip where {pop /rectclip}{/*rc} ifelse load def

% Emulation of the selectfont operator.  This includes a 20% increase in
% the fontsize which is necessary to get sizes similar to the Java fonts.
/*sf {exch findfont exch
      dup type /arraytype eq {makefont}{scalefont} ifelse setfont} bind def
/sf /selectfont where {pop {1.2 mul selectfont}}{{1.2 mul *sf}} ifelse def

% Special version of stroke which allows the dash pattern to continue
% across path segments.  (This may be needed for PostScript although
% modern printers seem to do this correctly.)
/vg&stroke {
  currentdash pop length 0 eq
  {stroke}
  {
    currentdash /vg&doffset exch def pop
    flattenpath
    {m vg&resetdash}
    {2 copy
     currentpoint
     3 -1 roll sub dup mul
     3 1 roll sub dup mul
     add sqrt
     3 1 roll l
     currentdash 3 -1 roll add setdash}
     {}
     {h vg&resetdash}
     pathforall
     stroke
     vg&resetdash
  } ifelse
} def
/vg&resetdash {currentdash pop vg&doffset setdash} def

% Initialize variables for safety.
/delta 0 def
/xv 0 def  /yv 0 def  /width 0 def  /height 0 def

% Initialize to portrait INTERNATIONAL (Letter-height, A4-width) page.
/pw 595 def  /ph 791  def  /po true def /ftp false def

% Initialize margins to 20 points.
/ml 20 def  /mr 20 def  /mt 20 def  /mb 20 def

% Temporary matrices.
/smatrix 0 def  /nmatrix 0 def

% set page size (usage: <page width><page height> setpagesize)
/setpagesize {/ph exch def /pw exch def} def

% set page orientation (usage: portrait or landscape)
/portrait {/po true def} def
/landscape {/po false def} def

% force natural size for image (usage: naturalsize)
/naturalsize {/ftp false def} def

% resize image to fill page (usage: fittopage)
/fittopage {/ftp true def} def

% set margins of the page (usage: <left><bottom><top><right> setmargins)
/setmargins {/mr exch def /mt exch def /mb exch def /ml exch def} def

% set the graphic's size (usage: <width><height> setsize)
/setsize {/gh exch def /gw exch def} def

% set the graphic's origin (usage: <x0><y0> setorigin)
/setorigin {/gy exch def /gx exch def} def

% calculate image center
/imagecenter {pw ml sub mr sub 2 div ml add
              ph mt sub mb sub 2 div mb add} def

% calculate the necessary scaling
/imagescale {po {gw}{gh} ifelse pw ml sub mr sub div
             po {gh}{gw} ifelse ph mt sub mb sub div
             2 copy lt {exch} if pop
             ftp not {1 2 copy lt {exch} if pop} if
             1 exch div /sfactor exch def
             /gw gw sfactor mul def /gh gh sfactor mul def} def

% calculate image origin
/imageorigin {pw ml sub mr sub 2 div ml add
              po {gw}{gh} ifelse 2 div sub
              ph mt sub mb sub 2 div mb add
              po {gh}{gw} ifelse 2 div po {add}{sub} ifelse} def

% calculate the clipping origin
/cliporigin  {pw ml sub mr sub 2 div ml add
              po {gw}{gh} ifelse 2 div sub floor
              ph mt sub mb sub 2 div mb add
              po {gh}{gw} ifelse 2 div sub floor} def

% Set the clipping region to the bounding box.
/cliptobounds {cliporigin po {gw}{gh} ifelse 1 add
                          po {gh}{gw} ifelse 1 add rc} def

% set the base transformation matrix (usage: setbasematrix)
/setbasematrix {imageorigin translate
                po {0}{90} ifelse rotate
                sfactor sfactor neg scale
                /defaultmatrix matrix currentmatrix def} def

% The lower-right bias in drawing 1 pt. wide lines.
/bias  {q 0.5 0.5 translate} def
/unbias {Q} def

% Define the composite fonts used to print Unicode strings.
% Undefine particular values in an encoding array.
/vg&undef { {exch dup 3 -1 roll /.notdef put} forall } def
/vg&redef { {3 -1 roll dup 4 2 roll put} forall } def

% usage: key encoding basefontname vg&newbasefont font
/vg&newbasefont {
findfont dup length dict copy
  begin
    currentdict /FID undef
    /Encoding exch def
    dup /FontName exch def
    currentdict
  end
definefont
} def

% usage: key encoding basefontname vg&newskewedbasefont font
/vg&newskewedbasefont {
findfont dup length dict copy
  begin
    currentdict /FID undef
    /Encoding exch def
    dup /FontName exch def
    exch FontMatrix exch matrix concatmatrix /FontMatrix exch def
    currentdict
  end
definefont
} def

% usage: basekey suffix vg&nconcat name
/vg&nconcat {
  2 {dup length string cvs exch} repeat
  dup length 3 -1 roll dup length 3 -1 roll add string
  dup 0 4 -1 roll dup length 5 1 roll putinterval
  dup 4 -2 roll exch putinterval cvn
} def

%usage: fontname vg&skewmatrix matrix
/vg&skewmatrix {
findfont dup /FontInfo known
  {
    /FontInfo get dup /ItalicAngle known
    {
      [ 1 0 4 -1 roll /ItalicAngle get neg dup sin exch cos div 1 0 0 ]
    }
    {pop matrix} ifelse
  }
  {pop matrix} ifelse
} def

% usage: newfontname basefontname vg&newcompositefont --
/vg&newcompositefont {
/vg&fstyle exch def
/vg&bfont exch def
/vg&fname exch def
<<
/FontStyleBits vg&fstyle
/FontType 0
/FontMatrix matrix
/FontName vg&fname
/FMapType 2
/Encoding [ 0 1 255 {pop 6} for ]
          dup 16#00 0 put % Latin
          dup 16#03 1 put % Greek
          dup 16#20 2 put % Punctuation
          dup 16#21 3 put % Arrows
          dup 16#22 4 put % MathOps
          dup 16#27 5 put % Dingbats

/FDepVector [
vg&bfont /-UC-Latin vg&nconcat UCLatinEncoding
vg&bfont vg&newbasefont

vg&bfont vg&skewmatrix
vg&bfont /-UC-Greek vg&nconcat UCGreekEncoding
/Symbol vg&newskewedbasefont

vg&bfont /-UC-Punctuation vg&nconcat UCPunctuationEncoding
vg&bfont vg&newbasefont

/Arrows-UC findfont
/MathOps-UC findfont
/Dingbats-UC findfont
/Undefined-UC findfont ]
>>
vg&fname exch definefont pop
} def

% Null encoding vector (all elements set to .notdef)
/NullEncoding [ 256 {/.notdef} repeat ] def

% Unicode Latin encoding (unicode codes \u0000-\u00ff)
/UCLatinEncoding
  ISOLatin1Encoding dup length array copy
  dup 16#60 /grave put
  [ 16#90 16#91 16#92 16#93 16#94 16#95 16#96
    16#97 16#98 16#9a 16#9b 16#9d 16#9e 16#9f
  ] vg&undef
  def

% Unicode Greek encoding (unicode codes \u0370-\u03ff)
/UCGreekEncoding
  NullEncoding dup length array copy
  << 16#91 /Alpha    16#92 /Beta      16#93 /Gamma    16#94 /Delta
     16#95 /Epsilon  16#96 /Zeta      16#97 /Eta      16#98 /Theta
     16#99 /Iota     16#9a /Kappa     16#9b /Lambda   16#9c /Mu
     16#9d /Nu       16#9e /Xi        16#9f /Omicron  16#a0 /Pi
     16#a1 /Rho      16#a3 /Sigma     16#a4 /Tau      16#a5 /Upsilon
     16#a6 /Phi      16#a7 /Chi       16#a8 /Psi      16#a9 /Omega
     16#b1 /alpha    16#b2 /beta      16#b3 /gamma    16#b4 /delta
     16#b5 /epsilon  16#b6 /zeta      16#b7 /eta      16#b8 /theta
     16#b9 /iota     16#ba /kappa     16#bb /lambda   16#bc /mu
     16#bd /nu       16#be /xi        16#bf /omicron  16#c0 /pi
     16#c1 /rho      16#c2 /sigma1    16#c3 /sigma    16#c4 /tau
     16#c5 /upsilon  16#c6 /phi1      16#c7 /chi      16#c8 /psi
     16#c9 /omega    16#7e /semicolon 16#87 /dotmath  16#d1 /theta1
     16#d2 /Upsilon1 16#d5 /phi       16#d6 /omega1
  >> vg&redef
  def

% Unicode punctuation encoding (unicode codes \u2000-\u206f)
/UCPunctuationEncoding
  NullEncoding dup length array copy
  << 16#10 /hyphen          16#11 /hyphen              16#12 /endash
     16#13 /emdash          16#18 /quoteleft           16#19 /quoteright
     16#1a /quotesinglbase  16#1b /quotesingle         16#1c /quotedblleft
     16#1d /quotedblright   16#1e /quotedblbase        16#1f /quotedbl
     16#20 /dagger          16#21 /daggerdbl           16#22 /bullet
     16#24 /period          16#26 /ellipsis            16#27 /periodcentered
     16#30 /perthousand     16#44 /fraction
     16#70 /zerosuperior    16#74 /foursuperior        16#75 /fivesuperior
     16#76 /sixsuperior     16#77 /sevensuperior       16#78 /eightsuperior
     16#79 /ninesuperior    16#7b /hyphensuperior      16#7d /parenleftsuperior
     16#7e /parenrightsuperior
     16#80 /zeroinferior    16#84 /fourinferior        16#85 /fiveinferior
     16#81 /oneinferior     16#82 /twoinferior         16#83 /threeinferior
     16#86 /sixinferior     16#87 /seveninferior       16#88 /eightinferior
     16#89 /nineinferior    16#8b /hypheninferior      16#8d /parenleftinferior
     16#8e /parenrightinferior
  >> vg&redef
  def

% Unicode mathematical operators encoding (unicode codes \u2200-\u22ff)
/UCMathOpsEncoding
  NullEncoding dup length array copy
  << 16#00 /universal       16#02 /partialdiff         16#03 /existential
     16#05 /emptyset        16#06 /Delta               16#07 /gradient
     16#08 /element         16#09 /notelement          16#0b /suchthat
     16#0f /product         16#11 /summation           16#12 /minus
     16#15 /fraction        16#17 /asteriskmath        16#19 /bullet
     16#1a /radical         16#1d /proportional        16#1e /infinity
     16#20 /angle           16#23 /bar                 16#27 /logicaland
     16#28 /logicalor       16#29 /intersection        16#2a /union
     16#2b /integral        16#34 /therefore           16#36 /colon
     16#3c /similar         16#45 /congruent           16#48 /approxequal
     16#60 /notequal        16#61 /equivalence         16#64 /lessequal
     16#65 /greaterequal    16#82 /propersubset        16#83 /propersuperset
     16#86 /reflexsubset    16#87 /reflexsuperset      16#95 /circleplus
     16#97 /circlemultiply  16#a5 /perpendicular       16#03 /existential
     16#c0 /logicaland      16#c1 /logicalor           16#c2 /intersection
     16#c3 /union           16#c4 /diamond             16#c5 /dotmath
  >> vg&redef
  def

% Unicode arrows encoding (unicode codes \u2190-\u21ff)
% Also includes those "Letterlike" unicode characters
% which are available in the symbol font. (unicode codes \u2100-\u214f)
/UCArrowsEncoding
  NullEncoding dup length array copy
  << 16#11 /Ifraktur        16#1c /Rfraktur            16#22 /trademarkserif
     16#35 /aleph
     16#90 /arrowleft       16#91 /arrowup             16#92 /arrowright
     16#93 /arrowdown       16#94 /arrowboth           16#d0 /arrowdblleft
     16#d1 /arrowdblup      16#d2 /arrowdblright       16#d3 /arrowdbldown
     16#d4 /arrowdblboth
  >> vg&redef
  def

/ZapfDingbats findfont /Encoding get
dup length array copy /UCDingbatsEncoding exch def
16#20 1 16#7f {
  dup 16#20 sub exch
  UCDingbatsEncoding exch get
  UCDingbatsEncoding 3 1 roll put
} for
16#a0 1 16#ff {
  dup 16#40 sub exch
  UCDingbatsEncoding exch get
  UCDingbatsEncoding 3 1 roll put
} for
UCDingbatsEncoding [ 16#c0 1 16#ff {} for ] vg&undef
[ 16#00  16#05 16#0a 16#0b  16#28 16#4c 16#4e  16#53 16#54 16#55  16#57 16#5f
  16#60  16#68 16#69 16#6a  16#6b 16#6c 16#6d  16#6e 16#6f 16#70  16#71 16#72
  16#73  16#74 16#75 16#95  16#96 16#97 16#b0  16#bf
] vg&undef pop

% Define the base fonts which don't change.
/Undefined-UC NullEncoding       /Helvetica    vg&newbasefont pop
/MathOps-UC   UCMathOpsEncoding  /Symbol       vg&newbasefont pop
/Arrows-UC    UCArrowsEncoding   /Symbol       vg&newbasefont pop
/Dingbats-UC  UCDingbatsEncoding /ZapfDingbats vg&newbasefont pop

% Make the SansSerif composite fonts.
/SansSerif /Helvetica 16#00 vg&newcompositefont
/SansSerif-Bold /Helvetica-Bold 16#01 vg&newcompositefont
/SansSerif-Italic /Helvetica-Oblique 16#02 vg&newcompositefont
/SansSerif-BoldItalic /Helvetica-BoldOblique 16#03 vg&newcompositefont

% Make the Serif composite fonts.
/Serif /Times-Roman 16#00 vg&newcompositefont
/Serif-Bold /Times-Bold 16#01 vg&newcompositefont
/Serif-Italic /Times-Italic 16#02 vg&newcompositefont
/Serif-BoldItalic /Times-BoldItalic 16#03 vg&newcompositefont

% Make the Monospaced composite fonts.
/Monospaced /Courier 16#00 vg&newcompositefont
/Monospaced-Bold /Courier-Bold 16#01 vg&newcompositefont
/Monospaced-Italic /Courier-Oblique 16#02 vg&newcompositefont
/Monospaced-BoldItalic /Courier-BoldOblique 16#03 vg&newcompositefont

% Make the Dialog composite fonts.
/Dialog /Helvetica 16#00 vg&newcompositefont
/Dialog-Bold /Helvetica-Bold 16#01 vg&newcompositefont
/Dialog-Italic /Helvetica-Oblique 16#02 vg&newcompositefont
/Dialog-BoldItalic /Helvetica-BoldOblique 16#03 vg&newcompositefont

% Make the DialogInput composite fonts.
/DialogInput /Courier 16#00 vg&newcompositefont
/DialogInput-Bold /Courier-Bold 16#01 vg&newcompositefont
/DialogInput-Italic /Courier-Oblique 16#02 vg&newcompositefont
/DialogInput-BoldItalic /Courier-BoldOblique 16#03 vg&newcompositefont

% Make the Typewriter composite fonts (JDK 1.1 only).
/Typewriter /Courier 16#00 vg&newcompositefont
/Typewriter-Bold /Courier-Bold 16#01 vg&newcompositefont
/Typewriter-Italic /Courier-Oblique 16#02 vg&newcompositefont
/Typewriter-BoldItalic /Courier-BoldOblique 16#03 vg&newcompositefont


/cfontH {
 dup /fontsize exch def /SansSerif exch sf
 /vg&fontstyles [{cfontH} {cfontHB} {cfontHI} {cfontHBI}] def
} def
/cfontHB {
  dup /fontsize exch def /SansSerif-Bold exch sf
 /vg&fontstyles [{cfontH} {cfontHB} {cfontHI} {cfontHBI}] def
} def
/cfontHI {
 dup /fontsize exch def /SansSerif-Italic exch sf
 /vg&fontstyles [{cfontH} {cfontHB} {cfontHI} {cfontHBI}] def
} def
/cfontHBI {
 dup /fontsize exch def /SansSerif-BoldItalic exch sf
 /vg&fontstyles [{cfontH} {cfontHB} {cfontHI} {cfontHBI}] def
} def

/cfontT {
 dup /fontsize exch def /Serif exch sf
 /vg&fontstyles [{cfontT} {cfontTB} {cfontTI} {cfontTBI}] def
} def
/cfontTB {
 dup /fontsize exch def /Serif-Bold exch sf
 /vg&fontstyles [{cfontT} {cfontTB} {cfontTI} {cfontTBI}] def
} def
/cfontTI {
 dup /fontsize exch def /Serif-Italic exch sf
 /vg&fontstyles [{cfontT} {cfontTB} {cfontTI} {cfontTBI}] def
} def
/cfontTBI {
 dup /fontsize exch def /Serif-BoldItalic exch sf
 /vg&fontstyles [{cfontT} {cfontTB} {cfontTI} {cfontTBI}] def
} def

/cfontC {
 dup /fontsize exch def /Typewriter exch sf
 /vg&fontstyles [{cfontC} {cfontCB} {cfontCI} {cfontCBI}] def
} def
/cfontCB {
 dup /fontsize exch def /Typewriter-Bold exch sf
 /vg&fontstyles [{cfontC} {cfontCB} {cfontCI} {cfontCBI}] def
} def
/cfontCI {
 dup /fontsize exch def /Typewriter-Italic exch sf
 /vg&fontstyles [{cfontC} {cfontCB} {cfontCI} {cfontCBI}] def
} def
/cfontCBI {
 dup /fontsize exch def /Typewriter-BoldItalic exch sf
 /vg&fontstyles [{cfontC} {cfontCB} {cfontCI} {cfontCBI}] def
} def

% Darken or lighten the current color.
/darken {0.7 exch exp 3 copy
         q 4 -1 roll vg&C
         currentrgbcolor 3 {4 -2 roll mul} repeat
         3 array astore Q} def

/displayColorMap
<< /Cr   [1.00 0.00 0.00]       /Cg     [0.00 1.00 0.00]
   /Cb   [0.00 0.00 1.00]       /Cc     [1.00 0.00 0.00 0.00]
   /Cm   [0.00 1.00 0.00 0.00]  /Cy     [0.00 0.00 1.00 0.00]
   /Co   [1.00 0.78 0.00]       /Cp     [1.00 0.67 0.67]
   /Cw   [1   ]                 /Cgrl   [0.75]
   /Cgr  [0.50]                 /Cgrd   [0.25]
   /Ck   [0   ]
   /CGr  [1.00 0.00 0.00]       /CGg    [0.00 1.00 0.00]
   /CGb  [0.00 0.00 1.00]       /CGc    [1.00 0.00 0.00 0.00]
   /CGm  [0.00 1.00 0.00 0.00]  /CGy    [0.00 0.00 1.00 0.00]
   /CGo  [1.00 0.78 0.00]       /CGp    [1.00 0.67 0.67]
   /CGw  [1   ]                 /CGgrl  [0.75]
   /CGgr [0.50]                 /CGgrd  [0.25]
   /CGk  [0   ]
   /CIr  [1.00 0.00 0.00]       /CIg    [0.00 1.00 0.00]
   /CIb  [0.00 0.00 1.00]       /CIc    [1.00 0.00 0.00 0.00]
   /CIm  [0.00 1.00 0.00 0.00]  /CIy    [0.00 0.00 1.00 0.00]
   /CIo  [1.00 0.78 0.00]       /CIp    [1.00 0.67 0.67]
   /CIw  [1   ]                 /CIgrl  [0.75]
   /CIgr [0.50]                 /CIgrd  [0.25]
   /CIk  [0   ]
>> def

/printColorMap
<< /Cr   [1.00 0.33 0.33]       /Cg     [0.33 1.00 0.33]
   /Cb   [0.33 0.33 1.00]       /Cc     [1.00 0.00 0.00 0.00]
   /Cm   [0.00 1.00 0.00 0.00]  /Cy     [0.00 0.00 1.00 0.00]
   /Co   [1.00 0.78 0.00]       /Cp     [1.00 0.67 0.67]
   /Cw   [1   ]                 /Cgrl   [0.75]
   /Cgr  [0.50]                 /Cgrd   [0.25]
   /Ck   [0   ]
   /CGr  [1.00 0.33 0.33]       /CGg    [0.33 1.00 0.33]
   /CGb  [0.33 0.33 1.00]       /CGc    [1.00 0.00 0.00 0.00]
   /CGm  [0.00 1.00 0.00 0.00]  /CGy    [0.00 0.00 1.00 0.00]
   /CGo  [1.00 0.78 0.00]       /CGp    [1.00 0.67 0.67]
   /CGw  [1   ]                 /CGgrl  [0.75]
   /CGgr [0.50]                 /CGgrd  [0.25]
   /CGk  [0   ]
   /CIr  [1.00 0.33 0.33]       /CIg    [0.33 1.00 0.33]
   /CIb  [0.33 0.33 1.00]       /CIc    [1.00 0.00 0.00 0.00]
   /CIm  [0.00 1.00 0.00 0.00]  /CIy    [0.00 0.00 1.00 0.00]
   /CIo  [1.00 0.78 0.00]       /CIp    [1.00 0.67 0.67]
   /CIw  [1   ]                 /CIgrl  [0.75]
   /CIgr [0.50]                 /CIgrd  [0.25]
   /CIk  [0   ]
>> def

/grayColorMap
<< /Cr   [0   ]                 /Cg     [0   ]
   /Cb   [0   ]                 /Cc     [0   ]
   /Cm   [0   ]                 /Cy     [0   ]
   /Co   [0   ]                 /Cp     [0   ]
   /Cw   [0   ]                 /Cgrl   [0   ]
   /Cgr  [0   ]                 /Cgrd   [0   ]
   /Ck   [0   ]
   /CGr  [0.75]                 /CGg    [1   ]
   /CGb  [0.50]                 /CGc    [0.75]
   /CGm  [0.50]                 /CGy    [1   ]
   /CGo  [0.75]                 /CGp    [1   ]
   /CGw  [0   ]                 /CGgrl  [0.25]
   /CGgr [0.50]                 /CGgrd  [0.75]
   /CGk  [1   ]
   /CIr  [1   ]                 /CIg    [1   ]
   /CIb  [1   ]                 /CIc    [1   ]
   /CIm  [1   ]                 /CIy    [1   ]
   /CIo  [1   ]                 /CIp    [1   ]
   /CIw  [1   ]                 /CIgrl  [1   ]
   /CIgr [1   ]                 /CIgrd  [1   ]
   /CIk  [1   ]
>> def

/bwColorMap
<< /Cr   [0   ]                 /Cg     [0   ]
   /Cb   [0   ]                 /Cc     [0   ]
   /Cm   [0   ]                 /Cy     [0   ]
   /Co   [0   ]                 /Cp     [0   ]
   /Cw   [0   ]                 /Cgrl   [0   ]
   /Cgr  [0   ]                 /Cgrd   [0   ]
   /Ck   [0   ]
   /CGr  [1   ]                 /CGg    [1   ]
   /CGb  [1   ]                 /CGc    [1   ]
   /CGm  [1   ]                 /CGy    [1   ]
   /CGo  [1   ]                 /CGp    [1   ]
   /CGw  [0   ]                 /CGgrl  [1   ]
   /CGgr [1   ]                 /CGgrd  [1   ]
   /CGk  [1   ]
   /CIr  [1   ]                 /CIg    [1   ]
   /CIb  [1   ]                 /CIc    [1   ]
   /CIm  [1   ]                 /CIy    [1   ]
   /CIo  [1   ]                 /CIp    [1   ]
   /CIw  [1   ]                 /CIgrl  [1   ]
   /CIgr [1   ]                 /CIgrd  [1   ]
   /CIk  [1   ]
>> def

%
% The following routines handle the alignment of and printing of
% tagged strings.
%

% Predefine the bounding box values.
/bbllx 0 def /bblly 0 def /bburx 0 def /bbury 0 def

% This routine pops the first unicode character off of a string and returns
% the remainder of the string, the character code of first character,
% and a "true" if the string was non-zero length.
% <string>      popfirst <remaining string> <true>
% <null string> popfirst <false>
/popfirst {
  dup length 1 gt
    {dup 0 get /vg&fbyte exch def
     dup 1 get /vg&cbyte exch def
     dup length 2 sub 2 exch getinterval true}
    {pop false} ifelse
} def

% This routine shows a single unicode character given the font and
% character codes.
% <font code> <char code> unicharshow --
/unicharshow {
  2 string
  dup 0 5 -1 roll put
  dup 1 4 -1 roll put
  internalshow
} def

% This is an internal routine to alternate between determining the
% bounding box for stringsize and showing the string for recshow.
% <string> internalshow --
/internalshow {show} def

% This is an internal routine to alternate between determining the
% bounding box for stringsize and stroking various ornaments.
% <string> internalstroke --
/internalstroke {S} def

% Sets up internalshow to use the null device to determine string size.
% -- nullinternalshow --
/nullinternalshow {/internalshow {false charpath flattenpath
                                  pathbbox updatebbox} def} def

% Sets up internalstroke to use the null device to determine string size.
% -- nullinternalstroke --
/nullinternalstroke {
 /internalstroke {flattenpath pathbbox updatebbox} def} def

% This routine tests to see if the character code matches the first
% character of a string.
% <char code> <string> testchar <char code> <true or false>
/testchar {exch dup 3 -1 roll 0 get eq} def

% Raise the text baseline for superscripts.
% -- raise --
/raise {
  0 fontsize 2 div rmoveto
  /fontsize fontsize 2 mul 3 div def
  currentfont /FontName get fontsize sf
} def

% Un-raise the text baseline for superscripts.
% -- unraise --
/unraise {
  /fontsize fontsize 1.5 mul def
  0 fontsize 2 div neg rmoveto
} def

% Lower the text baseline for subscripts.
% -- lower --
/lower {
  0 fontsize 3 div neg rmoveto
  /fontsize fontsize 2 mul 3 div def
  currentfont /FontName get fontsize sf
} def

% Un-lower the text baseline for subscripts.
% -- unlower --
/unlower {
  /fontsize fontsize 1.5 mul def
  0 fontsize 3 div rmoveto
} def

% Compare the top two elements on the stack and leave only the
% larger one.
/maxval {2 copy gt {pop} {exch pop} ifelse} def

% Tokenize a string.  Do not use the usual PostScript token because
% parentheses will not be interpreted correctly because of rescanning
% of the string.
/vg&token {/vg&string exch def /vg&index -1 def /vg&level 0 def
0 2 vg&string length 2 sub {
  dup dup 1 add exch vg&string exch get 8 bitshift vg&string 3 -1 roll get or
  dup 16#f0fe eq {pop 1}{16#f0ff eq {-1}{0} ifelse} ifelse
  /vg&level exch vg&level add def
  vg&level 0 eq {/vg&index exch def exit} if pop
} for
vg&index 0 ge {
  vg&string vg&index 2 add dup vg&string length exch sub getinterval
  vg&index 2 gt {vg&string 2 vg&index 2 sub getinterval}{()} ifelse
  true}
{false} ifelse
} bind def

% Recursively show an unicode string.
% <string> recshow --
/recshow {
  popfirst
  {
    % Test to see if this is a string attribute.
    vg&fbyte 16#f0 and 16#e0 eq
    {
      q

      % Font style.
      currentfont dup /FontStyleBits known {/FontStyleBits get}{pop 0} ifelse
      vg&cbyte or vg&fontstyles exch get fontsize exch exec

      vg&token pop recshow currentpoint Q m recshow
    }
    {
      vg&fbyte 16#F8 and 16#F0 eq {

        % Superscript and/or subscript.
        vg&cbyte 16#00 eq {
          vg&token pop exch vg&token pop 3 -1 roll
          q raise recshow unraise currentpoint pop Q exch
          q lower recshow unlower currentpoint pop Q
          maxval currentpoint exch pop m recshow } if

        % Strikeout.
        vg&cbyte 16#01 eq {
          vg&token pop currentpoint 3 -1 roll recshow
          q 0 J vg&underline vg&uthick w
          currentpoint 4 -2 roll fontsize 3 div add moveto
          fontsize 3 div add lineto internalstroke Q
          recshow} if

        % Underline.
        vg&cbyte 16#02 eq {
          vg&token pop currentpoint 3 -1 roll recshow
          q 0 J vg&underline vg&uthick w
          currentpoint 4 -2 roll vg&uoffset add moveto
          vg&uoffset add lineto internalstroke Q
          recshow} if

        % Dashed underline.
        vg&cbyte 16#03 eq {
          vg&token pop currentpoint 3 -1 roll recshow
          q 0 J [ vg&uthick 5 mul vg&uthick 2 mul] 0 d
          vg&underline vg&uthick w
          currentpoint 4 -2 roll vg&uoffset add moveto
          vg&uoffset add lineto internalstroke Q
          recshow} if

        % Dotted underline.
        vg&cbyte 16#04 eq {
          vg&token pop currentpoint 3 -1 roll recshow
          q 1 J [ 0 vg&uthick 3 mul] 0 d
          vg&underline vg&uthick w
          currentpoint 4 -2 roll vg&uoffset add moveto
          vg&uoffset add lineto internalstroke Q
          recshow} if

        % Thick underline.
        vg&cbyte 16#05 eq {
          vg&token pop currentpoint 3 -1 roll recshow
          q 0 J vg&underline vg&uthick 2 mul w
          currentpoint 4 -2 roll vg&uoffset vg&uthick 2 div sub add moveto
          vg&uoffset vg&uthick 2 div sub add lineto internalstroke Q
          recshow} if

        % Gray thick underline.
        vg&cbyte 16#06 eq {
          vg&token pop currentpoint 3 -1 roll recshow
          q 0 J vg&underline vg&uthick 2 mul w 0.5 setgray
          currentpoint 4 -2 roll vg&uoffset vg&uthick 2 div sub add moveto
          vg&uoffset vg&uthick 2 div sub add lineto internalstroke Q
          recshow} if

        % Overbar.
        vg&cbyte 16#07 eq {
          vg&token pop dup stringsize relative 4 1 roll pop pop exch
          3 -1 roll recshow
          q 0 J vg&underline vg&uthick w
          vg&uoffset neg add dup currentpoint pop exch m l internalstroke Q
          recshow} if
      }
      {
        vg&fbyte vg&cbyte unicharshow recshow
      } ifelse
    } ifelse
  } if
} def

% Get the underline position and thickness from the current font.
/vg&underline {

currentfont dup /FontType get 0 eq {/FDepVector get 0 get} if
dup dup /FontInfo known {
  /FontInfo get dup
  dup /UnderlinePosition known {
    /UnderlinePosition get /vg&uoffset exch def
  }
  {
    pop /vg&uoffset 0 def
  } ifelse
  dup /UnderlineThickness known {
    /UnderlineThickness get /vg&uthick exch def
  }
  {
    pop /vg&uthick 0 def
  } ifelse
}
{
  pop /vg&uoffset 0 def /vg&uthick 0 def
} ifelse
/FontMatrix get
currentfont dup /FontType get 0 eq
{/FontMatrix get matrix concatmatrix}{pop} ifelse
dup 0 vg&uoffset 3 -1 roll transform /vg&uoffset exch def pop
0 vg&uthick 3 -1 roll transform /vg&uthick exch def pop
} def

% Make a frame with the coordinates on the stack.
% <llx> <lly> <urx> <ury> frame --
/frame {4 copy m 3 1 roll exch l 4 -2 roll l l h} def

% Resets the accumulated bounding box to a degenerate box at the
% current point.
% -- resetbbox --
/resetbbox {
  currentpoint 2 copy
  /bbury exch def
  /bburx exch def
  /bblly exch def
  /bbllx exch def
} def

% Update the accumulated bounding box.
% <llx'> <lly'> <urx'> <ury'> updatebbox --
/updatebbox {
  dup bbury gt {/bbury exch def} {pop} ifelse
  dup bburx gt {/bburx exch def} {pop} ifelse
  dup bblly lt {/bblly exch def} {pop} ifelse
  dup bbllx lt {/bbllx exch def} {pop} ifelse
} def

% Set the bounding box to the values on the stack.
% <llx'> <lly'> <urx'> <ury'> updatebbox --
/restorebbox {
  /bbury exch def /bburx exch def /bblly exch def /bbllx exch def
} def

% Push the accumulated bounding box onto the stack.
% -- pushbbox <llx> <lly> <urx> <ury>
/pushbbox {bbllx bblly bburx bbury} def

% Make the relative bounding box relative to the currentpoint.
% <llx'> <lly'> <urx'> <ury'> inflate <llx> <lly> <urx> <ury>
/inflate {
  2 {fontsize 0.2 mul add 4 1 roll} repeat
  2 {fontsize 0.2 mul sub 4 1 roll} repeat
} def

% Make the relative bounding box relative to the currentpoint.
% <llx'> <lly'> <urx'> <ury'> relative <llx> <lly> <urx> <ury>
/relative {
  currentpoint 3 -1 roll add 3 1 roll add exch 4 2 roll
  currentpoint 3 -1 roll add 3 1 roll add exch 4 2 roll
} def

% Returns the size of a string appropriate for recshow.
% <string> stringsize <llx> <lly> <urx> <ury>
/stringsize {
  pushbbox /internalshow load /internalstroke load 7 -1 roll
  q
  nulldevice 0 0 m
  nullinternalshow nullinternalstroke
  resetbbox
  recshow
  /internalstroke exch def /internalshow exch def
  pushbbox 8 -4 roll restorebbox
  Q
} def

% Calculate values for string positioning.
/calcval {4 copy
  3 -1 roll sub /widy exch def sub neg /widx exch def
  pop pop /dy exch def /dx exch def} def

% Utilities to position a string.
% First letter (U=upper, C=center, B=baseline, L=lower)
% Second letter (L=left, C=center, R=right)
/align [
{calcval dx neg widy dy add neg rmoveto} % UL
{calcval dx neg widy 2 div dy add neg rmoveto} % CL
{calcval dx neg 0 rmoveto} % BL
{calcval dx neg dy neg rmoveto} % LL
{calcval widx dx add neg widy dy add neg rmoveto} % UR
{calcval widx dx add neg widy 2 div dy add neg rmoveto} % CR
{calcval widx dx add neg 0 rmoveto} % BR
{calcval widx dx add neg dy neg rmoveto} % LR
{calcval widx 2 div dx add neg widy dy add neg rmoveto} % UC
{calcval widx 2 div dx add neg widy 2 div dy add neg rmoveto} % CC
{calcval widx 2 div dx add neg 0 rmoveto} % BC
{calcval widx 2 div dx add neg dy neg rmoveto} % LC
] def

/vg&str {m q 1 -1 scale dup stringsize 4 copy align 11 -1 roll get exec
         q inflate relative frame exch exec Q recshow Q} def

end /procDict exch def
%%EndProlog

%%BeginSetup
save
procDict begin
printColorMap begin
451 262 setpagesize
0 0 0 0 setmargins
0 0 setorigin
451 262 setsize
naturalsize
portrait
imagescale
cliptobounds
setbasematrix
/Helvetica 10 sf
defaultGraphicsState
%%EndSetup

0.00000 0.00000 0.00000 RG
[ 1.00000 0.00000 0.00000 1.00000 0.00000 0.00000 ] defaultmatrix matrix concatmatrix setmatrix
cliprestore
1.00000 1.00000 1.00000 RG
newpath
0.00000 0.00000 m
451.000 0.00000 l
451.000 262.000 l
0.00000 262.000 l
0.00000 0.00000 l
h
f
0.00000 0.00000 0.00000 RG
0.00000 0.00000 0.00000 RG
[ 1.00000 0.00000 0.00000 1.00000 0.00000 0.00000 ] defaultmatrix matrix concatmatrix setmatrix
cliprestore
1.00000 1.00000 1.00000 RG
newpath
0.00000 0.00000 m
451.000 0.00000 l
451.000 262.000 l
0.00000 262.000 l
0.00000 0.00000 l
h
f
0.00000 0.00000 0.00000 RG
0 0 451 262 rc
q
[ 1.00000 0.00000 0.00000 1.00000 0.00000 0.00000 ] concat
[ 1.00000 0.00000 0.00000 1.00000 -69.0000 -16.0000 ] concat
1.00000 1.00000 1.00000 RG
newpath
69.0000 16.0000 m
520.000 16.0000 l
520.000 278.000 l
69.0000 278.000 l
69.0000 16.0000 l
h
f
0.00000 0.00000 0.00000 RG
[ 1.00000 0.00000 0.00000 1.00000 -69.0000 -16.0000 ] defaultmatrix matrix concatmatrix setmatrix
[ 1.00000 0.00000 0.00000 1.00000 -69.0000 -16.0000 ] defaultmatrix matrix concatmatrix setmatrix
[ 1.00000 0.00000 0.00000 1.00000 0.00000 0.00000 ] defaultmatrix matrix concatmatrix setmatrix
[ 1.00000 0.00000 0.00000 1.00000 -69.0000 -16.0000 ] defaultmatrix matrix concatmatrix setmatrix
1.00000 1.00000 1.00000 RG
newpath
69.4800 16.3200 m
99.4800 16.3200 l
99.4800 46.3200 l
69.4800 46.3200 l
69.4800 16.3200 l
h
f
0 J
1.45000 M
0.00000 0.00000 0.00000 RG
newpath
69.4800 16.3200 m
99.4800 16.3200 l
99.4800 46.3200 l
69.4800 46.3200 l
69.4800 16.3200 l
h
S
2 J
10.0000 M
0 J
1.45000 M
newpath
85.5376 30.7555 m
86.1001 30.8805 86.5402 31.1332 86.8579 31.5134  c
87.1756 31.8936 87.3345 32.3649 87.3345 32.9274  c
87.3345 33.7920 87.0376 34.4613 86.4439 34.9352  c
85.8501 35.4092 85.0064 35.6462 83.9126 35.6462  c
83.5480 35.6462 83.1704 35.6097 82.7798 35.5368  c
82.3892 35.4639 81.9907 35.3545 81.5845 35.2087  c
81.5845 34.0680 l
81.9074 34.2555 82.2642 34.3988 82.6548 34.4977  c
83.0454 34.5967 83.4543 34.6462 83.8814 34.6462  c
84.6210 34.6462 85.1861 34.5003 85.5767 34.2087  c
85.9673 33.9170 86.1626 33.4899 86.1626 32.9274  c
86.1626 32.4170 85.9803 32.0160 85.6157 31.7243  c
85.2512 31.4326 84.7512 31.2868 84.1157 31.2868  c
83.0845 31.2868 l
83.0845 30.3180 l
84.1626 30.3180 l
84.7355 30.3180 85.1782 30.2009 85.4907 29.9665  c
85.8032 29.7321 85.9595 29.3962 85.9595 28.9587  c
85.9595 28.5108 85.8006 28.1670 85.4829 27.9274  c
85.1652 27.6878 84.7095 27.5680 84.1157 27.5680  c
83.7824 27.5680 83.4308 27.6019 83.0611 27.6696  c
82.6913 27.7373 82.2824 27.8441 81.8345 27.9899  c
81.8345 26.9430 l
82.2928 26.8180 82.7173 26.7243 83.1079 26.6618  c
83.4986 26.5993 83.8657 26.5680 84.2095 26.5680  c
85.1157 26.5680 85.8293 26.7712 86.3501 27.1774  c
86.8710 27.5837 87.1314 28.1358 87.1314 28.8337  c
87.1314 29.3233 86.9933 29.7347 86.7173 30.0680  c
86.4413 30.4014 86.0480 30.6305 85.5376 30.7555  c
h
f
2 J
10.0000 M
1.00000 1.00000 1.00000 RG
newpath
129.480 16.3200 m
159.480 16.3200 l
159.480 46.3200 l
129.480 46.3200 l
129.480 16.3200 l
h
f
0 J
1.45000 M
0.00000 0.00000 0.00000 RG
newpath
129.480 16.3200 m
159.480 16.3200 l
159.480 46.3200 l
129.480 46.3200 l
129.480 16.3200 l
h
S
2 J
10.0000 M
0 J
1.45000 M
newpath
141.959 26.7243 m
146.600 26.7243 l
146.600 27.7243 l
143.038 27.7243 l
143.038 29.8649 l
143.215 29.8024 143.389 29.7582 143.561 29.7321  c
143.733 29.7061 143.902 29.6930 144.069 29.6930  c
145.048 29.6930 145.824 29.9613 146.397 30.4977  c
146.970 31.0342 147.256 31.7555 147.256 32.6618  c
147.256 33.6097 146.962 34.3441 146.374 34.8649  c
145.785 35.3858 144.959 35.6462 143.897 35.6462  c
143.522 35.6462 143.144 35.6149 142.764 35.5524  c
142.384 35.4899 141.991 35.3962 141.584 35.2712  c
141.584 34.0837 l
141.939 34.2712 142.303 34.4118 142.678 34.5055  c
143.053 34.5993 143.449 34.6462 143.866 34.6462  c
144.543 34.6462 145.079 34.4691 145.475 34.1149  c
145.871 33.7608 146.069 33.2764 146.069 32.6618  c
146.069 32.0576 145.871 31.5785 145.475 31.2243  c
145.079 30.8701 144.543 30.6930 143.866 30.6930  c
143.553 30.6930 143.238 30.7269 142.920 30.7946  c
142.603 30.8623 142.282 30.9691 141.959 31.1149  c
141.959 26.7243 l
h
f
2 J
10.0000 M
1.00000 1.00000 1.00000 RG
newpath
189.480 16.3200 m
219.480 16.3200 l
219.480 46.3200 l
189.480 46.3200 l
189.480 16.3200 l
h
f
0 J
1.45000 M
0.00000 0.00000 0.00000 RG
newpath
189.480 16.3200 m
219.480 16.3200 l
219.480 46.3200 l
189.480 46.3200 l
189.480 16.3200 l
h
S
2 J
10.0000 M
0 J
1.45000 M
newpath
204.475 31.3180 m
203.913 31.3180 203.470 31.4691 203.147 31.7712  c
202.824 32.0733 202.663 32.4847 202.663 33.0055  c
202.663 33.5368 202.824 33.9535 203.147 34.2555  c
203.470 34.5576 203.913 34.7087 204.475 34.7087  c
205.038 34.7087 205.480 34.5576 205.803 34.2555  c
206.126 33.9535 206.288 33.5368 206.288 33.0055  c
206.288 32.4847 206.129 32.0733 205.811 31.7712  c
205.493 31.4691 205.048 31.3180 204.475 31.3180  c
h
203.288 30.8180 m
202.788 30.6930 202.394 30.4561 202.108 30.1071  c
201.821 29.7582 201.678 29.3337 201.678 28.8337  c
201.678 28.1358 201.928 27.5837 202.428 27.1774  c
202.928 26.7712 203.611 26.5680 204.475 26.5680  c
205.350 26.5680 206.035 26.7712 206.530 27.1774  c
207.025 27.5837 207.272 28.1358 207.272 28.8337  c
207.272 29.3337 207.131 29.7582 206.850 30.1071  c
206.569 30.4561 206.173 30.6930 205.663 30.8180  c
206.236 30.9535 206.681 31.2139 206.999 31.5993  c
207.316 31.9847 207.475 32.4535 207.475 33.0055  c
207.475 33.8597 207.217 34.5134 206.702 34.9665  c
206.186 35.4196 205.444 35.6462 204.475 35.6462  c
203.517 35.6462 202.777 35.4196 202.256 34.9665  c
201.736 34.5134 201.475 33.8597 201.475 33.0055  c
201.475 32.4535 201.637 31.9847 201.959 31.5993  c
202.282 31.2139 202.725 30.9535 203.288 30.8180  c
h
202.866 28.9430 m
202.866 29.4014 203.006 29.7555 203.288 30.0055  c
203.569 30.2555 203.965 30.3805 204.475 30.3805  c
204.986 30.3805 205.384 30.2555 205.670 30.0055  c
205.957 29.7555 206.100 29.4014 206.100 28.9430  c
206.100 28.4951 205.957 28.1436 205.670 27.8884  c
205.384 27.6332 204.986 27.5055 204.475 27.5055  c
203.965 27.5055 203.569 27.6332 203.288 27.8884  c
203.006 28.1436 202.866 28.4951 202.866 28.9430  c
h
f
2 J
10.0000 M
1.00000 1.00000 1.00000 RG
newpath
249.480 16.3200 m
279.480 16.3200 l
279.480 46.3200 l
249.480 46.3200 l
249.480 16.3200 l
h
f
0 J
1.45000 M
0.00000 0.00000 0.00000 RG
newpath
249.480 16.3200 m
279.480 16.3200 l
279.480 46.3200 l
249.480 46.3200 l
249.480 16.3200 l
h
S
2 J
10.0000 M
0 J
1.45000 M
newpath
261.975 35.2868 m
261.975 34.2087 l
262.277 34.3545 262.579 34.4639 262.881 34.5368  c
263.183 34.6097 263.486 34.6462 263.788 34.6462  c
264.569 34.6462 265.165 34.3832 265.577 33.8571  c
265.988 33.3311 266.220 32.5316 266.272 31.4587  c
266.053 31.8024 265.769 32.0628 265.420 32.2399  c
265.071 32.4170 264.683 32.5055 264.256 32.5055  c
263.381 32.5055 262.689 32.2425 262.178 31.7165  c
261.668 31.1904 261.413 30.4639 261.413 29.5368  c
261.413 28.6410 261.678 27.9222 262.210 27.3805  c
262.741 26.8389 263.449 26.5680 264.335 26.5680  c
265.345 26.5680 266.118 26.9561 266.655 27.7321  c
267.191 28.5082 267.460 29.6358 267.460 31.1149  c
267.460 32.4899 267.131 33.5889 266.475 34.4118  c
265.819 35.2347 264.939 35.6462 263.835 35.6462  c
263.532 35.6462 263.230 35.6175 262.928 35.5602  c
262.626 35.5029 262.308 35.4118 261.975 35.2868  c
h
264.335 31.5837 m
264.866 31.5837 265.288 31.4014 265.600 31.0368  c
265.913 30.6722 266.069 30.1722 266.069 29.5368  c
266.069 28.9118 265.913 28.4170 265.600 28.0524  c
265.288 27.6878 264.866 27.5055 264.335 27.5055  c
263.803 27.5055 263.384 27.6878 263.077 28.0524  c
262.769 28.4170 262.616 28.9118 262.616 29.5368  c
262.616 30.1722 262.769 30.6722 263.077 31.0368  c
263.384 31.4014 263.803 31.5837 264.335 31.5837  c
h
f
2 J
10.0000 M
1.00000 1.00000 1.00000 RG
newpath
309.480 16.3200 m
339.480 16.3200 l
339.480 46.3200 l
309.480 46.3200 l
309.480 16.3200 l
h
f
0 J
1.45000 M
0.00000 0.00000 0.00000 RG
newpath
309.480 16.3200 m
339.480 16.3200 l
339.480 46.3200 l
309.480 46.3200 l
309.480 16.3200 l
h
S
2 J
10.0000 M
0 J
1.45000 M
newpath
321.647 26.7243 m
327.272 26.7243 l
327.272 27.2243 l
324.100 35.4743 l
322.866 35.4743 l
325.850 27.7243 l
321.647 27.7243 l
321.647 26.7243 l
h
f
2 J
10.0000 M
1.00000 1.00000 1.00000 RG
newpath
369.480 16.3200 m
399.480 16.3200 l
399.480 46.3200 l
369.480 46.3200 l
369.480 16.3200 l
h
f
0 J
1.45000 M
0.00000 0.00000 0.00000 RG
newpath
369.480 16.3200 m
399.480 16.3200 l
399.480 46.3200 l
369.480 46.3200 l
369.480 16.3200 l
h
S
2 J
10.0000 M
0 J
1.45000 M
newpath
385.194 27.7555 m
382.210 32.4274 l
385.194 32.4274 l
385.194 27.7555 l
h
384.881 26.7243 m
386.381 26.7243 l
386.381 32.4274 l
387.631 32.4274 l
387.631 33.4118 l
386.381 33.4118 l
386.381 35.4743 l
385.194 35.4743 l
385.194 33.4118 l
381.256 33.4118 l
381.256 32.2712 l
384.881 26.7243 l
h
f
2 J
10.0000 M
1.00000 1.00000 1.00000 RG
newpath
429.480 16.3200 m
459.480 16.3200 l
459.480 46.3200 l
429.480 46.3200 l
429.480 16.3200 l
h
f
0 J
1.45000 M
0.00000 0.00000 0.00000 RG
newpath
429.480 16.3200 m
459.480 16.3200 l
459.480 46.3200 l
429.480 46.3200 l
429.480 16.3200 l
h
S
2 J
10.0000 M
0 J
1.45000 M
newpath
442.960 34.4743 m
447.100 34.4743 l
447.100 35.4743 l
441.538 35.4743 l
441.538 34.4743 l
441.986 34.0160 442.598 33.3936 443.374 32.6071  c
444.150 31.8207 444.637 31.3128 444.835 31.0837  c
445.220 30.6670 445.488 30.3102 445.639 30.0134  c
445.790 29.7165 445.866 29.4274 445.866 29.1462  c
445.866 28.6774 445.702 28.2972 445.374 28.0055  c
445.045 27.7139 444.621 27.5680 444.100 27.5680  c
443.725 27.5680 443.332 27.6305 442.920 27.7555  c
442.509 27.8805 442.069 28.0785 441.600 28.3493  c
441.600 27.1462 l
442.079 26.9587 442.525 26.8154 442.936 26.7165  c
443.348 26.6175 443.725 26.5680 444.069 26.5680  c
444.975 26.5680 445.699 26.7946 446.241 27.2477  c
446.782 27.7009 447.053 28.3076 447.053 29.0680  c
447.053 29.4222 446.986 29.7608 446.850 30.0837  c
446.715 30.4066 446.470 30.7868 446.116 31.2243  c
446.012 31.3389 445.699 31.6670 445.178 32.2087  c
444.657 32.7503 443.918 33.5055 442.960 34.4743  c
h
f
2 J
10.0000 M
1.00000 1.00000 1.00000 RG
newpath
489.480 16.3200 m
519.480 16.3200 l
519.480 46.3200 l
489.480 46.3200 l
489.480 16.3200 l
h
f
0 J
1.45000 M
0.00000 0.00000 0.00000 RG
newpath
489.480 16.3200 m
519.480 16.3200 l
519.480 46.3200 l
489.480 46.3200 l
489.480 16.3200 l
h
S
2 J
10.0000 M
0 J
1.45000 M
newpath
502.147 34.4743 m
504.085 34.4743 l
504.085 27.8024 l
501.975 28.2243 l
501.975 27.1462 l
504.069 26.7243 l
505.256 26.7243 l
505.256 34.4743 l
507.194 34.4743 l
507.194 35.4743 l
502.147 35.4743 l
502.147 34.4743 l
h
f
2 J
10.0000 M
0 J
1.45000 M
newpath
91.3287 50.5207 m
99.4800 55.5204 l
114.480 63.4940 l
129.480 70.2409 l
144.480 75.7612 l
159.480 80.0547 l
174.480 83.1214 l
189.480 84.9615 l
204.480 85.5749 l
219.480 84.9615 l
234.480 83.1214 l
249.480 80.0547 l
264.480 75.7612 l
279.480 70.2409 l
294.480 63.4940 l
309.480 55.5204 l
317.631 50.5207 l
S
newpath
84.5093 46.3380 m
92.1242 56.8742 l
92.1812 51.0436 l
97.3527 48.3499 l
h
f
newpath
324.451 46.3380 m
311.607 48.3499 l
316.779 51.0436 l
316.836 56.8742 l
h
f
2 J
10.0000 M
0 J
1.45000 M
newpath
151.277 50.6052 m
159.480 55.7775 l
174.480 63.9740 l
189.480 70.9095 l
204.480 76.5840 l
219.480 80.9975 l
234.480 84.1500 l
249.480 86.0415 l
264.480 86.6720 l
279.480 86.0415 l
294.480 84.1500 l
309.480 80.9975 l
324.480 76.5840 l
339.480 70.9095 l
354.480 63.9740 l
369.480 55.7775 l
377.684 50.6052 l
S
newpath
144.509 46.3385 m
151.993 56.9681 l
152.122 51.1385 l
157.327 48.5091 l
h
f
newpath
384.451 46.3385 m
371.633 48.5091 l
376.838 51.1385 l
376.967 56.9681 l
h
f
2 J
10.0000 M
0 J
1.45000 M
newpath
211.178 50.7578 m
219.480 56.2575 l
234.480 64.8700 l
249.480 72.1575 l
264.480 78.1200 l
279.480 82.7575 l
294.480 86.0700 l
309.480 88.0575 l
324.480 88.7200 l
339.480 88.0575 l
354.480 86.0700 l
369.480 82.7575 l
384.480 78.1200 l
399.480 72.1575 l
414.480 64.8700 l
429.480 56.2575 l
437.782 50.7578 l
S
newpath
204.509 46.3394 m
211.752 57.1352 l
212.012 51.3100 l
217.275 48.7987 l
h
f
newpath
444.451 46.3394 m
431.685 48.7987 l
436.948 51.3100 l
437.208 57.1352 l
h
f
2 J
10.0000 M
0 J
1.45000 M
newpath
271.228 50.6823 m
279.480 56.0175 l
294.480 64.4220 l
309.480 71.5335 l
324.480 77.3520 l
339.480 81.8775 l
354.480 85.1100 l
369.480 87.0495 l
384.480 87.6960 l
399.480 87.0495 l
414.480 85.1100 l
429.480 81.8775 l
444.480 77.3520 l
459.480 71.5335 l
474.480 64.4220 l
489.480 56.0175 l
497.732 50.6823 l
S
newpath
264.509 46.3389 m
271.872 57.0529 l
272.067 51.2252 l
277.301 48.6551 l
h
f
newpath
504.451 46.3389 m
491.659 48.6551 l
496.893 51.2252 l
497.088 57.0529 l
h
f
2 J
10.0000 M
Q
[ 1.00000 0.00000 0.00000 1.00000 0.00000 0.00000 ] defaultmatrix matrix concatmatrix setmatrix
cliprestore

%%Trailer
%%EOF
