%!PS-Adobe-3.0 EPSF-3.0
%%BoundingBox: 0 0 451 262
%%Creator: yExport 1.5
%%Producer: org.freehep.graphicsio.ps.EPSGraphics2D Revision: 12753 
%%For: 
%%Title: 
%%CreationDate: Monday, January 15, 2018 4:52:47 PM CET
%%LanguageLevel: 3
%%EndComments
%%BeginProlog
100 dict dup begin

%
% File: org/freehep/graphicsio.ps/PSProlog.txt
% Author: Charles Loomis
%

% Redefinitions which save some space in the output file.  These are also
% the same as the PDF operators.
/q {gsave} def
/Q {grestore} def

/n {newpath} def
/m {moveto} def
/l {lineto} def
/c {curveto} def
/h {closepath} def

/re {4 -2 roll moveto
     dup 0 exch rlineto exch 0 rlineto
     neg 0 exch rlineto closepath} def

/f {fill} def
/f* {eofill} def
/F {gsave vg&FC fill grestore} def
/F* {gsave vg&FC eofill grestore} def

/s {closepath stroke} def
/S {stroke} def

/b {closepath gsave vg&FC fill grestore
    gsave stroke grestore newpath} def
/B {gsave vg&FC fill grestore gsave stroke grestore newpath} def
/b* {closepath gsave vg&FC eofill grestore
    gsave stroke grestore newpath} def
/B* {gsave vg&FC eofill grestore gsave stroke grestore newpath} def

/g {1 array astore /vg&fcolor exch def} def
/G {setgray} def
/k {4 array astore /vg&fcolor exch def} def
/K {setcmykcolor} def
/rg {3 array astore /vg&fcolor exch def} def
/RG {setrgbcolor} def

% Initialize the fill color.
0 0 0 rg

/vg&FC {mark vg&fcolor aload pop
        counttomark 1 eq {G} if
        counttomark 3 eq {RG} if
        counttomark 4 eq {K} if
        cleartomark } def

/vg&DFC {/vg&fcolor exch def} def

/vg&C {mark exch aload pop
       counttomark 1 eq {G} if
       counttomark 3 eq {RG} if
       counttomark 4 eq {K} if
       cleartomark } def

/w {setlinewidth} def
/j {setlinejoin} def
/J {setlinecap} def
/M {setmiterlimit} def
/d {setdash} def
/i {setflat} def

/W {clip} def
/W* {eoclip} def

% Setup the default graphics state.
% (black; 1 pt. linewidth; miter join; butt-ends; solid)
/defaultGraphicsState {0 g 1 w 0 j 0 J [] 0 d} def

% Emulation of the rectangle operators for PostScript implementations
% which do not implement all Level 2 features.  This is an INCOMPLETE
% emulation; only the "x y width height rect..." form is emulated.
/*rf {gsave newpath re fill grestore} def
/*rs {gsave newpath re stroke grestore} def
/*rc {newpath re clip} def
/rf  /rectfill where {pop /rectfill}{/*rf} ifelse load def
/rs  /rectstroke where {pop /rectstroke}{/*rs} ifelse load def
/rc  /rectclip where {pop /rectclip}{/*rc} ifelse load def

% Emulation of the selectfont operator.  This includes a 20% increase in
% the fontsize which is necessary to get sizes similar to the Java fonts.
/*sf {exch findfont exch
      dup type /arraytype eq {makefont}{scalefont} ifelse setfont} bind def
/sf /selectfont where {pop {1.2 mul selectfont}}{{1.2 mul *sf}} ifelse def

% Special version of stroke which allows the dash pattern to continue
% across path segments.  (This may be needed for PostScript although
% modern printers seem to do this correctly.)
/vg&stroke {
  currentdash pop length 0 eq
  {stroke}
  {
    currentdash /vg&doffset exch def pop
    flattenpath
    {m vg&resetdash}
    {2 copy
     currentpoint
     3 -1 roll sub dup mul
     3 1 roll sub dup mul
     add sqrt
     3 1 roll l
     currentdash 3 -1 roll add setdash}
     {}
     {h vg&resetdash}
     pathforall
     stroke
     vg&resetdash
  } ifelse
} def
/vg&resetdash {currentdash pop vg&doffset setdash} def

% Initialize variables for safety.
/delta 0 def
/xv 0 def  /yv 0 def  /width 0 def  /height 0 def

% Initialize to portrait INTERNATIONAL (Letter-height, A4-width) page.
/pw 595 def  /ph 791  def  /po true def /ftp false def

% Initialize margins to 20 points.
/ml 20 def  /mr 20 def  /mt 20 def  /mb 20 def

% Temporary matrices.
/smatrix 0 def  /nmatrix 0 def

% set page size (usage: <page width><page height> setpagesize)
/setpagesize {/ph exch def /pw exch def} def

% set page orientation (usage: portrait or landscape)
/portrait {/po true def} def
/landscape {/po false def} def

% force natural size for image (usage: naturalsize)
/naturalsize {/ftp false def} def

% resize image to fill page (usage: fittopage)
/fittopage {/ftp true def} def

% set margins of the page (usage: <left><bottom><top><right> setmargins)
/setmargins {/mr exch def /mt exch def /mb exch def /ml exch def} def

% set the graphic's size (usage: <width><height> setsize)
/setsize {/gh exch def /gw exch def} def

% set the graphic's origin (usage: <x0><y0> setorigin)
/setorigin {/gy exch def /gx exch def} def

% calculate image center
/imagecenter {pw ml sub mr sub 2 div ml add
              ph mt sub mb sub 2 div mb add} def

% calculate the necessary scaling
/imagescale {po {gw}{gh} ifelse pw ml sub mr sub div
             po {gh}{gw} ifelse ph mt sub mb sub div
             2 copy lt {exch} if pop
             ftp not {1 2 copy lt {exch} if pop} if
             1 exch div /sfactor exch def
             /gw gw sfactor mul def /gh gh sfactor mul def} def

% calculate image origin
/imageorigin {pw ml sub mr sub 2 div ml add
              po {gw}{gh} ifelse 2 div sub
              ph mt sub mb sub 2 div mb add
              po {gh}{gw} ifelse 2 div po {add}{sub} ifelse} def

% calculate the clipping origin
/cliporigin  {pw ml sub mr sub 2 div ml add
              po {gw}{gh} ifelse 2 div sub floor
              ph mt sub mb sub 2 div mb add
              po {gh}{gw} ifelse 2 div sub floor} def

% Set the clipping region to the bounding box.
/cliptobounds {cliporigin po {gw}{gh} ifelse 1 add
                          po {gh}{gw} ifelse 1 add rc} def

% set the base transformation matrix (usage: setbasematrix)
/setbasematrix {imageorigin translate
                po {0}{90} ifelse rotate
                sfactor sfactor neg scale
                /defaultmatrix matrix currentmatrix def} def

% The lower-right bias in drawing 1 pt. wide lines.
/bias  {q 0.5 0.5 translate} def
/unbias {Q} def

% Define the composite fonts used to print Unicode strings.
% Undefine particular values in an encoding array.
/vg&undef { {exch dup 3 -1 roll /.notdef put} forall } def
/vg&redef { {3 -1 roll dup 4 2 roll put} forall } def

% usage: key encoding basefontname vg&newbasefont font
/vg&newbasefont {
findfont dup length dict copy
  begin
    currentdict /FID undef
    /Encoding exch def
    dup /FontName exch def
    currentdict
  end
definefont
} def

% usage: key encoding basefontname vg&newskewedbasefont font
/vg&newskewedbasefont {
findfont dup length dict copy
  begin
    currentdict /FID undef
    /Encoding exch def
    dup /FontName exch def
    exch FontMatrix exch matrix concatmatrix /FontMatrix exch def
    currentdict
  end
definefont
} def

% usage: basekey suffix vg&nconcat name
/vg&nconcat {
  2 {dup length string cvs exch} repeat
  dup length 3 -1 roll dup length 3 -1 roll add string
  dup 0 4 -1 roll dup length 5 1 roll putinterval
  dup 4 -2 roll exch putinterval cvn
} def

%usage: fontname vg&skewmatrix matrix
/vg&skewmatrix {
findfont dup /FontInfo known
  {
    /FontInfo get dup /ItalicAngle known
    {
      [ 1 0 4 -1 roll /ItalicAngle get neg dup sin exch cos div 1 0 0 ]
    }
    {pop matrix} ifelse
  }
  {pop matrix} ifelse
} def

% usage: newfontname basefontname vg&newcompositefont --
/vg&newcompositefont {
/vg&fstyle exch def
/vg&bfont exch def
/vg&fname exch def
<<
/FontStyleBits vg&fstyle
/FontType 0
/FontMatrix matrix
/FontName vg&fname
/FMapType 2
/Encoding [ 0 1 255 {pop 6} for ]
          dup 16#00 0 put % Latin
          dup 16#03 1 put % Greek
          dup 16#20 2 put % Punctuation
          dup 16#21 3 put % Arrows
          dup 16#22 4 put % MathOps
          dup 16#27 5 put % Dingbats

/FDepVector [
vg&bfont /-UC-Latin vg&nconcat UCLatinEncoding
vg&bfont vg&newbasefont

vg&bfont vg&skewmatrix
vg&bfont /-UC-Greek vg&nconcat UCGreekEncoding
/Symbol vg&newskewedbasefont

vg&bfont /-UC-Punctuation vg&nconcat UCPunctuationEncoding
vg&bfont vg&newbasefont

/Arrows-UC findfont
/MathOps-UC findfont
/Dingbats-UC findfont
/Undefined-UC findfont ]
>>
vg&fname exch definefont pop
} def

% Null encoding vector (all elements set to .notdef)
/NullEncoding [ 256 {/.notdef} repeat ] def

% Unicode Latin encoding (unicode codes \u0000-\u00ff)
/UCLatinEncoding
  ISOLatin1Encoding dup length array copy
  dup 16#60 /grave put
  [ 16#90 16#91 16#92 16#93 16#94 16#95 16#96
    16#97 16#98 16#9a 16#9b 16#9d 16#9e 16#9f
  ] vg&undef
  def

% Unicode Greek encoding (unicode codes \u0370-\u03ff)
/UCGreekEncoding
  NullEncoding dup length array copy
  << 16#91 /Alpha    16#92 /Beta      16#93 /Gamma    16#94 /Delta
     16#95 /Epsilon  16#96 /Zeta      16#97 /Eta      16#98 /Theta
     16#99 /Iota     16#9a /Kappa     16#9b /Lambda   16#9c /Mu
     16#9d /Nu       16#9e /Xi        16#9f /Omicron  16#a0 /Pi
     16#a1 /Rho      16#a3 /Sigma     16#a4 /Tau      16#a5 /Upsilon
     16#a6 /Phi      16#a7 /Chi       16#a8 /Psi      16#a9 /Omega
     16#b1 /alpha    16#b2 /beta      16#b3 /gamma    16#b4 /delta
     16#b5 /epsilon  16#b6 /zeta      16#b7 /eta      16#b8 /theta
     16#b9 /iota     16#ba /kappa     16#bb /lambda   16#bc /mu
     16#bd /nu       16#be /xi        16#bf /omicron  16#c0 /pi
     16#c1 /rho      16#c2 /sigma1    16#c3 /sigma    16#c4 /tau
     16#c5 /upsilon  16#c6 /phi1      16#c7 /chi      16#c8 /psi
     16#c9 /omega    16#7e /semicolon 16#87 /dotmath  16#d1 /theta1
     16#d2 /Upsilon1 16#d5 /phi       16#d6 /omega1
  >> vg&redef
  def

% Unicode punctuation encoding (unicode codes \u2000-\u206f)
/UCPunctuationEncoding
  NullEncoding dup length array copy
  << 16#10 /hyphen          16#11 /hyphen              16#12 /endash
     16#13 /emdash          16#18 /quoteleft           16#19 /quoteright
     16#1a /quotesinglbase  16#1b /quotesingle         16#1c /quotedblleft
     16#1d /quotedblright   16#1e /quotedblbase        16#1f /quotedbl
     16#20 /dagger          16#21 /daggerdbl           16#22 /bullet
     16#24 /period          16#26 /ellipsis            16#27 /periodcentered
     16#30 /perthousand     16#44 /fraction
     16#70 /zerosuperior    16#74 /foursuperior        16#75 /fivesuperior
     16#76 /sixsuperior     16#77 /sevensuperior       16#78 /eightsuperior
     16#79 /ninesuperior    16#7b /hyphensuperior      16#7d /parenleftsuperior
     16#7e /parenrightsuperior
     16#80 /zeroinferior    16#84 /fourinferior        16#85 /fiveinferior
     16#81 /oneinferior     16#82 /twoinferior         16#83 /threeinferior
     16#86 /sixinferior     16#87 /seveninferior       16#88 /eightinferior
     16#89 /nineinferior    16#8b /hypheninferior      16#8d /parenleftinferior
     16#8e /parenrightinferior
  >> vg&redef
  def

% Unicode mathematical operators encoding (unicode codes \u2200-\u22ff)
/UCMathOpsEncoding
  NullEncoding dup length array copy
  << 16#00 /universal       16#02 /partialdiff         16#03 /existential
     16#05 /emptyset        16#06 /Delta               16#07 /gradient
     16#08 /element         16#09 /notelement          16#0b /suchthat
     16#0f /product         16#11 /summation           16#12 /minus
     16#15 /fraction        16#17 /asteriskmath        16#19 /bullet
     16#1a /radical         16#1d /proportional        16#1e /infinity
     16#20 /angle           16#23 /bar                 16#27 /logicaland
     16#28 /logicalor       16#29 /intersection        16#2a /union
     16#2b /integral        16#34 /therefore           16#36 /colon
     16#3c /similar         16#45 /congruent           16#48 /approxequal
     16#60 /notequal        16#61 /equivalence         16#64 /lessequal
     16#65 /greaterequal    16#82 /propersubset        16#83 /propersuperset
     16#86 /reflexsubset    16#87 /reflexsuperset      16#95 /circleplus
     16#97 /circlemultiply  16#a5 /perpendicular       16#03 /existential
     16#c0 /logicaland      16#c1 /logicalor           16#c2 /intersection
     16#c3 /union           16#c4 /diamond             16#c5 /dotmath
  >> vg&redef
  def

% Unicode arrows encoding (unicode codes \u2190-\u21ff)
% Also includes those "Letterlike" unicode characters
% which are available in the symbol font. (unicode codes \u2100-\u214f)
/UCArrowsEncoding
  NullEncoding dup length array copy
  << 16#11 /Ifraktur        16#1c /Rfraktur            16#22 /trademarkserif
     16#35 /aleph
     16#90 /arrowleft       16#91 /arrowup             16#92 /arrowright
     16#93 /arrowdown       16#94 /arrowboth           16#d0 /arrowdblleft
     16#d1 /arrowdblup      16#d2 /arrowdblright       16#d3 /arrowdbldown
     16#d4 /arrowdblboth
  >> vg&redef
  def

/ZapfDingbats findfont /Encoding get
dup length array copy /UCDingbatsEncoding exch def
16#20 1 16#7f {
  dup 16#20 sub exch
  UCDingbatsEncoding exch get
  UCDingbatsEncoding 3 1 roll put
} for
16#a0 1 16#ff {
  dup 16#40 sub exch
  UCDingbatsEncoding exch get
  UCDingbatsEncoding 3 1 roll put
} for
UCDingbatsEncoding [ 16#c0 1 16#ff {} for ] vg&undef
[ 16#00  16#05 16#0a 16#0b  16#28 16#4c 16#4e  16#53 16#54 16#55  16#57 16#5f
  16#60  16#68 16#69 16#6a  16#6b 16#6c 16#6d  16#6e 16#6f 16#70  16#71 16#72
  16#73  16#74 16#75 16#95  16#96 16#97 16#b0  16#bf
] vg&undef pop

% Define the base fonts which don't change.
/Undefined-UC NullEncoding       /Helvetica    vg&newbasefont pop
/MathOps-UC   UCMathOpsEncoding  /Symbol       vg&newbasefont pop
/Arrows-UC    UCArrowsEncoding   /Symbol       vg&newbasefont pop
/Dingbats-UC  UCDingbatsEncoding /ZapfDingbats vg&newbasefont pop

% Make the SansSerif composite fonts.
/SansSerif /Helvetica 16#00 vg&newcompositefont
/SansSerif-Bold /Helvetica-Bold 16#01 vg&newcompositefont
/SansSerif-Italic /Helvetica-Oblique 16#02 vg&newcompositefont
/SansSerif-BoldItalic /Helvetica-BoldOblique 16#03 vg&newcompositefont

% Make the Serif composite fonts.
/Serif /Times-Roman 16#00 vg&newcompositefont
/Serif-Bold /Times-Bold 16#01 vg&newcompositefont
/Serif-Italic /Times-Italic 16#02 vg&newcompositefont
/Serif-BoldItalic /Times-BoldItalic 16#03 vg&newcompositefont

% Make the Monospaced composite fonts.
/Monospaced /Courier 16#00 vg&newcompositefont
/Monospaced-Bold /Courier-Bold 16#01 vg&newcompositefont
/Monospaced-Italic /Courier-Oblique 16#02 vg&newcompositefont
/Monospaced-BoldItalic /Courier-BoldOblique 16#03 vg&newcompositefont

% Make the Dialog composite fonts.
/Dialog /Helvetica 16#00 vg&newcompositefont
/Dialog-Bold /Helvetica-Bold 16#01 vg&newcompositefont
/Dialog-Italic /Helvetica-Oblique 16#02 vg&newcompositefont
/Dialog-BoldItalic /Helvetica-BoldOblique 16#03 vg&newcompositefont

% Make the DialogInput composite fonts.
/DialogInput /Courier 16#00 vg&newcompositefont
/DialogInput-Bold /Courier-Bold 16#01 vg&newcompositefont
/DialogInput-Italic /Courier-Oblique 16#02 vg&newcompositefont
/DialogInput-BoldItalic /Courier-BoldOblique 16#03 vg&newcompositefont

% Make the Typewriter composite fonts (JDK 1.1 only).
/Typewriter /Courier 16#00 vg&newcompositefont
/Typewriter-Bold /Courier-Bold 16#01 vg&newcompositefont
/Typewriter-Italic /Courier-Oblique 16#02 vg&newcompositefont
/Typewriter-BoldItalic /Courier-BoldOblique 16#03 vg&newcompositefont


/cfontH {
 dup /fontsize exch def /SansSerif exch sf
 /vg&fontstyles [{cfontH} {cfontHB} {cfontHI} {cfontHBI}] def
} def
/cfontHB {
  dup /fontsize exch def /SansSerif-Bold exch sf
 /vg&fontstyles [{cfontH} {cfontHB} {cfontHI} {cfontHBI}] def
} def
/cfontHI {
 dup /fontsize exch def /SansSerif-Italic exch sf
 /vg&fontstyles [{cfontH} {cfontHB} {cfontHI} {cfontHBI}] def
} def
/cfontHBI {
 dup /fontsize exch def /SansSerif-BoldItalic exch sf
 /vg&fontstyles [{cfontH} {cfontHB} {cfontHI} {cfontHBI}] def
} def

/cfontT {
 dup /fontsize exch def /Serif exch sf
 /vg&fontstyles [{cfontT} {cfontTB} {cfontTI} {cfontTBI}] def
} def
/cfontTB {
 dup /fontsize exch def /Serif-Bold exch sf
 /vg&fontstyles [{cfontT} {cfontTB} {cfontTI} {cfontTBI}] def
} def
/cfontTI {
 dup /fontsize exch def /Serif-Italic exch sf
 /vg&fontstyles [{cfontT} {cfontTB} {cfontTI} {cfontTBI}] def
} def
/cfontTBI {
 dup /fontsize exch def /Serif-BoldItalic exch sf
 /vg&fontstyles [{cfontT} {cfontTB} {cfontTI} {cfontTBI}] def
} def

/cfontC {
 dup /fontsize exch def /Typewriter exch sf
 /vg&fontstyles [{cfontC} {cfontCB} {cfontCI} {cfontCBI}] def
} def
/cfontCB {
 dup /fontsize exch def /Typewriter-Bold exch sf
 /vg&fontstyles [{cfontC} {cfontCB} {cfontCI} {cfontCBI}] def
} def
/cfontCI {
 dup /fontsize exch def /Typewriter-Italic exch sf
 /vg&fontstyles [{cfontC} {cfontCB} {cfontCI} {cfontCBI}] def
} def
/cfontCBI {
 dup /fontsize exch def /Typewriter-BoldItalic exch sf
 /vg&fontstyles [{cfontC} {cfontCB} {cfontCI} {cfontCBI}] def
} def

% Darken or lighten the current color.
/darken {0.7 exch exp 3 copy
         q 4 -1 roll vg&C
         currentrgbcolor 3 {4 -2 roll mul} repeat
         3 array astore Q} def

/displayColorMap
<< /Cr   [1.00 0.00 0.00]       /Cg     [0.00 1.00 0.00]
   /Cb   [0.00 0.00 1.00]       /Cc     [1.00 0.00 0.00 0.00]
   /Cm   [0.00 1.00 0.00 0.00]  /Cy     [0.00 0.00 1.00 0.00]
   /Co   [1.00 0.78 0.00]       /Cp     [1.00 0.67 0.67]
   /Cw   [1   ]                 /Cgrl   [0.75]
   /Cgr  [0.50]                 /Cgrd   [0.25]
   /Ck   [0   ]
   /CGr  [1.00 0.00 0.00]       /CGg    [0.00 1.00 0.00]
   /CGb  [0.00 0.00 1.00]       /CGc    [1.00 0.00 0.00 0.00]
   /CGm  [0.00 1.00 0.00 0.00]  /CGy    [0.00 0.00 1.00 0.00]
   /CGo  [1.00 0.78 0.00]       /CGp    [1.00 0.67 0.67]
   /CGw  [1   ]                 /CGgrl  [0.75]
   /CGgr [0.50]                 /CGgrd  [0.25]
   /CGk  [0   ]
   /CIr  [1.00 0.00 0.00]       /CIg    [0.00 1.00 0.00]
   /CIb  [0.00 0.00 1.00]       /CIc    [1.00 0.00 0.00 0.00]
   /CIm  [0.00 1.00 0.00 0.00]  /CIy    [0.00 0.00 1.00 0.00]
   /CIo  [1.00 0.78 0.00]       /CIp    [1.00 0.67 0.67]
   /CIw  [1   ]                 /CIgrl  [0.75]
   /CIgr [0.50]                 /CIgrd  [0.25]
   /CIk  [0   ]
>> def

/printColorMap
<< /Cr   [1.00 0.33 0.33]       /Cg     [0.33 1.00 0.33]
   /Cb   [0.33 0.33 1.00]       /Cc     [1.00 0.00 0.00 0.00]
   /Cm   [0.00 1.00 0.00 0.00]  /Cy     [0.00 0.00 1.00 0.00]
   /Co   [1.00 0.78 0.00]       /Cp     [1.00 0.67 0.67]
   /Cw   [1   ]                 /Cgrl   [0.75]
   /Cgr  [0.50]                 /Cgrd   [0.25]
   /Ck   [0   ]
   /CGr  [1.00 0.33 0.33]       /CGg    [0.33 1.00 0.33]
   /CGb  [0.33 0.33 1.00]       /CGc    [1.00 0.00 0.00 0.00]
   /CGm  [0.00 1.00 0.00 0.00]  /CGy    [0.00 0.00 1.00 0.00]
   /CGo  [1.00 0.78 0.00]       /CGp    [1.00 0.67 0.67]
   /CGw  [1   ]                 /CGgrl  [0.75]
   /CGgr [0.50]                 /CGgrd  [0.25]
   /CGk  [0   ]
   /CIr  [1.00 0.33 0.33]       /CIg    [0.33 1.00 0.33]
   /CIb  [0.33 0.33 1.00]       /CIc    [1.00 0.00 0.00 0.00]
   /CIm  [0.00 1.00 0.00 0.00]  /CIy    [0.00 0.00 1.00 0.00]
   /CIo  [1.00 0.78 0.00]       /CIp    [1.00 0.67 0.67]
   /CIw  [1   ]                 /CIgrl  [0.75]
   /CIgr [0.50]                 /CIgrd  [0.25]
   /CIk  [0   ]
>> def

/grayColorMap
<< /Cr   [0   ]                 /Cg     [0   ]
   /Cb   [0   ]                 /Cc     [0   ]
   /Cm   [0   ]                 /Cy     [0   ]
   /Co   [0   ]                 /Cp     [0   ]
   /Cw   [0   ]                 /Cgrl   [0   ]
   /Cgr  [0   ]                 /Cgrd   [0   ]
   /Ck   [0   ]
   /CGr  [0.75]                 /CGg    [1   ]
   /CGb  [0.50]                 /CGc    [0.75]
   /CGm  [0.50]                 /CGy    [1   ]
   /CGo  [0.75]                 /CGp    [1   ]
   /CGw  [0   ]                 /CGgrl  [0.25]
   /CGgr [0.50]                 /CGgrd  [0.75]
   /CGk  [1   ]
   /CIr  [1   ]                 /CIg    [1   ]
   /CIb  [1   ]                 /CIc    [1   ]
   /CIm  [1   ]                 /CIy    [1   ]
   /CIo  [1   ]                 /CIp    [1   ]
   /CIw  [1   ]                 /CIgrl  [1   ]
   /CIgr [1   ]                 /CIgrd  [1   ]
   /CIk  [1   ]
>> def

/bwColorMap
<< /Cr   [0   ]                 /Cg     [0   ]
   /Cb   [0   ]                 /Cc     [0   ]
   /Cm   [0   ]                 /Cy     [0   ]
   /Co   [0   ]                 /Cp     [0   ]
   /Cw   [0   ]                 /Cgrl   [0   ]
   /Cgr  [0   ]                 /Cgrd   [0   ]
   /Ck   [0   ]
   /CGr  [1   ]                 /CGg    [1   ]
   /CGb  [1   ]                 /CGc    [1   ]
   /CGm  [1   ]                 /CGy    [1   ]
   /CGo  [1   ]                 /CGp    [1   ]
   /CGw  [0   ]                 /CGgrl  [1   ]
   /CGgr [1   ]                 /CGgrd  [1   ]
   /CGk  [1   ]
   /CIr  [1   ]                 /CIg    [1   ]
   /CIb  [1   ]                 /CIc    [1   ]
   /CIm  [1   ]                 /CIy    [1   ]
   /CIo  [1   ]                 /CIp    [1   ]
   /CIw  [1   ]                 /CIgrl  [1   ]
   /CIgr [1   ]                 /CIgrd  [1   ]
   /CIk  [1   ]
>> def

%
% The following routines handle the alignment of and printing of
% tagged strings.
%

% Predefine the bounding box values.
/bbllx 0 def /bblly 0 def /bburx 0 def /bbury 0 def

% This routine pops the first unicode character off of a string and returns
% the remainder of the string, the character code of first character,
% and a "true" if the string was non-zero length.
% <string>      popfirst <remaining string> <true>
% <null string> popfirst <false>
/popfirst {
  dup length 1 gt
    {dup 0 get /vg&fbyte exch def
     dup 1 get /vg&cbyte exch def
     dup length 2 sub 2 exch getinterval true}
    {pop false} ifelse
} def

% This routine shows a single unicode character given the font and
% character codes.
% <font code> <char code> unicharshow --
/unicharshow {
  2 string
  dup 0 5 -1 roll put
  dup 1 4 -1 roll put
  internalshow
} def

% This is an internal routine to alternate between determining the
% bounding box for stringsize and showing the string for recshow.
% <string> internalshow --
/internalshow {show} def

% This is an internal routine to alternate between determining the
% bounding box for stringsize and stroking various ornaments.
% <string> internalstroke --
/internalstroke {S} def

% Sets up internalshow to use the null device to determine string size.
% -- nullinternalshow --
/nullinternalshow {/internalshow {false charpath flattenpath
                                  pathbbox updatebbox} def} def

% Sets up internalstroke to use the null device to determine string size.
% -- nullinternalstroke --
/nullinternalstroke {
 /internalstroke {flattenpath pathbbox updatebbox} def} def

% This routine tests to see if the character code matches the first
% character of a string.
% <char code> <string> testchar <char code> <true or false>
/testchar {exch dup 3 -1 roll 0 get eq} def

% Raise the text baseline for superscripts.
% -- raise --
/raise {
  0 fontsize 2 div rmoveto
  /fontsize fontsize 2 mul 3 div def
  currentfont /FontName get fontsize sf
} def

% Un-raise the text baseline for superscripts.
% -- unraise --
/unraise {
  /fontsize fontsize 1.5 mul def
  0 fontsize 2 div neg rmoveto
} def

% Lower the text baseline for subscripts.
% -- lower --
/lower {
  0 fontsize 3 div neg rmoveto
  /fontsize fontsize 2 mul 3 div def
  currentfont /FontName get fontsize sf
} def

% Un-lower the text baseline for subscripts.
% -- unlower --
/unlower {
  /fontsize fontsize 1.5 mul def
  0 fontsize 3 div rmoveto
} def

% Compare the top two elements on the stack and leave only the
% larger one.
/maxval {2 copy gt {pop} {exch pop} ifelse} def

% Tokenize a string.  Do not use the usual PostScript token because
% parentheses will not be interpreted correctly because of rescanning
% of the string.
/vg&token {/vg&string exch def /vg&index -1 def /vg&level 0 def
0 2 vg&string length 2 sub {
  dup dup 1 add exch vg&string exch get 8 bitshift vg&string 3 -1 roll get or
  dup 16#f0fe eq {pop 1}{16#f0ff eq {-1}{0} ifelse} ifelse
  /vg&level exch vg&level add def
  vg&level 0 eq {/vg&index exch def exit} if pop
} for
vg&index 0 ge {
  vg&string vg&index 2 add dup vg&string length exch sub getinterval
  vg&index 2 gt {vg&string 2 vg&index 2 sub getinterval}{()} ifelse
  true}
{false} ifelse
} bind def

% Recursively show an unicode string.
% <string> recshow --
/recshow {
  popfirst
  {
    % Test to see if this is a string attribute.
    vg&fbyte 16#f0 and 16#e0 eq
    {
      q

      % Font style.
      currentfont dup /FontStyleBits known {/FontStyleBits get}{pop 0} ifelse
      vg&cbyte or vg&fontstyles exch get fontsize exch exec

      vg&token pop recshow currentpoint Q m recshow
    }
    {
      vg&fbyte 16#F8 and 16#F0 eq {

        % Superscript and/or subscript.
        vg&cbyte 16#00 eq {
          vg&token pop exch vg&token pop 3 -1 roll
          q raise recshow unraise currentpoint pop Q exch
          q lower recshow unlower currentpoint pop Q
          maxval currentpoint exch pop m recshow } if

        % Strikeout.
        vg&cbyte 16#01 eq {
          vg&token pop currentpoint 3 -1 roll recshow
          q 0 J vg&underline vg&uthick w
          currentpoint 4 -2 roll fontsize 3 div add moveto
          fontsize 3 div add lineto internalstroke Q
          recshow} if

        % Underline.
        vg&cbyte 16#02 eq {
          vg&token pop currentpoint 3 -1 roll recshow
          q 0 J vg&underline vg&uthick w
          currentpoint 4 -2 roll vg&uoffset add moveto
          vg&uoffset add lineto internalstroke Q
          recshow} if

        % Dashed underline.
        vg&cbyte 16#03 eq {
          vg&token pop currentpoint 3 -1 roll recshow
          q 0 J [ vg&uthick 5 mul vg&uthick 2 mul] 0 d
          vg&underline vg&uthick w
          currentpoint 4 -2 roll vg&uoffset add moveto
          vg&uoffset add lineto internalstroke Q
          recshow} if

        % Dotted underline.
        vg&cbyte 16#04 eq {
          vg&token pop currentpoint 3 -1 roll recshow
          q 1 J [ 0 vg&uthick 3 mul] 0 d
          vg&underline vg&uthick w
          currentpoint 4 -2 roll vg&uoffset add moveto
          vg&uoffset add lineto internalstroke Q
          recshow} if

        % Thick underline.
        vg&cbyte 16#05 eq {
          vg&token pop currentpoint 3 -1 roll recshow
          q 0 J vg&underline vg&uthick 2 mul w
          currentpoint 4 -2 roll vg&uoffset vg&uthick 2 div sub add moveto
          vg&uoffset vg&uthick 2 div sub add lineto internalstroke Q
          recshow} if

        % Gray thick underline.
        vg&cbyte 16#06 eq {
          vg&token pop currentpoint 3 -1 roll recshow
          q 0 J vg&underline vg&uthick 2 mul w 0.5 setgray
          currentpoint 4 -2 roll vg&uoffset vg&uthick 2 div sub add moveto
          vg&uoffset vg&uthick 2 div sub add lineto internalstroke Q
          recshow} if

        % Overbar.
        vg&cbyte 16#07 eq {
          vg&token pop dup stringsize relative 4 1 roll pop pop exch
          3 -1 roll recshow
          q 0 J vg&underline vg&uthick w
          vg&uoffset neg add dup currentpoint pop exch m l internalstroke Q
          recshow} if
      }
      {
        vg&fbyte vg&cbyte unicharshow recshow
      } ifelse
    } ifelse
  } if
} def

% Get the underline position and thickness from the current font.
/vg&underline {

currentfont dup /FontType get 0 eq {/FDepVector get 0 get} if
dup dup /FontInfo known {
  /FontInfo get dup
  dup /UnderlinePosition known {
    /UnderlinePosition get /vg&uoffset exch def
  }
  {
    pop /vg&uoffset 0 def
  } ifelse
  dup /UnderlineThickness known {
    /UnderlineThickness get /vg&uthick exch def
  }
  {
    pop /vg&uthick 0 def
  } ifelse
}
{
  pop /vg&uoffset 0 def /vg&uthick 0 def
} ifelse
/FontMatrix get
currentfont dup /FontType get 0 eq
{/FontMatrix get matrix concatmatrix}{pop} ifelse
dup 0 vg&uoffset 3 -1 roll transform /vg&uoffset exch def pop
0 vg&uthick 3 -1 roll transform /vg&uthick exch def pop
} def

% Make a frame with the coordinates on the stack.
% <llx> <lly> <urx> <ury> frame --
/frame {4 copy m 3 1 roll exch l 4 -2 roll l l h} def

% Resets the accumulated bounding box to a degenerate box at the
% current point.
% -- resetbbox --
/resetbbox {
  currentpoint 2 copy
  /bbury exch def
  /bburx exch def
  /bblly exch def
  /bbllx exch def
} def

% Update the accumulated bounding box.
% <llx'> <lly'> <urx'> <ury'> updatebbox --
/updatebbox {
  dup bbury gt {/bbury exch def} {pop} ifelse
  dup bburx gt {/bburx exch def} {pop} ifelse
  dup bblly lt {/bblly exch def} {pop} ifelse
  dup bbllx lt {/bbllx exch def} {pop} ifelse
} def

% Set the bounding box to the values on the stack.
% <llx'> <lly'> <urx'> <ury'> updatebbox --
/restorebbox {
  /bbury exch def /bburx exch def /bblly exch def /bbllx exch def
} def

% Push the accumulated bounding box onto the stack.
% -- pushbbox <llx> <lly> <urx> <ury>
/pushbbox {bbllx bblly bburx bbury} def

% Make the relative bounding box relative to the currentpoint.
% <llx'> <lly'> <urx'> <ury'> inflate <llx> <lly> <urx> <ury>
/inflate {
  2 {fontsize 0.2 mul add 4 1 roll} repeat
  2 {fontsize 0.2 mul sub 4 1 roll} repeat
} def

% Make the relative bounding box relative to the currentpoint.
% <llx'> <lly'> <urx'> <ury'> relative <llx> <lly> <urx> <ury>
/relative {
  currentpoint 3 -1 roll add 3 1 roll add exch 4 2 roll
  currentpoint 3 -1 roll add 3 1 roll add exch 4 2 roll
} def

% Returns the size of a string appropriate for recshow.
% <string> stringsize <llx> <lly> <urx> <ury>
/stringsize {
  pushbbox /internalshow load /internalstroke load 7 -1 roll
  q
  nulldevice 0 0 m
  nullinternalshow nullinternalstroke
  resetbbox
  recshow
  /internalstroke exch def /internalshow exch def
  pushbbox 8 -4 roll restorebbox
  Q
} def

% Calculate values for string positioning.
/calcval {4 copy
  3 -1 roll sub /widy exch def sub neg /widx exch def
  pop pop /dy exch def /dx exch def} def

% Utilities to position a string.
% First letter (U=upper, C=center, B=baseline, L=lower)
% Second letter (L=left, C=center, R=right)
/align [
{calcval dx neg widy dy add neg rmoveto} % UL
{calcval dx neg widy 2 div dy add neg rmoveto} % CL
{calcval dx neg 0 rmoveto} % BL
{calcval dx neg dy neg rmoveto} % LL
{calcval widx dx add neg widy dy add neg rmoveto} % UR
{calcval widx dx add neg widy 2 div dy add neg rmoveto} % CR
{calcval widx dx add neg 0 rmoveto} % BR
{calcval widx dx add neg dy neg rmoveto} % LR
{calcval widx 2 div dx add neg widy dy add neg rmoveto} % UC
{calcval widx 2 div dx add neg widy 2 div dy add neg rmoveto} % CC
{calcval widx 2 div dx add neg 0 rmoveto} % BC
{calcval widx 2 div dx add neg dy neg rmoveto} % LC
] def

/vg&str {m q 1 -1 scale dup stringsize 4 copy align 11 -1 roll get exec
         q inflate relative frame exch exec Q recshow Q} def

end /procDict exch def
%%EndProlog

%%BeginSetup
save
procDict begin
printColorMap begin
451 262 setpagesize
0 0 0 0 setmargins
0 0 setorigin
451 262 setsize
naturalsize
portrait
imagescale
cliptobounds
setbasematrix
/Helvetica 10 sf
defaultGraphicsState
%%EndSetup

0.00000 0.00000 0.00000 RG
[ 1.00000 0.00000 0.00000 1.00000 0.00000 0.00000 ] defaultmatrix matrix concatmatrix setmatrix
cliprestore
1.00000 1.00000 1.00000 RG
newpath
0.00000 0.00000 m
451.000 0.00000 l
451.000 262.000 l
0.00000 262.000 l
0.00000 0.00000 l
h
f
0.00000 0.00000 0.00000 RG
0.00000 0.00000 0.00000 RG
[ 1.00000 0.00000 0.00000 1.00000 0.00000 0.00000 ] defaultmatrix matrix concatmatrix setmatrix
cliprestore
1.00000 1.00000 1.00000 RG
newpath
0.00000 0.00000 m
451.000 0.00000 l
451.000 262.000 l
0.00000 262.000 l
0.00000 0.00000 l
h
f
0.00000 0.00000 0.00000 RG
0 0 451 262 rc
q
[ 1.00000 0.00000 0.00000 1.00000 0.00000 0.00000 ] concat
[ 1.00000 0.00000 0.00000 1.00000 -69.0000 -16.0000 ] concat
1.00000 1.00000 1.00000 RG
newpath
69.0000 16.0000 m
520.000 16.0000 l
520.000 278.000 l
69.0000 278.000 l
69.0000 16.0000 l
h
f
0.00000 0.00000 0.00000 RG
[ 1.00000 0.00000 0.00000 1.00000 -69.0000 -16.0000 ] defaultmatrix matrix concatmatrix setmatrix
[ 1.00000 0.00000 0.00000 1.00000 -69.0000 -16.0000 ] defaultmatrix matrix concatmatrix setmatrix
[ 1.00000 0.00000 0.00000 1.00000 0.00000 0.00000 ] defaultmatrix matrix concatmatrix setmatrix
[ 1.00000 0.00000 0.00000 1.00000 -69.0000 -16.0000 ] defaultmatrix matrix concatmatrix setmatrix
1.00000 1.00000 1.00000 RG
newpath
69.4800 16.3200 m
99.4800 16.3200 l
99.4800 46.3200 l
69.4800 46.3200 l
69.4800 16.3200 l
h
f
0 J
1.45000 M
0.00000 0.00000 0.00000 RG
newpath
69.4800 16.3200 m
99.4800 16.3200 l
99.4800 46.3200 l
69.4800 46.3200 l
69.4800 16.3200 l
h
S
2 J
10.0000 M
0 J
1.45000 M
newpath
85.5376 30.7555 m
86.1001 30.8805 86.5402 31.1332 86.8579 31.5134  c
87.1756 31.8936 87.3345 32.3649 87.3345 32.9274  c
87.3345 33.7920 87.0376 34.4613 86.4439 34.9352  c
85.8501 35.4092 85.0064 35.6462 83.9126 35.6462  c
83.5480 35.6462 83.1704 35.6097 82.7798 35.5368  c
82.3892 35.4639 81.9907 35.3545 81.5845 35.2087  c
81.5845 34.0680 l
81.9074 34.2555 82.2642 34.3988 82.6548 34.4977  c
83.0454 34.5967 83.4543 34.6462 83.8814 34.6462  c
84.6210 34.6462 85.1861 34.5003 85.5767 34.2087  c
85.9673 33.9170 86.1626 33.4899 86.1626 32.9274  c
86.1626 32.4170 85.9803 32.0160 85.6157 31.7243  c
85.2512 31.4326 84.7512 31.2868 84.1157 31.2868  c
83.0845 31.2868 l
83.0845 30.3180 l
84.1626 30.3180 l
84.7355 30.3180 85.1782 30.2009 85.4907 29.9665  c
85.8032 29.7321 85.9595 29.3962 85.9595 28.9587  c
85.9595 28.5108 85.8006 28.1670 85.4829 27.9274  c
85.1652 27.6878 84.7095 27.5680 84.1157 27.5680  c
83.7824 27.5680 83.4308 27.6019 83.0611 27.6696  c
82.6913 27.7373 82.2824 27.8441 81.8345 27.9899  c
81.8345 26.9430 l
82.2928 26.8180 82.7173 26.7243 83.1079 26.6618  c
83.4986 26.5993 83.8657 26.5680 84.2095 26.5680  c
85.1157 26.5680 85.8293 26.7712 86.3501 27.1774  c
86.8710 27.5837 87.1314 28.1358 87.1314 28.8337  c
87.1314 29.3233 86.9933 29.7347 86.7173 30.0680  c
86.4413 30.4014 86.0480 30.6305 85.5376 30.7555  c
h
f
2 J
10.0000 M
1.00000 1.00000 1.00000 RG
newpath
129.480 16.3200 m
159.480 16.3200 l
159.480 46.3200 l
129.480 46.3200 l
129.480 16.3200 l
h
f
0 J
1.45000 M
0.00000 0.00000 0.00000 RG
newpath
129.480 16.3200 m
159.480 16.3200 l
159.480 46.3200 l
129.480 46.3200 l
129.480 16.3200 l
h
S
2 J
10.0000 M
0 J
1.45000 M
newpath
141.959 26.7243 m
146.600 26.7243 l
146.600 27.7243 l
143.038 27.7243 l
143.038 29.8649 l
143.215 29.8024 143.389 29.7582 143.561 29.7321  c
143.733 29.7061 143.902 29.6930 144.069 29.6930  c
145.048 29.6930 145.824 29.9613 146.397 30.4977  c
146.970 31.0342 147.256 31.7555 147.256 32.6618  c
147.256 33.6097 146.962 34.3441 146.374 34.8649  c
145.785 35.3858 144.959 35.6462 143.897 35.6462  c
143.522 35.6462 143.144 35.6149 142.764 35.5524  c
142.384 35.4899 141.991 35.3962 141.584 35.2712  c
141.584 34.0837 l
141.939 34.2712 142.303 34.4118 142.678 34.5055  c
143.053 34.5993 143.449 34.6462 143.866 34.6462  c
144.543 34.6462 145.079 34.4691 145.475 34.1149  c
145.871 33.7608 146.069 33.2764 146.069 32.6618  c
146.069 32.0576 145.871 31.5785 145.475 31.2243  c
145.079 30.8701 144.543 30.6930 143.866 30.6930  c
143.553 30.6930 143.238 30.7269 142.920 30.7946  c
142.603 30.8623 142.282 30.9691 141.959 31.1149  c
141.959 26.7243 l
h
f
2 J
10.0000 M
1.00000 1.00000 1.00000 RG
newpath
189.480 16.3200 m
219.480 16.3200 l
219.480 46.3200 l
189.480 46.3200 l
189.480 16.3200 l
h
f
0 J
1.45000 M
0.00000 0.00000 0.00000 RG
newpath
189.480 16.3200 m
219.480 16.3200 l
219.480 46.3200 l
189.480 46.3200 l
189.480 16.3200 l
h
S
2 J
10.0000 M
0 J
1.45000 M
newpath
204.475 31.3180 m
203.913 31.3180 203.470 31.4691 203.147 31.7712  c
202.824 32.0733 202.663 32.4847 202.663 33.0055  c
202.663 33.5368 202.824 33.9535 203.147 34.2555  c
203.470 34.5576 203.913 34.7087 204.475 34.7087  c
205.038 34.7087 205.480 34.5576 205.803 34.2555  c
206.126 33.9535 206.288 33.5368 206.288 33.0055  c
206.288 32.4847 206.129 32.0733 205.811 31.7712  c
205.493 31.4691 205.048 31.3180 204.475 31.3180  c
h
203.288 30.8180 m
202.788 30.6930 202.394 30.4561 202.108 30.1071  c
201.821 29.7582 201.678 29.3337 201.678 28.8337  c
201.678 28.1358 201.928 27.5837 202.428 27.1774  c
202.928 26.7712 203.611 26.5680 204.475 26.5680  c
205.350 26.5680 206.035 26.7712 206.530 27.1774  c
207.025 27.5837 207.272 28.1358 207.272 28.8337  c
207.272 29.3337 207.131 29.7582 206.850 30.1071  c
206.569 30.4561 206.173 30.6930 205.663 30.8180  c
206.236 30.9535 206.681 31.2139 206.999 31.5993  c
207.316 31.9847 207.475 32.4535 207.475 33.0055  c
207.475 33.8597 207.217 34.5134 206.702 34.9665  c
206.186 35.4196 205.444 35.6462 204.475 35.6462  c
203.517 35.6462 202.777 35.4196 202.256 34.9665  c
201.736 34.5134 201.475 33.8597 201.475 33.0055  c
201.475 32.4535 201.637 31.9847 201.959 31.5993  c
202.282 31.2139 202.725 30.9535 203.288 30.8180  c
h
202.866 28.9430 m
202.866 29.4014 203.006 29.7555 203.288 30.0055  c
203.569 30.2555 203.965 30.3805 204.475 30.3805  c
204.986 30.3805 205.384 30.2555 205.670 30.0055  c
205.957 29.7555 206.100 29.4014 206.100 28.9430  c
206.100 28.4951 205.957 28.1436 205.670 27.8884  c
205.384 27.6332 204.986 27.5055 204.475 27.5055  c
203.965 27.5055 203.569 27.6332 203.288 27.8884  c
203.006 28.1436 202.866 28.4951 202.866 28.9430  c
h
f
2 J
10.0000 M
1.00000 1.00000 1.00000 RG
newpath
249.480 16.3200 m
279.480 16.3200 l
279.480 46.3200 l
249.480 46.3200 l
249.480 16.3200 l
h
f
0 J
1.45000 M
0.00000 0.00000 0.00000 RG
newpath
249.480 16.3200 m
279.480 16.3200 l
279.480 46.3200 l
249.480 46.3200 l
249.480 16.3200 l
h
S
2 J
10.0000 M
0 J
1.45000 M
newpath
261.975 35.2868 m
261.975 34.2087 l
262.277 34.3545 262.579 34.4639 262.881 34.5368  c
263.183 34.6097 263.486 34.6462 263.788 34.6462  c
264.569 34.6462 265.165 34.3832 265.577 33.8571  c
265.988 33.3311 266.220 32.5316 266.272 31.4587  c
266.053 31.8024 265.769 32.0628 265.420 32.2399  c
265.071 32.4170 264.683 32.5055 264.256 32.5055  c
263.381 32.5055 262.689 32.2425 262.178 31.7165  c
261.668 31.1904 261.413 30.4639 261.413 29.5368  c
261.413 28.6410 261.678 27.9222 262.210 27.3805  c
262.741 26.8389 263.449 26.5680 264.335 26.5680  c
265.345 26.5680 266.118 26.9561 266.655 27.7321  c
267.191 28.5082 267.460 29.6358 267.460 31.1149  c
267.460 32.4899 267.131 33.5889 266.475 34.4118  c
265.819 35.2347 264.939 35.6462 263.835 35.6462  c
263.532 35.6462 263.230 35.6175 262.928 35.5602  c
262.626 35.5029 262.308 35.4118 261.975 35.2868  c
h
264.335 31.5837 m
264.866 31.5837 265.288 31.4014 265.600 31.0368  c
265.913 30.6722 266.069 30.1722 266.069 29.5368  c
266.069 28.9118 265.913 28.4170 265.600 28.0524  c
265.288 27.6878 264.866 27.5055 264.335 27.5055  c
263.803 27.5055 263.384 27.6878 263.077 28.0524  c
262.769 28.4170 262.616 28.9118 262.616 29.5368  c
262.616 30.1722 262.769 30.6722 263.077 31.0368  c
263.384 31.4014 263.803 31.5837 264.335 31.5837  c
h
f
2 J
10.0000 M
1.00000 1.00000 1.00000 RG
newpath
309.480 16.3200 m
339.480 16.3200 l
339.480 46.3200 l
309.480 46.3200 l
309.480 16.3200 l
h
f
0 J
1.45000 M
0.00000 0.00000 0.00000 RG
newpath
309.480 16.3200 m
339.480 16.3200 l
339.480 46.3200 l
309.480 46.3200 l
309.480 16.3200 l
h
S
2 J
10.0000 M
0 J
1.45000 M
newpath
321.647 26.7243 m
327.272 26.7243 l
327.272 27.2243 l
324.100 35.4743 l
322.866 35.4743 l
325.850 27.7243 l
321.647 27.7243 l
321.647 26.7243 l
h
f
2 J
10.0000 M
1.00000 1.00000 1.00000 RG
newpath
369.480 16.3200 m
399.480 16.3200 l
399.480 46.3200 l
369.480 46.3200 l
369.480 16.3200 l
h
f
0 J
1.45000 M
0.00000 0.00000 0.00000 RG
newpath
369.480 16.3200 m
399.480 16.3200 l
399.480 46.3200 l
369.480 46.3200 l
369.480 16.3200 l
h
S
2 J
10.0000 M
0 J
1.45000 M
newpath
385.194 27.7555 m
382.210 32.4274 l
385.194 32.4274 l
385.194 27.7555 l
h
384.881 26.7243 m
386.381 26.7243 l
386.381 32.4274 l
387.631 32.4274 l
387.631 33.4118 l
386.381 33.4118 l
386.381 35.4743 l
385.194 35.4743 l
385.194 33.4118 l
381.256 33.4118 l
381.256 32.2712 l
384.881 26.7243 l
h
f
2 J
10.0000 M
1.00000 1.00000 1.00000 RG
newpath
429.480 16.3200 m
459.480 16.3200 l
459.480 46.3200 l
429.480 46.3200 l
429.480 16.3200 l
h
f
0 J
1.45000 M
0.00000 0.00000 0.00000 RG
newpath
429.480 16.3200 m
459.480 16.3200 l
459.480 46.3200 l
429.480 46.3200 l
429.480 16.3200 l
h
S
2 J
10.0000 M
0 J
1.45000 M
newpath
442.960 34.4743 m
447.100 34.4743 l
447.100 35.4743 l
441.538 35.4743 l
441.538 34.4743 l
441.986 34.0160 442.598 33.3936 443.374 32.6071  c
444.150 31.8207 444.637 31.3128 444.835 31.0837  c
445.220 30.6670 445.488 30.3102 445.639 30.0134  c
445.790 29.7165 445.866 29.4274 445.866 29.1462  c
445.866 28.6774 445.702 28.2972 445.374 28.0055  c
445.045 27.7139 444.621 27.5680 444.100 27.5680  c
443.725 27.5680 443.332 27.6305 442.920 27.7555  c
442.509 27.8805 442.069 28.0785 441.600 28.3493  c
441.600 27.1462 l
442.079 26.9587 442.525 26.8154 442.936 26.7165  c
443.348 26.6175 443.725 26.5680 444.069 26.5680  c
444.975 26.5680 445.699 26.7946 446.241 27.2477  c
446.782 27.7009 447.053 28.3076 447.053 29.0680  c
447.053 29.4222 446.986 29.7608 446.850 30.0837  c
446.715 30.4066 446.470 30.7868 446.116 31.2243  c
446.012 31.3389 445.699 31.6670 445.178 32.2087  c
444.657 32.7503 443.918 33.5055 442.960 34.4743  c
h
f
2 J
10.0000 M
1.00000 1.00000 1.00000 RG
newpath
489.480 16.3200 m
519.480 16.3200 l
519.480 46.3200 l
489.480 46.3200 l
489.480 16.3200 l
h
f
0 J
1.45000 M
0.00000 0.00000 0.00000 RG
newpath
489.480 16.3200 m
519.480 16.3200 l
519.480 46.3200 l
489.480 46.3200 l
489.480 16.3200 l
h
S
2 J
10.0000 M
0 J
1.45000 M
newpath
502.147 34.4743 m
504.085 34.4743 l
504.085 27.8024 l
501.975 28.2243 l
501.975 27.1462 l
504.069 26.7243 l
505.256 26.7243 l
505.256 34.4743 l
507.194 34.4743 l
507.194 35.4743 l
502.147 35.4743 l
502.147 34.4743 l
h
f
2 J
10.0000 M
1.00000 1.00000 1.00000 RG
newpath
69.4800 187.308 m
99.4800 187.308 l
99.4800 217.308 l
69.4800 217.308 l
69.4800 187.308 l
h
f
0 J
1.45000 M
0.00000 0.00000 0.00000 RG
newpath
69.4800 187.308 m
99.4800 187.308 l
99.4800 217.308 l
69.4800 217.308 l
69.4800 187.308 l
h
S
2 J
10.0000 M
0 J
1.45000 M
newpath
82.9595 205.462 m
87.1001 205.462 l
87.1001 206.462 l
81.5376 206.462 l
81.5376 205.462 l
81.9855 205.004 82.5975 204.382 83.3736 203.595  c
84.1496 202.809 84.6366 202.301 84.8345 202.072  c
85.2199 201.655 85.4881 201.298 85.6392 201.001  c
85.7902 200.704 85.8657 200.415 85.8657 200.134  c
85.8657 199.665 85.7017 199.285 85.3736 198.994  c
85.0454 198.702 84.6210 198.556 84.1001 198.556  c
83.7251 198.556 83.3319 198.619 82.9204 198.744  c
82.5090 198.869 82.0689 199.066 81.6001 199.337  c
81.6001 198.134 l
82.0793 197.947 82.5246 197.803 82.9361 197.704  c
83.3475 197.606 83.7251 197.556 84.0689 197.556  c
84.9751 197.556 85.6991 197.783 86.2407 198.236  c
86.7824 198.689 87.0532 199.296 87.0532 200.056  c
87.0532 200.410 86.9855 200.749 86.8501 201.072  c
86.7147 201.395 86.4699 201.775 86.1157 202.212  c
86.0116 202.327 85.6991 202.655 85.1782 203.197  c
84.6574 203.738 83.9178 204.494 82.9595 205.462  c
h
f
2 J
10.0000 M
1.00000 1.00000 1.00000 RG
newpath
129.480 187.308 m
159.480 187.308 l
159.480 217.308 l
129.480 217.308 l
129.480 187.308 l
h
f
0 J
1.45000 M
0.00000 0.00000 0.00000 RG
newpath
129.480 187.308 m
159.480 187.308 l
159.480 217.308 l
129.480 217.308 l
129.480 187.308 l
h
S
2 J
10.0000 M
0 J
1.45000 M
newpath
142.147 205.462 m
144.084 205.462 l
144.084 198.790 l
141.975 199.212 l
141.975 198.134 l
144.069 197.712 l
145.256 197.712 l
145.256 205.462 l
147.194 205.462 l
147.194 206.462 l
142.147 206.462 l
142.147 205.462 l
h
f
2 J
10.0000 M
1.00000 1.00000 1.00000 RG
newpath
189.480 187.308 m
219.480 187.308 l
219.480 217.308 l
189.480 217.308 l
189.480 187.308 l
h
f
0 J
1.45000 M
0.00000 0.00000 0.00000 RG
newpath
189.480 187.308 m
219.480 187.308 l
219.480 217.308 l
189.480 217.308 l
189.480 187.308 l
h
S
2 J
10.0000 M
0 J
1.45000 M
newpath
205.538 201.744 m
206.100 201.869 206.540 202.121 206.858 202.501  c
207.176 202.882 207.334 203.353 207.334 203.915  c
207.334 204.780 207.038 205.449 206.444 205.923  c
205.850 206.397 205.006 206.634 203.913 206.634  c
203.548 206.634 203.170 206.598 202.780 206.525  c
202.389 206.452 201.991 206.343 201.584 206.197  c
201.584 205.056 l
201.907 205.244 202.264 205.387 202.655 205.486  c
203.045 205.585 203.454 205.634 203.881 205.634  c
204.621 205.634 205.186 205.488 205.577 205.197  c
205.967 204.905 206.163 204.478 206.163 203.915  c
206.163 203.405 205.980 203.004 205.616 202.712  c
205.251 202.421 204.751 202.275 204.116 202.275  c
203.084 202.275 l
203.084 201.306 l
204.163 201.306 l
204.736 201.306 205.178 201.189 205.491 200.954  c
205.803 200.720 205.959 200.384 205.959 199.947  c
205.959 199.499 205.801 199.155 205.483 198.915  c
205.165 198.676 204.709 198.556 204.116 198.556  c
203.782 198.556 203.431 198.590 203.061 198.658  c
202.691 198.725 202.282 198.832 201.834 198.978  c
201.834 197.931 l
202.293 197.806 202.717 197.712 203.108 197.650  c
203.499 197.587 203.866 197.556 204.209 197.556  c
205.116 197.556 205.829 197.759 206.350 198.165  c
206.871 198.572 207.131 199.124 207.131 199.822  c
207.131 200.311 206.993 200.723 206.717 201.056  c
206.441 201.389 206.048 201.619 205.538 201.744  c
h
f
2 J
10.0000 M
1.00000 1.00000 1.00000 RG
newpath
249.480 187.308 m
279.480 187.308 l
279.480 217.308 l
249.480 217.308 l
249.480 187.308 l
h
f
0 J
1.45000 M
0.00000 0.00000 0.00000 RG
newpath
249.480 187.308 m
279.480 187.308 l
279.480 217.308 l
249.480 217.308 l
249.480 187.308 l
h
S
2 J
10.0000 M
0 J
1.45000 M
newpath
265.194 198.744 m
262.210 203.415 l
265.194 203.415 l
265.194 198.744 l
h
264.881 197.712 m
266.381 197.712 l
266.381 203.415 l
267.631 203.415 l
267.631 204.400 l
266.381 204.400 l
266.381 206.462 l
265.194 206.462 l
265.194 204.400 l
261.256 204.400 l
261.256 203.259 l
264.881 197.712 l
h
f
2 J
10.0000 M
1.00000 1.00000 1.00000 RG
newpath
309.480 187.308 m
339.480 187.308 l
339.480 217.308 l
309.480 217.308 l
309.480 187.308 l
h
f
0 J
1.45000 M
0.00000 0.00000 0.00000 RG
newpath
309.480 187.308 m
339.480 187.308 l
339.480 217.308 l
309.480 217.308 l
309.480 187.308 l
h
S
2 J
10.0000 M
0 J
1.45000 M
newpath
321.647 197.712 m
327.272 197.712 l
327.272 198.212 l
324.100 206.462 l
322.866 206.462 l
325.850 198.712 l
321.647 198.712 l
321.647 197.712 l
h
f
2 J
10.0000 M
1.00000 1.00000 1.00000 RG
newpath
369.480 187.308 m
399.480 187.308 l
399.480 217.308 l
369.480 217.308 l
369.480 187.308 l
h
f
0 J
1.45000 M
0.00000 0.00000 0.00000 RG
newpath
369.480 187.308 m
399.480 187.308 l
399.480 217.308 l
369.480 217.308 l
369.480 187.308 l
h
S
2 J
10.0000 M
0 J
1.45000 M
newpath
381.960 197.712 m
386.600 197.712 l
386.600 198.712 l
383.038 198.712 l
383.038 200.853 l
383.215 200.790 383.389 200.746 383.561 200.720  c
383.733 200.694 383.902 200.681 384.069 200.681  c
385.048 200.681 385.824 200.949 386.397 201.486  c
386.970 202.022 387.256 202.744 387.256 203.650  c
387.256 204.598 386.962 205.332 386.374 205.853  c
385.785 206.374 384.960 206.634 383.897 206.634  c
383.522 206.634 383.144 206.603 382.764 206.540  c
382.384 206.478 381.991 206.384 381.585 206.259  c
381.585 205.072 l
381.939 205.259 382.303 205.400 382.678 205.494  c
383.053 205.587 383.449 205.634 383.866 205.634  c
384.543 205.634 385.079 205.457 385.475 205.103  c
385.871 204.749 386.069 204.264 386.069 203.650  c
386.069 203.046 385.871 202.566 385.475 202.212  c
385.079 201.858 384.543 201.681 383.866 201.681  c
383.553 201.681 383.238 201.715 382.920 201.783  c
382.603 201.850 382.282 201.957 381.960 202.103  c
381.960 197.712 l
h
f
2 J
10.0000 M
1.00000 1.00000 1.00000 RG
newpath
429.480 187.308 m
459.480 187.308 l
459.480 217.308 l
429.480 217.308 l
429.480 187.308 l
h
f
0 J
1.45000 M
0.00000 0.00000 0.00000 RG
newpath
429.480 187.308 m
459.480 187.308 l
459.480 217.308 l
429.480 217.308 l
429.480 187.308 l
h
S
2 J
10.0000 M
0 J
1.45000 M
newpath
444.475 202.306 m
443.913 202.306 443.470 202.457 443.147 202.759  c
442.824 203.061 442.663 203.473 442.663 203.994  c
442.663 204.525 442.824 204.941 443.147 205.244  c
443.470 205.546 443.913 205.697 444.475 205.697  c
445.038 205.697 445.480 205.546 445.803 205.244  c
446.126 204.941 446.288 204.525 446.288 203.994  c
446.288 203.473 446.129 203.061 445.811 202.759  c
445.493 202.457 445.048 202.306 444.475 202.306  c
h
443.288 201.806 m
442.788 201.681 442.394 201.444 442.108 201.095  c
441.821 200.746 441.678 200.322 441.678 199.822  c
441.678 199.124 441.928 198.572 442.428 198.165  c
442.928 197.759 443.611 197.556 444.475 197.556  c
445.350 197.556 446.035 197.759 446.530 198.165  c
447.025 198.572 447.272 199.124 447.272 199.822  c
447.272 200.322 447.131 200.746 446.850 201.095  c
446.569 201.444 446.173 201.681 445.663 201.806  c
446.236 201.941 446.681 202.202 446.999 202.587  c
447.316 202.973 447.475 203.441 447.475 203.994  c
447.475 204.848 447.217 205.501 446.702 205.954  c
446.186 206.408 445.444 206.634 444.475 206.634  c
443.517 206.634 442.777 206.408 442.256 205.954  c
441.736 205.501 441.475 204.848 441.475 203.994  c
441.475 203.441 441.637 202.973 441.960 202.587  c
442.282 202.202 442.725 201.941 443.288 201.806  c
h
442.866 199.931 m
442.866 200.389 443.006 200.744 443.288 200.994  c
443.569 201.244 443.965 201.369 444.475 201.369  c
444.986 201.369 445.384 201.244 445.670 200.994  c
445.957 200.744 446.100 200.389 446.100 199.931  c
446.100 199.483 445.957 199.132 445.670 198.876  c
445.384 198.621 444.986 198.494 444.475 198.494  c
443.965 198.494 443.569 198.621 443.288 198.876  c
443.006 199.132 442.866 199.483 442.866 199.931  c
h
f
2 J
10.0000 M
1.00000 1.00000 1.00000 RG
newpath
489.480 187.308 m
519.480 187.308 l
519.480 217.308 l
489.480 217.308 l
489.480 187.308 l
h
f
0 J
1.45000 M
0.00000 0.00000 0.00000 RG
newpath
489.480 187.308 m
519.480 187.308 l
519.480 217.308 l
489.480 217.308 l
489.480 187.308 l
h
S
2 J
10.0000 M
0 J
1.45000 M
newpath
501.975 206.275 m
501.975 205.197 l
502.277 205.343 502.579 205.452 502.881 205.525  c
503.183 205.598 503.486 205.634 503.788 205.634  c
504.569 205.634 505.165 205.371 505.577 204.845  c
505.988 204.319 506.220 203.520 506.272 202.447  c
506.053 202.790 505.769 203.051 505.420 203.228  c
505.071 203.405 504.683 203.494 504.256 203.494  c
503.381 203.494 502.689 203.231 502.178 202.704  c
501.668 202.178 501.413 201.452 501.413 200.525  c
501.413 199.629 501.678 198.910 502.210 198.369  c
502.741 197.827 503.449 197.556 504.335 197.556  c
505.345 197.556 506.118 197.944 506.655 198.720  c
507.191 199.496 507.460 200.624 507.460 202.103  c
507.460 203.478 507.131 204.577 506.475 205.400  c
505.819 206.223 504.939 206.634 503.835 206.634  c
503.532 206.634 503.230 206.606 502.928 206.548  c
502.626 206.491 502.308 206.400 501.975 206.275  c
h
504.335 202.572 m
504.866 202.572 505.288 202.389 505.600 202.025  c
505.913 201.660 506.069 201.160 506.069 200.525  c
506.069 199.900 505.913 199.405 505.600 199.040  c
505.288 198.676 504.866 198.494 504.335 198.494  c
503.803 198.494 503.384 198.676 503.077 199.040  c
502.769 199.405 502.616 199.900 502.616 200.525  c
502.616 201.160 502.769 201.660 503.077 202.025  c
503.384 202.389 503.803 202.572 504.335 202.572  c
h
f
2 J
10.0000 M
1.00000 1.00000 1.00000 RG
newpath
69.4800 247.308 m
99.4800 247.308 l
99.4800 277.308 l
69.4800 277.308 l
69.4800 247.308 l
h
f
0 J
1.45000 M
0.00000 0.00000 0.00000 RG
newpath
69.4800 247.308 m
99.4800 247.308 l
99.4800 277.308 l
69.4800 277.308 l
69.4800 247.308 l
h
S
2 J
10.0000 M
0 J
1.45000 M
newpath
82.1470 265.462 m
84.0845 265.462 l
84.0845 258.790 l
81.9751 259.212 l
81.9751 258.134 l
84.0689 257.712 l
85.2564 257.712 l
85.2564 265.462 l
87.1939 265.462 l
87.1939 266.462 l
82.1470 266.462 l
82.1470 265.462 l
h
f
2 J
10.0000 M
1.00000 1.00000 1.00000 RG
newpath
129.480 247.308 m
159.480 247.308 l
159.480 277.308 l
129.480 277.308 l
129.480 247.308 l
h
f
0 J
1.45000 M
0.00000 0.00000 0.00000 RG
newpath
129.480 247.308 m
159.480 247.308 l
159.480 277.308 l
129.480 277.308 l
129.480 247.308 l
h
S
2 J
10.0000 M
0 J
1.45000 M
newpath
142.959 265.462 m
147.100 265.462 l
147.100 266.462 l
141.538 266.462 l
141.538 265.462 l
141.986 265.004 142.598 264.382 143.374 263.595  c
144.150 262.809 144.637 262.301 144.834 262.072  c
145.220 261.655 145.488 261.298 145.639 261.001  c
145.790 260.704 145.866 260.415 145.866 260.134  c
145.866 259.665 145.702 259.285 145.374 258.994  c
145.045 258.702 144.621 258.556 144.100 258.556  c
143.725 258.556 143.332 258.619 142.920 258.744  c
142.509 258.869 142.069 259.066 141.600 259.337  c
141.600 258.134 l
142.079 257.947 142.525 257.803 142.936 257.704  c
143.348 257.606 143.725 257.556 144.069 257.556  c
144.975 257.556 145.699 257.783 146.241 258.236  c
146.782 258.689 147.053 259.296 147.053 260.056  c
147.053 260.410 146.986 260.749 146.850 261.072  c
146.715 261.395 146.470 261.775 146.116 262.212  c
146.012 262.327 145.699 262.655 145.178 263.197  c
144.657 263.738 143.918 264.494 142.959 265.462  c
h
f
2 J
10.0000 M
1.00000 1.00000 1.00000 RG
newpath
189.480 247.308 m
219.480 247.308 l
219.480 277.308 l
189.480 277.308 l
189.480 247.308 l
h
f
0 J
1.45000 M
0.00000 0.00000 0.00000 RG
newpath
189.480 247.308 m
219.480 247.308 l
219.480 277.308 l
189.480 277.308 l
189.480 247.308 l
h
S
2 J
10.0000 M
0 J
1.45000 M
newpath
205.538 261.744 m
206.100 261.869 206.540 262.121 206.858 262.501  c
207.176 262.882 207.334 263.353 207.334 263.915  c
207.334 264.780 207.038 265.449 206.444 265.923  c
205.850 266.397 205.006 266.634 203.913 266.634  c
203.548 266.634 203.170 266.598 202.780 266.525  c
202.389 266.452 201.991 266.343 201.584 266.197  c
201.584 265.056 l
201.907 265.244 202.264 265.387 202.655 265.486  c
203.045 265.585 203.454 265.634 203.881 265.634  c
204.621 265.634 205.186 265.488 205.577 265.197  c
205.967 264.905 206.163 264.478 206.163 263.915  c
206.163 263.405 205.980 263.004 205.616 262.712  c
205.251 262.421 204.751 262.275 204.116 262.275  c
203.084 262.275 l
203.084 261.306 l
204.163 261.306 l
204.736 261.306 205.178 261.189 205.491 260.954  c
205.803 260.720 205.959 260.384 205.959 259.947  c
205.959 259.499 205.801 259.155 205.483 258.915  c
205.165 258.676 204.709 258.556 204.116 258.556  c
203.782 258.556 203.431 258.590 203.061 258.658  c
202.691 258.725 202.282 258.832 201.834 258.978  c
201.834 257.931 l
202.293 257.806 202.717 257.712 203.108 257.650  c
203.499 257.587 203.866 257.556 204.209 257.556  c
205.116 257.556 205.829 257.759 206.350 258.165  c
206.871 258.572 207.131 259.124 207.131 259.822  c
207.131 260.311 206.993 260.723 206.717 261.056  c
206.441 261.389 206.048 261.619 205.538 261.744  c
h
f
2 J
10.0000 M
1.00000 1.00000 1.00000 RG
newpath
249.480 247.308 m
279.480 247.308 l
279.480 277.308 l
249.480 277.308 l
249.480 247.308 l
h
f
0 J
1.45000 M
0.00000 0.00000 0.00000 RG
newpath
249.480 247.308 m
279.480 247.308 l
279.480 277.308 l
249.480 277.308 l
249.480 247.308 l
h
S
2 J
10.0000 M
0 J
1.45000 M
newpath
265.194 258.744 m
262.210 263.415 l
265.194 263.415 l
265.194 258.744 l
h
264.881 257.712 m
266.381 257.712 l
266.381 263.415 l
267.631 263.415 l
267.631 264.400 l
266.381 264.400 l
266.381 266.462 l
265.194 266.462 l
265.194 264.400 l
261.256 264.400 l
261.256 263.259 l
264.881 257.712 l
h
f
2 J
10.0000 M
1.00000 1.00000 1.00000 RG
newpath
309.480 247.308 m
339.480 247.308 l
339.480 277.308 l
309.480 277.308 l
309.480 247.308 l
h
f
0 J
1.45000 M
0.00000 0.00000 0.00000 RG
newpath
309.480 247.308 m
339.480 247.308 l
339.480 277.308 l
309.480 277.308 l
309.480 247.308 l
h
S
2 J
10.0000 M
0 J
1.45000 M
newpath
321.960 257.712 m
326.600 257.712 l
326.600 258.712 l
323.038 258.712 l
323.038 260.853 l
323.215 260.790 323.389 260.746 323.561 260.720  c
323.733 260.694 323.902 260.681 324.069 260.681  c
325.048 260.681 325.824 260.949 326.397 261.486  c
326.970 262.022 327.256 262.744 327.256 263.650  c
327.256 264.598 326.962 265.332 326.374 265.853  c
325.785 266.374 324.960 266.634 323.897 266.634  c
323.522 266.634 323.144 266.603 322.764 266.540  c
322.384 266.478 321.991 266.384 321.585 266.259  c
321.585 265.072 l
321.939 265.259 322.303 265.400 322.678 265.494  c
323.053 265.587 323.449 265.634 323.866 265.634  c
324.543 265.634 325.079 265.457 325.475 265.103  c
325.871 264.749 326.069 264.264 326.069 263.650  c
326.069 263.046 325.871 262.566 325.475 262.212  c
325.079 261.858 324.543 261.681 323.866 261.681  c
323.553 261.681 323.238 261.715 322.920 261.783  c
322.603 261.850 322.282 261.957 321.960 262.103  c
321.960 257.712 l
h
f
2 J
10.0000 M
1.00000 1.00000 1.00000 RG
newpath
369.480 247.308 m
399.480 247.308 l
399.480 277.308 l
369.480 277.308 l
369.480 247.308 l
h
f
0 J
1.45000 M
0.00000 0.00000 0.00000 RG
newpath
369.480 247.308 m
399.480 247.308 l
399.480 277.308 l
369.480 277.308 l
369.480 247.308 l
h
S
2 J
10.0000 M
0 J
1.45000 M
newpath
381.647 257.712 m
387.272 257.712 l
387.272 258.212 l
384.100 266.462 l
382.866 266.462 l
385.850 258.712 l
381.647 258.712 l
381.647 257.712 l
h
f
2 J
10.0000 M
1.00000 1.00000 1.00000 RG
newpath
429.480 247.308 m
459.480 247.308 l
459.480 277.308 l
429.480 277.308 l
429.480 247.308 l
h
f
0 J
1.45000 M
0.00000 0.00000 0.00000 RG
newpath
429.480 247.308 m
459.480 247.308 l
459.480 277.308 l
429.480 277.308 l
429.480 247.308 l
h
S
2 J
10.0000 M
0 J
1.45000 M
newpath
444.475 262.306 m
443.913 262.306 443.470 262.457 443.147 262.759  c
442.824 263.061 442.663 263.473 442.663 263.994  c
442.663 264.525 442.824 264.941 443.147 265.244  c
443.470 265.546 443.913 265.697 444.475 265.697  c
445.038 265.697 445.480 265.546 445.803 265.244  c
446.126 264.941 446.288 264.525 446.288 263.994  c
446.288 263.473 446.129 263.061 445.811 262.759  c
445.493 262.457 445.048 262.306 444.475 262.306  c
h
443.288 261.806 m
442.788 261.681 442.394 261.444 442.108 261.095  c
441.821 260.746 441.678 260.322 441.678 259.822  c
441.678 259.124 441.928 258.572 442.428 258.165  c
442.928 257.759 443.611 257.556 444.475 257.556  c
445.350 257.556 446.035 257.759 446.530 258.165  c
447.025 258.572 447.272 259.124 447.272 259.822  c
447.272 260.322 447.131 260.746 446.850 261.095  c
446.569 261.444 446.173 261.681 445.663 261.806  c
446.236 261.941 446.681 262.202 446.999 262.587  c
447.316 262.973 447.475 263.441 447.475 263.994  c
447.475 264.848 447.217 265.501 446.702 265.954  c
446.186 266.408 445.444 266.634 444.475 266.634  c
443.517 266.634 442.777 266.408 442.256 265.954  c
441.736 265.501 441.475 264.848 441.475 263.994  c
441.475 263.441 441.637 262.973 441.960 262.587  c
442.282 262.202 442.725 261.941 443.288 261.806  c
h
442.866 259.931 m
442.866 260.389 443.006 260.744 443.288 260.994  c
443.569 261.244 443.965 261.369 444.475 261.369  c
444.986 261.369 445.384 261.244 445.670 260.994  c
445.957 260.744 446.100 260.389 446.100 259.931  c
446.100 259.483 445.957 259.132 445.670 258.876  c
445.384 258.621 444.986 258.494 444.475 258.494  c
443.965 258.494 443.569 258.621 443.288 258.876  c
443.006 259.132 442.866 259.483 442.866 259.931  c
h
f
2 J
10.0000 M
1.00000 1.00000 1.00000 RG
newpath
489.480 247.308 m
519.480 247.308 l
519.480 277.308 l
489.480 277.308 l
489.480 247.308 l
h
f
0 J
1.45000 M
0.00000 0.00000 0.00000 RG
newpath
489.480 247.308 m
519.480 247.308 l
519.480 277.308 l
489.480 277.308 l
489.480 247.308 l
h
S
2 J
10.0000 M
0 J
1.45000 M
newpath
501.975 266.275 m
501.975 265.197 l
502.277 265.343 502.579 265.452 502.881 265.525  c
503.183 265.598 503.486 265.634 503.788 265.634  c
504.569 265.634 505.165 265.371 505.577 264.845  c
505.988 264.319 506.220 263.520 506.272 262.447  c
506.053 262.790 505.769 263.051 505.420 263.228  c
505.071 263.405 504.683 263.494 504.256 263.494  c
503.381 263.494 502.689 263.231 502.178 262.704  c
501.668 262.178 501.413 261.452 501.413 260.525  c
501.413 259.629 501.678 258.910 502.210 258.369  c
502.741 257.827 503.449 257.556 504.335 257.556  c
505.345 257.556 506.118 257.944 506.655 258.720  c
507.191 259.496 507.460 260.624 507.460 262.103  c
507.460 263.478 507.131 264.577 506.475 265.400  c
505.819 266.223 504.939 266.634 503.835 266.634  c
503.532 266.634 503.230 266.606 502.928 266.548  c
502.626 266.491 502.308 266.400 501.975 266.275  c
h
504.335 262.572 m
504.866 262.572 505.288 262.389 505.600 262.025  c
505.913 261.660 506.069 261.160 506.069 260.525  c
506.069 259.900 505.913 259.405 505.600 259.040  c
505.288 258.676 504.866 258.494 504.335 258.494  c
503.803 258.494 503.384 258.676 503.077 259.040  c
502.769 259.405 502.616 259.900 502.616 260.525  c
502.616 261.160 502.769 261.660 503.077 262.025  c
503.384 262.389 503.803 262.572 504.335 262.572  c
h
f
2 J
10.0000 M
1.00000 1.00000 1.00000 RG
newpath
69.4800 109.344 m
99.4800 109.344 l
99.4800 139.344 l
69.4800 139.344 l
69.4800 109.344 l
h
f
0 J
1.45000 M
0.00000 0.00000 0.00000 RG
newpath
69.4800 109.344 m
99.4800 109.344 l
99.4800 139.344 l
69.4800 139.344 l
69.4800 109.344 l
h
S
2 J
10.0000 M
0 J
1.45000 M
newpath
85.5376 123.780 m
86.1001 123.905 86.5402 124.157 86.8579 124.537  c
87.1756 124.918 87.3345 125.389 87.3345 125.951  c
87.3345 126.816 87.0376 127.485 86.4439 127.959  c
85.8501 128.433 85.0064 128.670 83.9126 128.670  c
83.5480 128.670 83.1704 128.634 82.7798 128.561  c
82.3892 128.488 81.9907 128.378 81.5845 128.233  c
81.5845 127.092 l
81.9074 127.280 82.2642 127.423 82.6548 127.522  c
83.0454 127.621 83.4543 127.670 83.8814 127.670  c
84.6210 127.670 85.1861 127.524 85.5767 127.233  c
85.9673 126.941 86.1626 126.514 86.1626 125.951  c
86.1626 125.441 85.9803 125.040 85.6157 124.748  c
85.2512 124.457 84.7512 124.311 84.1157 124.311  c
83.0845 124.311 l
83.0845 123.342 l
84.1626 123.342 l
84.7355 123.342 85.1782 123.225 85.4907 122.990  c
85.8032 122.756 85.9595 122.420 85.9595 121.983  c
85.9595 121.535 85.8006 121.191 85.4829 120.951  c
85.1652 120.712 84.7095 120.592 84.1157 120.592  c
83.7824 120.592 83.4308 120.626 83.0611 120.694  c
82.6913 120.761 82.2824 120.868 81.8345 121.014  c
81.8345 119.967 l
82.2928 119.842 82.7173 119.748 83.1079 119.686  c
83.4986 119.623 83.8657 119.592 84.2095 119.592  c
85.1157 119.592 85.8293 119.795 86.3501 120.201  c
86.8710 120.608 87.1314 121.160 87.1314 121.858  c
87.1314 122.347 86.9933 122.759 86.7173 123.092  c
86.4413 123.425 86.0480 123.655 85.5376 123.780  c
h
f
2 J
10.0000 M
1.00000 1.00000 1.00000 RG
newpath
129.480 109.344 m
159.480 109.344 l
159.480 139.344 l
129.480 139.344 l
129.480 109.344 l
h
f
0 J
1.45000 M
0.00000 0.00000 0.00000 RG
newpath
129.480 109.344 m
159.480 109.344 l
159.480 139.344 l
129.480 139.344 l
129.480 109.344 l
h
S
2 J
10.0000 M
0 J
1.45000 M
newpath
145.194 120.780 m
142.209 125.451 l
145.194 125.451 l
145.194 120.780 l
h
144.881 119.748 m
146.381 119.748 l
146.381 125.451 l
147.631 125.451 l
147.631 126.436 l
146.381 126.436 l
146.381 128.498 l
145.194 128.498 l
145.194 126.436 l
141.256 126.436 l
141.256 125.295 l
144.881 119.748 l
h
f
2 J
10.0000 M
1.00000 1.00000 1.00000 RG
newpath
189.480 109.344 m
219.480 109.344 l
219.480 139.344 l
189.480 139.344 l
189.480 109.344 l
h
f
0 J
1.45000 M
0.00000 0.00000 0.00000 RG
newpath
189.480 109.344 m
219.480 109.344 l
219.480 139.344 l
189.480 139.344 l
189.480 109.344 l
h
S
2 J
10.0000 M
0 J
1.45000 M
newpath
202.959 127.498 m
207.100 127.498 l
207.100 128.498 l
201.538 128.498 l
201.538 127.498 l
201.986 127.040 202.598 126.418 203.374 125.631  c
204.150 124.845 204.637 124.337 204.834 124.108  c
205.220 123.691 205.488 123.334 205.639 123.037  c
205.790 122.740 205.866 122.451 205.866 122.170  c
205.866 121.701 205.702 121.321 205.374 121.030  c
205.045 120.738 204.621 120.592 204.100 120.592  c
203.725 120.592 203.332 120.655 202.920 120.780  c
202.509 120.905 202.069 121.102 201.600 121.373  c
201.600 120.170 l
202.079 119.983 202.525 119.839 202.936 119.740  c
203.348 119.642 203.725 119.592 204.069 119.592  c
204.975 119.592 205.699 119.819 206.241 120.272  c
206.782 120.725 207.053 121.332 207.053 122.092  c
207.053 122.446 206.986 122.785 206.850 123.108  c
206.715 123.431 206.470 123.811 206.116 124.248  c
206.012 124.363 205.699 124.691 205.178 125.233  c
204.657 125.774 203.918 126.530 202.959 127.498  c
h
f
2 J
10.0000 M
1.00000 1.00000 1.00000 RG
newpath
249.480 109.344 m
279.480 109.344 l
279.480 139.344 l
249.480 139.344 l
249.480 109.344 l
h
f
0 J
1.45000 M
0.00000 0.00000 0.00000 RG
newpath
249.480 109.344 m
279.480 109.344 l
279.480 139.344 l
249.480 139.344 l
249.480 109.344 l
h
S
2 J
10.0000 M
0 J
1.45000 M
newpath
262.147 127.498 m
264.085 127.498 l
264.085 120.826 l
261.975 121.248 l
261.975 120.170 l
264.069 119.748 l
265.256 119.748 l
265.256 127.498 l
267.194 127.498 l
267.194 128.498 l
262.147 128.498 l
262.147 127.498 l
h
f
2 J
10.0000 M
1.00000 1.00000 1.00000 RG
newpath
309.480 109.344 m
339.480 109.344 l
339.480 139.344 l
309.480 139.344 l
309.480 109.344 l
h
f
0 J
1.45000 M
0.00000 0.00000 0.00000 RG
newpath
309.480 109.344 m
339.480 109.344 l
339.480 139.344 l
309.480 139.344 l
309.480 109.344 l
h
S
2 J
10.0000 M
0 J
1.45000 M
newpath
321.647 119.748 m
327.272 119.748 l
327.272 120.248 l
324.100 128.498 l
322.866 128.498 l
325.850 120.748 l
321.647 120.748 l
321.647 119.748 l
h
f
2 J
10.0000 M
1.00000 1.00000 1.00000 RG
newpath
369.480 109.344 m
399.480 109.344 l
399.480 139.344 l
369.480 139.344 l
369.480 109.344 l
h
f
0 J
1.45000 M
0.00000 0.00000 0.00000 RG
newpath
369.480 109.344 m
399.480 109.344 l
399.480 139.344 l
369.480 139.344 l
369.480 109.344 l
h
S
2 J
10.0000 M
0 J
1.45000 M
newpath
381.960 119.748 m
386.600 119.748 l
386.600 120.748 l
383.038 120.748 l
383.038 122.889 l
383.215 122.826 383.389 122.782 383.561 122.756  c
383.733 122.730 383.902 122.717 384.069 122.717  c
385.048 122.717 385.824 122.985 386.397 123.522  c
386.970 124.058 387.256 124.780 387.256 125.686  c
387.256 126.634 386.962 127.368 386.374 127.889  c
385.785 128.410 384.960 128.670 383.897 128.670  c
383.522 128.670 383.144 128.639 382.764 128.576  c
382.384 128.514 381.991 128.420 381.585 128.295  c
381.585 127.108 l
381.939 127.295 382.303 127.436 382.678 127.530  c
383.053 127.623 383.449 127.670 383.866 127.670  c
384.543 127.670 385.079 127.493 385.475 127.139  c
385.871 126.785 386.069 126.300 386.069 125.686  c
386.069 125.082 385.871 124.602 385.475 124.248  c
385.079 123.894 384.543 123.717 383.866 123.717  c
383.553 123.717 383.238 123.751 382.920 123.819  c
382.603 123.886 382.282 123.993 381.960 124.139  c
381.960 119.748 l
h
f
2 J
10.0000 M
1.00000 1.00000 1.00000 RG
newpath
429.480 109.344 m
459.480 109.344 l
459.480 139.344 l
429.480 139.344 l
429.480 109.344 l
h
f
0 J
1.45000 M
0.00000 0.00000 0.00000 RG
newpath
429.480 109.344 m
459.480 109.344 l
459.480 139.344 l
429.480 139.344 l
429.480 109.344 l
h
S
2 J
10.0000 M
0 J
1.45000 M
newpath
444.475 124.342 m
443.913 124.342 443.470 124.493 443.147 124.795  c
442.824 125.097 442.663 125.509 442.663 126.030  c
442.663 126.561 442.824 126.977 443.147 127.280  c
443.470 127.582 443.913 127.733 444.475 127.733  c
445.038 127.733 445.480 127.582 445.803 127.280  c
446.126 126.977 446.288 126.561 446.288 126.030  c
446.288 125.509 446.129 125.097 445.811 124.795  c
445.493 124.493 445.048 124.342 444.475 124.342  c
h
443.288 123.842 m
442.788 123.717 442.394 123.480 442.108 123.131  c
441.821 122.782 441.678 122.358 441.678 121.858  c
441.678 121.160 441.928 120.608 442.428 120.201  c
442.928 119.795 443.611 119.592 444.475 119.592  c
445.350 119.592 446.035 119.795 446.530 120.201  c
447.025 120.608 447.272 121.160 447.272 121.858  c
447.272 122.358 447.131 122.782 446.850 123.131  c
446.569 123.480 446.173 123.717 445.663 123.842  c
446.236 123.977 446.681 124.238 446.999 124.623  c
447.316 125.009 447.475 125.477 447.475 126.030  c
447.475 126.884 447.217 127.537 446.702 127.990  c
446.186 128.444 445.444 128.670 444.475 128.670  c
443.517 128.670 442.777 128.444 442.256 127.990  c
441.736 127.537 441.475 126.884 441.475 126.030  c
441.475 125.477 441.637 125.009 441.960 124.623  c
442.282 124.238 442.725 123.977 443.288 123.842  c
h
442.866 121.967 m
442.866 122.425 443.006 122.780 443.288 123.030  c
443.569 123.280 443.965 123.405 444.475 123.405  c
444.986 123.405 445.384 123.280 445.670 123.030  c
445.957 122.780 446.100 122.425 446.100 121.967  c
446.100 121.519 445.957 121.168 445.670 120.912  c
445.384 120.657 444.986 120.530 444.475 120.530  c
443.965 120.530 443.569 120.657 443.288 120.912  c
443.006 121.168 442.866 121.519 442.866 121.967  c
h
f
2 J
10.0000 M
1.00000 1.00000 1.00000 RG
newpath
489.480 109.344 m
519.480 109.344 l
519.480 139.344 l
489.480 139.344 l
489.480 109.344 l
h
f
0 J
1.45000 M
0.00000 0.00000 0.00000 RG
newpath
489.480 109.344 m
519.480 109.344 l
519.480 139.344 l
489.480 139.344 l
489.480 109.344 l
h
S
2 J
10.0000 M
0 J
1.45000 M
newpath
501.975 128.311 m
501.975 127.233 l
502.277 127.378 502.579 127.488 502.881 127.561  c
503.183 127.634 503.486 127.670 503.788 127.670  c
504.569 127.670 505.165 127.407 505.577 126.881  c
505.988 126.355 506.220 125.556 506.272 124.483  c
506.053 124.826 505.769 125.087 505.420 125.264  c
505.071 125.441 504.683 125.530 504.256 125.530  c
503.381 125.530 502.689 125.267 502.178 124.740  c
501.668 124.214 501.413 123.488 501.413 122.561  c
501.413 121.665 501.678 120.946 502.210 120.405  c
502.741 119.863 503.449 119.592 504.335 119.592  c
505.345 119.592 506.118 119.980 506.655 120.756  c
507.191 121.532 507.460 122.660 507.460 124.139  c
507.460 125.514 507.131 126.613 506.475 127.436  c
505.819 128.259 504.939 128.670 503.835 128.670  c
503.532 128.670 503.230 128.642 502.928 128.584  c
502.626 128.527 502.308 128.436 501.975 128.311  c
h
504.335 124.608 m
504.866 124.608 505.288 124.425 505.600 124.061  c
505.913 123.696 506.069 123.196 506.069 122.561  c
506.069 121.936 505.913 121.441 505.600 121.076  c
505.288 120.712 504.866 120.530 504.335 120.530  c
503.803 120.530 503.384 120.712 503.077 121.076  c
502.769 121.441 502.616 121.936 502.616 122.561  c
502.616 123.196 502.769 123.696 503.077 124.061  c
503.384 124.425 503.803 124.608 504.335 124.608  c
h
f
2 J
10.0000 M
0 J
1.45000 M
newpath
91.3287 50.5207 m
99.4800 55.5204 l
114.480 63.4940 l
129.480 70.2409 l
144.480 75.7612 l
159.480 80.0547 l
174.480 83.1214 l
189.480 84.9615 l
204.480 85.5749 l
219.480 84.9615 l
234.480 83.1214 l
249.480 80.0547 l
264.480 75.7612 l
279.480 70.2409 l
294.480 63.4940 l
309.480 55.5204 l
317.631 50.5207 l
S
newpath
84.5093 46.3380 m
92.1242 56.8742 l
92.1812 51.0436 l
97.3527 48.3499 l
h
f
newpath
324.451 46.3380 m
311.607 48.3499 l
316.779 51.0436 l
316.836 56.8742 l
h
f
2 J
10.0000 M
0 J
1.45000 M
newpath
151.277 50.6052 m
159.480 55.7775 l
174.480 63.9740 l
189.480 70.9095 l
204.480 76.5840 l
219.480 80.9975 l
234.480 84.1500 l
249.480 86.0415 l
264.480 86.6720 l
279.480 86.0415 l
294.480 84.1500 l
309.480 80.9975 l
324.480 76.5840 l
339.480 70.9095 l
354.480 63.9740 l
369.480 55.7775 l
377.684 50.6052 l
S
newpath
144.509 46.3385 m
151.993 56.9681 l
152.122 51.1385 l
157.327 48.5091 l
h
f
newpath
384.451 46.3385 m
371.633 48.5091 l
376.838 51.1385 l
376.967 56.9681 l
h
f
2 J
10.0000 M
0 J
1.45000 M
newpath
211.178 50.7578 m
219.480 56.2575 l
234.480 64.8700 l
249.480 72.1575 l
264.480 78.1200 l
279.480 82.7575 l
294.480 86.0700 l
309.480 88.0575 l
324.480 88.7200 l
339.480 88.0575 l
354.480 86.0700 l
369.480 82.7575 l
384.480 78.1200 l
399.480 72.1575 l
414.480 64.8700 l
429.480 56.2575 l
437.782 50.7578 l
S
newpath
204.509 46.3394 m
211.752 57.1352 l
212.012 51.3100 l
217.275 48.7987 l
h
f
newpath
444.451 46.3394 m
431.685 48.7987 l
436.948 51.3100 l
437.208 57.1352 l
h
f
2 J
10.0000 M
0 J
1.45000 M
newpath
271.228 50.6823 m
279.480 56.0175 l
294.480 64.4220 l
309.480 71.5335 l
324.480 77.3520 l
339.480 81.8775 l
354.480 85.1100 l
369.480 87.0495 l
384.480 87.6960 l
399.480 87.0495 l
414.480 85.1100 l
429.480 81.8775 l
444.480 77.3520 l
459.480 71.5335 l
474.480 64.4220 l
489.480 56.0175 l
497.732 50.6823 l
S
newpath
264.509 46.3389 m
271.872 57.0529 l
272.067 51.2252 l
277.301 48.6551 l
h
f
newpath
504.451 46.3389 m
491.659 48.6551 l
496.893 51.2252 l
497.088 57.0529 l
h
f
2 J
10.0000 M
0 J
1.45000 M
newpath
90.1475 223.013 m
91.9800 224.857 l
99.4800 230.250 l
106.980 233.485 l
114.480 234.564 l
121.980 233.485 l
129.480 230.250 l
136.980 224.857 l
138.812 223.013 l
S
newpath
84.5093 217.337 m
89.4195 229.375 l
90.8523 223.722 l
96.5138 222.327 l
h
f
newpath
144.451 217.337 m
132.446 222.327 l
138.108 223.722 l
139.541 229.375 l
h
f
2 J
10.0000 M
0 J
1.45000 M
newpath
210.232 222.926 m
211.980 224.633 l
219.480 229.866 l
226.980 233.006 l
234.480 234.052 l
241.980 233.006 l
249.480 229.866 l
256.980 224.633 l
258.728 222.926 l
S
newpath
204.509 217.337 m
209.600 229.298 l
210.948 223.625 l
216.588 222.145 l
h
f
newpath
264.451 217.337 m
252.372 222.145 l
258.012 223.625 l
259.360 229.298 l
h
f
2 J
10.0000 M
0 J
1.45000 M
newpath
330.318 222.836 m
331.980 224.410 l
339.480 229.482 l
346.980 232.525 l
354.480 233.540 l
361.980 232.525 l
369.480 229.482 l
376.980 224.410 l
378.642 222.836 l
S
newpath
324.509 217.336 m
329.785 229.217 l
331.045 223.524 l
336.661 221.956 l
h
f
newpath
384.451 217.336 m
372.299 221.956 l
377.916 223.524 l
379.175 229.217 l
h
f
2 J
10.0000 M
0 J
1.45000 M
newpath
449.901 223.250 m
451.980 225.529 l
459.480 231.402 l
466.980 234.925 l
474.480 236.100 l
481.980 234.925 l
489.480 231.402 l
496.980 225.529 l
499.059 223.250 l
S
newpath
444.509 217.340 m
448.903 229.575 l
450.575 223.989 l
456.291 222.836 l
h
f
newpath
504.451 217.340 m
492.669 222.836 l
498.385 223.989 l
500.057 229.575 l
h
f
2 J
10.0000 M
0 J
1.45000 M
newpath
90.8094 144.297 m
99.4800 151.083 l
114.480 159.468 l
129.480 164.499 l
144.480 166.176 l
159.480 164.499 l
174.480 159.468 l
189.480 151.083 l
198.151 144.297 l
S
newpath
84.5093 139.367 m
90.8779 150.700 l
91.5969 144.914 l
97.0409 142.825 l
h
f
newpath
204.451 139.367 m
191.919 142.825 l
197.363 144.914 l
198.082 150.700 l
h
f
2 J
10.0000 M
0 J
1.45000 M
newpath
151.039 143.987 m
159.480 149.963 l
174.480 157.548 l
189.480 162.099 l
204.480 163.616 l
219.480 162.099 l
234.480 157.548 l
249.480 149.963 l
257.921 143.987 l
S
newpath
144.509 139.365 m
151.414 150.379 l
151.855 144.565 l
157.192 142.217 l
h
f
newpath
264.451 139.365 m
251.768 142.217 l
257.105 144.565 l
257.546 150.379 l
h
f
2 J
10.0000 M
0 J
1.45000 M
newpath
330.993 144.052 m
339.480 150.187 l
354.480 157.932 l
369.480 162.579 l
384.480 164.128 l
399.480 162.579 l
414.480 157.932 l
429.480 150.187 l
437.967 144.052 l
S
newpath
324.509 139.365 m
331.305 150.447 l
331.803 144.638 l
337.164 142.343 l
h
f
newpath
444.451 139.365 m
431.796 142.343 l
437.157 144.638 l
437.655 150.447 l
h
f
2 J
10.0000 M
0 J
1.45000 M
newpath
391.039 143.987 m
399.480 149.963 l
414.480 157.548 l
429.480 162.099 l
444.480 163.616 l
459.480 162.099 l
474.480 157.548 l
489.480 149.963 l
497.921 143.987 l
S
newpath
384.509 139.365 m
391.414 150.379 l
391.855 144.565 l
397.192 142.217 l
h
f
newpath
504.451 139.365 m
491.768 142.217 l
497.105 144.565 l
497.546 150.379 l
h
f
2 J
10.0000 M
0 J
1.45000 M
newpath
294.480 100.833 m
294.480 146.451 l
S
2 J
10.0000 M
0 J
1.45000 M
newpath
174.480 181.021 m
174.480 226.639 l
S
2 J
10.0000 M
0 J
1.45000 M
newpath
294.480 181.021 m
294.480 226.639 l
S
2 J
10.0000 M
0 J
1.45000 M
newpath
414.480 181.021 m
414.480 226.639 l
S
2 J
10.0000 M
Q
[ 1.00000 0.00000 0.00000 1.00000 0.00000 0.00000 ] defaultmatrix matrix concatmatrix setmatrix
cliprestore

%%Trailer
%%EOF
