%!PS-Adobe-3.0 EPSF-3.0
%%BoundingBox: 0 0 402 333
%%Creator: yExport 1.5
%%Producer: org.freehep.graphicsio.ps.EPSGraphics2D Revision: 12753 
%%For: 
%%Title: 
%%CreationDate: Tuesday, January 9, 2018 7:42:32 PM CET
%%LanguageLevel: 3
%%EndComments
%%BeginProlog
100 dict dup begin

%
% File: org/freehep/graphicsio.ps/PSProlog.txt
% Author: Charles Loomis
%

% Redefinitions which save some space in the output file.  These are also
% the same as the PDF operators.
/q {gsave} def
/Q {grestore} def

/n {newpath} def
/m {moveto} def
/l {lineto} def
/c {curveto} def
/h {closepath} def

/re {4 -2 roll moveto
     dup 0 exch rlineto exch 0 rlineto
     neg 0 exch rlineto closepath} def

/f {fill} def
/f* {eofill} def
/F {gsave vg&FC fill grestore} def
/F* {gsave vg&FC eofill grestore} def

/s {closepath stroke} def
/S {stroke} def

/b {closepath gsave vg&FC fill grestore
    gsave stroke grestore newpath} def
/B {gsave vg&FC fill grestore gsave stroke grestore newpath} def
/b* {closepath gsave vg&FC eofill grestore
    gsave stroke grestore newpath} def
/B* {gsave vg&FC eofill grestore gsave stroke grestore newpath} def

/g {1 array astore /vg&fcolor exch def} def
/G {setgray} def
/k {4 array astore /vg&fcolor exch def} def
/K {setcmykcolor} def
/rg {3 array astore /vg&fcolor exch def} def
/RG {setrgbcolor} def

% Initialize the fill color.
0 0 0 rg

/vg&FC {mark vg&fcolor aload pop
        counttomark 1 eq {G} if
        counttomark 3 eq {RG} if
        counttomark 4 eq {K} if
        cleartomark } def

/vg&DFC {/vg&fcolor exch def} def

/vg&C {mark exch aload pop
       counttomark 1 eq {G} if
       counttomark 3 eq {RG} if
       counttomark 4 eq {K} if
       cleartomark } def

/w {setlinewidth} def
/j {setlinejoin} def
/J {setlinecap} def
/M {setmiterlimit} def
/d {setdash} def
/i {setflat} def

/W {clip} def
/W* {eoclip} def

% Setup the default graphics state.
% (black; 1 pt. linewidth; miter join; butt-ends; solid)
/defaultGraphicsState {0 g 1 w 0 j 0 J [] 0 d} def

% Emulation of the rectangle operators for PostScript implementations
% which do not implement all Level 2 features.  This is an INCOMPLETE
% emulation; only the "x y width height rect..." form is emulated.
/*rf {gsave newpath re fill grestore} def
/*rs {gsave newpath re stroke grestore} def
/*rc {newpath re clip} def
/rf  /rectfill where {pop /rectfill}{/*rf} ifelse load def
/rs  /rectstroke where {pop /rectstroke}{/*rs} ifelse load def
/rc  /rectclip where {pop /rectclip}{/*rc} ifelse load def

% Emulation of the selectfont operator.  This includes a 20% increase in
% the fontsize which is necessary to get sizes similar to the Java fonts.
/*sf {exch findfont exch
      dup type /arraytype eq {makefont}{scalefont} ifelse setfont} bind def
/sf /selectfont where {pop {1.2 mul selectfont}}{{1.2 mul *sf}} ifelse def

% Special version of stroke which allows the dash pattern to continue
% across path segments.  (This may be needed for PostScript although
% modern printers seem to do this correctly.)
/vg&stroke {
  currentdash pop length 0 eq
  {stroke}
  {
    currentdash /vg&doffset exch def pop
    flattenpath
    {m vg&resetdash}
    {2 copy
     currentpoint
     3 -1 roll sub dup mul
     3 1 roll sub dup mul
     add sqrt
     3 1 roll l
     currentdash 3 -1 roll add setdash}
     {}
     {h vg&resetdash}
     pathforall
     stroke
     vg&resetdash
  } ifelse
} def
/vg&resetdash {currentdash pop vg&doffset setdash} def

% Initialize variables for safety.
/delta 0 def
/xv 0 def  /yv 0 def  /width 0 def  /height 0 def

% Initialize to portrait INTERNATIONAL (Letter-height, A4-width) page.
/pw 595 def  /ph 791  def  /po true def /ftp false def

% Initialize margins to 20 points.
/ml 20 def  /mr 20 def  /mt 20 def  /mb 20 def

% Temporary matrices.
/smatrix 0 def  /nmatrix 0 def

% set page size (usage: <page width><page height> setpagesize)
/setpagesize {/ph exch def /pw exch def} def

% set page orientation (usage: portrait or landscape)
/portrait {/po true def} def
/landscape {/po false def} def

% force natural size for image (usage: naturalsize)
/naturalsize {/ftp false def} def

% resize image to fill page (usage: fittopage)
/fittopage {/ftp true def} def

% set margins of the page (usage: <left><bottom><top><right> setmargins)
/setmargins {/mr exch def /mt exch def /mb exch def /ml exch def} def

% set the graphic's size (usage: <width><height> setsize)
/setsize {/gh exch def /gw exch def} def

% set the graphic's origin (usage: <x0><y0> setorigin)
/setorigin {/gy exch def /gx exch def} def

% calculate image center
/imagecenter {pw ml sub mr sub 2 div ml add
              ph mt sub mb sub 2 div mb add} def

% calculate the necessary scaling
/imagescale {po {gw}{gh} ifelse pw ml sub mr sub div
             po {gh}{gw} ifelse ph mt sub mb sub div
             2 copy lt {exch} if pop
             ftp not {1 2 copy lt {exch} if pop} if
             1 exch div /sfactor exch def
             /gw gw sfactor mul def /gh gh sfactor mul def} def

% calculate image origin
/imageorigin {pw ml sub mr sub 2 div ml add
              po {gw}{gh} ifelse 2 div sub
              ph mt sub mb sub 2 div mb add
              po {gh}{gw} ifelse 2 div po {add}{sub} ifelse} def

% calculate the clipping origin
/cliporigin  {pw ml sub mr sub 2 div ml add
              po {gw}{gh} ifelse 2 div sub floor
              ph mt sub mb sub 2 div mb add
              po {gh}{gw} ifelse 2 div sub floor} def

% Set the clipping region to the bounding box.
/cliptobounds {cliporigin po {gw}{gh} ifelse 1 add
                          po {gh}{gw} ifelse 1 add rc} def

% set the base transformation matrix (usage: setbasematrix)
/setbasematrix {imageorigin translate
                po {0}{90} ifelse rotate
                sfactor sfactor neg scale
                /defaultmatrix matrix currentmatrix def} def

% The lower-right bias in drawing 1 pt. wide lines.
/bias  {q 0.5 0.5 translate} def
/unbias {Q} def

% Define the composite fonts used to print Unicode strings.
% Undefine particular values in an encoding array.
/vg&undef { {exch dup 3 -1 roll /.notdef put} forall } def
/vg&redef { {3 -1 roll dup 4 2 roll put} forall } def

% usage: key encoding basefontname vg&newbasefont font
/vg&newbasefont {
findfont dup length dict copy
  begin
    currentdict /FID undef
    /Encoding exch def
    dup /FontName exch def
    currentdict
  end
definefont
} def

% usage: key encoding basefontname vg&newskewedbasefont font
/vg&newskewedbasefont {
findfont dup length dict copy
  begin
    currentdict /FID undef
    /Encoding exch def
    dup /FontName exch def
    exch FontMatrix exch matrix concatmatrix /FontMatrix exch def
    currentdict
  end
definefont
} def

% usage: basekey suffix vg&nconcat name
/vg&nconcat {
  2 {dup length string cvs exch} repeat
  dup length 3 -1 roll dup length 3 -1 roll add string
  dup 0 4 -1 roll dup length 5 1 roll putinterval
  dup 4 -2 roll exch putinterval cvn
} def

%usage: fontname vg&skewmatrix matrix
/vg&skewmatrix {
findfont dup /FontInfo known
  {
    /FontInfo get dup /ItalicAngle known
    {
      [ 1 0 4 -1 roll /ItalicAngle get neg dup sin exch cos div 1 0 0 ]
    }
    {pop matrix} ifelse
  }
  {pop matrix} ifelse
} def

% usage: newfontname basefontname vg&newcompositefont --
/vg&newcompositefont {
/vg&fstyle exch def
/vg&bfont exch def
/vg&fname exch def
<<
/FontStyleBits vg&fstyle
/FontType 0
/FontMatrix matrix
/FontName vg&fname
/FMapType 2
/Encoding [ 0 1 255 {pop 6} for ]
          dup 16#00 0 put % Latin
          dup 16#03 1 put % Greek
          dup 16#20 2 put % Punctuation
          dup 16#21 3 put % Arrows
          dup 16#22 4 put % MathOps
          dup 16#27 5 put % Dingbats

/FDepVector [
vg&bfont /-UC-Latin vg&nconcat UCLatinEncoding
vg&bfont vg&newbasefont

vg&bfont vg&skewmatrix
vg&bfont /-UC-Greek vg&nconcat UCGreekEncoding
/Symbol vg&newskewedbasefont

vg&bfont /-UC-Punctuation vg&nconcat UCPunctuationEncoding
vg&bfont vg&newbasefont

/Arrows-UC findfont
/MathOps-UC findfont
/Dingbats-UC findfont
/Undefined-UC findfont ]
>>
vg&fname exch definefont pop
} def

% Null encoding vector (all elements set to .notdef)
/NullEncoding [ 256 {/.notdef} repeat ] def

% Unicode Latin encoding (unicode codes \u0000-\u00ff)
/UCLatinEncoding
  ISOLatin1Encoding dup length array copy
  dup 16#60 /grave put
  [ 16#90 16#91 16#92 16#93 16#94 16#95 16#96
    16#97 16#98 16#9a 16#9b 16#9d 16#9e 16#9f
  ] vg&undef
  def

% Unicode Greek encoding (unicode codes \u0370-\u03ff)
/UCGreekEncoding
  NullEncoding dup length array copy
  << 16#91 /Alpha    16#92 /Beta      16#93 /Gamma    16#94 /Delta
     16#95 /Epsilon  16#96 /Zeta      16#97 /Eta      16#98 /Theta
     16#99 /Iota     16#9a /Kappa     16#9b /Lambda   16#9c /Mu
     16#9d /Nu       16#9e /Xi        16#9f /Omicron  16#a0 /Pi
     16#a1 /Rho      16#a3 /Sigma     16#a4 /Tau      16#a5 /Upsilon
     16#a6 /Phi      16#a7 /Chi       16#a8 /Psi      16#a9 /Omega
     16#b1 /alpha    16#b2 /beta      16#b3 /gamma    16#b4 /delta
     16#b5 /epsilon  16#b6 /zeta      16#b7 /eta      16#b8 /theta
     16#b9 /iota     16#ba /kappa     16#bb /lambda   16#bc /mu
     16#bd /nu       16#be /xi        16#bf /omicron  16#c0 /pi
     16#c1 /rho      16#c2 /sigma1    16#c3 /sigma    16#c4 /tau
     16#c5 /upsilon  16#c6 /phi1      16#c7 /chi      16#c8 /psi
     16#c9 /omega    16#7e /semicolon 16#87 /dotmath  16#d1 /theta1
     16#d2 /Upsilon1 16#d5 /phi       16#d6 /omega1
  >> vg&redef
  def

% Unicode punctuation encoding (unicode codes \u2000-\u206f)
/UCPunctuationEncoding
  NullEncoding dup length array copy
  << 16#10 /hyphen          16#11 /hyphen              16#12 /endash
     16#13 /emdash          16#18 /quoteleft           16#19 /quoteright
     16#1a /quotesinglbase  16#1b /quotesingle         16#1c /quotedblleft
     16#1d /quotedblright   16#1e /quotedblbase        16#1f /quotedbl
     16#20 /dagger          16#21 /daggerdbl           16#22 /bullet
     16#24 /period          16#26 /ellipsis            16#27 /periodcentered
     16#30 /perthousand     16#44 /fraction
     16#70 /zerosuperior    16#74 /foursuperior        16#75 /fivesuperior
     16#76 /sixsuperior     16#77 /sevensuperior       16#78 /eightsuperior
     16#79 /ninesuperior    16#7b /hyphensuperior      16#7d /parenleftsuperior
     16#7e /parenrightsuperior
     16#80 /zeroinferior    16#84 /fourinferior        16#85 /fiveinferior
     16#81 /oneinferior     16#82 /twoinferior         16#83 /threeinferior
     16#86 /sixinferior     16#87 /seveninferior       16#88 /eightinferior
     16#89 /nineinferior    16#8b /hypheninferior      16#8d /parenleftinferior
     16#8e /parenrightinferior
  >> vg&redef
  def

% Unicode mathematical operators encoding (unicode codes \u2200-\u22ff)
/UCMathOpsEncoding
  NullEncoding dup length array copy
  << 16#00 /universal       16#02 /partialdiff         16#03 /existential
     16#05 /emptyset        16#06 /Delta               16#07 /gradient
     16#08 /element         16#09 /notelement          16#0b /suchthat
     16#0f /product         16#11 /summation           16#12 /minus
     16#15 /fraction        16#17 /asteriskmath        16#19 /bullet
     16#1a /radical         16#1d /proportional        16#1e /infinity
     16#20 /angle           16#23 /bar                 16#27 /logicaland
     16#28 /logicalor       16#29 /intersection        16#2a /union
     16#2b /integral        16#34 /therefore           16#36 /colon
     16#3c /similar         16#45 /congruent           16#48 /approxequal
     16#60 /notequal        16#61 /equivalence         16#64 /lessequal
     16#65 /greaterequal    16#82 /propersubset        16#83 /propersuperset
     16#86 /reflexsubset    16#87 /reflexsuperset      16#95 /circleplus
     16#97 /circlemultiply  16#a5 /perpendicular       16#03 /existential
     16#c0 /logicaland      16#c1 /logicalor           16#c2 /intersection
     16#c3 /union           16#c4 /diamond             16#c5 /dotmath
  >> vg&redef
  def

% Unicode arrows encoding (unicode codes \u2190-\u21ff)
% Also includes those "Letterlike" unicode characters
% which are available in the symbol font. (unicode codes \u2100-\u214f)
/UCArrowsEncoding
  NullEncoding dup length array copy
  << 16#11 /Ifraktur        16#1c /Rfraktur            16#22 /trademarkserif
     16#35 /aleph
     16#90 /arrowleft       16#91 /arrowup             16#92 /arrowright
     16#93 /arrowdown       16#94 /arrowboth           16#d0 /arrowdblleft
     16#d1 /arrowdblup      16#d2 /arrowdblright       16#d3 /arrowdbldown
     16#d4 /arrowdblboth
  >> vg&redef
  def

/ZapfDingbats findfont /Encoding get
dup length array copy /UCDingbatsEncoding exch def
16#20 1 16#7f {
  dup 16#20 sub exch
  UCDingbatsEncoding exch get
  UCDingbatsEncoding 3 1 roll put
} for
16#a0 1 16#ff {
  dup 16#40 sub exch
  UCDingbatsEncoding exch get
  UCDingbatsEncoding 3 1 roll put
} for
UCDingbatsEncoding [ 16#c0 1 16#ff {} for ] vg&undef
[ 16#00  16#05 16#0a 16#0b  16#28 16#4c 16#4e  16#53 16#54 16#55  16#57 16#5f
  16#60  16#68 16#69 16#6a  16#6b 16#6c 16#6d  16#6e 16#6f 16#70  16#71 16#72
  16#73  16#74 16#75 16#95  16#96 16#97 16#b0  16#bf
] vg&undef pop

% Define the base fonts which don't change.
/Undefined-UC NullEncoding       /Helvetica    vg&newbasefont pop
/MathOps-UC   UCMathOpsEncoding  /Symbol       vg&newbasefont pop
/Arrows-UC    UCArrowsEncoding   /Symbol       vg&newbasefont pop
/Dingbats-UC  UCDingbatsEncoding /ZapfDingbats vg&newbasefont pop

% Make the SansSerif composite fonts.
/SansSerif /Helvetica 16#00 vg&newcompositefont
/SansSerif-Bold /Helvetica-Bold 16#01 vg&newcompositefont
/SansSerif-Italic /Helvetica-Oblique 16#02 vg&newcompositefont
/SansSerif-BoldItalic /Helvetica-BoldOblique 16#03 vg&newcompositefont

% Make the Serif composite fonts.
/Serif /Times-Roman 16#00 vg&newcompositefont
/Serif-Bold /Times-Bold 16#01 vg&newcompositefont
/Serif-Italic /Times-Italic 16#02 vg&newcompositefont
/Serif-BoldItalic /Times-BoldItalic 16#03 vg&newcompositefont

% Make the Monospaced composite fonts.
/Monospaced /Courier 16#00 vg&newcompositefont
/Monospaced-Bold /Courier-Bold 16#01 vg&newcompositefont
/Monospaced-Italic /Courier-Oblique 16#02 vg&newcompositefont
/Monospaced-BoldItalic /Courier-BoldOblique 16#03 vg&newcompositefont

% Make the Dialog composite fonts.
/Dialog /Helvetica 16#00 vg&newcompositefont
/Dialog-Bold /Helvetica-Bold 16#01 vg&newcompositefont
/Dialog-Italic /Helvetica-Oblique 16#02 vg&newcompositefont
/Dialog-BoldItalic /Helvetica-BoldOblique 16#03 vg&newcompositefont

% Make the DialogInput composite fonts.
/DialogInput /Courier 16#00 vg&newcompositefont
/DialogInput-Bold /Courier-Bold 16#01 vg&newcompositefont
/DialogInput-Italic /Courier-Oblique 16#02 vg&newcompositefont
/DialogInput-BoldItalic /Courier-BoldOblique 16#03 vg&newcompositefont

% Make the Typewriter composite fonts (JDK 1.1 only).
/Typewriter /Courier 16#00 vg&newcompositefont
/Typewriter-Bold /Courier-Bold 16#01 vg&newcompositefont
/Typewriter-Italic /Courier-Oblique 16#02 vg&newcompositefont
/Typewriter-BoldItalic /Courier-BoldOblique 16#03 vg&newcompositefont


/cfontH {
 dup /fontsize exch def /SansSerif exch sf
 /vg&fontstyles [{cfontH} {cfontHB} {cfontHI} {cfontHBI}] def
} def
/cfontHB {
  dup /fontsize exch def /SansSerif-Bold exch sf
 /vg&fontstyles [{cfontH} {cfontHB} {cfontHI} {cfontHBI}] def
} def
/cfontHI {
 dup /fontsize exch def /SansSerif-Italic exch sf
 /vg&fontstyles [{cfontH} {cfontHB} {cfontHI} {cfontHBI}] def
} def
/cfontHBI {
 dup /fontsize exch def /SansSerif-BoldItalic exch sf
 /vg&fontstyles [{cfontH} {cfontHB} {cfontHI} {cfontHBI}] def
} def

/cfontT {
 dup /fontsize exch def /Serif exch sf
 /vg&fontstyles [{cfontT} {cfontTB} {cfontTI} {cfontTBI}] def
} def
/cfontTB {
 dup /fontsize exch def /Serif-Bold exch sf
 /vg&fontstyles [{cfontT} {cfontTB} {cfontTI} {cfontTBI}] def
} def
/cfontTI {
 dup /fontsize exch def /Serif-Italic exch sf
 /vg&fontstyles [{cfontT} {cfontTB} {cfontTI} {cfontTBI}] def
} def
/cfontTBI {
 dup /fontsize exch def /Serif-BoldItalic exch sf
 /vg&fontstyles [{cfontT} {cfontTB} {cfontTI} {cfontTBI}] def
} def

/cfontC {
 dup /fontsize exch def /Typewriter exch sf
 /vg&fontstyles [{cfontC} {cfontCB} {cfontCI} {cfontCBI}] def
} def
/cfontCB {
 dup /fontsize exch def /Typewriter-Bold exch sf
 /vg&fontstyles [{cfontC} {cfontCB} {cfontCI} {cfontCBI}] def
} def
/cfontCI {
 dup /fontsize exch def /Typewriter-Italic exch sf
 /vg&fontstyles [{cfontC} {cfontCB} {cfontCI} {cfontCBI}] def
} def
/cfontCBI {
 dup /fontsize exch def /Typewriter-BoldItalic exch sf
 /vg&fontstyles [{cfontC} {cfontCB} {cfontCI} {cfontCBI}] def
} def

% Darken or lighten the current color.
/darken {0.7 exch exp 3 copy
         q 4 -1 roll vg&C
         currentrgbcolor 3 {4 -2 roll mul} repeat
         3 array astore Q} def

/displayColorMap
<< /Cr   [1.00 0.00 0.00]       /Cg     [0.00 1.00 0.00]
   /Cb   [0.00 0.00 1.00]       /Cc     [1.00 0.00 0.00 0.00]
   /Cm   [0.00 1.00 0.00 0.00]  /Cy     [0.00 0.00 1.00 0.00]
   /Co   [1.00 0.78 0.00]       /Cp     [1.00 0.67 0.67]
   /Cw   [1   ]                 /Cgrl   [0.75]
   /Cgr  [0.50]                 /Cgrd   [0.25]
   /Ck   [0   ]
   /CGr  [1.00 0.00 0.00]       /CGg    [0.00 1.00 0.00]
   /CGb  [0.00 0.00 1.00]       /CGc    [1.00 0.00 0.00 0.00]
   /CGm  [0.00 1.00 0.00 0.00]  /CGy    [0.00 0.00 1.00 0.00]
   /CGo  [1.00 0.78 0.00]       /CGp    [1.00 0.67 0.67]
   /CGw  [1   ]                 /CGgrl  [0.75]
   /CGgr [0.50]                 /CGgrd  [0.25]
   /CGk  [0   ]
   /CIr  [1.00 0.00 0.00]       /CIg    [0.00 1.00 0.00]
   /CIb  [0.00 0.00 1.00]       /CIc    [1.00 0.00 0.00 0.00]
   /CIm  [0.00 1.00 0.00 0.00]  /CIy    [0.00 0.00 1.00 0.00]
   /CIo  [1.00 0.78 0.00]       /CIp    [1.00 0.67 0.67]
   /CIw  [1   ]                 /CIgrl  [0.75]
   /CIgr [0.50]                 /CIgrd  [0.25]
   /CIk  [0   ]
>> def

/printColorMap
<< /Cr   [1.00 0.33 0.33]       /Cg     [0.33 1.00 0.33]
   /Cb   [0.33 0.33 1.00]       /Cc     [1.00 0.00 0.00 0.00]
   /Cm   [0.00 1.00 0.00 0.00]  /Cy     [0.00 0.00 1.00 0.00]
   /Co   [1.00 0.78 0.00]       /Cp     [1.00 0.67 0.67]
   /Cw   [1   ]                 /Cgrl   [0.75]
   /Cgr  [0.50]                 /Cgrd   [0.25]
   /Ck   [0   ]
   /CGr  [1.00 0.33 0.33]       /CGg    [0.33 1.00 0.33]
   /CGb  [0.33 0.33 1.00]       /CGc    [1.00 0.00 0.00 0.00]
   /CGm  [0.00 1.00 0.00 0.00]  /CGy    [0.00 0.00 1.00 0.00]
   /CGo  [1.00 0.78 0.00]       /CGp    [1.00 0.67 0.67]
   /CGw  [1   ]                 /CGgrl  [0.75]
   /CGgr [0.50]                 /CGgrd  [0.25]
   /CGk  [0   ]
   /CIr  [1.00 0.33 0.33]       /CIg    [0.33 1.00 0.33]
   /CIb  [0.33 0.33 1.00]       /CIc    [1.00 0.00 0.00 0.00]
   /CIm  [0.00 1.00 0.00 0.00]  /CIy    [0.00 0.00 1.00 0.00]
   /CIo  [1.00 0.78 0.00]       /CIp    [1.00 0.67 0.67]
   /CIw  [1   ]                 /CIgrl  [0.75]
   /CIgr [0.50]                 /CIgrd  [0.25]
   /CIk  [0   ]
>> def

/grayColorMap
<< /Cr   [0   ]                 /Cg     [0   ]
   /Cb   [0   ]                 /Cc     [0   ]
   /Cm   [0   ]                 /Cy     [0   ]
   /Co   [0   ]                 /Cp     [0   ]
   /Cw   [0   ]                 /Cgrl   [0   ]
   /Cgr  [0   ]                 /Cgrd   [0   ]
   /Ck   [0   ]
   /CGr  [0.75]                 /CGg    [1   ]
   /CGb  [0.50]                 /CGc    [0.75]
   /CGm  [0.50]                 /CGy    [1   ]
   /CGo  [0.75]                 /CGp    [1   ]
   /CGw  [0   ]                 /CGgrl  [0.25]
   /CGgr [0.50]                 /CGgrd  [0.75]
   /CGk  [1   ]
   /CIr  [1   ]                 /CIg    [1   ]
   /CIb  [1   ]                 /CIc    [1   ]
   /CIm  [1   ]                 /CIy    [1   ]
   /CIo  [1   ]                 /CIp    [1   ]
   /CIw  [1   ]                 /CIgrl  [1   ]
   /CIgr [1   ]                 /CIgrd  [1   ]
   /CIk  [1   ]
>> def

/bwColorMap
<< /Cr   [0   ]                 /Cg     [0   ]
   /Cb   [0   ]                 /Cc     [0   ]
   /Cm   [0   ]                 /Cy     [0   ]
   /Co   [0   ]                 /Cp     [0   ]
   /Cw   [0   ]                 /Cgrl   [0   ]
   /Cgr  [0   ]                 /Cgrd   [0   ]
   /Ck   [0   ]
   /CGr  [1   ]                 /CGg    [1   ]
   /CGb  [1   ]                 /CGc    [1   ]
   /CGm  [1   ]                 /CGy    [1   ]
   /CGo  [1   ]                 /CGp    [1   ]
   /CGw  [0   ]                 /CGgrl  [1   ]
   /CGgr [1   ]                 /CGgrd  [1   ]
   /CGk  [1   ]
   /CIr  [1   ]                 /CIg    [1   ]
   /CIb  [1   ]                 /CIc    [1   ]
   /CIm  [1   ]                 /CIy    [1   ]
   /CIo  [1   ]                 /CIp    [1   ]
   /CIw  [1   ]                 /CIgrl  [1   ]
   /CIgr [1   ]                 /CIgrd  [1   ]
   /CIk  [1   ]
>> def

%
% The following routines handle the alignment of and printing of
% tagged strings.
%

% Predefine the bounding box values.
/bbllx 0 def /bblly 0 def /bburx 0 def /bbury 0 def

% This routine pops the first unicode character off of a string and returns
% the remainder of the string, the character code of first character,
% and a "true" if the string was non-zero length.
% <string>      popfirst <remaining string> <true>
% <null string> popfirst <false>
/popfirst {
  dup length 1 gt
    {dup 0 get /vg&fbyte exch def
     dup 1 get /vg&cbyte exch def
     dup length 2 sub 2 exch getinterval true}
    {pop false} ifelse
} def

% This routine shows a single unicode character given the font and
% character codes.
% <font code> <char code> unicharshow --
/unicharshow {
  2 string
  dup 0 5 -1 roll put
  dup 1 4 -1 roll put
  internalshow
} def

% This is an internal routine to alternate between determining the
% bounding box for stringsize and showing the string for recshow.
% <string> internalshow --
/internalshow {show} def

% This is an internal routine to alternate between determining the
% bounding box for stringsize and stroking various ornaments.
% <string> internalstroke --
/internalstroke {S} def

% Sets up internalshow to use the null device to determine string size.
% -- nullinternalshow --
/nullinternalshow {/internalshow {false charpath flattenpath
                                  pathbbox updatebbox} def} def

% Sets up internalstroke to use the null device to determine string size.
% -- nullinternalstroke --
/nullinternalstroke {
 /internalstroke {flattenpath pathbbox updatebbox} def} def

% This routine tests to see if the character code matches the first
% character of a string.
% <char code> <string> testchar <char code> <true or false>
/testchar {exch dup 3 -1 roll 0 get eq} def

% Raise the text baseline for superscripts.
% -- raise --
/raise {
  0 fontsize 2 div rmoveto
  /fontsize fontsize 2 mul 3 div def
  currentfont /FontName get fontsize sf
} def

% Un-raise the text baseline for superscripts.
% -- unraise --
/unraise {
  /fontsize fontsize 1.5 mul def
  0 fontsize 2 div neg rmoveto
} def

% Lower the text baseline for subscripts.
% -- lower --
/lower {
  0 fontsize 3 div neg rmoveto
  /fontsize fontsize 2 mul 3 div def
  currentfont /FontName get fontsize sf
} def

% Un-lower the text baseline for subscripts.
% -- unlower --
/unlower {
  /fontsize fontsize 1.5 mul def
  0 fontsize 3 div rmoveto
} def

% Compare the top two elements on the stack and leave only the
% larger one.
/maxval {2 copy gt {pop} {exch pop} ifelse} def

% Tokenize a string.  Do not use the usual PostScript token because
% parentheses will not be interpreted correctly because of rescanning
% of the string.
/vg&token {/vg&string exch def /vg&index -1 def /vg&level 0 def
0 2 vg&string length 2 sub {
  dup dup 1 add exch vg&string exch get 8 bitshift vg&string 3 -1 roll get or
  dup 16#f0fe eq {pop 1}{16#f0ff eq {-1}{0} ifelse} ifelse
  /vg&level exch vg&level add def
  vg&level 0 eq {/vg&index exch def exit} if pop
} for
vg&index 0 ge {
  vg&string vg&index 2 add dup vg&string length exch sub getinterval
  vg&index 2 gt {vg&string 2 vg&index 2 sub getinterval}{()} ifelse
  true}
{false} ifelse
} bind def

% Recursively show an unicode string.
% <string> recshow --
/recshow {
  popfirst
  {
    % Test to see if this is a string attribute.
    vg&fbyte 16#f0 and 16#e0 eq
    {
      q

      % Font style.
      currentfont dup /FontStyleBits known {/FontStyleBits get}{pop 0} ifelse
      vg&cbyte or vg&fontstyles exch get fontsize exch exec

      vg&token pop recshow currentpoint Q m recshow
    }
    {
      vg&fbyte 16#F8 and 16#F0 eq {

        % Superscript and/or subscript.
        vg&cbyte 16#00 eq {
          vg&token pop exch vg&token pop 3 -1 roll
          q raise recshow unraise currentpoint pop Q exch
          q lower recshow unlower currentpoint pop Q
          maxval currentpoint exch pop m recshow } if

        % Strikeout.
        vg&cbyte 16#01 eq {
          vg&token pop currentpoint 3 -1 roll recshow
          q 0 J vg&underline vg&uthick w
          currentpoint 4 -2 roll fontsize 3 div add moveto
          fontsize 3 div add lineto internalstroke Q
          recshow} if

        % Underline.
        vg&cbyte 16#02 eq {
          vg&token pop currentpoint 3 -1 roll recshow
          q 0 J vg&underline vg&uthick w
          currentpoint 4 -2 roll vg&uoffset add moveto
          vg&uoffset add lineto internalstroke Q
          recshow} if

        % Dashed underline.
        vg&cbyte 16#03 eq {
          vg&token pop currentpoint 3 -1 roll recshow
          q 0 J [ vg&uthick 5 mul vg&uthick 2 mul] 0 d
          vg&underline vg&uthick w
          currentpoint 4 -2 roll vg&uoffset add moveto
          vg&uoffset add lineto internalstroke Q
          recshow} if

        % Dotted underline.
        vg&cbyte 16#04 eq {
          vg&token pop currentpoint 3 -1 roll recshow
          q 1 J [ 0 vg&uthick 3 mul] 0 d
          vg&underline vg&uthick w
          currentpoint 4 -2 roll vg&uoffset add moveto
          vg&uoffset add lineto internalstroke Q
          recshow} if

        % Thick underline.
        vg&cbyte 16#05 eq {
          vg&token pop currentpoint 3 -1 roll recshow
          q 0 J vg&underline vg&uthick 2 mul w
          currentpoint 4 -2 roll vg&uoffset vg&uthick 2 div sub add moveto
          vg&uoffset vg&uthick 2 div sub add lineto internalstroke Q
          recshow} if

        % Gray thick underline.
        vg&cbyte 16#06 eq {
          vg&token pop currentpoint 3 -1 roll recshow
          q 0 J vg&underline vg&uthick 2 mul w 0.5 setgray
          currentpoint 4 -2 roll vg&uoffset vg&uthick 2 div sub add moveto
          vg&uoffset vg&uthick 2 div sub add lineto internalstroke Q
          recshow} if

        % Overbar.
        vg&cbyte 16#07 eq {
          vg&token pop dup stringsize relative 4 1 roll pop pop exch
          3 -1 roll recshow
          q 0 J vg&underline vg&uthick w
          vg&uoffset neg add dup currentpoint pop exch m l internalstroke Q
          recshow} if
      }
      {
        vg&fbyte vg&cbyte unicharshow recshow
      } ifelse
    } ifelse
  } if
} def

% Get the underline position and thickness from the current font.
/vg&underline {

currentfont dup /FontType get 0 eq {/FDepVector get 0 get} if
dup dup /FontInfo known {
  /FontInfo get dup
  dup /UnderlinePosition known {
    /UnderlinePosition get /vg&uoffset exch def
  }
  {
    pop /vg&uoffset 0 def
  } ifelse
  dup /UnderlineThickness known {
    /UnderlineThickness get /vg&uthick exch def
  }
  {
    pop /vg&uthick 0 def
  } ifelse
}
{
  pop /vg&uoffset 0 def /vg&uthick 0 def
} ifelse
/FontMatrix get
currentfont dup /FontType get 0 eq
{/FontMatrix get matrix concatmatrix}{pop} ifelse
dup 0 vg&uoffset 3 -1 roll transform /vg&uoffset exch def pop
0 vg&uthick 3 -1 roll transform /vg&uthick exch def pop
} def

% Make a frame with the coordinates on the stack.
% <llx> <lly> <urx> <ury> frame --
/frame {4 copy m 3 1 roll exch l 4 -2 roll l l h} def

% Resets the accumulated bounding box to a degenerate box at the
% current point.
% -- resetbbox --
/resetbbox {
  currentpoint 2 copy
  /bbury exch def
  /bburx exch def
  /bblly exch def
  /bbllx exch def
} def

% Update the accumulated bounding box.
% <llx'> <lly'> <urx'> <ury'> updatebbox --
/updatebbox {
  dup bbury gt {/bbury exch def} {pop} ifelse
  dup bburx gt {/bburx exch def} {pop} ifelse
  dup bblly lt {/bblly exch def} {pop} ifelse
  dup bbllx lt {/bbllx exch def} {pop} ifelse
} def

% Set the bounding box to the values on the stack.
% <llx'> <lly'> <urx'> <ury'> updatebbox --
/restorebbox {
  /bbury exch def /bburx exch def /bblly exch def /bbllx exch def
} def

% Push the accumulated bounding box onto the stack.
% -- pushbbox <llx> <lly> <urx> <ury>
/pushbbox {bbllx bblly bburx bbury} def

% Make the relative bounding box relative to the currentpoint.
% <llx'> <lly'> <urx'> <ury'> inflate <llx> <lly> <urx> <ury>
/inflate {
  2 {fontsize 0.2 mul add 4 1 roll} repeat
  2 {fontsize 0.2 mul sub 4 1 roll} repeat
} def

% Make the relative bounding box relative to the currentpoint.
% <llx'> <lly'> <urx'> <ury'> relative <llx> <lly> <urx> <ury>
/relative {
  currentpoint 3 -1 roll add 3 1 roll add exch 4 2 roll
  currentpoint 3 -1 roll add 3 1 roll add exch 4 2 roll
} def

% Returns the size of a string appropriate for recshow.
% <string> stringsize <llx> <lly> <urx> <ury>
/stringsize {
  pushbbox /internalshow load /internalstroke load 7 -1 roll
  q
  nulldevice 0 0 m
  nullinternalshow nullinternalstroke
  resetbbox
  recshow
  /internalstroke exch def /internalshow exch def
  pushbbox 8 -4 roll restorebbox
  Q
} def

% Calculate values for string positioning.
/calcval {4 copy
  3 -1 roll sub /widy exch def sub neg /widx exch def
  pop pop /dy exch def /dx exch def} def

% Utilities to position a string.
% First letter (U=upper, C=center, B=baseline, L=lower)
% Second letter (L=left, C=center, R=right)
/align [
{calcval dx neg widy dy add neg rmoveto} % UL
{calcval dx neg widy 2 div dy add neg rmoveto} % CL
{calcval dx neg 0 rmoveto} % BL
{calcval dx neg dy neg rmoveto} % LL
{calcval widx dx add neg widy dy add neg rmoveto} % UR
{calcval widx dx add neg widy 2 div dy add neg rmoveto} % CR
{calcval widx dx add neg 0 rmoveto} % BR
{calcval widx dx add neg dy neg rmoveto} % LR
{calcval widx 2 div dx add neg widy dy add neg rmoveto} % UC
{calcval widx 2 div dx add neg widy 2 div dy add neg rmoveto} % CC
{calcval widx 2 div dx add neg 0 rmoveto} % BC
{calcval widx 2 div dx add neg dy neg rmoveto} % LC
] def

/vg&str {m q 1 -1 scale dup stringsize 4 copy align 11 -1 roll get exec
         q inflate relative frame exch exec Q recshow Q} def

end /procDict exch def
%%EndProlog

%%BeginSetup
save
procDict begin
printColorMap begin
402 333 setpagesize
0 0 0 0 setmargins
0 0 setorigin
402 333 setsize
naturalsize
portrait
imagescale
cliptobounds
setbasematrix
/Helvetica 10 sf
defaultGraphicsState
%%EndSetup

0.00000 0.00000 0.00000 RG
[ 1.00000 0.00000 0.00000 1.00000 0.00000 0.00000 ] defaultmatrix matrix concatmatrix setmatrix
cliprestore
1.00000 1.00000 1.00000 RG
newpath
0.00000 0.00000 m
402.000 0.00000 l
402.000 333.000 l
0.00000 333.000 l
0.00000 0.00000 l
h
f
0.00000 0.00000 0.00000 RG
0.00000 0.00000 0.00000 RG
[ 1.00000 0.00000 0.00000 1.00000 0.00000 0.00000 ] defaultmatrix matrix concatmatrix setmatrix
cliprestore
1.00000 1.00000 1.00000 RG
newpath
0.00000 0.00000 m
402.000 0.00000 l
402.000 333.000 l
0.00000 333.000 l
0.00000 0.00000 l
h
f
0.00000 0.00000 0.00000 RG
0 0 402 333 rc
q
[ 1.00000 0.00000 0.00000 1.00000 0.00000 0.00000 ] concat
[ 1.00000 0.00000 0.00000 1.00000 -228.000 -95.0000 ] concat
1.00000 1.00000 1.00000 RG
newpath
228.000 95.0000 m
630.000 95.0000 l
630.000 428.000 l
228.000 428.000 l
228.000 95.0000 l
h
f
0.00000 0.00000 0.00000 RG
[ 1.00000 0.00000 0.00000 1.00000 -228.000 -95.0000 ] defaultmatrix matrix concatmatrix setmatrix
[ 1.00000 0.00000 0.00000 1.00000 -228.000 -95.0000 ] defaultmatrix matrix concatmatrix setmatrix
[ 1.00000 0.00000 0.00000 1.00000 0.00000 0.00000 ] defaultmatrix matrix concatmatrix setmatrix
[ 1.00000 0.00000 0.00000 1.00000 -228.000 -95.0000 ] defaultmatrix matrix concatmatrix setmatrix
1.00000 1.00000 1.00000 RG
newpath
228.200 130.496 m
258.200 130.496 l
258.200 160.496 l
228.200 160.496 l
228.200 130.496 l
h
f
0 J
1.45000 M
0.00000 0.00000 0.00000 RG
newpath
228.200 130.496 m
258.200 130.496 l
258.200 160.496 l
228.200 160.496 l
228.200 130.496 l
h
S
2 J
10.0000 M
0 J
1.45000 M
newpath
244.258 144.932 m
244.820 145.057 245.260 145.309 245.578 145.689  c
245.896 146.070 246.054 146.541 246.054 147.103  c
246.054 147.968 245.758 148.637 245.164 149.111  c
244.570 149.585 243.726 149.822 242.633 149.822  c
242.268 149.822 241.890 149.786 241.500 149.713  c
241.109 149.640 240.711 149.531 240.304 149.385  c
240.304 148.244 l
240.627 148.432 240.984 148.575 241.375 148.674  c
241.765 148.773 242.174 148.822 242.601 148.822  c
243.341 148.822 243.906 148.676 244.297 148.385  c
244.687 148.093 244.883 147.666 244.883 147.103  c
244.883 146.593 244.700 146.192 244.336 145.900  c
243.971 145.609 243.471 145.463 242.836 145.463  c
241.804 145.463 l
241.804 144.494 l
242.883 144.494 l
243.456 144.494 243.898 144.377 244.211 144.142  c
244.523 143.908 244.679 143.572 244.679 143.135  c
244.679 142.687 244.521 142.343 244.203 142.103  c
243.885 141.864 243.429 141.744 242.836 141.744  c
242.502 141.744 242.151 141.778 241.781 141.846  c
241.411 141.913 241.002 142.020 240.554 142.166  c
240.554 141.119 l
241.013 140.994 241.437 140.900 241.828 140.838  c
242.219 140.775 242.586 140.744 242.929 140.744  c
243.836 140.744 244.549 140.947 245.070 141.353  c
245.591 141.760 245.851 142.312 245.851 143.010  c
245.851 143.499 245.713 143.911 245.437 144.244  c
245.161 144.577 244.768 144.807 244.258 144.932  c
h
f
2 J
10.0000 M
1.00000 1.00000 1.00000 RG
newpath
302.536 130.496 m
332.536 130.496 l
332.536 160.496 l
302.536 160.496 l
302.536 130.496 l
h
f
0 J
1.45000 M
0.00000 0.00000 0.00000 RG
newpath
302.536 130.496 m
332.536 130.496 l
332.536 160.496 l
302.536 160.496 l
302.536 130.496 l
h
S
2 J
10.0000 M
0 J
1.45000 M
newpath
316.016 148.650 m
320.156 148.650 l
320.156 149.650 l
314.594 149.650 l
314.594 148.650 l
315.042 148.192 315.654 147.570 316.430 146.783  c
317.206 145.997 317.693 145.489 317.891 145.260  c
318.276 144.843 318.544 144.486 318.695 144.189  c
318.846 143.892 318.922 143.603 318.922 143.322  c
318.922 142.853 318.758 142.473 318.430 142.182  c
318.101 141.890 317.677 141.744 317.156 141.744  c
316.781 141.744 316.388 141.807 315.976 141.932  c
315.565 142.057 315.125 142.254 314.656 142.525  c
314.656 141.322 l
315.135 141.135 315.581 140.991 315.992 140.892  c
316.404 140.794 316.781 140.744 317.125 140.744  c
318.031 140.744 318.755 140.971 319.297 141.424  c
319.838 141.877 320.109 142.484 320.109 143.244  c
320.109 143.598 320.042 143.937 319.906 144.260  c
319.771 144.583 319.526 144.963 319.172 145.400  c
319.068 145.515 318.755 145.843 318.234 146.385  c
317.713 146.926 316.974 147.682 316.016 148.650  c
h
f
2 J
10.0000 M
1.00000 1.00000 1.00000 RG
newpath
376.872 130.496 m
406.872 130.496 l
406.872 160.496 l
376.872 160.496 l
376.872 130.496 l
h
f
0 J
1.45000 M
0.00000 0.00000 0.00000 RG
newpath
376.872 130.496 m
406.872 130.496 l
406.872 160.496 l
376.872 160.496 l
376.872 130.496 l
h
S
2 J
10.0000 M
0 J
1.45000 M
newpath
389.352 140.900 m
393.992 140.900 l
393.992 141.900 l
390.430 141.900 l
390.430 144.041 l
390.607 143.978 390.781 143.934 390.953 143.908  c
391.125 143.882 391.294 143.869 391.461 143.869  c
392.440 143.869 393.216 144.137 393.789 144.674  c
394.362 145.210 394.648 145.932 394.648 146.838  c
394.648 147.786 394.354 148.520 393.766 149.041  c
393.177 149.562 392.352 149.822 391.289 149.822  c
390.914 149.822 390.536 149.791 390.156 149.728  c
389.776 149.666 389.383 149.572 388.977 149.447  c
388.977 148.260 l
389.331 148.447 389.695 148.588 390.070 148.682  c
390.445 148.775 390.841 148.822 391.258 148.822  c
391.935 148.822 392.471 148.645 392.867 148.291  c
393.263 147.937 393.461 147.452 393.461 146.838  c
393.461 146.234 393.263 145.754 392.867 145.400  c
392.471 145.046 391.935 144.869 391.258 144.869  c
390.945 144.869 390.630 144.903 390.312 144.971  c
389.995 145.038 389.674 145.145 389.352 145.291  c
389.352 140.900 l
h
f
2 J
10.0000 M
1.00000 1.00000 1.00000 RG
newpath
451.208 130.496 m
481.208 130.496 l
481.208 160.496 l
451.208 160.496 l
451.208 130.496 l
h
f
0 J
1.45000 M
0.00000 0.00000 0.00000 RG
newpath
451.208 130.496 m
481.208 130.496 l
481.208 160.496 l
451.208 160.496 l
451.208 130.496 l
h
S
2 J
10.0000 M
0 J
1.45000 M
newpath
466.359 144.807 m
465.828 144.807 465.406 144.989 465.094 145.353  c
464.781 145.718 464.625 146.213 464.625 146.838  c
464.625 147.473 464.781 147.973 465.094 148.338  c
465.406 148.702 465.828 148.885 466.359 148.885  c
466.891 148.885 467.310 148.702 467.617 148.338  c
467.924 147.973 468.078 147.473 468.078 146.838  c
468.078 146.213 467.924 145.718 467.617 145.353  c
467.310 144.989 466.891 144.807 466.359 144.807  c
h
468.703 141.088 m
468.703 142.166 l
468.401 142.031 468.099 141.926 467.797 141.853  c
467.495 141.781 467.198 141.744 466.906 141.744  c
466.125 141.744 465.529 142.007 465.117 142.533  c
464.706 143.059 464.469 143.853 464.406 144.916  c
464.635 144.583 464.924 144.325 465.273 144.142  c
465.622 143.960 466.005 143.869 466.422 143.869  c
467.297 143.869 467.990 144.135 468.500 144.666  c
469.010 145.197 469.266 145.921 469.266 146.838  c
469.266 147.744 469.000 148.468 468.469 149.010  c
467.938 149.551 467.234 149.822 466.359 149.822  c
465.339 149.822 464.562 149.434 464.031 148.658  c
463.500 147.882 463.234 146.760 463.234 145.291  c
463.234 143.906 463.562 142.801 464.219 141.978  c
464.875 141.156 465.755 140.744 466.859 140.744  c
467.151 140.744 467.448 140.773 467.750 140.830  c
468.052 140.887 468.370 140.973 468.703 141.088  c
h
f
2 J
10.0000 M
1.00000 1.00000 1.00000 RG
newpath
525.544 130.496 m
555.544 130.496 l
555.544 160.496 l
525.544 160.496 l
525.544 130.496 l
h
f
0 J
1.45000 M
0.00000 0.00000 0.00000 RG
newpath
525.544 130.496 m
555.544 130.496 l
555.544 160.496 l
525.544 160.496 l
525.544 130.496 l
h
S
2 J
10.0000 M
0 J
1.45000 M
newpath
541.258 141.932 m
538.273 146.603 l
541.258 146.603 l
541.258 141.932 l
h
540.945 140.900 m
542.445 140.900 l
542.445 146.603 l
543.695 146.603 l
543.695 147.588 l
542.445 147.588 l
542.445 149.650 l
541.258 149.650 l
541.258 147.588 l
537.320 147.588 l
537.320 146.447 l
540.945 140.900 l
h
f
2 J
10.0000 M
1.00000 1.00000 1.00000 RG
newpath
599.880 130.496 m
629.880 130.496 l
629.880 160.496 l
599.880 160.496 l
599.880 130.496 l
h
f
0 J
1.45000 M
0.00000 0.00000 0.00000 RG
newpath
599.880 130.496 m
629.880 130.496 l
629.880 160.496 l
599.880 160.496 l
599.880 130.496 l
h
S
2 J
10.0000 M
0 J
1.45000 M
newpath
612.547 148.650 m
614.484 148.650 l
614.484 141.978 l
612.375 142.400 l
612.375 141.322 l
614.469 140.900 l
615.656 140.900 l
615.656 148.650 l
617.594 148.650 l
617.594 149.650 l
612.547 149.650 l
612.547 148.650 l
h
f
2 J
10.0000 M
1.00000 1.00000 1.00000 RG
newpath
228.200 95.8864 m
258.200 95.8864 l
258.200 125.886 l
228.200 125.886 l
228.200 95.8864 l
h
f
0.00000 0.00000 0.00000 RG
0 J
1.45000 M
newpath
243.195 107.072 m
242.591 107.072 242.135 107.371 241.828 107.970  c
241.521 108.569 241.367 109.473 241.367 110.681  c
241.367 111.879 241.521 112.778 241.828 113.377  c
242.135 113.976 242.591 114.275 243.195 114.275  c
243.810 114.275 244.271 113.976 244.578 113.377  c
244.885 112.778 245.039 111.879 245.039 110.681  c
245.039 109.473 244.885 108.569 244.578 107.970  c
244.271 107.371 243.810 107.072 243.195 107.072  c
h
243.195 106.134 m
244.174 106.134 244.924 106.522 245.445 107.299  c
245.966 108.075 246.226 109.202 246.226 110.681  c
246.226 112.150 245.966 113.272 245.445 114.049  c
244.924 114.825 244.174 115.213 243.195 115.213  c
242.216 115.213 241.469 114.825 240.953 114.049  c
240.437 113.272 240.179 112.150 240.179 110.681  c
240.179 109.202 240.437 108.075 240.953 107.299  c
241.469 106.522 242.216 106.134 243.195 106.134  c
h
f
2 J
10.0000 M
1.00000 1.00000 1.00000 RG
0.00000 0.00000 0.00000 RG
1.00000 1.00000 1.00000 RG
newpath
302.536 95.8864 m
332.536 95.8864 l
332.536 125.886 l
302.536 125.886 l
302.536 95.8864 l
h
f
0.00000 0.00000 0.00000 RG
0 J
1.45000 M
newpath
315.203 114.041 m
317.141 114.041 l
317.141 107.369 l
315.031 107.791 l
315.031 106.713 l
317.125 106.291 l
318.312 106.291 l
318.312 114.041 l
320.250 114.041 l
320.250 115.041 l
315.203 115.041 l
315.203 114.041 l
h
f
2 J
10.0000 M
1.00000 1.00000 1.00000 RG
0.00000 0.00000 0.00000 RG
1.00000 1.00000 1.00000 RG
newpath
376.872 95.8864 m
406.872 95.8864 l
406.872 125.886 l
376.872 125.886 l
376.872 95.8864 l
h
f
0.00000 0.00000 0.00000 RG
0 J
1.45000 M
newpath
390.352 114.041 m
394.492 114.041 l
394.492 115.041 l
388.930 115.041 l
388.930 114.041 l
389.378 113.582 389.990 112.960 390.766 112.174  c
391.542 111.387 392.029 110.879 392.227 110.650  c
392.612 110.233 392.880 109.877 393.031 109.580  c
393.182 109.283 393.258 108.994 393.258 108.713  c
393.258 108.244 393.094 107.864 392.766 107.572  c
392.437 107.280 392.013 107.134 391.492 107.134  c
391.117 107.134 390.724 107.197 390.312 107.322  c
389.901 107.447 389.461 107.645 388.992 107.916  c
388.992 106.713 l
389.471 106.525 389.917 106.382 390.328 106.283  c
390.740 106.184 391.117 106.134 391.461 106.134  c
392.367 106.134 393.091 106.361 393.633 106.814  c
394.174 107.267 394.445 107.874 394.445 108.634  c
394.445 108.989 394.378 109.327 394.242 109.650  c
394.107 109.973 393.862 110.353 393.508 110.791  c
393.404 110.905 393.091 111.233 392.570 111.775  c
392.049 112.317 391.310 113.072 390.352 114.041  c
h
f
2 J
10.0000 M
1.00000 1.00000 1.00000 RG
0.00000 0.00000 0.00000 RG
1.00000 1.00000 1.00000 RG
newpath
451.208 95.8864 m
481.208 95.8864 l
481.208 125.886 l
451.208 125.886 l
451.208 95.8864 l
h
f
0.00000 0.00000 0.00000 RG
0 J
1.45000 M
newpath
467.266 110.322 m
467.828 110.447 468.268 110.700 468.586 111.080  c
468.904 111.460 469.062 111.931 469.062 112.494  c
469.062 113.358 468.766 114.028 468.172 114.502  c
467.578 114.976 466.734 115.213 465.641 115.213  c
465.276 115.213 464.898 115.176 464.508 115.103  c
464.117 115.030 463.719 114.921 463.312 114.775  c
463.312 113.634 l
463.635 113.822 463.992 113.965 464.383 114.064  c
464.773 114.163 465.182 114.213 465.609 114.213  c
466.349 114.213 466.914 114.067 467.305 113.775  c
467.695 113.483 467.891 113.056 467.891 112.494  c
467.891 111.983 467.708 111.582 467.344 111.291  c
466.979 110.999 466.479 110.853 465.844 110.853  c
464.812 110.853 l
464.812 109.884 l
465.891 109.884 l
466.464 109.884 466.906 109.767 467.219 109.533  c
467.531 109.299 467.688 108.963 467.688 108.525  c
467.688 108.077 467.529 107.733 467.211 107.494  c
466.893 107.254 466.438 107.134 465.844 107.134  c
465.510 107.134 465.159 107.168 464.789 107.236  c
464.419 107.304 464.010 107.410 463.562 107.556  c
463.562 106.509 l
464.021 106.384 464.445 106.291 464.836 106.228  c
465.227 106.166 465.594 106.134 465.938 106.134  c
466.844 106.134 467.557 106.338 468.078 106.744  c
468.599 107.150 468.859 107.702 468.859 108.400  c
468.859 108.890 468.721 109.301 468.445 109.634  c
468.169 109.968 467.776 110.197 467.266 110.322  c
h
f
2 J
10.0000 M
1.00000 1.00000 1.00000 RG
0.00000 0.00000 0.00000 RG
1.00000 1.00000 1.00000 RG
newpath
525.544 95.8864 m
555.544 95.8864 l
555.544 125.886 l
525.544 125.886 l
525.544 95.8864 l
h
f
0.00000 0.00000 0.00000 RG
0 J
1.45000 M
newpath
541.258 107.322 m
538.273 111.994 l
541.258 111.994 l
541.258 107.322 l
h
540.945 106.291 m
542.445 106.291 l
542.445 111.994 l
543.695 111.994 l
543.695 112.978 l
542.445 112.978 l
542.445 115.041 l
541.258 115.041 l
541.258 112.978 l
537.320 112.978 l
537.320 111.838 l
540.945 106.291 l
h
f
2 J
10.0000 M
1.00000 1.00000 1.00000 RG
0.00000 0.00000 0.00000 RG
1.00000 1.00000 1.00000 RG
newpath
599.880 95.8864 m
629.880 95.8864 l
629.880 125.886 l
599.880 125.886 l
599.880 95.8864 l
h
f
0.00000 0.00000 0.00000 RG
0 J
1.45000 M
newpath
612.359 106.291 m
617.000 106.291 l
617.000 107.291 l
613.438 107.291 l
613.438 109.431 l
613.615 109.369 613.789 109.325 613.961 109.299  c
614.133 109.272 614.302 109.259 614.469 109.259  c
615.448 109.259 616.224 109.528 616.797 110.064  c
617.370 110.601 617.656 111.322 617.656 112.228  c
617.656 113.176 617.362 113.910 616.774 114.431  c
616.185 114.952 615.359 115.213 614.297 115.213  c
613.922 115.213 613.544 115.181 613.164 115.119  c
612.784 115.056 612.391 114.963 611.984 114.838  c
611.984 113.650 l
612.339 113.838 612.703 113.978 613.078 114.072  c
613.453 114.166 613.849 114.213 614.266 114.213  c
614.943 114.213 615.479 114.035 615.875 113.681  c
616.271 113.327 616.469 112.843 616.469 112.228  c
616.469 111.624 616.271 111.145 615.875 110.791  c
615.479 110.437 614.943 110.259 614.266 110.259  c
613.953 110.259 613.638 110.293 613.320 110.361  c
613.003 110.429 612.682 110.535 612.359 110.681  c
612.359 106.291 l
h
f
2 J
10.0000 M
1.00000 1.00000 1.00000 RG
0.00000 0.00000 0.00000 RG
0 J
1.45000 M
newpath
258.191 133.804 m
261.784 131.558 l
271.076 128.074 l
280.368 126.912 l
289.660 128.074 l
295.392 130.223 l
295.476 130.276 l
S
newpath
302.634 133.848 m
294.130 124.016 l
294.582 129.829 l
289.665 132.963 l
h
f
2 J
10.0000 M
0 J
1.45000 M
newpath
302.545 157.188 m
298.952 159.434 l
289.660 162.919 l
280.368 164.080 l
271.076 162.919 l
265.344 160.769 l
265.260 160.716 l
S
newpath
258.102 157.144 m
266.606 166.976 l
266.154 161.163 l
271.071 158.029 l
h
f
2 J
10.0000 M
0 J
1.45000 M
newpath
406.863 133.804 m
410.456 131.558 l
419.748 128.074 l
429.040 126.912 l
438.332 128.074 l
444.064 130.223 l
444.148 130.276 l
S
newpath
451.306 133.848 m
442.802 124.016 l
443.254 129.829 l
438.337 132.963 l
h
f
2 J
10.0000 M
0 J
1.45000 M
newpath
406.863 133.804 m
410.456 131.558 l
419.748 128.074 l
429.040 126.912 l
438.332 128.074 l
444.064 130.223 l
444.148 130.276 l
S
newpath
451.306 133.848 m
442.802 124.016 l
443.254 129.829 l
438.337 132.963 l
h
f
2 J
10.0000 M
0 J
1.45000 M
newpath
451.217 157.188 m
447.624 159.434 l
438.332 162.919 l
429.040 164.080 l
419.748 162.919 l
414.016 160.769 l
413.932 160.716 l
S
newpath
406.774 157.144 m
415.278 166.976 l
414.826 161.163 l
419.743 158.029 l
h
f
2 J
10.0000 M
0 J
1.45000 M
newpath
555.535 133.804 m
559.128 131.558 l
568.420 128.074 l
577.712 126.912 l
587.004 128.074 l
592.736 130.223 l
592.820 130.276 l
S
newpath
599.978 133.848 m
591.474 124.016 l
591.926 129.829 l
587.009 132.963 l
h
f
2 J
10.0000 M
0 J
1.45000 M
newpath
599.889 157.188 m
596.296 159.434 l
587.004 162.919 l
577.712 164.080 l
568.420 162.919 l
562.688 160.769 l
562.604 160.716 l
S
newpath
555.446 157.144 m
563.950 166.976 l
563.498 161.163 l
568.415 158.029 l
h
f
2 J
10.0000 M
Q
[ 1.00000 0.00000 0.00000 1.00000 0.00000 0.00000 ] defaultmatrix matrix concatmatrix setmatrix
cliprestore

%%Trailer
%%EOF
