%!PS-Adobe-3.0 EPSF-3.0
%%BoundingBox: 0 0 402 333
%%Creator: yExport 1.5
%%Producer: org.freehep.graphicsio.ps.EPSGraphics2D Revision: 12753 
%%For: 
%%Title: 
%%CreationDate: Tuesday, January 9, 2018 7:38:20 PM CET
%%LanguageLevel: 3
%%EndComments
%%BeginProlog
100 dict dup begin

%
% File: org/freehep/graphicsio.ps/PSProlog.txt
% Author: Charles Loomis
%

% Redefinitions which save some space in the output file.  These are also
% the same as the PDF operators.
/q {gsave} def
/Q {grestore} def

/n {newpath} def
/m {moveto} def
/l {lineto} def
/c {curveto} def
/h {closepath} def

/re {4 -2 roll moveto
     dup 0 exch rlineto exch 0 rlineto
     neg 0 exch rlineto closepath} def

/f {fill} def
/f* {eofill} def
/F {gsave vg&FC fill grestore} def
/F* {gsave vg&FC eofill grestore} def

/s {closepath stroke} def
/S {stroke} def

/b {closepath gsave vg&FC fill grestore
    gsave stroke grestore newpath} def
/B {gsave vg&FC fill grestore gsave stroke grestore newpath} def
/b* {closepath gsave vg&FC eofill grestore
    gsave stroke grestore newpath} def
/B* {gsave vg&FC eofill grestore gsave stroke grestore newpath} def

/g {1 array astore /vg&fcolor exch def} def
/G {setgray} def
/k {4 array astore /vg&fcolor exch def} def
/K {setcmykcolor} def
/rg {3 array astore /vg&fcolor exch def} def
/RG {setrgbcolor} def

% Initialize the fill color.
0 0 0 rg

/vg&FC {mark vg&fcolor aload pop
        counttomark 1 eq {G} if
        counttomark 3 eq {RG} if
        counttomark 4 eq {K} if
        cleartomark } def

/vg&DFC {/vg&fcolor exch def} def

/vg&C {mark exch aload pop
       counttomark 1 eq {G} if
       counttomark 3 eq {RG} if
       counttomark 4 eq {K} if
       cleartomark } def

/w {setlinewidth} def
/j {setlinejoin} def
/J {setlinecap} def
/M {setmiterlimit} def
/d {setdash} def
/i {setflat} def

/W {clip} def
/W* {eoclip} def

% Setup the default graphics state.
% (black; 1 pt. linewidth; miter join; butt-ends; solid)
/defaultGraphicsState {0 g 1 w 0 j 0 J [] 0 d} def

% Emulation of the rectangle operators for PostScript implementations
% which do not implement all Level 2 features.  This is an INCOMPLETE
% emulation; only the "x y width height rect..." form is emulated.
/*rf {gsave newpath re fill grestore} def
/*rs {gsave newpath re stroke grestore} def
/*rc {newpath re clip} def
/rf  /rectfill where {pop /rectfill}{/*rf} ifelse load def
/rs  /rectstroke where {pop /rectstroke}{/*rs} ifelse load def
/rc  /rectclip where {pop /rectclip}{/*rc} ifelse load def

% Emulation of the selectfont operator.  This includes a 20% increase in
% the fontsize which is necessary to get sizes similar to the Java fonts.
/*sf {exch findfont exch
      dup type /arraytype eq {makefont}{scalefont} ifelse setfont} bind def
/sf /selectfont where {pop {1.2 mul selectfont}}{{1.2 mul *sf}} ifelse def

% Special version of stroke which allows the dash pattern to continue
% across path segments.  (This may be needed for PostScript although
% modern printers seem to do this correctly.)
/vg&stroke {
  currentdash pop length 0 eq
  {stroke}
  {
    currentdash /vg&doffset exch def pop
    flattenpath
    {m vg&resetdash}
    {2 copy
     currentpoint
     3 -1 roll sub dup mul
     3 1 roll sub dup mul
     add sqrt
     3 1 roll l
     currentdash 3 -1 roll add setdash}
     {}
     {h vg&resetdash}
     pathforall
     stroke
     vg&resetdash
  } ifelse
} def
/vg&resetdash {currentdash pop vg&doffset setdash} def

% Initialize variables for safety.
/delta 0 def
/xv 0 def  /yv 0 def  /width 0 def  /height 0 def

% Initialize to portrait INTERNATIONAL (Letter-height, A4-width) page.
/pw 595 def  /ph 791  def  /po true def /ftp false def

% Initialize margins to 20 points.
/ml 20 def  /mr 20 def  /mt 20 def  /mb 20 def

% Temporary matrices.
/smatrix 0 def  /nmatrix 0 def

% set page size (usage: <page width><page height> setpagesize)
/setpagesize {/ph exch def /pw exch def} def

% set page orientation (usage: portrait or landscape)
/portrait {/po true def} def
/landscape {/po false def} def

% force natural size for image (usage: naturalsize)
/naturalsize {/ftp false def} def

% resize image to fill page (usage: fittopage)
/fittopage {/ftp true def} def

% set margins of the page (usage: <left><bottom><top><right> setmargins)
/setmargins {/mr exch def /mt exch def /mb exch def /ml exch def} def

% set the graphic's size (usage: <width><height> setsize)
/setsize {/gh exch def /gw exch def} def

% set the graphic's origin (usage: <x0><y0> setorigin)
/setorigin {/gy exch def /gx exch def} def

% calculate image center
/imagecenter {pw ml sub mr sub 2 div ml add
              ph mt sub mb sub 2 div mb add} def

% calculate the necessary scaling
/imagescale {po {gw}{gh} ifelse pw ml sub mr sub div
             po {gh}{gw} ifelse ph mt sub mb sub div
             2 copy lt {exch} if pop
             ftp not {1 2 copy lt {exch} if pop} if
             1 exch div /sfactor exch def
             /gw gw sfactor mul def /gh gh sfactor mul def} def

% calculate image origin
/imageorigin {pw ml sub mr sub 2 div ml add
              po {gw}{gh} ifelse 2 div sub
              ph mt sub mb sub 2 div mb add
              po {gh}{gw} ifelse 2 div po {add}{sub} ifelse} def

% calculate the clipping origin
/cliporigin  {pw ml sub mr sub 2 div ml add
              po {gw}{gh} ifelse 2 div sub floor
              ph mt sub mb sub 2 div mb add
              po {gh}{gw} ifelse 2 div sub floor} def

% Set the clipping region to the bounding box.
/cliptobounds {cliporigin po {gw}{gh} ifelse 1 add
                          po {gh}{gw} ifelse 1 add rc} def

% set the base transformation matrix (usage: setbasematrix)
/setbasematrix {imageorigin translate
                po {0}{90} ifelse rotate
                sfactor sfactor neg scale
                /defaultmatrix matrix currentmatrix def} def

% The lower-right bias in drawing 1 pt. wide lines.
/bias  {q 0.5 0.5 translate} def
/unbias {Q} def

% Define the composite fonts used to print Unicode strings.
% Undefine particular values in an encoding array.
/vg&undef { {exch dup 3 -1 roll /.notdef put} forall } def
/vg&redef { {3 -1 roll dup 4 2 roll put} forall } def

% usage: key encoding basefontname vg&newbasefont font
/vg&newbasefont {
findfont dup length dict copy
  begin
    currentdict /FID undef
    /Encoding exch def
    dup /FontName exch def
    currentdict
  end
definefont
} def

% usage: key encoding basefontname vg&newskewedbasefont font
/vg&newskewedbasefont {
findfont dup length dict copy
  begin
    currentdict /FID undef
    /Encoding exch def
    dup /FontName exch def
    exch FontMatrix exch matrix concatmatrix /FontMatrix exch def
    currentdict
  end
definefont
} def

% usage: basekey suffix vg&nconcat name
/vg&nconcat {
  2 {dup length string cvs exch} repeat
  dup length 3 -1 roll dup length 3 -1 roll add string
  dup 0 4 -1 roll dup length 5 1 roll putinterval
  dup 4 -2 roll exch putinterval cvn
} def

%usage: fontname vg&skewmatrix matrix
/vg&skewmatrix {
findfont dup /FontInfo known
  {
    /FontInfo get dup /ItalicAngle known
    {
      [ 1 0 4 -1 roll /ItalicAngle get neg dup sin exch cos div 1 0 0 ]
    }
    {pop matrix} ifelse
  }
  {pop matrix} ifelse
} def

% usage: newfontname basefontname vg&newcompositefont --
/vg&newcompositefont {
/vg&fstyle exch def
/vg&bfont exch def
/vg&fname exch def
<<
/FontStyleBits vg&fstyle
/FontType 0
/FontMatrix matrix
/FontName vg&fname
/FMapType 2
/Encoding [ 0 1 255 {pop 6} for ]
          dup 16#00 0 put % Latin
          dup 16#03 1 put % Greek
          dup 16#20 2 put % Punctuation
          dup 16#21 3 put % Arrows
          dup 16#22 4 put % MathOps
          dup 16#27 5 put % Dingbats

/FDepVector [
vg&bfont /-UC-Latin vg&nconcat UCLatinEncoding
vg&bfont vg&newbasefont

vg&bfont vg&skewmatrix
vg&bfont /-UC-Greek vg&nconcat UCGreekEncoding
/Symbol vg&newskewedbasefont

vg&bfont /-UC-Punctuation vg&nconcat UCPunctuationEncoding
vg&bfont vg&newbasefont

/Arrows-UC findfont
/MathOps-UC findfont
/Dingbats-UC findfont
/Undefined-UC findfont ]
>>
vg&fname exch definefont pop
} def

% Null encoding vector (all elements set to .notdef)
/NullEncoding [ 256 {/.notdef} repeat ] def

% Unicode Latin encoding (unicode codes \u0000-\u00ff)
/UCLatinEncoding
  ISOLatin1Encoding dup length array copy
  dup 16#60 /grave put
  [ 16#90 16#91 16#92 16#93 16#94 16#95 16#96
    16#97 16#98 16#9a 16#9b 16#9d 16#9e 16#9f
  ] vg&undef
  def

% Unicode Greek encoding (unicode codes \u0370-\u03ff)
/UCGreekEncoding
  NullEncoding dup length array copy
  << 16#91 /Alpha    16#92 /Beta      16#93 /Gamma    16#94 /Delta
     16#95 /Epsilon  16#96 /Zeta      16#97 /Eta      16#98 /Theta
     16#99 /Iota     16#9a /Kappa     16#9b /Lambda   16#9c /Mu
     16#9d /Nu       16#9e /Xi        16#9f /Omicron  16#a0 /Pi
     16#a1 /Rho      16#a3 /Sigma     16#a4 /Tau      16#a5 /Upsilon
     16#a6 /Phi      16#a7 /Chi       16#a8 /Psi      16#a9 /Omega
     16#b1 /alpha    16#b2 /beta      16#b3 /gamma    16#b4 /delta
     16#b5 /epsilon  16#b6 /zeta      16#b7 /eta      16#b8 /theta
     16#b9 /iota     16#ba /kappa     16#bb /lambda   16#bc /mu
     16#bd /nu       16#be /xi        16#bf /omicron  16#c0 /pi
     16#c1 /rho      16#c2 /sigma1    16#c3 /sigma    16#c4 /tau
     16#c5 /upsilon  16#c6 /phi1      16#c7 /chi      16#c8 /psi
     16#c9 /omega    16#7e /semicolon 16#87 /dotmath  16#d1 /theta1
     16#d2 /Upsilon1 16#d5 /phi       16#d6 /omega1
  >> vg&redef
  def

% Unicode punctuation encoding (unicode codes \u2000-\u206f)
/UCPunctuationEncoding
  NullEncoding dup length array copy
  << 16#10 /hyphen          16#11 /hyphen              16#12 /endash
     16#13 /emdash          16#18 /quoteleft           16#19 /quoteright
     16#1a /quotesinglbase  16#1b /quotesingle         16#1c /quotedblleft
     16#1d /quotedblright   16#1e /quotedblbase        16#1f /quotedbl
     16#20 /dagger          16#21 /daggerdbl           16#22 /bullet
     16#24 /period          16#26 /ellipsis            16#27 /periodcentered
     16#30 /perthousand     16#44 /fraction
     16#70 /zerosuperior    16#74 /foursuperior        16#75 /fivesuperior
     16#76 /sixsuperior     16#77 /sevensuperior       16#78 /eightsuperior
     16#79 /ninesuperior    16#7b /hyphensuperior      16#7d /parenleftsuperior
     16#7e /parenrightsuperior
     16#80 /zeroinferior    16#84 /fourinferior        16#85 /fiveinferior
     16#81 /oneinferior     16#82 /twoinferior         16#83 /threeinferior
     16#86 /sixinferior     16#87 /seveninferior       16#88 /eightinferior
     16#89 /nineinferior    16#8b /hypheninferior      16#8d /parenleftinferior
     16#8e /parenrightinferior
  >> vg&redef
  def

% Unicode mathematical operators encoding (unicode codes \u2200-\u22ff)
/UCMathOpsEncoding
  NullEncoding dup length array copy
  << 16#00 /universal       16#02 /partialdiff         16#03 /existential
     16#05 /emptyset        16#06 /Delta               16#07 /gradient
     16#08 /element         16#09 /notelement          16#0b /suchthat
     16#0f /product         16#11 /summation           16#12 /minus
     16#15 /fraction        16#17 /asteriskmath        16#19 /bullet
     16#1a /radical         16#1d /proportional        16#1e /infinity
     16#20 /angle           16#23 /bar                 16#27 /logicaland
     16#28 /logicalor       16#29 /intersection        16#2a /union
     16#2b /integral        16#34 /therefore           16#36 /colon
     16#3c /similar         16#45 /congruent           16#48 /approxequal
     16#60 /notequal        16#61 /equivalence         16#64 /lessequal
     16#65 /greaterequal    16#82 /propersubset        16#83 /propersuperset
     16#86 /reflexsubset    16#87 /reflexsuperset      16#95 /circleplus
     16#97 /circlemultiply  16#a5 /perpendicular       16#03 /existential
     16#c0 /logicaland      16#c1 /logicalor           16#c2 /intersection
     16#c3 /union           16#c4 /diamond             16#c5 /dotmath
  >> vg&redef
  def

% Unicode arrows encoding (unicode codes \u2190-\u21ff)
% Also includes those "Letterlike" unicode characters
% which are available in the symbol font. (unicode codes \u2100-\u214f)
/UCArrowsEncoding
  NullEncoding dup length array copy
  << 16#11 /Ifraktur        16#1c /Rfraktur            16#22 /trademarkserif
     16#35 /aleph
     16#90 /arrowleft       16#91 /arrowup             16#92 /arrowright
     16#93 /arrowdown       16#94 /arrowboth           16#d0 /arrowdblleft
     16#d1 /arrowdblup      16#d2 /arrowdblright       16#d3 /arrowdbldown
     16#d4 /arrowdblboth
  >> vg&redef
  def

/ZapfDingbats findfont /Encoding get
dup length array copy /UCDingbatsEncoding exch def
16#20 1 16#7f {
  dup 16#20 sub exch
  UCDingbatsEncoding exch get
  UCDingbatsEncoding 3 1 roll put
} for
16#a0 1 16#ff {
  dup 16#40 sub exch
  UCDingbatsEncoding exch get
  UCDingbatsEncoding 3 1 roll put
} for
UCDingbatsEncoding [ 16#c0 1 16#ff {} for ] vg&undef
[ 16#00  16#05 16#0a 16#0b  16#28 16#4c 16#4e  16#53 16#54 16#55  16#57 16#5f
  16#60  16#68 16#69 16#6a  16#6b 16#6c 16#6d  16#6e 16#6f 16#70  16#71 16#72
  16#73  16#74 16#75 16#95  16#96 16#97 16#b0  16#bf
] vg&undef pop

% Define the base fonts which don't change.
/Undefined-UC NullEncoding       /Helvetica    vg&newbasefont pop
/MathOps-UC   UCMathOpsEncoding  /Symbol       vg&newbasefont pop
/Arrows-UC    UCArrowsEncoding   /Symbol       vg&newbasefont pop
/Dingbats-UC  UCDingbatsEncoding /ZapfDingbats vg&newbasefont pop

% Make the SansSerif composite fonts.
/SansSerif /Helvetica 16#00 vg&newcompositefont
/SansSerif-Bold /Helvetica-Bold 16#01 vg&newcompositefont
/SansSerif-Italic /Helvetica-Oblique 16#02 vg&newcompositefont
/SansSerif-BoldItalic /Helvetica-BoldOblique 16#03 vg&newcompositefont

% Make the Serif composite fonts.
/Serif /Times-Roman 16#00 vg&newcompositefont
/Serif-Bold /Times-Bold 16#01 vg&newcompositefont
/Serif-Italic /Times-Italic 16#02 vg&newcompositefont
/Serif-BoldItalic /Times-BoldItalic 16#03 vg&newcompositefont

% Make the Monospaced composite fonts.
/Monospaced /Courier 16#00 vg&newcompositefont
/Monospaced-Bold /Courier-Bold 16#01 vg&newcompositefont
/Monospaced-Italic /Courier-Oblique 16#02 vg&newcompositefont
/Monospaced-BoldItalic /Courier-BoldOblique 16#03 vg&newcompositefont

% Make the Dialog composite fonts.
/Dialog /Helvetica 16#00 vg&newcompositefont
/Dialog-Bold /Helvetica-Bold 16#01 vg&newcompositefont
/Dialog-Italic /Helvetica-Oblique 16#02 vg&newcompositefont
/Dialog-BoldItalic /Helvetica-BoldOblique 16#03 vg&newcompositefont

% Make the DialogInput composite fonts.
/DialogInput /Courier 16#00 vg&newcompositefont
/DialogInput-Bold /Courier-Bold 16#01 vg&newcompositefont
/DialogInput-Italic /Courier-Oblique 16#02 vg&newcompositefont
/DialogInput-BoldItalic /Courier-BoldOblique 16#03 vg&newcompositefont

% Make the Typewriter composite fonts (JDK 1.1 only).
/Typewriter /Courier 16#00 vg&newcompositefont
/Typewriter-Bold /Courier-Bold 16#01 vg&newcompositefont
/Typewriter-Italic /Courier-Oblique 16#02 vg&newcompositefont
/Typewriter-BoldItalic /Courier-BoldOblique 16#03 vg&newcompositefont


/cfontH {
 dup /fontsize exch def /SansSerif exch sf
 /vg&fontstyles [{cfontH} {cfontHB} {cfontHI} {cfontHBI}] def
} def
/cfontHB {
  dup /fontsize exch def /SansSerif-Bold exch sf
 /vg&fontstyles [{cfontH} {cfontHB} {cfontHI} {cfontHBI}] def
} def
/cfontHI {
 dup /fontsize exch def /SansSerif-Italic exch sf
 /vg&fontstyles [{cfontH} {cfontHB} {cfontHI} {cfontHBI}] def
} def
/cfontHBI {
 dup /fontsize exch def /SansSerif-BoldItalic exch sf
 /vg&fontstyles [{cfontH} {cfontHB} {cfontHI} {cfontHBI}] def
} def

/cfontT {
 dup /fontsize exch def /Serif exch sf
 /vg&fontstyles [{cfontT} {cfontTB} {cfontTI} {cfontTBI}] def
} def
/cfontTB {
 dup /fontsize exch def /Serif-Bold exch sf
 /vg&fontstyles [{cfontT} {cfontTB} {cfontTI} {cfontTBI}] def
} def
/cfontTI {
 dup /fontsize exch def /Serif-Italic exch sf
 /vg&fontstyles [{cfontT} {cfontTB} {cfontTI} {cfontTBI}] def
} def
/cfontTBI {
 dup /fontsize exch def /Serif-BoldItalic exch sf
 /vg&fontstyles [{cfontT} {cfontTB} {cfontTI} {cfontTBI}] def
} def

/cfontC {
 dup /fontsize exch def /Typewriter exch sf
 /vg&fontstyles [{cfontC} {cfontCB} {cfontCI} {cfontCBI}] def
} def
/cfontCB {
 dup /fontsize exch def /Typewriter-Bold exch sf
 /vg&fontstyles [{cfontC} {cfontCB} {cfontCI} {cfontCBI}] def
} def
/cfontCI {
 dup /fontsize exch def /Typewriter-Italic exch sf
 /vg&fontstyles [{cfontC} {cfontCB} {cfontCI} {cfontCBI}] def
} def
/cfontCBI {
 dup /fontsize exch def /Typewriter-BoldItalic exch sf
 /vg&fontstyles [{cfontC} {cfontCB} {cfontCI} {cfontCBI}] def
} def

% Darken or lighten the current color.
/darken {0.7 exch exp 3 copy
         q 4 -1 roll vg&C
         currentrgbcolor 3 {4 -2 roll mul} repeat
         3 array astore Q} def

/displayColorMap
<< /Cr   [1.00 0.00 0.00]       /Cg     [0.00 1.00 0.00]
   /Cb   [0.00 0.00 1.00]       /Cc     [1.00 0.00 0.00 0.00]
   /Cm   [0.00 1.00 0.00 0.00]  /Cy     [0.00 0.00 1.00 0.00]
   /Co   [1.00 0.78 0.00]       /Cp     [1.00 0.67 0.67]
   /Cw   [1   ]                 /Cgrl   [0.75]
   /Cgr  [0.50]                 /Cgrd   [0.25]
   /Ck   [0   ]
   /CGr  [1.00 0.00 0.00]       /CGg    [0.00 1.00 0.00]
   /CGb  [0.00 0.00 1.00]       /CGc    [1.00 0.00 0.00 0.00]
   /CGm  [0.00 1.00 0.00 0.00]  /CGy    [0.00 0.00 1.00 0.00]
   /CGo  [1.00 0.78 0.00]       /CGp    [1.00 0.67 0.67]
   /CGw  [1   ]                 /CGgrl  [0.75]
   /CGgr [0.50]                 /CGgrd  [0.25]
   /CGk  [0   ]
   /CIr  [1.00 0.00 0.00]       /CIg    [0.00 1.00 0.00]
   /CIb  [0.00 0.00 1.00]       /CIc    [1.00 0.00 0.00 0.00]
   /CIm  [0.00 1.00 0.00 0.00]  /CIy    [0.00 0.00 1.00 0.00]
   /CIo  [1.00 0.78 0.00]       /CIp    [1.00 0.67 0.67]
   /CIw  [1   ]                 /CIgrl  [0.75]
   /CIgr [0.50]                 /CIgrd  [0.25]
   /CIk  [0   ]
>> def

/printColorMap
<< /Cr   [1.00 0.33 0.33]       /Cg     [0.33 1.00 0.33]
   /Cb   [0.33 0.33 1.00]       /Cc     [1.00 0.00 0.00 0.00]
   /Cm   [0.00 1.00 0.00 0.00]  /Cy     [0.00 0.00 1.00 0.00]
   /Co   [1.00 0.78 0.00]       /Cp     [1.00 0.67 0.67]
   /Cw   [1   ]                 /Cgrl   [0.75]
   /Cgr  [0.50]                 /Cgrd   [0.25]
   /Ck   [0   ]
   /CGr  [1.00 0.33 0.33]       /CGg    [0.33 1.00 0.33]
   /CGb  [0.33 0.33 1.00]       /CGc    [1.00 0.00 0.00 0.00]
   /CGm  [0.00 1.00 0.00 0.00]  /CGy    [0.00 0.00 1.00 0.00]
   /CGo  [1.00 0.78 0.00]       /CGp    [1.00 0.67 0.67]
   /CGw  [1   ]                 /CGgrl  [0.75]
   /CGgr [0.50]                 /CGgrd  [0.25]
   /CGk  [0   ]
   /CIr  [1.00 0.33 0.33]       /CIg    [0.33 1.00 0.33]
   /CIb  [0.33 0.33 1.00]       /CIc    [1.00 0.00 0.00 0.00]
   /CIm  [0.00 1.00 0.00 0.00]  /CIy    [0.00 0.00 1.00 0.00]
   /CIo  [1.00 0.78 0.00]       /CIp    [1.00 0.67 0.67]
   /CIw  [1   ]                 /CIgrl  [0.75]
   /CIgr [0.50]                 /CIgrd  [0.25]
   /CIk  [0   ]
>> def

/grayColorMap
<< /Cr   [0   ]                 /Cg     [0   ]
   /Cb   [0   ]                 /Cc     [0   ]
   /Cm   [0   ]                 /Cy     [0   ]
   /Co   [0   ]                 /Cp     [0   ]
   /Cw   [0   ]                 /Cgrl   [0   ]
   /Cgr  [0   ]                 /Cgrd   [0   ]
   /Ck   [0   ]
   /CGr  [0.75]                 /CGg    [1   ]
   /CGb  [0.50]                 /CGc    [0.75]
   /CGm  [0.50]                 /CGy    [1   ]
   /CGo  [0.75]                 /CGp    [1   ]
   /CGw  [0   ]                 /CGgrl  [0.25]
   /CGgr [0.50]                 /CGgrd  [0.75]
   /CGk  [1   ]
   /CIr  [1   ]                 /CIg    [1   ]
   /CIb  [1   ]                 /CIc    [1   ]
   /CIm  [1   ]                 /CIy    [1   ]
   /CIo  [1   ]                 /CIp    [1   ]
   /CIw  [1   ]                 /CIgrl  [1   ]
   /CIgr [1   ]                 /CIgrd  [1   ]
   /CIk  [1   ]
>> def

/bwColorMap
<< /Cr   [0   ]                 /Cg     [0   ]
   /Cb   [0   ]                 /Cc     [0   ]
   /Cm   [0   ]                 /Cy     [0   ]
   /Co   [0   ]                 /Cp     [0   ]
   /Cw   [0   ]                 /Cgrl   [0   ]
   /Cgr  [0   ]                 /Cgrd   [0   ]
   /Ck   [0   ]
   /CGr  [1   ]                 /CGg    [1   ]
   /CGb  [1   ]                 /CGc    [1   ]
   /CGm  [1   ]                 /CGy    [1   ]
   /CGo  [1   ]                 /CGp    [1   ]
   /CGw  [0   ]                 /CGgrl  [1   ]
   /CGgr [1   ]                 /CGgrd  [1   ]
   /CGk  [1   ]
   /CIr  [1   ]                 /CIg    [1   ]
   /CIb  [1   ]                 /CIc    [1   ]
   /CIm  [1   ]                 /CIy    [1   ]
   /CIo  [1   ]                 /CIp    [1   ]
   /CIw  [1   ]                 /CIgrl  [1   ]
   /CIgr [1   ]                 /CIgrd  [1   ]
   /CIk  [1   ]
>> def

%
% The following routines handle the alignment of and printing of
% tagged strings.
%

% Predefine the bounding box values.
/bbllx 0 def /bblly 0 def /bburx 0 def /bbury 0 def

% This routine pops the first unicode character off of a string and returns
% the remainder of the string, the character code of first character,
% and a "true" if the string was non-zero length.
% <string>      popfirst <remaining string> <true>
% <null string> popfirst <false>
/popfirst {
  dup length 1 gt
    {dup 0 get /vg&fbyte exch def
     dup 1 get /vg&cbyte exch def
     dup length 2 sub 2 exch getinterval true}
    {pop false} ifelse
} def

% This routine shows a single unicode character given the font and
% character codes.
% <font code> <char code> unicharshow --
/unicharshow {
  2 string
  dup 0 5 -1 roll put
  dup 1 4 -1 roll put
  internalshow
} def

% This is an internal routine to alternate between determining the
% bounding box for stringsize and showing the string for recshow.
% <string> internalshow --
/internalshow {show} def

% This is an internal routine to alternate between determining the
% bounding box for stringsize and stroking various ornaments.
% <string> internalstroke --
/internalstroke {S} def

% Sets up internalshow to use the null device to determine string size.
% -- nullinternalshow --
/nullinternalshow {/internalshow {false charpath flattenpath
                                  pathbbox updatebbox} def} def

% Sets up internalstroke to use the null device to determine string size.
% -- nullinternalstroke --
/nullinternalstroke {
 /internalstroke {flattenpath pathbbox updatebbox} def} def

% This routine tests to see if the character code matches the first
% character of a string.
% <char code> <string> testchar <char code> <true or false>
/testchar {exch dup 3 -1 roll 0 get eq} def

% Raise the text baseline for superscripts.
% -- raise --
/raise {
  0 fontsize 2 div rmoveto
  /fontsize fontsize 2 mul 3 div def
  currentfont /FontName get fontsize sf
} def

% Un-raise the text baseline for superscripts.
% -- unraise --
/unraise {
  /fontsize fontsize 1.5 mul def
  0 fontsize 2 div neg rmoveto
} def

% Lower the text baseline for subscripts.
% -- lower --
/lower {
  0 fontsize 3 div neg rmoveto
  /fontsize fontsize 2 mul 3 div def
  currentfont /FontName get fontsize sf
} def

% Un-lower the text baseline for subscripts.
% -- unlower --
/unlower {
  /fontsize fontsize 1.5 mul def
  0 fontsize 3 div rmoveto
} def

% Compare the top two elements on the stack and leave only the
% larger one.
/maxval {2 copy gt {pop} {exch pop} ifelse} def

% Tokenize a string.  Do not use the usual PostScript token because
% parentheses will not be interpreted correctly because of rescanning
% of the string.
/vg&token {/vg&string exch def /vg&index -1 def /vg&level 0 def
0 2 vg&string length 2 sub {
  dup dup 1 add exch vg&string exch get 8 bitshift vg&string 3 -1 roll get or
  dup 16#f0fe eq {pop 1}{16#f0ff eq {-1}{0} ifelse} ifelse
  /vg&level exch vg&level add def
  vg&level 0 eq {/vg&index exch def exit} if pop
} for
vg&index 0 ge {
  vg&string vg&index 2 add dup vg&string length exch sub getinterval
  vg&index 2 gt {vg&string 2 vg&index 2 sub getinterval}{()} ifelse
  true}
{false} ifelse
} bind def

% Recursively show an unicode string.
% <string> recshow --
/recshow {
  popfirst
  {
    % Test to see if this is a string attribute.
    vg&fbyte 16#f0 and 16#e0 eq
    {
      q

      % Font style.
      currentfont dup /FontStyleBits known {/FontStyleBits get}{pop 0} ifelse
      vg&cbyte or vg&fontstyles exch get fontsize exch exec

      vg&token pop recshow currentpoint Q m recshow
    }
    {
      vg&fbyte 16#F8 and 16#F0 eq {

        % Superscript and/or subscript.
        vg&cbyte 16#00 eq {
          vg&token pop exch vg&token pop 3 -1 roll
          q raise recshow unraise currentpoint pop Q exch
          q lower recshow unlower currentpoint pop Q
          maxval currentpoint exch pop m recshow } if

        % Strikeout.
        vg&cbyte 16#01 eq {
          vg&token pop currentpoint 3 -1 roll recshow
          q 0 J vg&underline vg&uthick w
          currentpoint 4 -2 roll fontsize 3 div add moveto
          fontsize 3 div add lineto internalstroke Q
          recshow} if

        % Underline.
        vg&cbyte 16#02 eq {
          vg&token pop currentpoint 3 -1 roll recshow
          q 0 J vg&underline vg&uthick w
          currentpoint 4 -2 roll vg&uoffset add moveto
          vg&uoffset add lineto internalstroke Q
          recshow} if

        % Dashed underline.
        vg&cbyte 16#03 eq {
          vg&token pop currentpoint 3 -1 roll recshow
          q 0 J [ vg&uthick 5 mul vg&uthick 2 mul] 0 d
          vg&underline vg&uthick w
          currentpoint 4 -2 roll vg&uoffset add moveto
          vg&uoffset add lineto internalstroke Q
          recshow} if

        % Dotted underline.
        vg&cbyte 16#04 eq {
          vg&token pop currentpoint 3 -1 roll recshow
          q 1 J [ 0 vg&uthick 3 mul] 0 d
          vg&underline vg&uthick w
          currentpoint 4 -2 roll vg&uoffset add moveto
          vg&uoffset add lineto internalstroke Q
          recshow} if

        % Thick underline.
        vg&cbyte 16#05 eq {
          vg&token pop currentpoint 3 -1 roll recshow
          q 0 J vg&underline vg&uthick 2 mul w
          currentpoint 4 -2 roll vg&uoffset vg&uthick 2 div sub add moveto
          vg&uoffset vg&uthick 2 div sub add lineto internalstroke Q
          recshow} if

        % Gray thick underline.
        vg&cbyte 16#06 eq {
          vg&token pop currentpoint 3 -1 roll recshow
          q 0 J vg&underline vg&uthick 2 mul w 0.5 setgray
          currentpoint 4 -2 roll vg&uoffset vg&uthick 2 div sub add moveto
          vg&uoffset vg&uthick 2 div sub add lineto internalstroke Q
          recshow} if

        % Overbar.
        vg&cbyte 16#07 eq {
          vg&token pop dup stringsize relative 4 1 roll pop pop exch
          3 -1 roll recshow
          q 0 J vg&underline vg&uthick w
          vg&uoffset neg add dup currentpoint pop exch m l internalstroke Q
          recshow} if
      }
      {
        vg&fbyte vg&cbyte unicharshow recshow
      } ifelse
    } ifelse
  } if
} def

% Get the underline position and thickness from the current font.
/vg&underline {

currentfont dup /FontType get 0 eq {/FDepVector get 0 get} if
dup dup /FontInfo known {
  /FontInfo get dup
  dup /UnderlinePosition known {
    /UnderlinePosition get /vg&uoffset exch def
  }
  {
    pop /vg&uoffset 0 def
  } ifelse
  dup /UnderlineThickness known {
    /UnderlineThickness get /vg&uthick exch def
  }
  {
    pop /vg&uthick 0 def
  } ifelse
}
{
  pop /vg&uoffset 0 def /vg&uthick 0 def
} ifelse
/FontMatrix get
currentfont dup /FontType get 0 eq
{/FontMatrix get matrix concatmatrix}{pop} ifelse
dup 0 vg&uoffset 3 -1 roll transform /vg&uoffset exch def pop
0 vg&uthick 3 -1 roll transform /vg&uthick exch def pop
} def

% Make a frame with the coordinates on the stack.
% <llx> <lly> <urx> <ury> frame --
/frame {4 copy m 3 1 roll exch l 4 -2 roll l l h} def

% Resets the accumulated bounding box to a degenerate box at the
% current point.
% -- resetbbox --
/resetbbox {
  currentpoint 2 copy
  /bbury exch def
  /bburx exch def
  /bblly exch def
  /bbllx exch def
} def

% Update the accumulated bounding box.
% <llx'> <lly'> <urx'> <ury'> updatebbox --
/updatebbox {
  dup bbury gt {/bbury exch def} {pop} ifelse
  dup bburx gt {/bburx exch def} {pop} ifelse
  dup bblly lt {/bblly exch def} {pop} ifelse
  dup bbllx lt {/bbllx exch def} {pop} ifelse
} def

% Set the bounding box to the values on the stack.
% <llx'> <lly'> <urx'> <ury'> updatebbox --
/restorebbox {
  /bbury exch def /bburx exch def /bblly exch def /bbllx exch def
} def

% Push the accumulated bounding box onto the stack.
% -- pushbbox <llx> <lly> <urx> <ury>
/pushbbox {bbllx bblly bburx bbury} def

% Make the relative bounding box relative to the currentpoint.
% <llx'> <lly'> <urx'> <ury'> inflate <llx> <lly> <urx> <ury>
/inflate {
  2 {fontsize 0.2 mul add 4 1 roll} repeat
  2 {fontsize 0.2 mul sub 4 1 roll} repeat
} def

% Make the relative bounding box relative to the currentpoint.
% <llx'> <lly'> <urx'> <ury'> relative <llx> <lly> <urx> <ury>
/relative {
  currentpoint 3 -1 roll add 3 1 roll add exch 4 2 roll
  currentpoint 3 -1 roll add 3 1 roll add exch 4 2 roll
} def

% Returns the size of a string appropriate for recshow.
% <string> stringsize <llx> <lly> <urx> <ury>
/stringsize {
  pushbbox /internalshow load /internalstroke load 7 -1 roll
  q
  nulldevice 0 0 m
  nullinternalshow nullinternalstroke
  resetbbox
  recshow
  /internalstroke exch def /internalshow exch def
  pushbbox 8 -4 roll restorebbox
  Q
} def

% Calculate values for string positioning.
/calcval {4 copy
  3 -1 roll sub /widy exch def sub neg /widx exch def
  pop pop /dy exch def /dx exch def} def

% Utilities to position a string.
% First letter (U=upper, C=center, B=baseline, L=lower)
% Second letter (L=left, C=center, R=right)
/align [
{calcval dx neg widy dy add neg rmoveto} % UL
{calcval dx neg widy 2 div dy add neg rmoveto} % CL
{calcval dx neg 0 rmoveto} % BL
{calcval dx neg dy neg rmoveto} % LL
{calcval widx dx add neg widy dy add neg rmoveto} % UR
{calcval widx dx add neg widy 2 div dy add neg rmoveto} % CR
{calcval widx dx add neg 0 rmoveto} % BR
{calcval widx dx add neg dy neg rmoveto} % LR
{calcval widx 2 div dx add neg widy dy add neg rmoveto} % UC
{calcval widx 2 div dx add neg widy 2 div dy add neg rmoveto} % CC
{calcval widx 2 div dx add neg 0 rmoveto} % BC
{calcval widx 2 div dx add neg dy neg rmoveto} % LC
] def

/vg&str {m q 1 -1 scale dup stringsize 4 copy align 11 -1 roll get exec
         q inflate relative frame exch exec Q recshow Q} def

end /procDict exch def
%%EndProlog

%%BeginSetup
save
procDict begin
printColorMap begin
402 333 setpagesize
0 0 0 0 setmargins
0 0 setorigin
402 333 setsize
naturalsize
portrait
imagescale
cliptobounds
setbasematrix
/Helvetica 10 sf
defaultGraphicsState
%%EndSetup

0.00000 0.00000 0.00000 RG
[ 1.00000 0.00000 0.00000 1.00000 0.00000 0.00000 ] defaultmatrix matrix concatmatrix setmatrix
cliprestore
1.00000 1.00000 1.00000 RG
newpath
0.00000 0.00000 m
402.000 0.00000 l
402.000 333.000 l
0.00000 333.000 l
0.00000 0.00000 l
h
f
0.00000 0.00000 0.00000 RG
0.00000 0.00000 0.00000 RG
[ 1.00000 0.00000 0.00000 1.00000 0.00000 0.00000 ] defaultmatrix matrix concatmatrix setmatrix
cliprestore
1.00000 1.00000 1.00000 RG
newpath
0.00000 0.00000 m
402.000 0.00000 l
402.000 333.000 l
0.00000 333.000 l
0.00000 0.00000 l
h
f
0.00000 0.00000 0.00000 RG
0 0 402 333 rc
q
[ 1.00000 0.00000 0.00000 1.00000 0.00000 0.00000 ] concat
[ 1.00000 0.00000 0.00000 1.00000 -228.000 -95.0000 ] concat
1.00000 1.00000 1.00000 RG
newpath
228.000 95.0000 m
630.000 95.0000 l
630.000 428.000 l
228.000 428.000 l
228.000 95.0000 l
h
f
0.00000 0.00000 0.00000 RG
[ 1.00000 0.00000 0.00000 1.00000 -228.000 -95.0000 ] defaultmatrix matrix concatmatrix setmatrix
[ 1.00000 0.00000 0.00000 1.00000 -228.000 -95.0000 ] defaultmatrix matrix concatmatrix setmatrix
[ 1.00000 0.00000 0.00000 1.00000 0.00000 0.00000 ] defaultmatrix matrix concatmatrix setmatrix
[ 1.00000 0.00000 0.00000 1.00000 -228.000 -95.0000 ] defaultmatrix matrix concatmatrix setmatrix
1.00000 1.00000 1.00000 RG
newpath
228.200 130.496 m
258.200 130.496 l
258.200 160.496 l
228.200 160.496 l
228.200 130.496 l
h
f
0 J
1.45000 M
0.00000 0.00000 0.00000 RG
newpath
228.200 130.496 m
258.200 130.496 l
258.200 160.496 l
228.200 160.496 l
228.200 130.496 l
h
S
2 J
10.0000 M
0 J
1.45000 M
newpath
244.258 144.932 m
244.820 145.057 245.260 145.309 245.578 145.689  c
245.896 146.070 246.054 146.541 246.054 147.103  c
246.054 147.968 245.758 148.637 245.164 149.111  c
244.570 149.585 243.726 149.822 242.633 149.822  c
242.268 149.822 241.890 149.786 241.500 149.713  c
241.109 149.640 240.711 149.531 240.304 149.385  c
240.304 148.244 l
240.627 148.432 240.984 148.575 241.375 148.674  c
241.765 148.773 242.174 148.822 242.601 148.822  c
243.341 148.822 243.906 148.676 244.297 148.385  c
244.687 148.093 244.883 147.666 244.883 147.103  c
244.883 146.593 244.700 146.192 244.336 145.900  c
243.971 145.609 243.471 145.463 242.836 145.463  c
241.804 145.463 l
241.804 144.494 l
242.883 144.494 l
243.456 144.494 243.898 144.377 244.211 144.142  c
244.523 143.908 244.679 143.572 244.679 143.135  c
244.679 142.687 244.521 142.343 244.203 142.103  c
243.885 141.864 243.429 141.744 242.836 141.744  c
242.502 141.744 242.151 141.778 241.781 141.846  c
241.411 141.913 241.002 142.020 240.554 142.166  c
240.554 141.119 l
241.013 140.994 241.437 140.900 241.828 140.838  c
242.219 140.775 242.586 140.744 242.929 140.744  c
243.836 140.744 244.549 140.947 245.070 141.353  c
245.591 141.760 245.851 142.312 245.851 143.010  c
245.851 143.499 245.713 143.911 245.437 144.244  c
245.161 144.577 244.768 144.807 244.258 144.932  c
h
f
2 J
10.0000 M
1.00000 1.00000 1.00000 RG
newpath
302.536 130.496 m
332.536 130.496 l
332.536 160.496 l
302.536 160.496 l
302.536 130.496 l
h
f
0 J
1.45000 M
0.00000 0.00000 0.00000 RG
newpath
302.536 130.496 m
332.536 130.496 l
332.536 160.496 l
302.536 160.496 l
302.536 130.496 l
h
S
2 J
10.0000 M
0 J
1.45000 M
newpath
316.016 148.650 m
320.156 148.650 l
320.156 149.650 l
314.594 149.650 l
314.594 148.650 l
315.042 148.192 315.654 147.570 316.430 146.783  c
317.206 145.997 317.693 145.489 317.891 145.260  c
318.276 144.843 318.544 144.486 318.695 144.189  c
318.846 143.892 318.922 143.603 318.922 143.322  c
318.922 142.853 318.758 142.473 318.430 142.182  c
318.101 141.890 317.677 141.744 317.156 141.744  c
316.781 141.744 316.388 141.807 315.976 141.932  c
315.565 142.057 315.125 142.254 314.656 142.525  c
314.656 141.322 l
315.135 141.135 315.581 140.991 315.992 140.892  c
316.404 140.794 316.781 140.744 317.125 140.744  c
318.031 140.744 318.755 140.971 319.297 141.424  c
319.838 141.877 320.109 142.484 320.109 143.244  c
320.109 143.598 320.042 143.937 319.906 144.260  c
319.771 144.583 319.526 144.963 319.172 145.400  c
319.068 145.515 318.755 145.843 318.234 146.385  c
317.713 146.926 316.974 147.682 316.016 148.650  c
h
f
2 J
10.0000 M
1.00000 1.00000 1.00000 RG
newpath
376.872 130.496 m
406.872 130.496 l
406.872 160.496 l
376.872 160.496 l
376.872 130.496 l
h
f
0 J
1.45000 M
0.00000 0.00000 0.00000 RG
newpath
376.872 130.496 m
406.872 130.496 l
406.872 160.496 l
376.872 160.496 l
376.872 130.496 l
h
S
2 J
10.0000 M
0 J
1.45000 M
newpath
389.352 140.900 m
393.992 140.900 l
393.992 141.900 l
390.430 141.900 l
390.430 144.041 l
390.607 143.978 390.781 143.934 390.953 143.908  c
391.125 143.882 391.294 143.869 391.461 143.869  c
392.440 143.869 393.216 144.137 393.789 144.674  c
394.362 145.210 394.648 145.932 394.648 146.838  c
394.648 147.786 394.354 148.520 393.766 149.041  c
393.177 149.562 392.352 149.822 391.289 149.822  c
390.914 149.822 390.536 149.791 390.156 149.728  c
389.776 149.666 389.383 149.572 388.977 149.447  c
388.977 148.260 l
389.331 148.447 389.695 148.588 390.070 148.682  c
390.445 148.775 390.841 148.822 391.258 148.822  c
391.935 148.822 392.471 148.645 392.867 148.291  c
393.263 147.937 393.461 147.452 393.461 146.838  c
393.461 146.234 393.263 145.754 392.867 145.400  c
392.471 145.046 391.935 144.869 391.258 144.869  c
390.945 144.869 390.630 144.903 390.312 144.971  c
389.995 145.038 389.674 145.145 389.352 145.291  c
389.352 140.900 l
h
f
2 J
10.0000 M
1.00000 1.00000 1.00000 RG
newpath
451.208 130.496 m
481.208 130.496 l
481.208 160.496 l
451.208 160.496 l
451.208 130.496 l
h
f
0 J
1.45000 M
0.00000 0.00000 0.00000 RG
newpath
451.208 130.496 m
481.208 130.496 l
481.208 160.496 l
451.208 160.496 l
451.208 130.496 l
h
S
2 J
10.0000 M
0 J
1.45000 M
newpath
466.359 144.807 m
465.828 144.807 465.406 144.989 465.094 145.353  c
464.781 145.718 464.625 146.213 464.625 146.838  c
464.625 147.473 464.781 147.973 465.094 148.338  c
465.406 148.702 465.828 148.885 466.359 148.885  c
466.891 148.885 467.310 148.702 467.617 148.338  c
467.924 147.973 468.078 147.473 468.078 146.838  c
468.078 146.213 467.924 145.718 467.617 145.353  c
467.310 144.989 466.891 144.807 466.359 144.807  c
h
468.703 141.088 m
468.703 142.166 l
468.401 142.031 468.099 141.926 467.797 141.853  c
467.495 141.781 467.198 141.744 466.906 141.744  c
466.125 141.744 465.529 142.007 465.117 142.533  c
464.706 143.059 464.469 143.853 464.406 144.916  c
464.635 144.583 464.924 144.325 465.273 144.142  c
465.622 143.960 466.005 143.869 466.422 143.869  c
467.297 143.869 467.990 144.135 468.500 144.666  c
469.010 145.197 469.266 145.921 469.266 146.838  c
469.266 147.744 469.000 148.468 468.469 149.010  c
467.938 149.551 467.234 149.822 466.359 149.822  c
465.339 149.822 464.562 149.434 464.031 148.658  c
463.500 147.882 463.234 146.760 463.234 145.291  c
463.234 143.906 463.562 142.801 464.219 141.978  c
464.875 141.156 465.755 140.744 466.859 140.744  c
467.151 140.744 467.448 140.773 467.750 140.830  c
468.052 140.887 468.370 140.973 468.703 141.088  c
h
f
2 J
10.0000 M
1.00000 1.00000 1.00000 RG
newpath
525.544 130.496 m
555.544 130.496 l
555.544 160.496 l
525.544 160.496 l
525.544 130.496 l
h
f
0 J
1.45000 M
0.00000 0.00000 0.00000 RG
newpath
525.544 130.496 m
555.544 130.496 l
555.544 160.496 l
525.544 160.496 l
525.544 130.496 l
h
S
2 J
10.0000 M
0 J
1.45000 M
newpath
541.258 141.932 m
538.273 146.603 l
541.258 146.603 l
541.258 141.932 l
h
540.945 140.900 m
542.445 140.900 l
542.445 146.603 l
543.695 146.603 l
543.695 147.588 l
542.445 147.588 l
542.445 149.650 l
541.258 149.650 l
541.258 147.588 l
537.320 147.588 l
537.320 146.447 l
540.945 140.900 l
h
f
2 J
10.0000 M
1.00000 1.00000 1.00000 RG
newpath
599.880 130.496 m
629.880 130.496 l
629.880 160.496 l
599.880 160.496 l
599.880 130.496 l
h
f
0 J
1.45000 M
0.00000 0.00000 0.00000 RG
newpath
599.880 130.496 m
629.880 130.496 l
629.880 160.496 l
599.880 160.496 l
599.880 130.496 l
h
S
2 J
10.0000 M
0 J
1.45000 M
newpath
612.547 148.650 m
614.484 148.650 l
614.484 141.978 l
612.375 142.400 l
612.375 141.322 l
614.469 140.900 l
615.656 140.900 l
615.656 148.650 l
617.594 148.650 l
617.594 149.650 l
612.547 149.650 l
612.547 148.650 l
h
f
2 J
10.0000 M
1.00000 1.00000 1.00000 RG
newpath
228.200 174.936 m
258.200 174.936 l
258.200 204.936 l
228.200 204.936 l
228.200 174.936 l
h
f
0 J
1.45000 M
0.00000 0.00000 0.00000 RG
newpath
228.200 174.936 m
258.200 174.936 l
258.200 204.936 l
228.200 204.936 l
228.200 174.936 l
h
S
2 J
10.0000 M
0 J
1.45000 M
newpath
241.679 193.090 m
245.820 193.090 l
245.820 194.090 l
240.258 194.090 l
240.258 193.090 l
240.706 192.632 241.318 192.010 242.094 191.223  c
242.870 190.437 243.357 189.929 243.554 189.700  c
243.940 189.283 244.208 188.926 244.359 188.629  c
244.510 188.332 244.586 188.043 244.586 187.762  c
244.586 187.293 244.422 186.913 244.094 186.622  c
243.765 186.330 243.341 186.184 242.820 186.184  c
242.445 186.184 242.052 186.247 241.640 186.372  c
241.229 186.497 240.789 186.694 240.320 186.965  c
240.320 185.762 l
240.799 185.575 241.245 185.431 241.656 185.332  c
242.068 185.234 242.445 185.184 242.789 185.184  c
243.695 185.184 244.419 185.411 244.961 185.864  c
245.502 186.317 245.773 186.924 245.773 187.684  c
245.773 188.038 245.706 188.377 245.570 188.700  c
245.435 189.023 245.190 189.403 244.836 189.840  c
244.732 189.955 244.419 190.283 243.898 190.825  c
243.377 191.366 242.638 192.122 241.679 193.090  c
h
f
2 J
10.0000 M
1.00000 1.00000 1.00000 RG
newpath
302.536 174.936 m
332.536 174.936 l
332.536 204.936 l
302.536 204.936 l
302.536 174.936 l
h
f
0 J
1.45000 M
0.00000 0.00000 0.00000 RG
newpath
302.536 174.936 m
332.536 174.936 l
332.536 204.936 l
302.536 204.936 l
302.536 174.936 l
h
S
2 J
10.0000 M
0 J
1.45000 M
newpath
318.594 189.372 m
319.156 189.497 319.596 189.749 319.914 190.129  c
320.232 190.510 320.391 190.981 320.391 191.543  c
320.391 192.408 320.094 193.077 319.500 193.551  c
318.906 194.025 318.062 194.262 316.969 194.262  c
316.604 194.262 316.226 194.226 315.836 194.153  c
315.445 194.080 315.047 193.971 314.641 193.825  c
314.641 192.684 l
314.963 192.872 315.320 193.015 315.711 193.114  c
316.101 193.213 316.510 193.262 316.937 193.262  c
317.677 193.262 318.242 193.116 318.633 192.825  c
319.023 192.533 319.219 192.106 319.219 191.543  c
319.219 191.033 319.036 190.632 318.672 190.340  c
318.307 190.049 317.807 189.903 317.172 189.903  c
316.141 189.903 l
316.141 188.934 l
317.219 188.934 l
317.792 188.934 318.234 188.817 318.547 188.582  c
318.859 188.348 319.016 188.012 319.016 187.575  c
319.016 187.127 318.857 186.783 318.539 186.543  c
318.221 186.304 317.766 186.184 317.172 186.184  c
316.838 186.184 316.487 186.218 316.117 186.286  c
315.747 186.353 315.338 186.460 314.891 186.606  c
314.891 185.559 l
315.349 185.434 315.773 185.340 316.164 185.278  c
316.555 185.215 316.922 185.184 317.266 185.184  c
318.172 185.184 318.885 185.387 319.406 185.793  c
319.927 186.200 320.187 186.752 320.187 187.450  c
320.187 187.939 320.049 188.351 319.773 188.684  c
319.497 189.017 319.104 189.247 318.594 189.372  c
h
f
2 J
10.0000 M
1.00000 1.00000 1.00000 RG
newpath
376.872 174.936 m
406.872 174.936 l
406.872 204.936 l
376.872 204.936 l
376.872 174.936 l
h
f
0 J
1.45000 M
0.00000 0.00000 0.00000 RG
newpath
376.872 174.936 m
406.872 174.936 l
406.872 204.936 l
376.872 204.936 l
376.872 174.936 l
h
S
2 J
10.0000 M
0 J
1.45000 M
newpath
389.352 185.340 m
393.992 185.340 l
393.992 186.340 l
390.430 186.340 l
390.430 188.481 l
390.607 188.418 390.781 188.374 390.953 188.348  c
391.125 188.322 391.294 188.309 391.461 188.309  c
392.440 188.309 393.216 188.577 393.789 189.114  c
394.362 189.650 394.648 190.372 394.648 191.278  c
394.648 192.226 394.354 192.960 393.766 193.481  c
393.177 194.002 392.352 194.262 391.289 194.262  c
390.914 194.262 390.536 194.231 390.156 194.168  c
389.776 194.106 389.383 194.012 388.977 193.887  c
388.977 192.700 l
389.331 192.887 389.695 193.028 390.070 193.122  c
390.445 193.215 390.841 193.262 391.258 193.262  c
391.935 193.262 392.471 193.085 392.867 192.731  c
393.263 192.377 393.461 191.892 393.461 191.278  c
393.461 190.674 393.263 190.194 392.867 189.840  c
392.471 189.486 391.935 189.309 391.258 189.309  c
390.945 189.309 390.630 189.343 390.312 189.411  c
389.995 189.478 389.674 189.585 389.352 189.731  c
389.352 185.340 l
h
f
2 J
10.0000 M
1.00000 1.00000 1.00000 RG
newpath
451.208 174.936 m
481.208 174.936 l
481.208 204.936 l
451.208 204.936 l
451.208 174.936 l
h
f
0 J
1.45000 M
0.00000 0.00000 0.00000 RG
newpath
451.208 174.936 m
481.208 174.936 l
481.208 204.936 l
451.208 204.936 l
451.208 174.936 l
h
S
2 J
10.0000 M
0 J
1.45000 M
newpath
466.359 189.247 m
465.828 189.247 465.406 189.429 465.094 189.793  c
464.781 190.158 464.625 190.653 464.625 191.278  c
464.625 191.913 464.781 192.413 465.094 192.778  c
465.406 193.142 465.828 193.325 466.359 193.325  c
466.891 193.325 467.310 193.142 467.617 192.778  c
467.924 192.413 468.078 191.913 468.078 191.278  c
468.078 190.653 467.924 190.158 467.617 189.793  c
467.310 189.429 466.891 189.247 466.359 189.247  c
h
468.703 185.528 m
468.703 186.606 l
468.401 186.471 468.099 186.366 467.797 186.293  c
467.495 186.221 467.198 186.184 466.906 186.184  c
466.125 186.184 465.529 186.447 465.117 186.973  c
464.706 187.499 464.469 188.293 464.406 189.356  c
464.635 189.023 464.924 188.765 465.273 188.582  c
465.622 188.400 466.005 188.309 466.422 188.309  c
467.297 188.309 467.990 188.575 468.500 189.106  c
469.010 189.637 469.266 190.361 469.266 191.278  c
469.266 192.184 469.000 192.908 468.469 193.450  c
467.938 193.991 467.234 194.262 466.359 194.262  c
465.339 194.262 464.562 193.874 464.031 193.098  c
463.500 192.322 463.234 191.200 463.234 189.731  c
463.234 188.346 463.562 187.241 464.219 186.418  c
464.875 185.596 465.755 185.184 466.859 185.184  c
467.151 185.184 467.448 185.213 467.750 185.270  c
468.052 185.327 468.370 185.413 468.703 185.528  c
h
f
2 J
10.0000 M
1.00000 1.00000 1.00000 RG
newpath
525.544 174.936 m
555.544 174.936 l
555.544 204.936 l
525.544 204.936 l
525.544 174.936 l
h
f
0 J
1.45000 M
0.00000 0.00000 0.00000 RG
newpath
525.544 174.936 m
555.544 174.936 l
555.544 204.936 l
525.544 204.936 l
525.544 174.936 l
h
S
2 J
10.0000 M
0 J
1.45000 M
newpath
538.211 193.090 m
540.148 193.090 l
540.148 186.418 l
538.039 186.840 l
538.039 185.762 l
540.133 185.340 l
541.320 185.340 l
541.320 193.090 l
543.258 193.090 l
543.258 194.090 l
538.211 194.090 l
538.211 193.090 l
h
f
2 J
10.0000 M
1.00000 1.00000 1.00000 RG
newpath
599.880 174.936 m
629.880 174.936 l
629.880 204.936 l
599.880 204.936 l
599.880 174.936 l
h
f
0 J
1.45000 M
0.00000 0.00000 0.00000 RG
newpath
599.880 174.936 m
629.880 174.936 l
629.880 204.936 l
599.880 204.936 l
599.880 174.936 l
h
S
2 J
10.0000 M
0 J
1.45000 M
newpath
615.594 186.372 m
612.609 191.043 l
615.594 191.043 l
615.594 186.372 l
h
615.281 185.340 m
616.781 185.340 l
616.781 191.043 l
618.031 191.043 l
618.031 192.028 l
616.781 192.028 l
616.781 194.090 l
615.594 194.090 l
615.594 192.028 l
611.656 192.028 l
611.656 190.887 l
615.281 185.340 l
h
f
2 J
10.0000 M
1.00000 1.00000 1.00000 RG
newpath
228.200 219.376 m
258.200 219.376 l
258.200 249.376 l
228.200 249.376 l
228.200 219.376 l
h
f
0 J
1.45000 M
0.00000 0.00000 0.00000 RG
newpath
228.200 219.376 m
258.200 219.376 l
258.200 249.376 l
228.200 249.376 l
228.200 219.376 l
h
S
2 J
10.0000 M
0 J
1.45000 M
newpath
241.679 237.530 m
245.820 237.530 l
245.820 238.530 l
240.258 238.530 l
240.258 237.530 l
240.706 237.072 241.318 236.450 242.094 235.663  c
242.870 234.877 243.357 234.369 243.554 234.140  c
243.940 233.723 244.208 233.366 244.359 233.069  c
244.510 232.772 244.586 232.483 244.586 232.202  c
244.586 231.733 244.422 231.353 244.094 231.062  c
243.765 230.770 243.341 230.624 242.820 230.624  c
242.445 230.624 242.052 230.687 241.640 230.812  c
241.229 230.937 240.789 231.134 240.320 231.405  c
240.320 230.202 l
240.799 230.015 241.245 229.871 241.656 229.772  c
242.068 229.674 242.445 229.624 242.789 229.624  c
243.695 229.624 244.419 229.851 244.961 230.304  c
245.502 230.757 245.773 231.364 245.773 232.124  c
245.773 232.478 245.706 232.817 245.570 233.140  c
245.435 233.463 245.190 233.843 244.836 234.280  c
244.732 234.395 244.419 234.723 243.898 235.265  c
243.377 235.806 242.638 236.562 241.679 237.530  c
h
f
2 J
10.0000 M
1.00000 1.00000 1.00000 RG
newpath
302.536 219.376 m
332.536 219.376 l
332.536 249.376 l
302.536 249.376 l
302.536 219.376 l
h
f
0 J
1.45000 M
0.00000 0.00000 0.00000 RG
newpath
302.536 219.376 m
332.536 219.376 l
332.536 249.376 l
302.536 249.376 l
302.536 219.376 l
h
S
2 J
10.0000 M
0 J
1.45000 M
newpath
318.594 233.812 m
319.156 233.937 319.596 234.189 319.914 234.569  c
320.232 234.950 320.391 235.421 320.391 235.983  c
320.391 236.848 320.094 237.517 319.500 237.991  c
318.906 238.465 318.062 238.702 316.969 238.702  c
316.604 238.702 316.226 238.666 315.836 238.593  c
315.445 238.520 315.047 238.411 314.641 238.265  c
314.641 237.124 l
314.963 237.312 315.320 237.455 315.711 237.554  c
316.101 237.653 316.510 237.702 316.937 237.702  c
317.677 237.702 318.242 237.556 318.633 237.265  c
319.023 236.973 319.219 236.546 319.219 235.983  c
319.219 235.473 319.036 235.072 318.672 234.780  c
318.307 234.489 317.807 234.343 317.172 234.343  c
316.141 234.343 l
316.141 233.374 l
317.219 233.374 l
317.792 233.374 318.234 233.257 318.547 233.022  c
318.859 232.788 319.016 232.452 319.016 232.015  c
319.016 231.567 318.857 231.223 318.539 230.983  c
318.221 230.744 317.766 230.624 317.172 230.624  c
316.838 230.624 316.487 230.658 316.117 230.726  c
315.747 230.793 315.338 230.900 314.891 231.046  c
314.891 229.999 l
315.349 229.874 315.773 229.780 316.164 229.718  c
316.555 229.655 316.922 229.624 317.266 229.624  c
318.172 229.624 318.885 229.827 319.406 230.233  c
319.927 230.640 320.187 231.192 320.187 231.890  c
320.187 232.379 320.049 232.791 319.773 233.124  c
319.497 233.457 319.104 233.687 318.594 233.812  c
h
f
2 J
10.0000 M
1.00000 1.00000 1.00000 RG
newpath
376.872 219.376 m
406.872 219.376 l
406.872 249.376 l
376.872 249.376 l
376.872 219.376 l
h
f
0 J
1.45000 M
0.00000 0.00000 0.00000 RG
newpath
376.872 219.376 m
406.872 219.376 l
406.872 249.376 l
376.872 249.376 l
376.872 219.376 l
h
S
2 J
10.0000 M
0 J
1.45000 M
newpath
389.352 229.780 m
393.992 229.780 l
393.992 230.780 l
390.430 230.780 l
390.430 232.921 l
390.607 232.858 390.781 232.814 390.953 232.788  c
391.125 232.762 391.294 232.749 391.461 232.749  c
392.440 232.749 393.216 233.017 393.789 233.554  c
394.362 234.090 394.648 234.812 394.648 235.718  c
394.648 236.666 394.354 237.400 393.766 237.921  c
393.177 238.442 392.352 238.702 391.289 238.702  c
390.914 238.702 390.536 238.671 390.156 238.608  c
389.776 238.546 389.383 238.452 388.977 238.327  c
388.977 237.140 l
389.331 237.327 389.695 237.468 390.070 237.562  c
390.445 237.655 390.841 237.702 391.258 237.702  c
391.935 237.702 392.471 237.525 392.867 237.171  c
393.263 236.817 393.461 236.332 393.461 235.718  c
393.461 235.114 393.263 234.634 392.867 234.280  c
392.471 233.926 391.935 233.749 391.258 233.749  c
390.945 233.749 390.630 233.783 390.312 233.851  c
389.995 233.918 389.674 234.025 389.352 234.171  c
389.352 229.780 l
h
f
2 J
10.0000 M
1.00000 1.00000 1.00000 RG
newpath
451.208 219.376 m
481.208 219.376 l
481.208 249.376 l
451.208 249.376 l
451.208 219.376 l
h
f
0 J
1.45000 M
0.00000 0.00000 0.00000 RG
newpath
451.208 219.376 m
481.208 219.376 l
481.208 249.376 l
451.208 249.376 l
451.208 219.376 l
h
S
2 J
10.0000 M
0 J
1.45000 M
newpath
463.875 237.530 m
465.812 237.530 l
465.812 230.858 l
463.703 231.280 l
463.703 230.202 l
465.797 229.780 l
466.984 229.780 l
466.984 237.530 l
468.922 237.530 l
468.922 238.530 l
463.875 238.530 l
463.875 237.530 l
h
f
2 J
10.0000 M
1.00000 1.00000 1.00000 RG
newpath
525.544 219.376 m
555.544 219.376 l
555.544 249.376 l
525.544 249.376 l
525.544 219.376 l
h
f
0 J
1.45000 M
0.00000 0.00000 0.00000 RG
newpath
525.544 219.376 m
555.544 219.376 l
555.544 249.376 l
525.544 249.376 l
525.544 219.376 l
h
S
2 J
10.0000 M
0 J
1.45000 M
newpath
540.695 233.687 m
540.164 233.687 539.742 233.869 539.430 234.233  c
539.117 234.598 538.961 235.093 538.961 235.718  c
538.961 236.353 539.117 236.853 539.430 237.218  c
539.742 237.582 540.164 237.765 540.695 237.765  c
541.227 237.765 541.646 237.582 541.953 237.218  c
542.260 236.853 542.414 236.353 542.414 235.718  c
542.414 235.093 542.260 234.598 541.953 234.233  c
541.646 233.869 541.227 233.687 540.695 233.687  c
h
543.039 229.968 m
543.039 231.046 l
542.737 230.911 542.435 230.806 542.133 230.733  c
541.831 230.661 541.534 230.624 541.242 230.624  c
540.461 230.624 539.865 230.887 539.453 231.413  c
539.042 231.939 538.805 232.733 538.742 233.796  c
538.971 233.463 539.260 233.205 539.609 233.022  c
539.958 232.840 540.341 232.749 540.758 232.749  c
541.633 232.749 542.326 233.015 542.836 233.546  c
543.346 234.077 543.602 234.801 543.602 235.718  c
543.602 236.624 543.336 237.348 542.805 237.890  c
542.273 238.431 541.570 238.702 540.695 238.702  c
539.675 238.702 538.898 238.314 538.367 237.538  c
537.836 236.762 537.570 235.640 537.570 234.171  c
537.570 232.786 537.898 231.681 538.555 230.858  c
539.211 230.036 540.091 229.624 541.195 229.624  c
541.487 229.624 541.784 229.653 542.086 229.710  c
542.388 229.767 542.706 229.853 543.039 229.968  c
h
f
2 J
10.0000 M
1.00000 1.00000 1.00000 RG
newpath
599.880 219.376 m
629.880 219.376 l
629.880 249.376 l
599.880 249.376 l
599.880 219.376 l
h
f
0 J
1.45000 M
0.00000 0.00000 0.00000 RG
newpath
599.880 219.376 m
629.880 219.376 l
629.880 249.376 l
599.880 249.376 l
599.880 219.376 l
h
S
2 J
10.0000 M
0 J
1.45000 M
newpath
615.594 230.812 m
612.609 235.483 l
615.594 235.483 l
615.594 230.812 l
h
615.281 229.780 m
616.781 229.780 l
616.781 235.483 l
618.031 235.483 l
618.031 236.468 l
616.781 236.468 l
616.781 238.530 l
615.594 238.530 l
615.594 236.468 l
611.656 236.468 l
611.656 235.327 l
615.281 229.780 l
h
f
2 J
10.0000 M
1.00000 1.00000 1.00000 RG
newpath
228.200 263.816 m
258.200 263.816 l
258.200 293.816 l
228.200 293.816 l
228.200 263.816 l
h
f
0 J
1.45000 M
0.00000 0.00000 0.00000 RG
newpath
228.200 263.816 m
258.200 263.816 l
258.200 293.816 l
228.200 293.816 l
228.200 263.816 l
h
S
2 J
10.0000 M
0 J
1.45000 M
newpath
241.679 281.970 m
245.820 281.970 l
245.820 282.970 l
240.258 282.970 l
240.258 281.970 l
240.706 281.512 241.318 280.890 242.094 280.103  c
242.870 279.317 243.357 278.809 243.554 278.580  c
243.940 278.163 244.208 277.806 244.359 277.509  c
244.510 277.212 244.586 276.923 244.586 276.642  c
244.586 276.173 244.422 275.793 244.094 275.502  c
243.765 275.210 243.341 275.064 242.820 275.064  c
242.445 275.064 242.052 275.127 241.640 275.252  c
241.229 275.377 240.789 275.574 240.320 275.845  c
240.320 274.642 l
240.799 274.455 241.245 274.311 241.656 274.212  c
242.068 274.114 242.445 274.064 242.789 274.064  c
243.695 274.064 244.419 274.291 244.961 274.744  c
245.502 275.197 245.773 275.804 245.773 276.564  c
245.773 276.918 245.706 277.257 245.570 277.580  c
245.435 277.903 245.190 278.283 244.836 278.720  c
244.732 278.835 244.419 279.163 243.898 279.705  c
243.377 280.246 242.638 281.002 241.679 281.970  c
h
f
2 J
10.0000 M
1.00000 1.00000 1.00000 RG
newpath
302.536 263.816 m
332.536 263.816 l
332.536 293.816 l
302.536 293.816 l
302.536 263.816 l
h
f
0 J
1.45000 M
0.00000 0.00000 0.00000 RG
newpath
302.536 263.816 m
332.536 263.816 l
332.536 293.816 l
302.536 293.816 l
302.536 263.816 l
h
S
2 J
10.0000 M
0 J
1.45000 M
newpath
318.594 278.252 m
319.156 278.377 319.596 278.629 319.914 279.009  c
320.232 279.390 320.391 279.861 320.391 280.423  c
320.391 281.288 320.094 281.957 319.500 282.431  c
318.906 282.905 318.062 283.142 316.969 283.142  c
316.604 283.142 316.226 283.106 315.836 283.033  c
315.445 282.960 315.047 282.851 314.641 282.705  c
314.641 281.564 l
314.963 281.752 315.320 281.895 315.711 281.994  c
316.101 282.093 316.510 282.142 316.937 282.142  c
317.677 282.142 318.242 281.996 318.633 281.705  c
319.023 281.413 319.219 280.986 319.219 280.423  c
319.219 279.913 319.036 279.512 318.672 279.220  c
318.307 278.929 317.807 278.783 317.172 278.783  c
316.141 278.783 l
316.141 277.814 l
317.219 277.814 l
317.792 277.814 318.234 277.697 318.547 277.462  c
318.859 277.228 319.016 276.892 319.016 276.455  c
319.016 276.007 318.857 275.663 318.539 275.423  c
318.221 275.184 317.766 275.064 317.172 275.064  c
316.838 275.064 316.487 275.098 316.117 275.166  c
315.747 275.233 315.338 275.340 314.891 275.486  c
314.891 274.439 l
315.349 274.314 315.773 274.220 316.164 274.158  c
316.555 274.095 316.922 274.064 317.266 274.064  c
318.172 274.064 318.885 274.267 319.406 274.673  c
319.927 275.080 320.187 275.632 320.187 276.330  c
320.187 276.819 320.049 277.231 319.773 277.564  c
319.497 277.897 319.104 278.127 318.594 278.252  c
h
f
2 J
10.0000 M
1.00000 1.00000 1.00000 RG
newpath
376.872 263.816 m
406.872 263.816 l
406.872 293.816 l
376.872 293.816 l
376.872 263.816 l
h
f
0 J
1.45000 M
0.00000 0.00000 0.00000 RG
newpath
376.872 263.816 m
406.872 263.816 l
406.872 293.816 l
376.872 293.816 l
376.872 263.816 l
h
S
2 J
10.0000 M
0 J
1.45000 M
newpath
389.539 281.970 m
391.477 281.970 l
391.477 275.298 l
389.367 275.720 l
389.367 274.642 l
391.461 274.220 l
392.648 274.220 l
392.648 281.970 l
394.586 281.970 l
394.586 282.970 l
389.539 282.970 l
389.539 281.970 l
h
f
2 J
10.0000 M
1.00000 1.00000 1.00000 RG
newpath
451.208 263.816 m
481.208 263.816 l
481.208 293.816 l
451.208 293.816 l
451.208 263.816 l
h
f
0 J
1.45000 M
0.00000 0.00000 0.00000 RG
newpath
451.208 263.816 m
481.208 263.816 l
481.208 293.816 l
451.208 293.816 l
451.208 263.816 l
h
S
2 J
10.0000 M
0 J
1.45000 M
newpath
463.688 274.220 m
468.328 274.220 l
468.328 275.220 l
464.766 275.220 l
464.766 277.361 l
464.943 277.298 465.117 277.254 465.289 277.228  c
465.461 277.202 465.630 277.189 465.797 277.189  c
466.776 277.189 467.552 277.457 468.125 277.994  c
468.698 278.530 468.984 279.252 468.984 280.158  c
468.984 281.106 468.690 281.840 468.102 282.361  c
467.513 282.882 466.688 283.142 465.625 283.142  c
465.250 283.142 464.872 283.111 464.492 283.048  c
464.112 282.986 463.719 282.892 463.312 282.767  c
463.312 281.580 l
463.667 281.767 464.031 281.908 464.406 282.002  c
464.781 282.095 465.177 282.142 465.594 282.142  c
466.271 282.142 466.807 281.965 467.203 281.611  c
467.599 281.257 467.797 280.772 467.797 280.158  c
467.797 279.554 467.599 279.074 467.203 278.720  c
466.807 278.366 466.271 278.189 465.594 278.189  c
465.281 278.189 464.966 278.223 464.648 278.291  c
464.331 278.358 464.010 278.465 463.688 278.611  c
463.688 274.220 l
h
f
2 J
10.0000 M
1.00000 1.00000 1.00000 RG
newpath
525.544 263.816 m
555.544 263.816 l
555.544 293.816 l
525.544 293.816 l
525.544 263.816 l
h
f
0 J
1.45000 M
0.00000 0.00000 0.00000 RG
newpath
525.544 263.816 m
555.544 263.816 l
555.544 293.816 l
525.544 293.816 l
525.544 263.816 l
h
S
2 J
10.0000 M
0 J
1.45000 M
newpath
541.258 275.252 m
538.273 279.923 l
541.258 279.923 l
541.258 275.252 l
h
540.945 274.220 m
542.445 274.220 l
542.445 279.923 l
543.695 279.923 l
543.695 280.908 l
542.445 280.908 l
542.445 282.970 l
541.258 282.970 l
541.258 280.908 l
537.320 280.908 l
537.320 279.767 l
540.945 274.220 l
h
f
2 J
10.0000 M
1.00000 1.00000 1.00000 RG
newpath
599.880 263.816 m
629.880 263.816 l
629.880 293.816 l
599.880 293.816 l
599.880 263.816 l
h
f
0 J
1.45000 M
0.00000 0.00000 0.00000 RG
newpath
599.880 263.816 m
629.880 263.816 l
629.880 293.816 l
599.880 293.816 l
599.880 263.816 l
h
S
2 J
10.0000 M
0 J
1.45000 M
newpath
615.031 278.127 m
614.500 278.127 614.078 278.309 613.766 278.673  c
613.453 279.038 613.297 279.533 613.297 280.158  c
613.297 280.793 613.453 281.293 613.766 281.658  c
614.078 282.022 614.500 282.205 615.031 282.205  c
615.563 282.205 615.982 282.022 616.289 281.658  c
616.596 281.293 616.750 280.793 616.750 280.158  c
616.750 279.533 616.596 279.038 616.289 278.673  c
615.982 278.309 615.563 278.127 615.031 278.127  c
h
617.375 274.408 m
617.375 275.486 l
617.073 275.351 616.771 275.246 616.469 275.173  c
616.167 275.101 615.870 275.064 615.578 275.064  c
614.797 275.064 614.201 275.327 613.789 275.853  c
613.378 276.379 613.141 277.173 613.078 278.236  c
613.307 277.903 613.596 277.645 613.945 277.462  c
614.294 277.280 614.677 277.189 615.094 277.189  c
615.969 277.189 616.662 277.455 617.172 277.986  c
617.682 278.517 617.938 279.241 617.938 280.158  c
617.938 281.064 617.672 281.788 617.141 282.330  c
616.609 282.871 615.906 283.142 615.031 283.142  c
614.011 283.142 613.234 282.754 612.703 281.978  c
612.172 281.202 611.906 280.080 611.906 278.611  c
611.906 277.226 612.234 276.121 612.891 275.298  c
613.547 274.476 614.427 274.064 615.531 274.064  c
615.823 274.064 616.120 274.093 616.422 274.150  c
616.724 274.207 617.042 274.293 617.375 274.408  c
h
f
2 J
10.0000 M
1.00000 1.00000 1.00000 RG
newpath
228.200 308.256 m
258.200 308.256 l
258.200 338.256 l
228.200 338.256 l
228.200 308.256 l
h
f
0 J
1.45000 M
0.00000 0.00000 0.00000 RG
newpath
228.200 308.256 m
258.200 308.256 l
258.200 338.256 l
228.200 338.256 l
228.200 308.256 l
h
S
2 J
10.0000 M
0 J
1.45000 M
newpath
241.679 326.410 m
245.820 326.410 l
245.820 327.410 l
240.258 327.410 l
240.258 326.410 l
240.706 325.952 241.318 325.330 242.094 324.543  c
242.870 323.757 243.357 323.249 243.554 323.020  c
243.940 322.603 244.208 322.246 244.359 321.949  c
244.510 321.652 244.586 321.363 244.586 321.082  c
244.586 320.613 244.422 320.233 244.094 319.942  c
243.765 319.650 243.341 319.504 242.820 319.504  c
242.445 319.504 242.052 319.567 241.640 319.692  c
241.229 319.817 240.789 320.014 240.320 320.285  c
240.320 319.082 l
240.799 318.895 241.245 318.751 241.656 318.652  c
242.068 318.554 242.445 318.504 242.789 318.504  c
243.695 318.504 244.419 318.731 244.961 319.184  c
245.502 319.637 245.773 320.244 245.773 321.004  c
245.773 321.358 245.706 321.697 245.570 322.020  c
245.435 322.343 245.190 322.723 244.836 323.160  c
244.732 323.275 244.419 323.603 243.898 324.145  c
243.377 324.686 242.638 325.442 241.679 326.410  c
h
f
2 J
10.0000 M
1.00000 1.00000 1.00000 RG
newpath
302.536 308.256 m
332.536 308.256 l
332.536 338.256 l
302.536 338.256 l
302.536 308.256 l
h
f
0 J
1.45000 M
0.00000 0.00000 0.00000 RG
newpath
302.536 308.256 m
332.536 308.256 l
332.536 338.256 l
302.536 338.256 l
302.536 308.256 l
h
S
2 J
10.0000 M
0 J
1.45000 M
newpath
315.203 326.410 m
317.141 326.410 l
317.141 319.738 l
315.031 320.160 l
315.031 319.082 l
317.125 318.660 l
318.312 318.660 l
318.312 326.410 l
320.250 326.410 l
320.250 327.410 l
315.203 327.410 l
315.203 326.410 l
h
f
2 J
10.0000 M
1.00000 1.00000 1.00000 RG
newpath
376.872 308.256 m
406.872 308.256 l
406.872 338.256 l
376.872 338.256 l
376.872 308.256 l
h
f
0 J
1.45000 M
0.00000 0.00000 0.00000 RG
newpath
376.872 308.256 m
406.872 308.256 l
406.872 338.256 l
376.872 338.256 l
376.872 308.256 l
h
S
2 J
10.0000 M
0 J
1.45000 M
newpath
392.930 322.692 m
393.492 322.817 393.932 323.069 394.250 323.449  c
394.568 323.830 394.727 324.301 394.727 324.863  c
394.727 325.728 394.430 326.397 393.836 326.871  c
393.242 327.345 392.398 327.582 391.305 327.582  c
390.940 327.582 390.562 327.546 390.172 327.473  c
389.781 327.400 389.383 327.291 388.977 327.145  c
388.977 326.004 l
389.299 326.192 389.656 326.335 390.047 326.434  c
390.437 326.533 390.846 326.582 391.273 326.582  c
392.013 326.582 392.578 326.436 392.969 326.145  c
393.359 325.853 393.555 325.426 393.555 324.863  c
393.555 324.353 393.372 323.952 393.008 323.660  c
392.643 323.369 392.143 323.223 391.508 323.223  c
390.477 323.223 l
390.477 322.254 l
391.555 322.254 l
392.128 322.254 392.570 322.137 392.883 321.902  c
393.195 321.668 393.352 321.332 393.352 320.895  c
393.352 320.447 393.193 320.103 392.875 319.863  c
392.557 319.624 392.102 319.504 391.508 319.504  c
391.174 319.504 390.823 319.538 390.453 319.606  c
390.083 319.673 389.674 319.780 389.227 319.926  c
389.227 318.879 l
389.685 318.754 390.109 318.660 390.500 318.598  c
390.891 318.535 391.258 318.504 391.602 318.504  c
392.508 318.504 393.221 318.707 393.742 319.113  c
394.263 319.520 394.523 320.072 394.523 320.770  c
394.523 321.259 394.385 321.671 394.109 322.004  c
393.833 322.337 393.440 322.567 392.930 322.692  c
h
f
2 J
10.0000 M
1.00000 1.00000 1.00000 RG
newpath
451.208 308.256 m
481.208 308.256 l
481.208 338.256 l
451.208 338.256 l
451.208 308.256 l
h
f
0 J
1.45000 M
0.00000 0.00000 0.00000 RG
newpath
451.208 308.256 m
481.208 308.256 l
481.208 338.256 l
451.208 338.256 l
451.208 308.256 l
h
S
2 J
10.0000 M
0 J
1.45000 M
newpath
466.922 319.692 m
463.938 324.363 l
466.922 324.363 l
466.922 319.692 l
h
466.609 318.660 m
468.109 318.660 l
468.109 324.363 l
469.359 324.363 l
469.359 325.348 l
468.109 325.348 l
468.109 327.410 l
466.922 327.410 l
466.922 325.348 l
462.984 325.348 l
462.984 324.207 l
466.609 318.660 l
h
f
2 J
10.0000 M
1.00000 1.00000 1.00000 RG
newpath
525.544 308.256 m
555.544 308.256 l
555.544 338.256 l
525.544 338.256 l
525.544 308.256 l
h
f
0 J
1.45000 M
0.00000 0.00000 0.00000 RG
newpath
525.544 308.256 m
555.544 308.256 l
555.544 338.256 l
525.544 338.256 l
525.544 308.256 l
h
S
2 J
10.0000 M
0 J
1.45000 M
newpath
538.023 318.660 m
542.664 318.660 l
542.664 319.660 l
539.102 319.660 l
539.102 321.801 l
539.279 321.738 539.453 321.694 539.625 321.668  c
539.797 321.642 539.966 321.629 540.133 321.629  c
541.112 321.629 541.888 321.897 542.461 322.434  c
543.034 322.970 543.320 323.692 543.320 324.598  c
543.320 325.546 543.026 326.280 542.438 326.801  c
541.849 327.322 541.023 327.582 539.961 327.582  c
539.586 327.582 539.208 327.551 538.828 327.488  c
538.448 327.426 538.055 327.332 537.648 327.207  c
537.648 326.020 l
538.003 326.207 538.367 326.348 538.742 326.442  c
539.117 326.535 539.513 326.582 539.930 326.582  c
540.607 326.582 541.143 326.405 541.539 326.051  c
541.935 325.697 542.133 325.212 542.133 324.598  c
542.133 323.994 541.935 323.514 541.539 323.160  c
541.143 322.806 540.607 322.629 539.930 322.629  c
539.617 322.629 539.302 322.663 538.984 322.731  c
538.667 322.798 538.346 322.905 538.023 323.051  c
538.023 318.660 l
h
f
2 J
10.0000 M
1.00000 1.00000 1.00000 RG
newpath
599.880 308.256 m
629.880 308.256 l
629.880 338.256 l
599.880 338.256 l
599.880 308.256 l
h
f
0 J
1.45000 M
0.00000 0.00000 0.00000 RG
newpath
599.880 308.256 m
629.880 308.256 l
629.880 338.256 l
599.880 338.256 l
599.880 308.256 l
h
S
2 J
10.0000 M
0 J
1.45000 M
newpath
615.031 322.567 m
614.500 322.567 614.078 322.749 613.766 323.113  c
613.453 323.478 613.297 323.973 613.297 324.598  c
613.297 325.233 613.453 325.733 613.766 326.098  c
614.078 326.462 614.500 326.645 615.031 326.645  c
615.563 326.645 615.982 326.462 616.289 326.098  c
616.596 325.733 616.750 325.233 616.750 324.598  c
616.750 323.973 616.596 323.478 616.289 323.113  c
615.982 322.749 615.563 322.567 615.031 322.567  c
h
617.375 318.848 m
617.375 319.926 l
617.073 319.791 616.771 319.686 616.469 319.613  c
616.167 319.541 615.870 319.504 615.578 319.504  c
614.797 319.504 614.201 319.767 613.789 320.293  c
613.378 320.819 613.141 321.613 613.078 322.676  c
613.307 322.343 613.596 322.085 613.945 321.902  c
614.294 321.720 614.677 321.629 615.094 321.629  c
615.969 321.629 616.662 321.895 617.172 322.426  c
617.682 322.957 617.938 323.681 617.938 324.598  c
617.938 325.504 617.672 326.228 617.141 326.770  c
616.609 327.311 615.906 327.582 615.031 327.582  c
614.011 327.582 613.234 327.194 612.703 326.418  c
612.172 325.642 611.906 324.520 611.906 323.051  c
611.906 321.666 612.234 320.561 612.891 319.738  c
613.547 318.916 614.427 318.504 615.531 318.504  c
615.823 318.504 616.120 318.533 616.422 318.590  c
616.724 318.647 617.042 318.733 617.375 318.848  c
h
f
2 J
10.0000 M
1.00000 1.00000 1.00000 RG
newpath
228.200 352.696 m
258.200 352.696 l
258.200 382.696 l
228.200 382.696 l
228.200 352.696 l
h
f
0 J
1.45000 M
0.00000 0.00000 0.00000 RG
newpath
228.200 352.696 m
258.200 352.696 l
258.200 382.696 l
228.200 382.696 l
228.200 352.696 l
h
S
2 J
10.0000 M
0 J
1.45000 M
newpath
240.867 370.850 m
242.804 370.850 l
242.804 364.178 l
240.695 364.600 l
240.695 363.522 l
242.789 363.100 l
243.976 363.100 l
243.976 370.850 l
245.914 370.850 l
245.914 371.850 l
240.867 371.850 l
240.867 370.850 l
h
f
2 J
10.0000 M
1.00000 1.00000 1.00000 RG
newpath
302.536 352.696 m
332.536 352.696 l
332.536 382.696 l
302.536 382.696 l
302.536 352.696 l
h
f
0 J
1.45000 M
0.00000 0.00000 0.00000 RG
newpath
302.536 352.696 m
332.536 352.696 l
332.536 382.696 l
302.536 382.696 l
302.536 352.696 l
h
S
2 J
10.0000 M
0 J
1.45000 M
newpath
316.016 370.850 m
320.156 370.850 l
320.156 371.850 l
314.594 371.850 l
314.594 370.850 l
315.042 370.392 315.654 369.770 316.430 368.983  c
317.206 368.197 317.693 367.689 317.891 367.460  c
318.276 367.043 318.544 366.686 318.695 366.389  c
318.846 366.092 318.922 365.803 318.922 365.522  c
318.922 365.053 318.758 364.673 318.430 364.382  c
318.101 364.090 317.677 363.944 317.156 363.944  c
316.781 363.944 316.388 364.007 315.976 364.132  c
315.565 364.257 315.125 364.454 314.656 364.725  c
314.656 363.522 l
315.135 363.335 315.581 363.191 315.992 363.092  c
316.404 362.994 316.781 362.944 317.125 362.944  c
318.031 362.944 318.755 363.171 319.297 363.624  c
319.838 364.077 320.109 364.684 320.109 365.444  c
320.109 365.798 320.042 366.137 319.906 366.460  c
319.771 366.783 319.526 367.163 319.172 367.600  c
319.068 367.715 318.755 368.043 318.234 368.585  c
317.713 369.126 316.974 369.882 316.016 370.850  c
h
f
2 J
10.0000 M
1.00000 1.00000 1.00000 RG
newpath
376.872 352.696 m
406.872 352.696 l
406.872 382.696 l
376.872 382.696 l
376.872 352.696 l
h
f
0 J
1.45000 M
0.00000 0.00000 0.00000 RG
newpath
376.872 352.696 m
406.872 352.696 l
406.872 382.696 l
376.872 382.696 l
376.872 352.696 l
h
S
2 J
10.0000 M
0 J
1.45000 M
newpath
392.930 367.132 m
393.492 367.257 393.932 367.509 394.250 367.889  c
394.568 368.270 394.727 368.741 394.727 369.303  c
394.727 370.168 394.430 370.837 393.836 371.311  c
393.242 371.785 392.398 372.022 391.305 372.022  c
390.940 372.022 390.562 371.986 390.172 371.913  c
389.781 371.840 389.383 371.731 388.977 371.585  c
388.977 370.444 l
389.299 370.632 389.656 370.775 390.047 370.874  c
390.437 370.973 390.846 371.022 391.273 371.022  c
392.013 371.022 392.578 370.876 392.969 370.585  c
393.359 370.293 393.555 369.866 393.555 369.303  c
393.555 368.793 393.372 368.392 393.008 368.100  c
392.643 367.809 392.143 367.663 391.508 367.663  c
390.477 367.663 l
390.477 366.694 l
391.555 366.694 l
392.128 366.694 392.570 366.577 392.883 366.342  c
393.195 366.108 393.352 365.772 393.352 365.335  c
393.352 364.887 393.193 364.543 392.875 364.303  c
392.557 364.064 392.102 363.944 391.508 363.944  c
391.174 363.944 390.823 363.978 390.453 364.046  c
390.083 364.113 389.674 364.220 389.227 364.366  c
389.227 363.319 l
389.685 363.194 390.109 363.100 390.500 363.038  c
390.891 362.975 391.258 362.944 391.602 362.944  c
392.508 362.944 393.221 363.147 393.742 363.553  c
394.263 363.960 394.523 364.512 394.523 365.210  c
394.523 365.699 394.385 366.111 394.109 366.444  c
393.833 366.777 393.440 367.007 392.930 367.132  c
h
f
2 J
10.0000 M
1.00000 1.00000 1.00000 RG
newpath
451.208 352.696 m
481.208 352.696 l
481.208 382.696 l
451.208 382.696 l
451.208 352.696 l
h
f
0 J
1.45000 M
0.00000 0.00000 0.00000 RG
newpath
451.208 352.696 m
481.208 352.696 l
481.208 382.696 l
451.208 382.696 l
451.208 352.696 l
h
S
2 J
10.0000 M
0 J
1.45000 M
newpath
466.922 364.132 m
463.938 368.803 l
466.922 368.803 l
466.922 364.132 l
h
466.609 363.100 m
468.109 363.100 l
468.109 368.803 l
469.359 368.803 l
469.359 369.788 l
468.109 369.788 l
468.109 371.850 l
466.922 371.850 l
466.922 369.788 l
462.984 369.788 l
462.984 368.647 l
466.609 363.100 l
h
f
2 J
10.0000 M
1.00000 1.00000 1.00000 RG
newpath
525.544 352.696 m
555.544 352.696 l
555.544 382.696 l
525.544 382.696 l
525.544 352.696 l
h
f
0 J
1.45000 M
0.00000 0.00000 0.00000 RG
newpath
525.544 352.696 m
555.544 352.696 l
555.544 382.696 l
525.544 382.696 l
525.544 352.696 l
h
S
2 J
10.0000 M
0 J
1.45000 M
newpath
538.023 363.100 m
542.664 363.100 l
542.664 364.100 l
539.102 364.100 l
539.102 366.241 l
539.279 366.178 539.453 366.134 539.625 366.108  c
539.797 366.082 539.966 366.069 540.133 366.069  c
541.112 366.069 541.888 366.337 542.461 366.874  c
543.034 367.410 543.320 368.132 543.320 369.038  c
543.320 369.986 543.026 370.720 542.438 371.241  c
541.849 371.762 541.023 372.022 539.961 372.022  c
539.586 372.022 539.208 371.991 538.828 371.928  c
538.448 371.866 538.055 371.772 537.648 371.647  c
537.648 370.460 l
538.003 370.647 538.367 370.788 538.742 370.882  c
539.117 370.975 539.513 371.022 539.930 371.022  c
540.607 371.022 541.143 370.845 541.539 370.491  c
541.935 370.137 542.133 369.652 542.133 369.038  c
542.133 368.434 541.935 367.954 541.539 367.600  c
541.143 367.246 540.607 367.069 539.930 367.069  c
539.617 367.069 539.302 367.103 538.984 367.171  c
538.667 367.238 538.346 367.345 538.023 367.491  c
538.023 363.100 l
h
f
2 J
10.0000 M
1.00000 1.00000 1.00000 RG
newpath
599.880 352.696 m
629.880 352.696 l
629.880 382.696 l
599.880 382.696 l
599.880 352.696 l
h
f
0 J
1.45000 M
0.00000 0.00000 0.00000 RG
newpath
599.880 352.696 m
629.880 352.696 l
629.880 382.696 l
599.880 382.696 l
599.880 352.696 l
h
S
2 J
10.0000 M
0 J
1.45000 M
newpath
615.031 367.007 m
614.500 367.007 614.078 367.189 613.766 367.553  c
613.453 367.918 613.297 368.413 613.297 369.038  c
613.297 369.673 613.453 370.173 613.766 370.538  c
614.078 370.902 614.500 371.085 615.031 371.085  c
615.563 371.085 615.982 370.902 616.289 370.538  c
616.596 370.173 616.750 369.673 616.750 369.038  c
616.750 368.413 616.596 367.918 616.289 367.553  c
615.982 367.189 615.563 367.007 615.031 367.007  c
h
617.375 363.288 m
617.375 364.366 l
617.073 364.231 616.771 364.126 616.469 364.053  c
616.167 363.981 615.870 363.944 615.578 363.944  c
614.797 363.944 614.201 364.207 613.789 364.733  c
613.378 365.259 613.141 366.053 613.078 367.116  c
613.307 366.783 613.596 366.525 613.945 366.342  c
614.294 366.160 614.677 366.069 615.094 366.069  c
615.969 366.069 616.662 366.335 617.172 366.866  c
617.682 367.397 617.938 368.121 617.938 369.038  c
617.938 369.944 617.672 370.668 617.141 371.210  c
616.609 371.751 615.906 372.022 615.031 372.022  c
614.011 372.022 613.234 371.634 612.703 370.858  c
612.172 370.082 611.906 368.960 611.906 367.491  c
611.906 366.106 612.234 365.001 612.891 364.178  c
613.547 363.356 614.427 362.944 615.531 362.944  c
615.823 362.944 616.120 362.973 616.422 363.030  c
616.724 363.087 617.042 363.173 617.375 363.288  c
h
f
2 J
10.0000 M
1.00000 1.00000 1.00000 RG
newpath
228.200 95.8864 m
258.200 95.8864 l
258.200 125.886 l
228.200 125.886 l
228.200 95.8864 l
h
f
0.00000 0.00000 0.00000 RG
0 J
1.45000 M
newpath
243.195 107.072 m
242.591 107.072 242.135 107.371 241.828 107.970  c
241.521 108.569 241.367 109.473 241.367 110.681  c
241.367 111.879 241.521 112.778 241.828 113.377  c
242.135 113.976 242.591 114.275 243.195 114.275  c
243.810 114.275 244.271 113.976 244.578 113.377  c
244.885 112.778 245.039 111.879 245.039 110.681  c
245.039 109.473 244.885 108.569 244.578 107.970  c
244.271 107.371 243.810 107.072 243.195 107.072  c
h
243.195 106.134 m
244.174 106.134 244.924 106.522 245.445 107.299  c
245.966 108.075 246.226 109.202 246.226 110.681  c
246.226 112.150 245.966 113.272 245.445 114.049  c
244.924 114.825 244.174 115.213 243.195 115.213  c
242.216 115.213 241.469 114.825 240.953 114.049  c
240.437 113.272 240.179 112.150 240.179 110.681  c
240.179 109.202 240.437 108.075 240.953 107.299  c
241.469 106.522 242.216 106.134 243.195 106.134  c
h
f
2 J
10.0000 M
1.00000 1.00000 1.00000 RG
0.00000 0.00000 0.00000 RG
1.00000 1.00000 1.00000 RG
newpath
302.536 95.8864 m
332.536 95.8864 l
332.536 125.886 l
302.536 125.886 l
302.536 95.8864 l
h
f
0.00000 0.00000 0.00000 RG
0 J
1.45000 M
newpath
315.203 114.041 m
317.141 114.041 l
317.141 107.369 l
315.031 107.791 l
315.031 106.713 l
317.125 106.291 l
318.312 106.291 l
318.312 114.041 l
320.250 114.041 l
320.250 115.041 l
315.203 115.041 l
315.203 114.041 l
h
f
2 J
10.0000 M
1.00000 1.00000 1.00000 RG
0.00000 0.00000 0.00000 RG
1.00000 1.00000 1.00000 RG
newpath
376.872 95.8864 m
406.872 95.8864 l
406.872 125.886 l
376.872 125.886 l
376.872 95.8864 l
h
f
0.00000 0.00000 0.00000 RG
0 J
1.45000 M
newpath
390.352 114.041 m
394.492 114.041 l
394.492 115.041 l
388.930 115.041 l
388.930 114.041 l
389.378 113.582 389.990 112.960 390.766 112.174  c
391.542 111.387 392.029 110.879 392.227 110.650  c
392.612 110.233 392.880 109.877 393.031 109.580  c
393.182 109.283 393.258 108.994 393.258 108.713  c
393.258 108.244 393.094 107.864 392.766 107.572  c
392.437 107.280 392.013 107.134 391.492 107.134  c
391.117 107.134 390.724 107.197 390.312 107.322  c
389.901 107.447 389.461 107.645 388.992 107.916  c
388.992 106.713 l
389.471 106.525 389.917 106.382 390.328 106.283  c
390.740 106.184 391.117 106.134 391.461 106.134  c
392.367 106.134 393.091 106.361 393.633 106.814  c
394.174 107.267 394.445 107.874 394.445 108.634  c
394.445 108.989 394.378 109.327 394.242 109.650  c
394.107 109.973 393.862 110.353 393.508 110.791  c
393.404 110.905 393.091 111.233 392.570 111.775  c
392.049 112.317 391.310 113.072 390.352 114.041  c
h
f
2 J
10.0000 M
1.00000 1.00000 1.00000 RG
0.00000 0.00000 0.00000 RG
1.00000 1.00000 1.00000 RG
newpath
451.208 95.8864 m
481.208 95.8864 l
481.208 125.886 l
451.208 125.886 l
451.208 95.8864 l
h
f
0.00000 0.00000 0.00000 RG
0 J
1.45000 M
newpath
467.266 110.322 m
467.828 110.447 468.268 110.700 468.586 111.080  c
468.904 111.460 469.062 111.931 469.062 112.494  c
469.062 113.358 468.766 114.028 468.172 114.502  c
467.578 114.976 466.734 115.213 465.641 115.213  c
465.276 115.213 464.898 115.176 464.508 115.103  c
464.117 115.030 463.719 114.921 463.312 114.775  c
463.312 113.634 l
463.635 113.822 463.992 113.965 464.383 114.064  c
464.773 114.163 465.182 114.213 465.609 114.213  c
466.349 114.213 466.914 114.067 467.305 113.775  c
467.695 113.483 467.891 113.056 467.891 112.494  c
467.891 111.983 467.708 111.582 467.344 111.291  c
466.979 110.999 466.479 110.853 465.844 110.853  c
464.812 110.853 l
464.812 109.884 l
465.891 109.884 l
466.464 109.884 466.906 109.767 467.219 109.533  c
467.531 109.299 467.688 108.963 467.688 108.525  c
467.688 108.077 467.529 107.733 467.211 107.494  c
466.893 107.254 466.438 107.134 465.844 107.134  c
465.510 107.134 465.159 107.168 464.789 107.236  c
464.419 107.304 464.010 107.410 463.562 107.556  c
463.562 106.509 l
464.021 106.384 464.445 106.291 464.836 106.228  c
465.227 106.166 465.594 106.134 465.938 106.134  c
466.844 106.134 467.557 106.338 468.078 106.744  c
468.599 107.150 468.859 107.702 468.859 108.400  c
468.859 108.890 468.721 109.301 468.445 109.634  c
468.169 109.968 467.776 110.197 467.266 110.322  c
h
f
2 J
10.0000 M
1.00000 1.00000 1.00000 RG
0.00000 0.00000 0.00000 RG
1.00000 1.00000 1.00000 RG
newpath
525.544 95.8864 m
555.544 95.8864 l
555.544 125.886 l
525.544 125.886 l
525.544 95.8864 l
h
f
0.00000 0.00000 0.00000 RG
0 J
1.45000 M
newpath
541.258 107.322 m
538.273 111.994 l
541.258 111.994 l
541.258 107.322 l
h
540.945 106.291 m
542.445 106.291 l
542.445 111.994 l
543.695 111.994 l
543.695 112.978 l
542.445 112.978 l
542.445 115.041 l
541.258 115.041 l
541.258 112.978 l
537.320 112.978 l
537.320 111.838 l
540.945 106.291 l
h
f
2 J
10.0000 M
1.00000 1.00000 1.00000 RG
0.00000 0.00000 0.00000 RG
1.00000 1.00000 1.00000 RG
newpath
599.880 95.8864 m
629.880 95.8864 l
629.880 125.886 l
599.880 125.886 l
599.880 95.8864 l
h
f
0.00000 0.00000 0.00000 RG
0 J
1.45000 M
newpath
612.359 106.291 m
617.000 106.291 l
617.000 107.291 l
613.438 107.291 l
613.438 109.431 l
613.615 109.369 613.789 109.325 613.961 109.299  c
614.133 109.272 614.302 109.259 614.469 109.259  c
615.448 109.259 616.224 109.528 616.797 110.064  c
617.370 110.601 617.656 111.322 617.656 112.228  c
617.656 113.176 617.362 113.910 616.774 114.431  c
616.185 114.952 615.359 115.213 614.297 115.213  c
613.922 115.213 613.544 115.181 613.164 115.119  c
612.784 115.056 612.391 114.963 611.984 114.838  c
611.984 113.650 l
612.339 113.838 612.703 113.978 613.078 114.072  c
613.453 114.166 613.849 114.213 614.266 114.213  c
614.943 114.213 615.479 114.035 615.875 113.681  c
616.271 113.327 616.469 112.843 616.469 112.228  c
616.469 111.624 616.271 111.145 615.875 110.791  c
615.479 110.437 614.943 110.259 614.266 110.259  c
613.953 110.259 613.638 110.293 613.320 110.361  c
613.003 110.429 612.682 110.535 612.359 110.681  c
612.359 106.291 l
h
f
2 J
10.0000 M
1.00000 1.00000 1.00000 RG
0.00000 0.00000 0.00000 RG
1.00000 1.00000 1.00000 RG
newpath
228.200 397.136 m
258.200 397.136 l
258.200 427.136 l
228.200 427.136 l
228.200 397.136 l
h
f
0 J
1.45000 M
0.00000 0.00000 0.00000 RG
newpath
228.200 397.136 m
258.200 397.136 l
258.200 427.136 l
228.200 427.136 l
228.200 397.136 l
h
S
2 J
10.0000 M
0 J
1.45000 M
newpath
240.867 415.290 m
242.804 415.290 l
242.804 408.618 l
240.695 409.040 l
240.695 407.962 l
242.789 407.540 l
243.976 407.540 l
243.976 415.290 l
245.914 415.290 l
245.914 416.290 l
240.867 416.290 l
240.867 415.290 l
h
f
2 J
10.0000 M
1.00000 1.00000 1.00000 RG
newpath
302.536 397.136 m
332.536 397.136 l
332.536 427.136 l
302.536 427.136 l
302.536 397.136 l
h
f
0 J
1.45000 M
0.00000 0.00000 0.00000 RG
newpath
302.536 397.136 m
332.536 397.136 l
332.536 427.136 l
302.536 427.136 l
302.536 397.136 l
h
S
2 J
10.0000 M
0 J
1.45000 M
newpath
316.016 415.290 m
320.156 415.290 l
320.156 416.290 l
314.594 416.290 l
314.594 415.290 l
315.042 414.832 315.654 414.210 316.430 413.423  c
317.206 412.637 317.693 412.129 317.891 411.900  c
318.276 411.483 318.544 411.126 318.695 410.829  c
318.846 410.532 318.922 410.243 318.922 409.962  c
318.922 409.493 318.758 409.113 318.430 408.822  c
318.101 408.530 317.677 408.384 317.156 408.384  c
316.781 408.384 316.388 408.447 315.976 408.572  c
315.565 408.697 315.125 408.894 314.656 409.165  c
314.656 407.962 l
315.135 407.775 315.581 407.631 315.992 407.532  c
316.404 407.434 316.781 407.384 317.125 407.384  c
318.031 407.384 318.755 407.611 319.297 408.064  c
319.838 408.517 320.109 409.124 320.109 409.884  c
320.109 410.238 320.042 410.577 319.906 410.900  c
319.771 411.223 319.526 411.603 319.172 412.040  c
319.068 412.155 318.755 412.483 318.234 413.025  c
317.713 413.566 316.974 414.322 316.016 415.290  c
h
f
2 J
10.0000 M
1.00000 1.00000 1.00000 RG
newpath
376.872 397.136 m
406.872 397.136 l
406.872 427.136 l
376.872 427.136 l
376.872 397.136 l
h
f
0 J
1.45000 M
0.00000 0.00000 0.00000 RG
newpath
376.872 397.136 m
406.872 397.136 l
406.872 427.136 l
376.872 427.136 l
376.872 397.136 l
h
S
2 J
10.0000 M
0 J
1.45000 M
newpath
392.930 411.572 m
393.492 411.697 393.932 411.949 394.250 412.329  c
394.568 412.710 394.727 413.181 394.727 413.743  c
394.727 414.608 394.430 415.277 393.836 415.751  c
393.242 416.225 392.398 416.462 391.305 416.462  c
390.940 416.462 390.562 416.426 390.172 416.353  c
389.781 416.280 389.383 416.170 388.977 416.025  c
388.977 414.884 l
389.299 415.072 389.656 415.215 390.047 415.314  c
390.437 415.413 390.846 415.462 391.273 415.462  c
392.013 415.462 392.578 415.316 392.969 415.025  c
393.359 414.733 393.555 414.306 393.555 413.743  c
393.555 413.233 393.372 412.832 393.008 412.540  c
392.643 412.249 392.143 412.103 391.508 412.103  c
390.477 412.103 l
390.477 411.134 l
391.555 411.134 l
392.128 411.134 392.570 411.017 392.883 410.782  c
393.195 410.548 393.352 410.212 393.352 409.775  c
393.352 409.327 393.193 408.983 392.875 408.743  c
392.557 408.504 392.102 408.384 391.508 408.384  c
391.174 408.384 390.823 408.418 390.453 408.486  c
390.083 408.553 389.674 408.660 389.227 408.806  c
389.227 407.759 l
389.685 407.634 390.109 407.540 390.500 407.478  c
390.891 407.415 391.258 407.384 391.602 407.384  c
392.508 407.384 393.221 407.587 393.742 407.993  c
394.263 408.400 394.523 408.952 394.523 409.650  c
394.523 410.139 394.385 410.551 394.109 410.884  c
393.833 411.217 393.440 411.447 392.930 411.572  c
h
f
2 J
10.0000 M
1.00000 1.00000 1.00000 RG
newpath
451.208 397.136 m
481.208 397.136 l
481.208 427.136 l
451.208 427.136 l
451.208 397.136 l
h
f
0 J
1.45000 M
0.00000 0.00000 0.00000 RG
newpath
451.208 397.136 m
481.208 397.136 l
481.208 427.136 l
451.208 427.136 l
451.208 397.136 l
h
S
2 J
10.0000 M
0 J
1.45000 M
newpath
466.922 408.572 m
463.938 413.243 l
466.922 413.243 l
466.922 408.572 l
h
466.609 407.540 m
468.109 407.540 l
468.109 413.243 l
469.359 413.243 l
469.359 414.228 l
468.109 414.228 l
468.109 416.290 l
466.922 416.290 l
466.922 414.228 l
462.984 414.228 l
462.984 413.087 l
466.609 407.540 l
h
f
2 J
10.0000 M
1.00000 1.00000 1.00000 RG
newpath
525.544 397.136 m
555.544 397.136 l
555.544 427.136 l
525.544 427.136 l
525.544 397.136 l
h
f
0 J
1.45000 M
0.00000 0.00000 0.00000 RG
newpath
525.544 397.136 m
555.544 397.136 l
555.544 427.136 l
525.544 427.136 l
525.544 397.136 l
h
S
2 J
10.0000 M
0 J
1.45000 M
newpath
538.023 407.540 m
542.664 407.540 l
542.664 408.540 l
539.102 408.540 l
539.102 410.681 l
539.279 410.618 539.453 410.574 539.625 410.548  c
539.797 410.522 539.966 410.509 540.133 410.509  c
541.112 410.509 541.888 410.777 542.461 411.314  c
543.034 411.850 543.320 412.572 543.320 413.478  c
543.320 414.426 543.026 415.160 542.438 415.681  c
541.849 416.202 541.023 416.462 539.961 416.462  c
539.586 416.462 539.208 416.431 538.828 416.368  c
538.448 416.306 538.055 416.212 537.648 416.087  c
537.648 414.900 l
538.003 415.087 538.367 415.228 538.742 415.322  c
539.117 415.415 539.513 415.462 539.930 415.462  c
540.607 415.462 541.143 415.285 541.539 414.931  c
541.935 414.577 542.133 414.092 542.133 413.478  c
542.133 412.874 541.935 412.394 541.539 412.040  c
541.143 411.686 540.607 411.509 539.930 411.509  c
539.617 411.509 539.302 411.543 538.984 411.611  c
538.667 411.678 538.346 411.785 538.023 411.931  c
538.023 407.540 l
h
f
2 J
10.0000 M
1.00000 1.00000 1.00000 RG
newpath
599.880 397.136 m
629.880 397.136 l
629.880 427.136 l
599.880 427.136 l
599.880 397.136 l
h
f
0 J
1.45000 M
0.00000 0.00000 0.00000 RG
newpath
599.880 397.136 m
629.880 397.136 l
629.880 427.136 l
599.880 427.136 l
599.880 397.136 l
h
S
2 J
10.0000 M
0 J
1.45000 M
newpath
615.031 411.447 m
614.500 411.447 614.078 411.629 613.766 411.993  c
613.453 412.358 613.297 412.853 613.297 413.478  c
613.297 414.113 613.453 414.613 613.766 414.978  c
614.078 415.342 614.500 415.525 615.031 415.525  c
615.563 415.525 615.982 415.342 616.289 414.978  c
616.596 414.613 616.750 414.113 616.750 413.478  c
616.750 412.853 616.596 412.358 616.289 411.993  c
615.982 411.629 615.563 411.447 615.031 411.447  c
h
617.375 407.728 m
617.375 408.806 l
617.073 408.670 616.771 408.566 616.469 408.493  c
616.167 408.420 615.870 408.384 615.578 408.384  c
614.797 408.384 614.201 408.647 613.789 409.173  c
613.378 409.699 613.141 410.493 613.078 411.556  c
613.307 411.223 613.596 410.965 613.945 410.782  c
614.294 410.600 614.677 410.509 615.094 410.509  c
615.969 410.509 616.662 410.775 617.172 411.306  c
617.682 411.837 617.938 412.561 617.938 413.478  c
617.938 414.384 617.672 415.108 617.141 415.650  c
616.609 416.191 615.906 416.462 615.031 416.462  c
614.011 416.462 613.234 416.074 612.703 415.298  c
612.172 414.522 611.906 413.400 611.906 411.931  c
611.906 410.545 612.234 409.441 612.891 408.618  c
613.547 407.795 614.427 407.384 615.531 407.384  c
615.823 407.384 616.120 407.413 616.422 407.470  c
616.724 407.527 617.042 407.613 617.375 407.728  c
h
f
2 J
10.0000 M
0 J
1.45000 M
newpath
258.191 133.804 m
261.784 131.558 l
271.076 128.074 l
280.368 126.912 l
289.660 128.074 l
295.392 130.223 l
295.476 130.276 l
S
newpath
302.634 133.848 m
294.130 124.016 l
294.582 129.829 l
289.665 132.963 l
h
f
2 J
10.0000 M
0 J
1.45000 M
newpath
302.545 157.188 m
298.952 159.434 l
289.660 162.919 l
280.368 164.080 l
271.076 162.919 l
265.344 160.769 l
265.260 160.716 l
S
newpath
258.102 157.144 m
266.606 166.976 l
266.154 161.163 l
271.071 158.029 l
h
f
2 J
10.0000 M
0 J
1.45000 M
newpath
406.863 133.804 m
410.456 131.558 l
419.748 128.074 l
429.040 126.912 l
438.332 128.074 l
444.064 130.223 l
444.148 130.276 l
S
newpath
451.306 133.848 m
442.802 124.016 l
443.254 129.829 l
438.337 132.963 l
h
f
2 J
10.0000 M
0 J
1.45000 M
newpath
406.863 133.804 m
410.456 131.558 l
419.748 128.074 l
429.040 126.912 l
438.332 128.074 l
444.064 130.223 l
444.148 130.276 l
S
newpath
451.306 133.848 m
442.802 124.016 l
443.254 129.829 l
438.337 132.963 l
h
f
2 J
10.0000 M
0 J
1.45000 M
newpath
451.217 157.188 m
447.624 159.434 l
438.332 162.919 l
429.040 164.080 l
419.748 162.919 l
414.016 160.769 l
413.932 160.716 l
S
newpath
406.774 157.144 m
415.278 166.976 l
414.826 161.163 l
419.743 158.029 l
h
f
2 J
10.0000 M
0 J
1.45000 M
newpath
555.535 133.804 m
559.128 131.558 l
568.420 128.074 l
577.712 126.912 l
587.004 128.074 l
592.736 130.223 l
592.820 130.276 l
S
newpath
599.978 133.848 m
591.474 124.016 l
591.926 129.829 l
587.009 132.963 l
h
f
2 J
10.0000 M
0 J
1.45000 M
newpath
599.889 157.188 m
596.296 159.434 l
587.004 162.919 l
577.712 164.080 l
568.420 162.919 l
562.688 160.769 l
562.604 160.716 l
S
newpath
555.446 157.144 m
563.950 166.976 l
563.498 161.163 l
568.415 158.029 l
h
f
2 J
10.0000 M
.200000 .400000 1.00000 RG
0 J
1.45000 M
newpath
332.527 178.244 m
336.120 175.998 l
345.412 172.514 l
354.704 171.352 l
363.996 172.514 l
369.728 174.663 l
369.812 174.716 l
S
newpath
376.970 178.288 m
368.466 168.456 l
368.918 174.269 l
364.001 177.403 l
h
f
2 J
10.0000 M
0.00000 0.00000 0.00000 RG
.200000 .400000 1.00000 RG
0 J
1.45000 M
newpath
376.881 201.628 m
373.288 203.874 l
363.996 207.359 l
354.704 208.520 l
345.412 207.359 l
339.680 205.209 l
339.596 205.156 l
S
newpath
332.438 201.584 m
340.942 211.416 l
340.490 205.603 l
345.407 202.469 l
h
f
2 J
10.0000 M
0.00000 0.00000 0.00000 RG
.200000 .400000 1.00000 RG
0 J
1.45000 M
newpath
481.199 178.244 m
484.792 175.998 l
494.084 172.514 l
503.376 171.352 l
512.668 172.514 l
518.400 174.663 l
518.484 174.716 l
S
newpath
525.642 178.288 m
517.138 168.456 l
517.590 174.269 l
512.673 177.403 l
h
f
2 J
10.0000 M
0.00000 0.00000 0.00000 RG
.200000 .400000 1.00000 RG
0 J
1.45000 M
newpath
525.553 201.628 m
521.960 203.874 l
512.668 207.359 l
503.376 208.520 l
494.084 207.359 l
488.352 205.209 l
488.268 205.156 l
S
newpath
481.110 201.584 m
489.614 211.416 l
489.162 205.603 l
494.079 202.469 l
h
f
2 J
10.0000 M
0.00000 0.00000 0.00000 RG
0 J
1.45000 M
newpath
258.191 222.684 m
261.784 220.438 l
271.076 216.954 l
280.368 215.792 l
289.660 216.954 l
295.392 219.103 l
295.476 219.156 l
S
newpath
302.634 222.728 m
294.130 212.896 l
294.582 218.709 l
289.665 221.843 l
h
f
2 J
10.0000 M
0 J
1.45000 M
newpath
302.545 246.068 m
298.952 248.314 l
289.660 251.799 l
280.368 252.960 l
271.076 251.799 l
265.344 249.649 l
265.260 249.596 l
S
newpath
258.102 246.024 m
266.606 255.856 l
266.154 250.043 l
271.071 246.909 l
h
f
2 J
10.0000 M
0 J
1.45000 M
newpath
406.863 222.684 m
410.456 220.438 l
419.748 216.954 l
429.040 215.792 l
438.332 216.954 l
444.064 219.103 l
444.148 219.156 l
S
newpath
451.306 222.728 m
442.802 212.896 l
443.254 218.709 l
438.337 221.843 l
h
f
2 J
10.0000 M
0 J
1.45000 M
newpath
451.217 246.068 m
447.624 248.314 l
438.332 251.799 l
429.040 252.960 l
419.748 251.799 l
414.016 249.649 l
413.932 249.596 l
S
newpath
406.774 246.024 m
415.278 255.856 l
414.826 250.043 l
419.743 246.909 l
h
f
2 J
10.0000 M
0 J
1.45000 M
newpath
555.535 222.684 m
559.128 220.438 l
568.420 216.954 l
577.712 215.792 l
587.004 216.954 l
592.736 219.103 l
592.820 219.156 l
S
newpath
599.978 222.728 m
591.474 212.896 l
591.926 218.709 l
587.009 221.843 l
h
f
2 J
10.0000 M
0 J
1.45000 M
newpath
599.889 246.068 m
596.296 248.314 l
587.004 251.799 l
577.712 252.960 l
568.420 251.799 l
562.688 249.649 l
562.604 249.596 l
S
newpath
555.446 246.024 m
563.950 255.856 l
563.498 250.043 l
568.415 246.909 l
h
f
2 J
10.0000 M
.200000 .400000 1.00000 RG
0 J
1.45000 M
newpath
332.527 267.124 m
336.120 264.878 l
345.412 261.393 l
354.704 260.232 l
363.996 261.393 l
369.728 263.543 l
369.812 263.596 l
S
newpath
376.970 267.168 m
368.466 257.336 l
368.918 263.149 l
364.001 266.283 l
h
f
2 J
10.0000 M
0.00000 0.00000 0.00000 RG
.200000 .400000 1.00000 RG
0 J
1.45000 M
newpath
376.881 290.508 m
373.288 292.754 l
363.996 296.238 l
354.704 297.400 l
345.412 296.238 l
339.680 294.089 l
339.596 294.036 l
S
newpath
332.438 290.464 m
340.942 300.296 l
340.490 294.483 l
345.407 291.349 l
h
f
2 J
10.0000 M
0.00000 0.00000 0.00000 RG
.200000 .400000 1.00000 RG
0 J
1.45000 M
newpath
481.199 267.124 m
484.792 264.878 l
494.084 261.393 l
503.376 260.232 l
512.668 261.393 l
518.400 263.543 l
518.484 263.596 l
S
newpath
525.642 267.168 m
517.138 257.336 l
517.590 263.149 l
512.673 266.283 l
h
f
2 J
10.0000 M
0.00000 0.00000 0.00000 RG
.200000 .400000 1.00000 RG
0 J
1.45000 M
newpath
525.553 290.508 m
521.960 292.754 l
512.668 296.238 l
503.376 297.400 l
494.084 296.238 l
488.352 294.089 l
488.268 294.036 l
S
newpath
481.110 290.464 m
489.614 300.296 l
489.162 294.483 l
494.079 291.349 l
h
f
2 J
10.0000 M
0.00000 0.00000 0.00000 RG
0 J
1.45000 M
newpath
258.191 311.564 m
261.784 309.318 l
271.076 305.833 l
280.368 304.672 l
289.660 305.833 l
295.392 307.983 l
295.476 308.036 l
S
newpath
302.634 311.608 m
294.130 301.776 l
294.582 307.589 l
289.665 310.723 l
h
f
2 J
10.0000 M
0 J
1.45000 M
newpath
302.545 334.948 m
298.952 337.194 l
289.660 340.679 l
280.368 341.840 l
271.076 340.679 l
265.344 338.529 l
265.260 338.476 l
S
newpath
258.102 334.904 m
266.606 344.736 l
266.154 338.923 l
271.071 335.789 l
h
f
2 J
10.0000 M
0 J
1.45000 M
newpath
406.863 311.564 m
410.456 309.318 l
419.748 305.834 l
429.040 304.672 l
438.332 305.834 l
444.064 307.983 l
444.148 308.036 l
S
newpath
451.306 311.608 m
442.802 301.776 l
443.254 307.589 l
438.337 310.723 l
h
f
2 J
10.0000 M
0 J
1.45000 M
newpath
451.217 334.948 m
447.624 337.194 l
438.332 340.678 l
429.040 341.840 l
419.748 340.678 l
414.016 338.529 l
413.932 338.476 l
S
newpath
406.774 334.904 m
415.278 344.736 l
414.826 338.923 l
419.743 335.789 l
h
f
2 J
10.0000 M
0 J
1.45000 M
newpath
555.535 311.564 m
559.128 309.318 l
568.420 305.834 l
577.712 304.672 l
587.004 305.834 l
592.736 307.983 l
592.820 308.036 l
S
newpath
599.978 311.608 m
591.474 301.776 l
591.926 307.589 l
587.009 310.723 l
h
f
2 J
10.0000 M
0 J
1.45000 M
newpath
599.889 334.948 m
596.296 337.194 l
587.004 340.678 l
577.712 341.840 l
568.420 340.678 l
562.688 338.529 l
562.604 338.476 l
S
newpath
555.446 334.904 m
563.950 344.736 l
563.498 338.923 l
568.415 335.789 l
h
f
2 J
10.0000 M
.200000 .400000 1.00000 RG
0 J
1.45000 M
newpath
332.527 356.004 m
336.120 353.758 l
345.412 350.274 l
354.704 349.112 l
363.996 350.274 l
369.728 352.423 l
369.812 352.476 l
S
newpath
376.970 356.048 m
368.466 346.216 l
368.918 352.029 l
364.001 355.163 l
h
f
2 J
10.0000 M
0.00000 0.00000 0.00000 RG
.200000 .400000 1.00000 RG
0 J
1.45000 M
newpath
376.881 379.388 m
373.288 381.634 l
363.996 385.118 l
354.704 386.280 l
345.412 385.118 l
339.680 382.969 l
339.596 382.916 l
S
newpath
332.438 379.344 m
340.942 389.176 l
340.490 383.363 l
345.407 380.229 l
h
f
2 J
10.0000 M
0.00000 0.00000 0.00000 RG
.200000 .400000 1.00000 RG
0 J
1.45000 M
newpath
481.199 356.004 m
484.792 353.758 l
494.084 350.274 l
503.376 349.112 l
512.668 350.274 l
518.400 352.423 l
518.484 352.476 l
S
newpath
525.642 356.048 m
517.138 346.216 l
517.590 352.029 l
512.673 355.163 l
h
f
2 J
10.0000 M
0.00000 0.00000 0.00000 RG
.200000 .400000 1.00000 RG
0 J
1.45000 M
newpath
525.553 379.388 m
521.960 381.634 l
512.668 385.118 l
503.376 386.280 l
494.084 385.118 l
488.352 382.969 l
488.268 382.916 l
S
newpath
481.110 379.344 m
489.614 389.176 l
489.162 383.363 l
494.079 380.229 l
h
f
2 J
10.0000 M
0.00000 0.00000 0.00000 RG
Q
[ 1.00000 0.00000 0.00000 1.00000 0.00000 0.00000 ] defaultmatrix matrix concatmatrix setmatrix
cliprestore

%%Trailer
%%EOF
