%!PS-Adobe-3.0 EPSF-3.0
%%BoundingBox: 0 0 646 398
%%Creator: yExport 1.5
%%Producer: org.freehep.graphicsio.ps.EPSGraphics2D Revision: 12753 
%%For: 
%%Title: 
%%CreationDate: Sunday, January 14, 2018 5:37:52 PM CET
%%LanguageLevel: 3
%%EndComments
%%BeginProlog
100 dict dup begin

%
% File: org/freehep/graphicsio.ps/PSProlog.txt
% Author: Charles Loomis
%

% Redefinitions which save some space in the output file.  These are also
% the same as the PDF operators.
/q {gsave} def
/Q {grestore} def

/n {newpath} def
/m {moveto} def
/l {lineto} def
/c {curveto} def
/h {closepath} def

/re {4 -2 roll moveto
     dup 0 exch rlineto exch 0 rlineto
     neg 0 exch rlineto closepath} def

/f {fill} def
/f* {eofill} def
/F {gsave vg&FC fill grestore} def
/F* {gsave vg&FC eofill grestore} def

/s {closepath stroke} def
/S {stroke} def

/b {closepath gsave vg&FC fill grestore
    gsave stroke grestore newpath} def
/B {gsave vg&FC fill grestore gsave stroke grestore newpath} def
/b* {closepath gsave vg&FC eofill grestore
    gsave stroke grestore newpath} def
/B* {gsave vg&FC eofill grestore gsave stroke grestore newpath} def

/g {1 array astore /vg&fcolor exch def} def
/G {setgray} def
/k {4 array astore /vg&fcolor exch def} def
/K {setcmykcolor} def
/rg {3 array astore /vg&fcolor exch def} def
/RG {setrgbcolor} def

% Initialize the fill color.
0 0 0 rg

/vg&FC {mark vg&fcolor aload pop
        counttomark 1 eq {G} if
        counttomark 3 eq {RG} if
        counttomark 4 eq {K} if
        cleartomark } def

/vg&DFC {/vg&fcolor exch def} def

/vg&C {mark exch aload pop
       counttomark 1 eq {G} if
       counttomark 3 eq {RG} if
       counttomark 4 eq {K} if
       cleartomark } def

/w {setlinewidth} def
/j {setlinejoin} def
/J {setlinecap} def
/M {setmiterlimit} def
/d {setdash} def
/i {setflat} def

/W {clip} def
/W* {eoclip} def

% Setup the default graphics state.
% (black; 1 pt. linewidth; miter join; butt-ends; solid)
/defaultGraphicsState {0 g 1 w 0 j 0 J [] 0 d} def

% Emulation of the rectangle operators for PostScript implementations
% which do not implement all Level 2 features.  This is an INCOMPLETE
% emulation; only the "x y width height rect..." form is emulated.
/*rf {gsave newpath re fill grestore} def
/*rs {gsave newpath re stroke grestore} def
/*rc {newpath re clip} def
/rf  /rectfill where {pop /rectfill}{/*rf} ifelse load def
/rs  /rectstroke where {pop /rectstroke}{/*rs} ifelse load def
/rc  /rectclip where {pop /rectclip}{/*rc} ifelse load def

% Emulation of the selectfont operator.  This includes a 20% increase in
% the fontsize which is necessary to get sizes similar to the Java fonts.
/*sf {exch findfont exch
      dup type /arraytype eq {makefont}{scalefont} ifelse setfont} bind def
/sf /selectfont where {pop {1.2 mul selectfont}}{{1.2 mul *sf}} ifelse def

% Special version of stroke which allows the dash pattern to continue
% across path segments.  (This may be needed for PostScript although
% modern printers seem to do this correctly.)
/vg&stroke {
  currentdash pop length 0 eq
  {stroke}
  {
    currentdash /vg&doffset exch def pop
    flattenpath
    {m vg&resetdash}
    {2 copy
     currentpoint
     3 -1 roll sub dup mul
     3 1 roll sub dup mul
     add sqrt
     3 1 roll l
     currentdash 3 -1 roll add setdash}
     {}
     {h vg&resetdash}
     pathforall
     stroke
     vg&resetdash
  } ifelse
} def
/vg&resetdash {currentdash pop vg&doffset setdash} def

% Initialize variables for safety.
/delta 0 def
/xv 0 def  /yv 0 def  /width 0 def  /height 0 def

% Initialize to portrait INTERNATIONAL (Letter-height, A4-width) page.
/pw 595 def  /ph 791  def  /po true def /ftp false def

% Initialize margins to 20 points.
/ml 20 def  /mr 20 def  /mt 20 def  /mb 20 def

% Temporary matrices.
/smatrix 0 def  /nmatrix 0 def

% set page size (usage: <page width><page height> setpagesize)
/setpagesize {/ph exch def /pw exch def} def

% set page orientation (usage: portrait or landscape)
/portrait {/po true def} def
/landscape {/po false def} def

% force natural size for image (usage: naturalsize)
/naturalsize {/ftp false def} def

% resize image to fill page (usage: fittopage)
/fittopage {/ftp true def} def

% set margins of the page (usage: <left><bottom><top><right> setmargins)
/setmargins {/mr exch def /mt exch def /mb exch def /ml exch def} def

% set the graphic's size (usage: <width><height> setsize)
/setsize {/gh exch def /gw exch def} def

% set the graphic's origin (usage: <x0><y0> setorigin)
/setorigin {/gy exch def /gx exch def} def

% calculate image center
/imagecenter {pw ml sub mr sub 2 div ml add
              ph mt sub mb sub 2 div mb add} def

% calculate the necessary scaling
/imagescale {po {gw}{gh} ifelse pw ml sub mr sub div
             po {gh}{gw} ifelse ph mt sub mb sub div
             2 copy lt {exch} if pop
             ftp not {1 2 copy lt {exch} if pop} if
             1 exch div /sfactor exch def
             /gw gw sfactor mul def /gh gh sfactor mul def} def

% calculate image origin
/imageorigin {pw ml sub mr sub 2 div ml add
              po {gw}{gh} ifelse 2 div sub
              ph mt sub mb sub 2 div mb add
              po {gh}{gw} ifelse 2 div po {add}{sub} ifelse} def

% calculate the clipping origin
/cliporigin  {pw ml sub mr sub 2 div ml add
              po {gw}{gh} ifelse 2 div sub floor
              ph mt sub mb sub 2 div mb add
              po {gh}{gw} ifelse 2 div sub floor} def

% Set the clipping region to the bounding box.
/cliptobounds {cliporigin po {gw}{gh} ifelse 1 add
                          po {gh}{gw} ifelse 1 add rc} def

% set the base transformation matrix (usage: setbasematrix)
/setbasematrix {imageorigin translate
                po {0}{90} ifelse rotate
                sfactor sfactor neg scale
                /defaultmatrix matrix currentmatrix def} def

% The lower-right bias in drawing 1 pt. wide lines.
/bias  {q 0.5 0.5 translate} def
/unbias {Q} def

% Define the composite fonts used to print Unicode strings.
% Undefine particular values in an encoding array.
/vg&undef { {exch dup 3 -1 roll /.notdef put} forall } def
/vg&redef { {3 -1 roll dup 4 2 roll put} forall } def

% usage: key encoding basefontname vg&newbasefont font
/vg&newbasefont {
findfont dup length dict copy
  begin
    currentdict /FID undef
    /Encoding exch def
    dup /FontName exch def
    currentdict
  end
definefont
} def

% usage: key encoding basefontname vg&newskewedbasefont font
/vg&newskewedbasefont {
findfont dup length dict copy
  begin
    currentdict /FID undef
    /Encoding exch def
    dup /FontName exch def
    exch FontMatrix exch matrix concatmatrix /FontMatrix exch def
    currentdict
  end
definefont
} def

% usage: basekey suffix vg&nconcat name
/vg&nconcat {
  2 {dup length string cvs exch} repeat
  dup length 3 -1 roll dup length 3 -1 roll add string
  dup 0 4 -1 roll dup length 5 1 roll putinterval
  dup 4 -2 roll exch putinterval cvn
} def

%usage: fontname vg&skewmatrix matrix
/vg&skewmatrix {
findfont dup /FontInfo known
  {
    /FontInfo get dup /ItalicAngle known
    {
      [ 1 0 4 -1 roll /ItalicAngle get neg dup sin exch cos div 1 0 0 ]
    }
    {pop matrix} ifelse
  }
  {pop matrix} ifelse
} def

% usage: newfontname basefontname vg&newcompositefont --
/vg&newcompositefont {
/vg&fstyle exch def
/vg&bfont exch def
/vg&fname exch def
<<
/FontStyleBits vg&fstyle
/FontType 0
/FontMatrix matrix
/FontName vg&fname
/FMapType 2
/Encoding [ 0 1 255 {pop 6} for ]
          dup 16#00 0 put % Latin
          dup 16#03 1 put % Greek
          dup 16#20 2 put % Punctuation
          dup 16#21 3 put % Arrows
          dup 16#22 4 put % MathOps
          dup 16#27 5 put % Dingbats

/FDepVector [
vg&bfont /-UC-Latin vg&nconcat UCLatinEncoding
vg&bfont vg&newbasefont

vg&bfont vg&skewmatrix
vg&bfont /-UC-Greek vg&nconcat UCGreekEncoding
/Symbol vg&newskewedbasefont

vg&bfont /-UC-Punctuation vg&nconcat UCPunctuationEncoding
vg&bfont vg&newbasefont

/Arrows-UC findfont
/MathOps-UC findfont
/Dingbats-UC findfont
/Undefined-UC findfont ]
>>
vg&fname exch definefont pop
} def

% Null encoding vector (all elements set to .notdef)
/NullEncoding [ 256 {/.notdef} repeat ] def

% Unicode Latin encoding (unicode codes \u0000-\u00ff)
/UCLatinEncoding
  ISOLatin1Encoding dup length array copy
  dup 16#60 /grave put
  [ 16#90 16#91 16#92 16#93 16#94 16#95 16#96
    16#97 16#98 16#9a 16#9b 16#9d 16#9e 16#9f
  ] vg&undef
  def

% Unicode Greek encoding (unicode codes \u0370-\u03ff)
/UCGreekEncoding
  NullEncoding dup length array copy
  << 16#91 /Alpha    16#92 /Beta      16#93 /Gamma    16#94 /Delta
     16#95 /Epsilon  16#96 /Zeta      16#97 /Eta      16#98 /Theta
     16#99 /Iota     16#9a /Kappa     16#9b /Lambda   16#9c /Mu
     16#9d /Nu       16#9e /Xi        16#9f /Omicron  16#a0 /Pi
     16#a1 /Rho      16#a3 /Sigma     16#a4 /Tau      16#a5 /Upsilon
     16#a6 /Phi      16#a7 /Chi       16#a8 /Psi      16#a9 /Omega
     16#b1 /alpha    16#b2 /beta      16#b3 /gamma    16#b4 /delta
     16#b5 /epsilon  16#b6 /zeta      16#b7 /eta      16#b8 /theta
     16#b9 /iota     16#ba /kappa     16#bb /lambda   16#bc /mu
     16#bd /nu       16#be /xi        16#bf /omicron  16#c0 /pi
     16#c1 /rho      16#c2 /sigma1    16#c3 /sigma    16#c4 /tau
     16#c5 /upsilon  16#c6 /phi1      16#c7 /chi      16#c8 /psi
     16#c9 /omega    16#7e /semicolon 16#87 /dotmath  16#d1 /theta1
     16#d2 /Upsilon1 16#d5 /phi       16#d6 /omega1
  >> vg&redef
  def

% Unicode punctuation encoding (unicode codes \u2000-\u206f)
/UCPunctuationEncoding
  NullEncoding dup length array copy
  << 16#10 /hyphen          16#11 /hyphen              16#12 /endash
     16#13 /emdash          16#18 /quoteleft           16#19 /quoteright
     16#1a /quotesinglbase  16#1b /quotesingle         16#1c /quotedblleft
     16#1d /quotedblright   16#1e /quotedblbase        16#1f /quotedbl
     16#20 /dagger          16#21 /daggerdbl           16#22 /bullet
     16#24 /period          16#26 /ellipsis            16#27 /periodcentered
     16#30 /perthousand     16#44 /fraction
     16#70 /zerosuperior    16#74 /foursuperior        16#75 /fivesuperior
     16#76 /sixsuperior     16#77 /sevensuperior       16#78 /eightsuperior
     16#79 /ninesuperior    16#7b /hyphensuperior      16#7d /parenleftsuperior
     16#7e /parenrightsuperior
     16#80 /zeroinferior    16#84 /fourinferior        16#85 /fiveinferior
     16#81 /oneinferior     16#82 /twoinferior         16#83 /threeinferior
     16#86 /sixinferior     16#87 /seveninferior       16#88 /eightinferior
     16#89 /nineinferior    16#8b /hypheninferior      16#8d /parenleftinferior
     16#8e /parenrightinferior
  >> vg&redef
  def

% Unicode mathematical operators encoding (unicode codes \u2200-\u22ff)
/UCMathOpsEncoding
  NullEncoding dup length array copy
  << 16#00 /universal       16#02 /partialdiff         16#03 /existential
     16#05 /emptyset        16#06 /Delta               16#07 /gradient
     16#08 /element         16#09 /notelement          16#0b /suchthat
     16#0f /product         16#11 /summation           16#12 /minus
     16#15 /fraction        16#17 /asteriskmath        16#19 /bullet
     16#1a /radical         16#1d /proportional        16#1e /infinity
     16#20 /angle           16#23 /bar                 16#27 /logicaland
     16#28 /logicalor       16#29 /intersection        16#2a /union
     16#2b /integral        16#34 /therefore           16#36 /colon
     16#3c /similar         16#45 /congruent           16#48 /approxequal
     16#60 /notequal        16#61 /equivalence         16#64 /lessequal
     16#65 /greaterequal    16#82 /propersubset        16#83 /propersuperset
     16#86 /reflexsubset    16#87 /reflexsuperset      16#95 /circleplus
     16#97 /circlemultiply  16#a5 /perpendicular       16#03 /existential
     16#c0 /logicaland      16#c1 /logicalor           16#c2 /intersection
     16#c3 /union           16#c4 /diamond             16#c5 /dotmath
  >> vg&redef
  def

% Unicode arrows encoding (unicode codes \u2190-\u21ff)
% Also includes those "Letterlike" unicode characters
% which are available in the symbol font. (unicode codes \u2100-\u214f)
/UCArrowsEncoding
  NullEncoding dup length array copy
  << 16#11 /Ifraktur        16#1c /Rfraktur            16#22 /trademarkserif
     16#35 /aleph
     16#90 /arrowleft       16#91 /arrowup             16#92 /arrowright
     16#93 /arrowdown       16#94 /arrowboth           16#d0 /arrowdblleft
     16#d1 /arrowdblup      16#d2 /arrowdblright       16#d3 /arrowdbldown
     16#d4 /arrowdblboth
  >> vg&redef
  def

/ZapfDingbats findfont /Encoding get
dup length array copy /UCDingbatsEncoding exch def
16#20 1 16#7f {
  dup 16#20 sub exch
  UCDingbatsEncoding exch get
  UCDingbatsEncoding 3 1 roll put
} for
16#a0 1 16#ff {
  dup 16#40 sub exch
  UCDingbatsEncoding exch get
  UCDingbatsEncoding 3 1 roll put
} for
UCDingbatsEncoding [ 16#c0 1 16#ff {} for ] vg&undef
[ 16#00  16#05 16#0a 16#0b  16#28 16#4c 16#4e  16#53 16#54 16#55  16#57 16#5f
  16#60  16#68 16#69 16#6a  16#6b 16#6c 16#6d  16#6e 16#6f 16#70  16#71 16#72
  16#73  16#74 16#75 16#95  16#96 16#97 16#b0  16#bf
] vg&undef pop

% Define the base fonts which don't change.
/Undefined-UC NullEncoding       /Helvetica    vg&newbasefont pop
/MathOps-UC   UCMathOpsEncoding  /Symbol       vg&newbasefont pop
/Arrows-UC    UCArrowsEncoding   /Symbol       vg&newbasefont pop
/Dingbats-UC  UCDingbatsEncoding /ZapfDingbats vg&newbasefont pop

% Make the SansSerif composite fonts.
/SansSerif /Helvetica 16#00 vg&newcompositefont
/SansSerif-Bold /Helvetica-Bold 16#01 vg&newcompositefont
/SansSerif-Italic /Helvetica-Oblique 16#02 vg&newcompositefont
/SansSerif-BoldItalic /Helvetica-BoldOblique 16#03 vg&newcompositefont

% Make the Serif composite fonts.
/Serif /Times-Roman 16#00 vg&newcompositefont
/Serif-Bold /Times-Bold 16#01 vg&newcompositefont
/Serif-Italic /Times-Italic 16#02 vg&newcompositefont
/Serif-BoldItalic /Times-BoldItalic 16#03 vg&newcompositefont

% Make the Monospaced composite fonts.
/Monospaced /Courier 16#00 vg&newcompositefont
/Monospaced-Bold /Courier-Bold 16#01 vg&newcompositefont
/Monospaced-Italic /Courier-Oblique 16#02 vg&newcompositefont
/Monospaced-BoldItalic /Courier-BoldOblique 16#03 vg&newcompositefont

% Make the Dialog composite fonts.
/Dialog /Helvetica 16#00 vg&newcompositefont
/Dialog-Bold /Helvetica-Bold 16#01 vg&newcompositefont
/Dialog-Italic /Helvetica-Oblique 16#02 vg&newcompositefont
/Dialog-BoldItalic /Helvetica-BoldOblique 16#03 vg&newcompositefont

% Make the DialogInput composite fonts.
/DialogInput /Courier 16#00 vg&newcompositefont
/DialogInput-Bold /Courier-Bold 16#01 vg&newcompositefont
/DialogInput-Italic /Courier-Oblique 16#02 vg&newcompositefont
/DialogInput-BoldItalic /Courier-BoldOblique 16#03 vg&newcompositefont

% Make the Typewriter composite fonts (JDK 1.1 only).
/Typewriter /Courier 16#00 vg&newcompositefont
/Typewriter-Bold /Courier-Bold 16#01 vg&newcompositefont
/Typewriter-Italic /Courier-Oblique 16#02 vg&newcompositefont
/Typewriter-BoldItalic /Courier-BoldOblique 16#03 vg&newcompositefont


/cfontH {
 dup /fontsize exch def /SansSerif exch sf
 /vg&fontstyles [{cfontH} {cfontHB} {cfontHI} {cfontHBI}] def
} def
/cfontHB {
  dup /fontsize exch def /SansSerif-Bold exch sf
 /vg&fontstyles [{cfontH} {cfontHB} {cfontHI} {cfontHBI}] def
} def
/cfontHI {
 dup /fontsize exch def /SansSerif-Italic exch sf
 /vg&fontstyles [{cfontH} {cfontHB} {cfontHI} {cfontHBI}] def
} def
/cfontHBI {
 dup /fontsize exch def /SansSerif-BoldItalic exch sf
 /vg&fontstyles [{cfontH} {cfontHB} {cfontHI} {cfontHBI}] def
} def

/cfontT {
 dup /fontsize exch def /Serif exch sf
 /vg&fontstyles [{cfontT} {cfontTB} {cfontTI} {cfontTBI}] def
} def
/cfontTB {
 dup /fontsize exch def /Serif-Bold exch sf
 /vg&fontstyles [{cfontT} {cfontTB} {cfontTI} {cfontTBI}] def
} def
/cfontTI {
 dup /fontsize exch def /Serif-Italic exch sf
 /vg&fontstyles [{cfontT} {cfontTB} {cfontTI} {cfontTBI}] def
} def
/cfontTBI {
 dup /fontsize exch def /Serif-BoldItalic exch sf
 /vg&fontstyles [{cfontT} {cfontTB} {cfontTI} {cfontTBI}] def
} def

/cfontC {
 dup /fontsize exch def /Typewriter exch sf
 /vg&fontstyles [{cfontC} {cfontCB} {cfontCI} {cfontCBI}] def
} def
/cfontCB {
 dup /fontsize exch def /Typewriter-Bold exch sf
 /vg&fontstyles [{cfontC} {cfontCB} {cfontCI} {cfontCBI}] def
} def
/cfontCI {
 dup /fontsize exch def /Typewriter-Italic exch sf
 /vg&fontstyles [{cfontC} {cfontCB} {cfontCI} {cfontCBI}] def
} def
/cfontCBI {
 dup /fontsize exch def /Typewriter-BoldItalic exch sf
 /vg&fontstyles [{cfontC} {cfontCB} {cfontCI} {cfontCBI}] def
} def

% Darken or lighten the current color.
/darken {0.7 exch exp 3 copy
         q 4 -1 roll vg&C
         currentrgbcolor 3 {4 -2 roll mul} repeat
         3 array astore Q} def

/displayColorMap
<< /Cr   [1.00 0.00 0.00]       /Cg     [0.00 1.00 0.00]
   /Cb   [0.00 0.00 1.00]       /Cc     [1.00 0.00 0.00 0.00]
   /Cm   [0.00 1.00 0.00 0.00]  /Cy     [0.00 0.00 1.00 0.00]
   /Co   [1.00 0.78 0.00]       /Cp     [1.00 0.67 0.67]
   /Cw   [1   ]                 /Cgrl   [0.75]
   /Cgr  [0.50]                 /Cgrd   [0.25]
   /Ck   [0   ]
   /CGr  [1.00 0.00 0.00]       /CGg    [0.00 1.00 0.00]
   /CGb  [0.00 0.00 1.00]       /CGc    [1.00 0.00 0.00 0.00]
   /CGm  [0.00 1.00 0.00 0.00]  /CGy    [0.00 0.00 1.00 0.00]
   /CGo  [1.00 0.78 0.00]       /CGp    [1.00 0.67 0.67]
   /CGw  [1   ]                 /CGgrl  [0.75]
   /CGgr [0.50]                 /CGgrd  [0.25]
   /CGk  [0   ]
   /CIr  [1.00 0.00 0.00]       /CIg    [0.00 1.00 0.00]
   /CIb  [0.00 0.00 1.00]       /CIc    [1.00 0.00 0.00 0.00]
   /CIm  [0.00 1.00 0.00 0.00]  /CIy    [0.00 0.00 1.00 0.00]
   /CIo  [1.00 0.78 0.00]       /CIp    [1.00 0.67 0.67]
   /CIw  [1   ]                 /CIgrl  [0.75]
   /CIgr [0.50]                 /CIgrd  [0.25]
   /CIk  [0   ]
>> def

/printColorMap
<< /Cr   [1.00 0.33 0.33]       /Cg     [0.33 1.00 0.33]
   /Cb   [0.33 0.33 1.00]       /Cc     [1.00 0.00 0.00 0.00]
   /Cm   [0.00 1.00 0.00 0.00]  /Cy     [0.00 0.00 1.00 0.00]
   /Co   [1.00 0.78 0.00]       /Cp     [1.00 0.67 0.67]
   /Cw   [1   ]                 /Cgrl   [0.75]
   /Cgr  [0.50]                 /Cgrd   [0.25]
   /Ck   [0   ]
   /CGr  [1.00 0.33 0.33]       /CGg    [0.33 1.00 0.33]
   /CGb  [0.33 0.33 1.00]       /CGc    [1.00 0.00 0.00 0.00]
   /CGm  [0.00 1.00 0.00 0.00]  /CGy    [0.00 0.00 1.00 0.00]
   /CGo  [1.00 0.78 0.00]       /CGp    [1.00 0.67 0.67]
   /CGw  [1   ]                 /CGgrl  [0.75]
   /CGgr [0.50]                 /CGgrd  [0.25]
   /CGk  [0   ]
   /CIr  [1.00 0.33 0.33]       /CIg    [0.33 1.00 0.33]
   /CIb  [0.33 0.33 1.00]       /CIc    [1.00 0.00 0.00 0.00]
   /CIm  [0.00 1.00 0.00 0.00]  /CIy    [0.00 0.00 1.00 0.00]
   /CIo  [1.00 0.78 0.00]       /CIp    [1.00 0.67 0.67]
   /CIw  [1   ]                 /CIgrl  [0.75]
   /CIgr [0.50]                 /CIgrd  [0.25]
   /CIk  [0   ]
>> def

/grayColorMap
<< /Cr   [0   ]                 /Cg     [0   ]
   /Cb   [0   ]                 /Cc     [0   ]
   /Cm   [0   ]                 /Cy     [0   ]
   /Co   [0   ]                 /Cp     [0   ]
   /Cw   [0   ]                 /Cgrl   [0   ]
   /Cgr  [0   ]                 /Cgrd   [0   ]
   /Ck   [0   ]
   /CGr  [0.75]                 /CGg    [1   ]
   /CGb  [0.50]                 /CGc    [0.75]
   /CGm  [0.50]                 /CGy    [1   ]
   /CGo  [0.75]                 /CGp    [1   ]
   /CGw  [0   ]                 /CGgrl  [0.25]
   /CGgr [0.50]                 /CGgrd  [0.75]
   /CGk  [1   ]
   /CIr  [1   ]                 /CIg    [1   ]
   /CIb  [1   ]                 /CIc    [1   ]
   /CIm  [1   ]                 /CIy    [1   ]
   /CIo  [1   ]                 /CIp    [1   ]
   /CIw  [1   ]                 /CIgrl  [1   ]
   /CIgr [1   ]                 /CIgrd  [1   ]
   /CIk  [1   ]
>> def

/bwColorMap
<< /Cr   [0   ]                 /Cg     [0   ]
   /Cb   [0   ]                 /Cc     [0   ]
   /Cm   [0   ]                 /Cy     [0   ]
   /Co   [0   ]                 /Cp     [0   ]
   /Cw   [0   ]                 /Cgrl   [0   ]
   /Cgr  [0   ]                 /Cgrd   [0   ]
   /Ck   [0   ]
   /CGr  [1   ]                 /CGg    [1   ]
   /CGb  [1   ]                 /CGc    [1   ]
   /CGm  [1   ]                 /CGy    [1   ]
   /CGo  [1   ]                 /CGp    [1   ]
   /CGw  [0   ]                 /CGgrl  [1   ]
   /CGgr [1   ]                 /CGgrd  [1   ]
   /CGk  [1   ]
   /CIr  [1   ]                 /CIg    [1   ]
   /CIb  [1   ]                 /CIc    [1   ]
   /CIm  [1   ]                 /CIy    [1   ]
   /CIo  [1   ]                 /CIp    [1   ]
   /CIw  [1   ]                 /CIgrl  [1   ]
   /CIgr [1   ]                 /CIgrd  [1   ]
   /CIk  [1   ]
>> def

%
% The following routines handle the alignment of and printing of
% tagged strings.
%

% Predefine the bounding box values.
/bbllx 0 def /bblly 0 def /bburx 0 def /bbury 0 def

% This routine pops the first unicode character off of a string and returns
% the remainder of the string, the character code of first character,
% and a "true" if the string was non-zero length.
% <string>      popfirst <remaining string> <true>
% <null string> popfirst <false>
/popfirst {
  dup length 1 gt
    {dup 0 get /vg&fbyte exch def
     dup 1 get /vg&cbyte exch def
     dup length 2 sub 2 exch getinterval true}
    {pop false} ifelse
} def

% This routine shows a single unicode character given the font and
% character codes.
% <font code> <char code> unicharshow --
/unicharshow {
  2 string
  dup 0 5 -1 roll put
  dup 1 4 -1 roll put
  internalshow
} def

% This is an internal routine to alternate between determining the
% bounding box for stringsize and showing the string for recshow.
% <string> internalshow --
/internalshow {show} def

% This is an internal routine to alternate between determining the
% bounding box for stringsize and stroking various ornaments.
% <string> internalstroke --
/internalstroke {S} def

% Sets up internalshow to use the null device to determine string size.
% -- nullinternalshow --
/nullinternalshow {/internalshow {false charpath flattenpath
                                  pathbbox updatebbox} def} def

% Sets up internalstroke to use the null device to determine string size.
% -- nullinternalstroke --
/nullinternalstroke {
 /internalstroke {flattenpath pathbbox updatebbox} def} def

% This routine tests to see if the character code matches the first
% character of a string.
% <char code> <string> testchar <char code> <true or false>
/testchar {exch dup 3 -1 roll 0 get eq} def

% Raise the text baseline for superscripts.
% -- raise --
/raise {
  0 fontsize 2 div rmoveto
  /fontsize fontsize 2 mul 3 div def
  currentfont /FontName get fontsize sf
} def

% Un-raise the text baseline for superscripts.
% -- unraise --
/unraise {
  /fontsize fontsize 1.5 mul def
  0 fontsize 2 div neg rmoveto
} def

% Lower the text baseline for subscripts.
% -- lower --
/lower {
  0 fontsize 3 div neg rmoveto
  /fontsize fontsize 2 mul 3 div def
  currentfont /FontName get fontsize sf
} def

% Un-lower the text baseline for subscripts.
% -- unlower --
/unlower {
  /fontsize fontsize 1.5 mul def
  0 fontsize 3 div rmoveto
} def

% Compare the top two elements on the stack and leave only the
% larger one.
/maxval {2 copy gt {pop} {exch pop} ifelse} def

% Tokenize a string.  Do not use the usual PostScript token because
% parentheses will not be interpreted correctly because of rescanning
% of the string.
/vg&token {/vg&string exch def /vg&index -1 def /vg&level 0 def
0 2 vg&string length 2 sub {
  dup dup 1 add exch vg&string exch get 8 bitshift vg&string 3 -1 roll get or
  dup 16#f0fe eq {pop 1}{16#f0ff eq {-1}{0} ifelse} ifelse
  /vg&level exch vg&level add def
  vg&level 0 eq {/vg&index exch def exit} if pop
} for
vg&index 0 ge {
  vg&string vg&index 2 add dup vg&string length exch sub getinterval
  vg&index 2 gt {vg&string 2 vg&index 2 sub getinterval}{()} ifelse
  true}
{false} ifelse
} bind def

% Recursively show an unicode string.
% <string> recshow --
/recshow {
  popfirst
  {
    % Test to see if this is a string attribute.
    vg&fbyte 16#f0 and 16#e0 eq
    {
      q

      % Font style.
      currentfont dup /FontStyleBits known {/FontStyleBits get}{pop 0} ifelse
      vg&cbyte or vg&fontstyles exch get fontsize exch exec

      vg&token pop recshow currentpoint Q m recshow
    }
    {
      vg&fbyte 16#F8 and 16#F0 eq {

        % Superscript and/or subscript.
        vg&cbyte 16#00 eq {
          vg&token pop exch vg&token pop 3 -1 roll
          q raise recshow unraise currentpoint pop Q exch
          q lower recshow unlower currentpoint pop Q
          maxval currentpoint exch pop m recshow } if

        % Strikeout.
        vg&cbyte 16#01 eq {
          vg&token pop currentpoint 3 -1 roll recshow
          q 0 J vg&underline vg&uthick w
          currentpoint 4 -2 roll fontsize 3 div add moveto
          fontsize 3 div add lineto internalstroke Q
          recshow} if

        % Underline.
        vg&cbyte 16#02 eq {
          vg&token pop currentpoint 3 -1 roll recshow
          q 0 J vg&underline vg&uthick w
          currentpoint 4 -2 roll vg&uoffset add moveto
          vg&uoffset add lineto internalstroke Q
          recshow} if

        % Dashed underline.
        vg&cbyte 16#03 eq {
          vg&token pop currentpoint 3 -1 roll recshow
          q 0 J [ vg&uthick 5 mul vg&uthick 2 mul] 0 d
          vg&underline vg&uthick w
          currentpoint 4 -2 roll vg&uoffset add moveto
          vg&uoffset add lineto internalstroke Q
          recshow} if

        % Dotted underline.
        vg&cbyte 16#04 eq {
          vg&token pop currentpoint 3 -1 roll recshow
          q 1 J [ 0 vg&uthick 3 mul] 0 d
          vg&underline vg&uthick w
          currentpoint 4 -2 roll vg&uoffset add moveto
          vg&uoffset add lineto internalstroke Q
          recshow} if

        % Thick underline.
        vg&cbyte 16#05 eq {
          vg&token pop currentpoint 3 -1 roll recshow
          q 0 J vg&underline vg&uthick 2 mul w
          currentpoint 4 -2 roll vg&uoffset vg&uthick 2 div sub add moveto
          vg&uoffset vg&uthick 2 div sub add lineto internalstroke Q
          recshow} if

        % Gray thick underline.
        vg&cbyte 16#06 eq {
          vg&token pop currentpoint 3 -1 roll recshow
          q 0 J vg&underline vg&uthick 2 mul w 0.5 setgray
          currentpoint 4 -2 roll vg&uoffset vg&uthick 2 div sub add moveto
          vg&uoffset vg&uthick 2 div sub add lineto internalstroke Q
          recshow} if

        % Overbar.
        vg&cbyte 16#07 eq {
          vg&token pop dup stringsize relative 4 1 roll pop pop exch
          3 -1 roll recshow
          q 0 J vg&underline vg&uthick w
          vg&uoffset neg add dup currentpoint pop exch m l internalstroke Q
          recshow} if
      }
      {
        vg&fbyte vg&cbyte unicharshow recshow
      } ifelse
    } ifelse
  } if
} def

% Get the underline position and thickness from the current font.
/vg&underline {

currentfont dup /FontType get 0 eq {/FDepVector get 0 get} if
dup dup /FontInfo known {
  /FontInfo get dup
  dup /UnderlinePosition known {
    /UnderlinePosition get /vg&uoffset exch def
  }
  {
    pop /vg&uoffset 0 def
  } ifelse
  dup /UnderlineThickness known {
    /UnderlineThickness get /vg&uthick exch def
  }
  {
    pop /vg&uthick 0 def
  } ifelse
}
{
  pop /vg&uoffset 0 def /vg&uthick 0 def
} ifelse
/FontMatrix get
currentfont dup /FontType get 0 eq
{/FontMatrix get matrix concatmatrix}{pop} ifelse
dup 0 vg&uoffset 3 -1 roll transform /vg&uoffset exch def pop
0 vg&uthick 3 -1 roll transform /vg&uthick exch def pop
} def

% Make a frame with the coordinates on the stack.
% <llx> <lly> <urx> <ury> frame --
/frame {4 copy m 3 1 roll exch l 4 -2 roll l l h} def

% Resets the accumulated bounding box to a degenerate box at the
% current point.
% -- resetbbox --
/resetbbox {
  currentpoint 2 copy
  /bbury exch def
  /bburx exch def
  /bblly exch def
  /bbllx exch def
} def

% Update the accumulated bounding box.
% <llx'> <lly'> <urx'> <ury'> updatebbox --
/updatebbox {
  dup bbury gt {/bbury exch def} {pop} ifelse
  dup bburx gt {/bburx exch def} {pop} ifelse
  dup bblly lt {/bblly exch def} {pop} ifelse
  dup bbllx lt {/bbllx exch def} {pop} ifelse
} def

% Set the bounding box to the values on the stack.
% <llx'> <lly'> <urx'> <ury'> updatebbox --
/restorebbox {
  /bbury exch def /bburx exch def /bblly exch def /bbllx exch def
} def

% Push the accumulated bounding box onto the stack.
% -- pushbbox <llx> <lly> <urx> <ury>
/pushbbox {bbllx bblly bburx bbury} def

% Make the relative bounding box relative to the currentpoint.
% <llx'> <lly'> <urx'> <ury'> inflate <llx> <lly> <urx> <ury>
/inflate {
  2 {fontsize 0.2 mul add 4 1 roll} repeat
  2 {fontsize 0.2 mul sub 4 1 roll} repeat
} def

% Make the relative bounding box relative to the currentpoint.
% <llx'> <lly'> <urx'> <ury'> relative <llx> <lly> <urx> <ury>
/relative {
  currentpoint 3 -1 roll add 3 1 roll add exch 4 2 roll
  currentpoint 3 -1 roll add 3 1 roll add exch 4 2 roll
} def

% Returns the size of a string appropriate for recshow.
% <string> stringsize <llx> <lly> <urx> <ury>
/stringsize {
  pushbbox /internalshow load /internalstroke load 7 -1 roll
  q
  nulldevice 0 0 m
  nullinternalshow nullinternalstroke
  resetbbox
  recshow
  /internalstroke exch def /internalshow exch def
  pushbbox 8 -4 roll restorebbox
  Q
} def

% Calculate values for string positioning.
/calcval {4 copy
  3 -1 roll sub /widy exch def sub neg /widx exch def
  pop pop /dy exch def /dx exch def} def

% Utilities to position a string.
% First letter (U=upper, C=center, B=baseline, L=lower)
% Second letter (L=left, C=center, R=right)
/align [
{calcval dx neg widy dy add neg rmoveto} % UL
{calcval dx neg widy 2 div dy add neg rmoveto} % CL
{calcval dx neg 0 rmoveto} % BL
{calcval dx neg dy neg rmoveto} % LL
{calcval widx dx add neg widy dy add neg rmoveto} % UR
{calcval widx dx add neg widy 2 div dy add neg rmoveto} % CR
{calcval widx dx add neg 0 rmoveto} % BR
{calcval widx dx add neg dy neg rmoveto} % LR
{calcval widx 2 div dx add neg widy dy add neg rmoveto} % UC
{calcval widx 2 div dx add neg widy 2 div dy add neg rmoveto} % CC
{calcval widx 2 div dx add neg 0 rmoveto} % BC
{calcval widx 2 div dx add neg dy neg rmoveto} % LC
] def

/vg&str {m q 1 -1 scale dup stringsize 4 copy align 11 -1 roll get exec
         q inflate relative frame exch exec Q recshow Q} def

end /procDict exch def
%%EndProlog

%%BeginSetup
save
procDict begin
printColorMap begin
646 398 setpagesize
0 0 0 0 setmargins
0 0 setorigin
646 398 setsize
naturalsize
portrait
imagescale
cliptobounds
setbasematrix
/Helvetica 10 sf
defaultGraphicsState
%%EndSetup

0.00000 0.00000 0.00000 RG
[ 1.00000 0.00000 0.00000 1.00000 0.00000 0.00000 ] defaultmatrix matrix concatmatrix setmatrix
cliprestore
1.00000 1.00000 1.00000 RG
newpath
0.00000 0.00000 m
646.000 0.00000 l
646.000 398.000 l
0.00000 398.000 l
0.00000 0.00000 l
h
f
0.00000 0.00000 0.00000 RG
0.00000 0.00000 0.00000 RG
[ 1.00000 0.00000 0.00000 1.00000 0.00000 0.00000 ] defaultmatrix matrix concatmatrix setmatrix
cliprestore
1.00000 1.00000 1.00000 RG
newpath
0.00000 0.00000 m
646.000 0.00000 l
646.000 398.000 l
0.00000 398.000 l
0.00000 0.00000 l
h
f
0.00000 0.00000 0.00000 RG
0 0 646 398 rc
q
[ 1.00000 0.00000 0.00000 1.00000 0.00000 0.00000 ] concat
[ 1.00000 0.00000 0.00000 1.00000 -3.00000 -95.0000 ] concat
1.00000 1.00000 1.00000 RG
newpath
3.00000 95.0000 m
649.000 95.0000 l
649.000 493.000 l
3.00000 493.000 l
3.00000 95.0000 l
h
f
0.00000 0.00000 0.00000 RG
[ 1.00000 0.00000 0.00000 1.00000 -3.00000 -95.0000 ] defaultmatrix matrix concatmatrix setmatrix
[ 1.00000 0.00000 0.00000 1.00000 -3.00000 -95.0000 ] defaultmatrix matrix concatmatrix setmatrix
[ 1.00000 0.00000 0.00000 1.00000 0.00000 0.00000 ] defaultmatrix matrix concatmatrix setmatrix
[ 1.00000 0.00000 0.00000 1.00000 -3.00000 -95.0000 ] defaultmatrix matrix concatmatrix setmatrix
0 J
1.45000 M
1.00000 .600000 0.00000 RG
newpath
80.1525 423.000 m
80.1525 473.672 l
80.1525 475.881 81.9433 477.672 84.1525 477.672  c
568.872 477.672 l
571.082 477.672 572.872 475.881 572.872 473.672  c
572.872 423.000 l
572.872 420.791 571.082 419.000 568.872 419.000  c
84.1525 419.000 l
81.9433 419.000 80.1525 420.791 80.1525 423.000  c
h
S
2 J
10.0000 M
0.00000 0.00000 0.00000 RG
0 J
1.45000 M
newpath
321.436 402.389 m
321.436 405.686 l
322.921 405.686 l
323.473 405.686 323.900 405.542 324.202 405.256  c
324.504 404.969 324.655 404.561 324.655 404.029  c
324.655 403.508 324.504 403.105 324.202 402.818  c
323.900 402.532 323.473 402.389 322.921 402.389  c
321.436 402.389 l
h
320.249 401.420 m
322.921 401.420 l
323.910 401.420 324.655 401.641 325.155 402.084  c
325.655 402.527 325.905 403.175 325.905 404.029  c
325.905 404.894 325.655 405.548 325.155 405.990  c
324.655 406.433 323.910 406.654 322.921 406.654  c
321.436 406.654 l
321.436 410.170 l
320.249 410.170 l
320.249 401.420 l
h
327.798 409.170 m
329.735 409.170 l
329.735 402.498 l
327.626 402.920 l
327.626 401.842 l
329.719 401.420 l
330.907 401.420 l
330.907 409.170 l
332.844 409.170 l
332.844 410.170 l
327.798 410.170 l
327.798 409.170 l
h
f
2 J
10.0000 M
1.00000 .600000 0.00000 RG
0.00000 0.00000 0.00000 RG
0 J
1.45000 M
.200000 .600000 .400000 RG
newpath
497.144 324.104 m
497.144 374.776 l
497.144 376.985 498.935 378.776 501.144 378.776  c
629.183 378.776 l
631.392 378.776 633.183 376.985 633.183 374.776  c
633.183 324.104 l
633.183 321.895 631.392 320.104 629.183 320.104  c
501.144 320.104 l
498.935 320.104 497.144 321.895 497.144 324.104  c
h
S
2 J
10.0000 M
0.00000 0.00000 0.00000 RG
0 J
1.45000 M
newpath
530.900 303.493 m
530.900 306.790 l
532.384 306.790 l
532.936 306.790 533.363 306.646 533.665 306.360  c
533.968 306.073 534.119 305.665 534.119 305.133  c
534.119 304.612 533.968 304.209 533.665 303.922  c
533.363 303.636 532.936 303.493 532.384 303.493  c
530.900 303.493 l
h
529.712 302.524 m
532.384 302.524 l
533.374 302.524 534.119 302.745 534.619 303.188  c
535.119 303.631 535.369 304.279 535.369 305.133  c
535.369 305.998 535.119 306.652 534.619 307.094  c
534.119 307.537 533.374 307.758 532.384 307.758  c
530.900 307.758 l
530.900 311.274 l
529.712 311.274 l
529.712 302.524 l
h
540.308 303.555 m
537.324 308.227 l
540.308 308.227 l
540.308 303.555 l
h
539.996 302.524 m
541.496 302.524 l
541.496 308.227 l
542.746 308.227 l
542.746 309.211 l
541.496 309.211 l
541.496 311.274 l
540.308 311.274 l
540.308 309.211 l
536.371 309.211 l
536.371 308.071 l
539.996 302.524 l
h
f
2 J
10.0000 M
.200000 .600000 .400000 RG
0.00000 0.00000 0.00000 RG
0 J
1.45000 M
.800000 .600000 1.00000 RG
newpath
338.630 324.104 m
338.630 374.776 l
338.630 376.985 340.421 378.776 342.630 378.776  c
470.669 378.776 l
472.879 378.776 474.669 376.985 474.669 374.776  c
474.669 324.104 l
474.669 321.895 472.879 320.104 470.669 320.104  c
342.630 320.104 l
340.421 320.104 338.630 321.895 338.630 324.104  c
h
S
2 J
10.0000 M
0.00000 0.00000 0.00000 RG
0 J
1.45000 M
newpath
370.132 303.493 m
370.132 306.790 l
371.616 306.790 l
372.168 306.790 372.595 306.646 372.897 306.360  c
373.200 306.073 373.351 305.665 373.351 305.133  c
373.351 304.612 373.200 304.209 372.897 303.922  c
372.595 303.636 372.168 303.493 371.616 303.493  c
370.132 303.493 l
h
368.944 302.524 m
371.616 302.524 l
372.606 302.524 373.351 302.745 373.851 303.188  c
374.351 303.631 374.601 304.279 374.601 305.133  c
374.601 305.998 374.351 306.652 373.851 307.094  c
373.351 307.537 372.606 307.758 371.616 307.758  c
370.132 307.758 l
370.132 311.274 l
368.944 311.274 l
368.944 302.524 l
h
379.884 306.555 m
380.446 306.680 380.886 306.933 381.204 307.313  c
381.522 307.693 381.681 308.165 381.681 308.727  c
381.681 309.592 381.384 310.261 380.790 310.735  c
380.196 311.209 379.353 311.446 378.259 311.446  c
377.894 311.446 377.517 311.409 377.126 311.336  c
376.735 311.264 376.337 311.154 375.931 311.008  c
375.931 309.868 l
376.254 310.055 376.610 310.198 377.001 310.297  c
377.392 310.396 377.800 310.446 378.228 310.446  c
378.967 310.446 379.532 310.300 379.923 310.008  c
380.313 309.717 380.509 309.290 380.509 308.727  c
380.509 308.217 380.326 307.816 379.962 307.524  c
379.597 307.232 379.097 307.086 378.462 307.086  c
377.431 307.086 l
377.431 306.118 l
378.509 306.118 l
379.082 306.118 379.524 306.000 379.837 305.766  c
380.149 305.532 380.306 305.196 380.306 304.758  c
380.306 304.310 380.147 303.967 379.829 303.727  c
379.511 303.487 379.056 303.368 378.462 303.368  c
378.129 303.368 377.777 303.402 377.407 303.469  c
377.037 303.537 376.629 303.644 376.181 303.790  c
376.181 302.743 l
376.639 302.618 377.063 302.524 377.454 302.461  c
377.845 302.399 378.212 302.368 378.556 302.368  c
379.462 302.368 380.175 302.571 380.696 302.977  c
381.217 303.383 381.478 303.935 381.478 304.633  c
381.478 305.123 381.340 305.534 381.063 305.868  c
380.787 306.201 380.394 306.430 379.884 306.555  c
h
f
2 J
10.0000 M
.800000 .600000 1.00000 RG
0.00000 0.00000 0.00000 RG
0 J
1.45000 M
0.00000 1.00000 1.00000 RG
newpath
178.355 324.104 m
178.355 374.776 l
178.355 376.985 180.146 378.776 182.355 378.776  c
310.395 378.776 l
312.604 378.776 314.395 376.985 314.395 374.776  c
314.395 324.104 l
314.395 321.895 312.604 320.104 310.395 320.104  c
182.355 320.104 l
180.146 320.104 178.355 321.895 178.355 324.104  c
h
S
2 J
10.0000 M
0.00000 0.00000 0.00000 RG
0 J
1.45000 M
newpath
211.412 303.493 m
211.412 306.790 l
212.896 306.790 l
213.448 306.790 213.875 306.646 214.177 306.360  c
214.480 306.073 214.631 305.665 214.631 305.133  c
214.631 304.612 214.480 304.209 214.177 303.922  c
213.875 303.636 213.448 303.493 212.896 303.493  c
211.412 303.493 l
h
210.224 302.524 m
212.896 302.524 l
213.886 302.524 214.631 302.745 215.131 303.188  c
215.631 303.631 215.881 304.279 215.881 305.133  c
215.881 305.998 215.631 306.652 215.131 307.094  c
214.631 307.537 213.886 307.758 212.896 307.758  c
211.412 307.758 l
211.412 311.274 l
210.224 311.274 l
210.224 302.524 l
h
218.586 310.274 m
222.726 310.274 l
222.726 311.274 l
217.164 311.274 l
217.164 310.274 l
217.612 309.816 218.224 309.193 219.000 308.407  c
219.776 307.620 220.263 307.112 220.461 306.883  c
220.846 306.467 221.114 306.110 221.265 305.813  c
221.416 305.516 221.492 305.227 221.492 304.946  c
221.492 304.477 221.328 304.097 221.000 303.805  c
220.672 303.514 220.247 303.368 219.726 303.368  c
219.351 303.368 218.958 303.430 218.547 303.555  c
218.135 303.680 217.695 303.878 217.226 304.149  c
217.226 302.946 l
217.705 302.758 218.151 302.615 218.562 302.516  c
218.974 302.417 219.351 302.368 219.695 302.368  c
220.601 302.368 221.325 302.594 221.867 303.047  c
222.409 303.500 222.679 304.107 222.679 304.868  c
222.679 305.222 222.612 305.560 222.476 305.883  c
222.341 306.206 222.096 306.586 221.742 307.024  c
221.638 307.139 221.325 307.467 220.804 308.008  c
220.284 308.550 219.544 309.305 218.586 310.274  c
h
f
2 J
10.0000 M
0.00000 1.00000 1.00000 RG
0.00000 0.00000 0.00000 RG
0 J
1.45000 M
1.00000 .600000 0.00000 RG
newpath
18.0807 324.104 m
18.0807 374.776 l
18.0807 376.985 19.8716 378.776 22.0807 378.776  c
150.120 378.776 l
152.329 378.776 154.120 376.985 154.120 374.776  c
154.120 324.104 l
154.120 321.895 152.329 320.104 150.120 320.104  c
22.0807 320.104 l
19.8716 320.104 18.0807 321.895 18.0807 324.104  c
h
S
2 J
10.0000 M
0.00000 0.00000 0.00000 RG
0 J
1.45000 M
newpath
49.1078 303.493 m
49.1078 306.790 l
50.5922 306.790 l
51.1443 306.790 51.5714 306.646 51.8735 306.360  c
52.1755 306.073 52.3266 305.665 52.3266 305.133  c
52.3266 304.612 52.1755 304.209 51.8735 303.922  c
51.5714 303.636 51.1443 303.493 50.5922 303.493  c
49.1078 303.493 l
h
47.9203 302.524 m
50.5922 302.524 l
51.5818 302.524 52.3266 302.745 52.8266 303.188  c
53.3266 303.631 53.5766 304.279 53.5766 305.133  c
53.5766 305.998 53.3266 306.652 52.8266 307.094  c
52.3266 307.537 51.5818 307.758 50.5922 307.758  c
49.1078 307.758 l
49.1078 311.274 l
47.9203 311.274 l
47.9203 302.524 l
h
55.4692 310.274 m
57.4067 310.274 l
57.4067 303.602 l
55.2973 304.024 l
55.2973 302.946 l
57.3910 302.524 l
58.5785 302.524 l
58.5785 310.274 l
60.5160 310.274 l
60.5160 311.274 l
55.4692 311.274 l
55.4692 310.274 l
h
f
2 J
10.0000 M
1.00000 .600000 0.00000 RG
0.00000 0.00000 0.00000 RG
0 J
1.45000 M
.800000 .600000 1.00000 RG
newpath
338.630 234.680 m
338.630 269.480 l
338.630 271.689 340.421 273.480 342.630 273.480  c
470.669 273.480 l
472.879 273.480 474.669 271.689 474.669 269.480  c
474.669 234.680 l
474.669 232.471 472.879 230.680 470.669 230.680  c
342.630 230.680 l
340.421 230.680 338.630 232.471 338.630 234.680  c
h
S
2 J
10.0000 M
0.00000 0.00000 0.00000 RG
0 J
1.45000 M
newpath
401.574 214.069 m
401.574 217.366 l
403.058 217.366 l
403.610 217.366 404.037 217.222 404.339 216.936  c
404.641 216.649 404.792 216.241 404.792 215.709  c
404.792 215.188 404.641 214.785 404.339 214.498  c
404.037 214.212 403.610 214.069 403.058 214.069  c
401.574 214.069 l
h
400.386 213.100 m
403.058 213.100 l
404.048 213.100 404.792 213.321 405.292 213.764  c
405.792 214.207 406.042 214.855 406.042 215.709  c
406.042 216.574 405.792 217.228 405.292 217.670  c
404.792 218.113 404.048 218.334 403.058 218.334  c
401.574 218.334 l
401.574 221.850 l
400.386 221.850 l
400.386 213.100 l
h
411.326 217.131 m
411.888 217.256 412.328 217.509 412.646 217.889  c
412.964 218.269 413.122 218.741 413.122 219.303  c
413.122 220.168 412.826 220.837 412.232 221.311  c
411.638 221.785 410.794 222.022 409.701 222.022  c
409.336 222.022 408.958 221.985 408.568 221.912  c
408.177 221.839 407.779 221.730 407.372 221.584  c
407.372 220.444 l
407.695 220.631 408.052 220.774 408.443 220.873  c
408.833 220.972 409.242 221.022 409.669 221.022  c
410.409 221.022 410.974 220.876 411.365 220.584  c
411.755 220.293 411.951 219.866 411.951 219.303  c
411.951 218.793 411.768 218.392 411.404 218.100  c
411.039 217.808 410.539 217.662 409.904 217.662  c
408.872 217.662 l
408.872 216.694 l
409.951 216.694 l
410.524 216.694 410.966 216.576 411.279 216.342  c
411.591 216.108 411.747 215.772 411.747 215.334  c
411.747 214.886 411.589 214.543 411.271 214.303  c
410.953 214.063 410.497 213.944 409.904 213.944  c
409.570 213.944 409.219 213.978 408.849 214.045  c
408.479 214.113 408.070 214.220 407.622 214.366  c
407.622 213.319 l
408.081 213.194 408.505 213.100 408.896 213.037  c
409.287 212.975 409.654 212.944 409.997 212.944  c
410.904 212.944 411.617 213.147 412.138 213.553  c
412.659 213.959 412.919 214.511 412.919 215.209  c
412.919 215.699 412.781 216.110 412.505 216.444  c
412.229 216.777 411.836 217.006 411.326 217.131  c
h
f
2 J
10.0000 M
.800000 .600000 1.00000 RG
0.00000 0.00000 0.00000 RG
1.00000 1.00000 1.00000 RG
newpath
85.4800 138.816 m
115.480 138.816 l
115.480 168.816 l
85.4800 168.816 l
85.4800 138.816 l
h
f
0 J
1.45000 M
0.00000 0.00000 0.00000 RG
newpath
85.4800 138.816 m
115.480 138.816 l
115.480 168.816 l
85.4800 168.816 l
85.4800 138.816 l
h
S
2 J
10.0000 M
1.00000 1.00000 1.00000 RG
newpath
115.480 138.816 m
145.480 138.816 l
145.480 168.816 l
115.480 168.816 l
115.480 138.816 l
h
f
0 J
1.45000 M
0.00000 0.00000 0.00000 RG
newpath
115.480 138.816 m
145.480 138.816 l
145.480 168.816 l
115.480 168.816 l
115.480 138.816 l
h
S
2 J
10.0000 M
1.00000 1.00000 1.00000 RG
newpath
145.480 138.816 m
175.480 138.816 l
175.480 168.816 l
145.480 168.816 l
145.480 138.816 l
h
f
0 J
1.45000 M
0.00000 0.00000 0.00000 RG
newpath
145.480 138.816 m
175.480 138.816 l
175.480 168.816 l
145.480 168.816 l
145.480 138.816 l
h
S
2 J
10.0000 M
1.00000 1.00000 1.00000 RG
newpath
175.480 138.816 m
205.480 138.816 l
205.480 168.816 l
175.480 168.816 l
175.480 138.816 l
h
f
0 J
1.45000 M
0.00000 0.00000 0.00000 RG
newpath
175.480 138.816 m
205.480 138.816 l
205.480 168.816 l
175.480 168.816 l
175.480 138.816 l
h
S
2 J
10.0000 M
1.00000 1.00000 1.00000 RG
newpath
205.480 138.816 m
235.480 138.816 l
235.480 168.816 l
205.480 168.816 l
205.480 138.816 l
h
f
0 J
1.45000 M
0.00000 0.00000 0.00000 RG
newpath
205.480 138.816 m
235.480 138.816 l
235.480 168.816 l
205.480 168.816 l
205.480 138.816 l
h
S
2 J
10.0000 M
1.00000 1.00000 1.00000 RG
newpath
235.480 138.816 m
265.480 138.816 l
265.480 168.816 l
235.480 168.816 l
235.480 138.816 l
h
f
0 J
1.45000 M
0.00000 0.00000 0.00000 RG
newpath
235.480 138.816 m
265.480 138.816 l
265.480 168.816 l
235.480 168.816 l
235.480 138.816 l
h
S
2 J
10.0000 M
1.00000 1.00000 1.00000 RG
newpath
265.480 138.816 m
295.480 138.816 l
295.480 168.816 l
265.480 168.816 l
265.480 138.816 l
h
f
0 J
1.45000 M
0.00000 0.00000 0.00000 RG
newpath
265.480 138.816 m
295.480 138.816 l
295.480 168.816 l
265.480 168.816 l
265.480 138.816 l
h
S
2 J
10.0000 M
1.00000 1.00000 1.00000 RG
newpath
295.480 138.816 m
325.480 138.816 l
325.480 168.816 l
295.480 168.816 l
295.480 138.816 l
h
f
0 J
1.45000 M
0.00000 0.00000 0.00000 RG
newpath
295.480 138.816 m
325.480 138.816 l
325.480 168.816 l
295.480 168.816 l
295.480 138.816 l
h
S
2 J
10.0000 M
1.00000 1.00000 1.00000 RG
newpath
325.480 138.816 m
355.480 138.816 l
355.480 168.816 l
325.480 168.816 l
325.480 138.816 l
h
f
0 J
1.45000 M
0.00000 0.00000 0.00000 RG
newpath
325.480 138.816 m
355.480 138.816 l
355.480 168.816 l
325.480 168.816 l
325.480 138.816 l
h
S
2 J
10.0000 M
1.00000 1.00000 1.00000 RG
newpath
355.480 138.816 m
385.480 138.816 l
385.480 168.816 l
355.480 168.816 l
355.480 138.816 l
h
f
0 J
1.45000 M
0.00000 0.00000 0.00000 RG
newpath
355.480 138.816 m
385.480 138.816 l
385.480 168.816 l
355.480 168.816 l
355.480 138.816 l
h
S
2 J
10.0000 M
1.00000 1.00000 1.00000 RG
newpath
385.480 138.816 m
415.480 138.816 l
415.480 168.816 l
385.480 168.816 l
385.480 138.816 l
h
f
0 J
1.45000 M
0.00000 0.00000 0.00000 RG
newpath
385.480 138.816 m
415.480 138.816 l
415.480 168.816 l
385.480 168.816 l
385.480 138.816 l
h
S
2 J
10.0000 M
1.00000 1.00000 1.00000 RG
newpath
415.480 138.816 m
445.480 138.816 l
445.480 168.816 l
415.480 168.816 l
415.480 138.816 l
h
f
0 J
1.45000 M
0.00000 0.00000 0.00000 RG
newpath
415.480 138.816 m
445.480 138.816 l
445.480 168.816 l
415.480 168.816 l
415.480 138.816 l
h
S
2 J
10.0000 M
1.00000 1.00000 1.00000 RG
newpath
445.480 138.816 m
475.480 138.816 l
475.480 168.816 l
445.480 168.816 l
445.480 138.816 l
h
f
0 J
1.45000 M
0.00000 0.00000 0.00000 RG
newpath
445.480 138.816 m
475.480 138.816 l
475.480 168.816 l
445.480 168.816 l
445.480 138.816 l
h
S
2 J
10.0000 M
1.00000 1.00000 1.00000 RG
newpath
475.480 138.816 m
505.480 138.816 l
505.480 168.816 l
475.480 168.816 l
475.480 138.816 l
h
f
0 J
1.45000 M
0.00000 0.00000 0.00000 RG
newpath
475.480 138.816 m
505.480 138.816 l
505.480 168.816 l
475.480 168.816 l
475.480 138.816 l
h
S
2 J
10.0000 M
1.00000 1.00000 1.00000 RG
newpath
505.480 138.816 m
535.480 138.816 l
535.480 168.816 l
505.480 168.816 l
505.480 138.816 l
h
f
0 J
1.45000 M
0.00000 0.00000 0.00000 RG
newpath
505.480 138.816 m
535.480 138.816 l
535.480 168.816 l
505.480 168.816 l
505.480 138.816 l
h
S
2 J
10.0000 M
1.00000 1.00000 1.00000 RG
newpath
535.480 138.816 m
565.480 138.816 l
565.480 168.816 l
535.480 168.816 l
535.480 138.816 l
h
f
0 J
1.45000 M
0.00000 0.00000 0.00000 RG
newpath
535.480 138.816 m
565.480 138.816 l
565.480 168.816 l
535.480 168.816 l
535.480 138.816 l
h
S
2 J
10.0000 M
0 J
1.45000 M
1.00000 .600000 0.00000 RG
newpath
80.0067 136.416 m
80.0067 171.216 l
80.0067 173.425 81.7975 175.216 84.0067 175.216  c
568.727 175.216 l
570.936 175.216 572.727 173.425 572.727 171.216  c
572.727 136.416 l
572.727 134.207 570.936 132.416 568.727 132.416  c
84.0067 132.416 l
81.7975 132.416 80.0067 134.207 80.0067 136.416  c
h
S
2 J
10.0000 M
0.00000 0.00000 0.00000 RG
0 J
1.45000 M
newpath
321.291 115.805 m
321.291 119.102 l
322.775 119.102 l
323.327 119.102 323.754 118.958 324.056 118.672  c
324.358 118.385 324.509 117.977 324.509 117.445  c
324.509 116.924 324.358 116.521 324.056 116.234  c
323.754 115.948 323.327 115.805 322.775 115.805  c
321.291 115.805 l
h
320.103 114.836 m
322.775 114.836 l
323.764 114.836 324.509 115.057 325.009 115.500  c
325.509 115.943 325.759 116.591 325.759 117.445  c
325.759 118.310 325.509 118.964 325.009 119.406  c
324.509 119.849 323.764 120.070 322.775 120.070  c
321.291 120.070 l
321.291 123.586 l
320.103 123.586 l
320.103 114.836 l
h
327.652 122.586 m
329.589 122.586 l
329.589 115.914 l
327.480 116.336 l
327.480 115.258 l
329.574 114.836 l
330.761 114.836 l
330.761 122.586 l
332.699 122.586 l
332.699 123.586 l
327.652 123.586 l
327.652 122.586 l
h
f
2 J
10.0000 M
1.00000 .600000 0.00000 RG
0.00000 0.00000 0.00000 RG
1.00000 1.00000 1.00000 RG
newpath
25.4800 237.080 m
55.4800 237.080 l
55.4800 267.080 l
25.4800 267.080 l
25.4800 237.080 l
h
f
0 J
1.45000 M
0.00000 0.00000 0.00000 RG
newpath
25.4800 237.080 m
55.4800 237.080 l
55.4800 267.080 l
25.4800 267.080 l
25.4800 237.080 l
h
S
2 J
10.0000 M
1.00000 1.00000 1.00000 RG
newpath
55.4800 237.080 m
85.4800 237.080 l
85.4800 267.080 l
55.4800 267.080 l
55.4800 237.080 l
h
f
0 J
1.45000 M
0.00000 0.00000 0.00000 RG
newpath
55.4800 237.080 m
85.4800 237.080 l
85.4800 267.080 l
55.4800 267.080 l
55.4800 237.080 l
h
S
2 J
10.0000 M
1.00000 1.00000 1.00000 RG
newpath
85.4800 237.080 m
115.480 237.080 l
115.480 267.080 l
85.4800 267.080 l
85.4800 237.080 l
h
f
0 J
1.45000 M
0.00000 0.00000 0.00000 RG
newpath
85.4800 237.080 m
115.480 237.080 l
115.480 267.080 l
85.4800 267.080 l
85.4800 237.080 l
h
S
2 J
10.0000 M
1.00000 1.00000 1.00000 RG
newpath
115.480 237.080 m
145.480 237.080 l
145.480 267.080 l
115.480 267.080 l
115.480 237.080 l
h
f
0 J
1.45000 M
0.00000 0.00000 0.00000 RG
newpath
115.480 237.080 m
145.480 237.080 l
145.480 267.080 l
115.480 267.080 l
115.480 237.080 l
h
S
2 J
10.0000 M
1.00000 1.00000 1.00000 RG
newpath
346.630 237.080 m
376.630 237.080 l
376.630 267.080 l
346.630 267.080 l
346.630 237.080 l
h
f
0 J
1.45000 M
0.00000 0.00000 0.00000 RG
newpath
346.630 237.080 m
376.630 237.080 l
376.630 267.080 l
346.630 267.080 l
346.630 237.080 l
h
S
2 J
10.0000 M
1.00000 1.00000 1.00000 RG
newpath
376.630 237.080 m
406.630 237.080 l
406.630 267.080 l
376.630 267.080 l
376.630 237.080 l
h
f
0 J
1.45000 M
0.00000 0.00000 0.00000 RG
newpath
376.630 237.080 m
406.630 237.080 l
406.630 267.080 l
376.630 267.080 l
376.630 237.080 l
h
S
2 J
10.0000 M
1.00000 1.00000 1.00000 RG
newpath
406.630 237.080 m
436.630 237.080 l
436.630 267.080 l
406.630 267.080 l
406.630 237.080 l
h
f
0 J
1.45000 M
0.00000 0.00000 0.00000 RG
newpath
406.630 237.080 m
436.630 237.080 l
436.630 267.080 l
406.630 267.080 l
406.630 237.080 l
h
S
2 J
10.0000 M
1.00000 1.00000 1.00000 RG
newpath
436.630 237.080 m
466.630 237.080 l
466.630 267.080 l
436.630 267.080 l
436.630 237.080 l
h
f
0 J
1.45000 M
0.00000 0.00000 0.00000 RG
newpath
436.630 237.080 m
466.630 237.080 l
466.630 267.080 l
436.630 267.080 l
436.630 237.080 l
h
S
2 J
10.0000 M
1.00000 1.00000 1.00000 RG
newpath
186.235 237.080 m
216.235 237.080 l
216.235 267.080 l
186.235 267.080 l
186.235 237.080 l
h
f
0 J
1.45000 M
0.00000 0.00000 0.00000 RG
newpath
186.235 237.080 m
216.235 237.080 l
216.235 267.080 l
186.235 267.080 l
186.235 237.080 l
h
S
2 J
10.0000 M
1.00000 1.00000 1.00000 RG
newpath
216.235 237.080 m
246.235 237.080 l
246.235 267.080 l
216.235 267.080 l
216.235 237.080 l
h
f
0 J
1.45000 M
0.00000 0.00000 0.00000 RG
newpath
216.235 237.080 m
246.235 237.080 l
246.235 267.080 l
216.235 267.080 l
216.235 237.080 l
h
S
2 J
10.0000 M
1.00000 1.00000 1.00000 RG
newpath
246.235 237.080 m
276.235 237.080 l
276.235 267.080 l
246.235 267.080 l
246.235 237.080 l
h
f
0 J
1.45000 M
0.00000 0.00000 0.00000 RG
newpath
246.235 237.080 m
276.235 237.080 l
276.235 267.080 l
246.235 267.080 l
246.235 237.080 l
h
S
2 J
10.0000 M
1.00000 1.00000 1.00000 RG
newpath
276.235 237.080 m
306.235 237.080 l
306.235 267.080 l
276.235 267.080 l
276.235 237.080 l
h
f
0 J
1.45000 M
0.00000 0.00000 0.00000 RG
newpath
276.235 237.080 m
306.235 237.080 l
306.235 267.080 l
276.235 267.080 l
276.235 237.080 l
h
S
2 J
10.0000 M
1.00000 1.00000 1.00000 RG
newpath
505.480 237.080 m
535.480 237.080 l
535.480 267.080 l
505.480 267.080 l
505.480 237.080 l
h
f
0 J
1.45000 M
0.00000 0.00000 0.00000 RG
newpath
505.480 237.080 m
535.480 237.080 l
535.480 267.080 l
505.480 267.080 l
505.480 237.080 l
h
S
2 J
10.0000 M
1.00000 1.00000 1.00000 RG
newpath
535.480 237.080 m
565.480 237.080 l
565.480 267.080 l
535.480 267.080 l
535.480 237.080 l
h
f
0 J
1.45000 M
0.00000 0.00000 0.00000 RG
newpath
535.480 237.080 m
565.480 237.080 l
565.480 267.080 l
535.480 267.080 l
535.480 237.080 l
h
S
2 J
10.0000 M
1.00000 1.00000 1.00000 RG
newpath
565.480 237.080 m
595.480 237.080 l
595.480 267.080 l
565.480 267.080 l
565.480 237.080 l
h
f
0 J
1.45000 M
0.00000 0.00000 0.00000 RG
newpath
565.480 237.080 m
595.480 237.080 l
595.480 267.080 l
565.480 267.080 l
565.480 237.080 l
h
S
2 J
10.0000 M
1.00000 1.00000 1.00000 RG
newpath
595.480 237.080 m
625.480 237.080 l
625.480 267.080 l
595.480 267.080 l
595.480 237.080 l
h
f
0 J
1.45000 M
0.00000 0.00000 0.00000 RG
newpath
595.480 237.080 m
625.480 237.080 l
625.480 267.080 l
595.480 267.080 l
595.480 237.080 l
h
S
2 J
10.0000 M
0 J
1.45000 M
1.00000 .600000 0.00000 RG
newpath
18.0807 234.680 m
18.0807 269.480 l
18.0807 271.689 19.8716 273.480 22.0807 273.480  c
150.120 273.480 l
152.329 273.480 154.120 271.689 154.120 269.480  c
154.120 234.680 l
154.120 232.471 152.329 230.680 150.120 230.680  c
22.0807 230.680 l
19.8716 230.680 18.0807 232.471 18.0807 234.680  c
h
S
2 J
10.0000 M
0.00000 0.00000 0.00000 RG
0 J
1.45000 M
newpath
81.0242 214.069 m
81.0242 217.366 l
82.5086 217.366 l
83.0606 217.366 83.4877 217.222 83.7898 216.936  c
84.0919 216.649 84.2429 216.241 84.2429 215.709  c
84.2429 215.188 84.0919 214.785 83.7898 214.498  c
83.4877 214.212 83.0606 214.069 82.5086 214.069  c
81.0242 214.069 l
h
79.8367 213.100 m
82.5086 213.100 l
83.4981 213.100 84.2429 213.321 84.7429 213.764  c
85.2429 214.207 85.4929 214.855 85.4929 215.709  c
85.4929 216.574 85.2429 217.228 84.7429 217.670  c
84.2429 218.113 83.4981 218.334 82.5086 218.334  c
81.0242 218.334 l
81.0242 221.850 l
79.8367 221.850 l
79.8367 213.100 l
h
87.3855 220.850 m
89.3230 220.850 l
89.3230 214.178 l
87.2136 214.600 l
87.2136 213.522 l
89.3074 213.100 l
90.4949 213.100 l
90.4949 220.850 l
92.4324 220.850 l
92.4324 221.850 l
87.3855 221.850 l
87.3855 220.850 l
h
f
2 J
10.0000 M
1.00000 .600000 0.00000 RG
0.00000 0.00000 0.00000 RG
0 J
1.45000 M
0.00000 1.00000 1.00000 RG
newpath
178.355 234.680 m
178.355 269.480 l
178.355 271.689 180.146 273.480 182.355 273.480  c
310.395 273.480 l
312.604 273.480 314.395 271.689 314.395 269.480  c
314.395 234.680 l
314.395 232.471 312.604 230.680 310.395 230.680  c
182.355 230.680 l
180.146 230.680 178.355 232.471 178.355 234.680  c
h
S
2 J
10.0000 M
0.00000 0.00000 0.00000 RG
0 J
1.45000 M
newpath
241.299 214.069 m
241.299 217.366 l
242.783 217.366 l
243.335 217.366 243.762 217.222 244.065 216.936  c
244.367 216.649 244.518 216.241 244.518 215.709  c
244.518 215.188 244.367 214.785 244.065 214.498  c
243.762 214.212 243.335 214.069 242.783 214.069  c
241.299 214.069 l
h
240.111 213.100 m
242.783 213.100 l
243.773 213.100 244.518 213.321 245.018 213.764  c
245.518 214.207 245.768 214.855 245.768 215.709  c
245.768 216.574 245.518 217.228 245.018 217.670  c
244.518 218.113 243.773 218.334 242.783 218.334  c
241.299 218.334 l
241.299 221.850 l
240.111 221.850 l
240.111 213.100 l
h
248.473 220.850 m
252.613 220.850 l
252.613 221.850 l
247.051 221.850 l
247.051 220.850 l
247.499 220.392 248.111 219.769 248.887 218.983  c
249.663 218.196 250.150 217.688 250.348 217.459  c
250.733 217.043 251.001 216.686 251.152 216.389  c
251.303 216.092 251.379 215.803 251.379 215.522  c
251.379 215.053 251.215 214.673 250.887 214.381  c
250.559 214.089 250.134 213.944 249.613 213.944  c
249.238 213.944 248.845 214.006 248.434 214.131  c
248.022 214.256 247.582 214.454 247.113 214.725  c
247.113 213.522 l
247.593 213.334 248.038 213.191 248.449 213.092  c
248.861 212.993 249.238 212.944 249.582 212.944  c
250.488 212.944 251.212 213.170 251.754 213.623  c
252.296 214.076 252.566 214.683 252.566 215.444  c
252.566 215.798 252.499 216.136 252.363 216.459  c
252.228 216.782 251.983 217.162 251.629 217.600  c
251.525 217.714 251.212 218.043 250.691 218.584  c
250.171 219.126 249.431 219.881 248.473 220.850  c
h
f
2 J
10.0000 M
0.00000 1.00000 1.00000 RG
0.00000 0.00000 0.00000 RG
0 J
1.45000 M
.200000 .600000 .400000 RG
newpath
497.144 234.680 m
497.144 269.480 l
497.144 271.689 498.935 273.480 501.144 273.480  c
629.183 273.480 l
631.392 273.480 633.183 271.689 633.183 269.480  c
633.183 234.680 l
633.183 232.471 631.392 230.680 629.183 230.680  c
501.144 230.680 l
498.935 230.680 497.144 232.471 497.144 234.680  c
h
S
2 J
10.0000 M
0.00000 0.00000 0.00000 RG
0 J
1.45000 M
newpath
560.087 214.069 m
560.087 217.366 l
561.572 217.366 l
562.124 217.366 562.551 217.222 562.853 216.936  c
563.155 216.649 563.306 216.241 563.306 215.709  c
563.306 215.188 563.155 214.785 562.853 214.498  c
562.551 214.212 562.124 214.069 561.572 214.069  c
560.087 214.069 l
h
558.900 213.100 m
561.572 213.100 l
562.561 213.100 563.306 213.321 563.806 213.764  c
564.306 214.207 564.556 214.855 564.556 215.709  c
564.556 216.574 564.306 217.228 563.806 217.670  c
563.306 218.113 562.561 218.334 561.572 218.334  c
560.087 218.334 l
560.087 221.850 l
558.900 221.850 l
558.900 213.100 l
h
569.496 214.131 m
566.511 218.803 l
569.496 218.803 l
569.496 214.131 l
h
569.183 213.100 m
570.683 213.100 l
570.683 218.803 l
571.933 218.803 l
571.933 219.787 l
570.683 219.787 l
570.683 221.850 l
569.496 221.850 l
569.496 219.787 l
565.558 219.787 l
565.558 218.647 l
569.183 213.100 l
h
f
2 J
10.0000 M
.200000 .600000 .400000 RG
0.00000 0.00000 0.00000 RG
1.00000 1.00000 1.00000 RG
newpath
25.4800 326.504 m
55.4800 326.504 l
55.4800 356.504 l
25.4800 356.504 l
25.4800 326.504 l
h
f
0 J
1.45000 M
0.00000 0.00000 0.00000 RG
newpath
25.4800 326.504 m
55.4800 326.504 l
55.4800 356.504 l
25.4800 356.504 l
25.4800 326.504 l
h
S
2 J
10.0000 M
1.00000 1.00000 1.00000 RG
newpath
55.4800 326.504 m
85.4800 326.504 l
85.4800 356.504 l
55.4800 356.504 l
55.4800 326.504 l
h
f
0 J
1.45000 M
0.00000 0.00000 0.00000 RG
newpath
55.4800 326.504 m
85.4800 326.504 l
85.4800 356.504 l
55.4800 356.504 l
55.4800 326.504 l
h
S
2 J
10.0000 M
0 J
1.45000 M
newpath
72.1031 365.174 m
72.1031 366.330 l
71.6551 366.122 71.2307 365.963 70.8296 365.854  c
70.4286 365.744 70.0458 365.690 69.6812 365.690  c
69.0353 365.690 68.5379 365.815 68.1890 366.065  c
67.8400 366.315 67.6656 366.674 67.6656 367.143  c
67.6656 367.528 67.7801 367.820 68.0093 368.018  c
68.2385 368.216 68.6812 368.372 69.3374 368.486  c
70.0406 368.643 l
70.9260 368.809 71.5796 369.104 72.0015 369.525  c
72.4234 369.947 72.6343 370.512 72.6343 371.221  c
72.6343 372.075 72.3504 372.721 71.7827 373.158  c
71.2150 373.596 70.3791 373.815 69.2749 373.815  c
68.8687 373.815 68.4312 373.768 67.9624 373.674  c
67.4937 373.580 67.0093 373.440 66.5093 373.252  c
66.5093 372.033 l
66.9885 372.304 67.4598 372.507 67.9234 372.643  c
68.3869 372.778 68.8374 372.846 69.2749 372.846  c
69.9520 372.846 70.4754 372.713 70.8452 372.447  c
71.2150 372.182 71.3999 371.804 71.3999 371.315  c
71.3999 370.887 71.2671 370.552 71.0015 370.307  c
70.7359 370.062 70.3010 369.882 69.6968 369.768  c
68.9781 369.627 l
68.0926 369.450 67.4546 369.174 67.0640 368.799  c
66.6734 368.424 66.4781 367.903 66.4781 367.236  c
66.4781 366.455 66.7489 365.843 67.2906 365.400  c
67.8322 364.958 68.5822 364.736 69.5406 364.736  c
69.9572 364.736 70.3765 364.773 70.7984 364.846  c
71.2202 364.919 71.6551 365.028 72.1031 365.174  c
h
76.9702 367.830 m
76.3973 367.830 75.9416 368.057 75.6031 368.510  c
75.2645 368.963 75.0952 369.580 75.0952 370.361  c
75.0952 371.153 75.2619 371.773 75.5952 372.221  c
75.9286 372.669 76.3869 372.893 76.9702 372.893  c
77.5432 372.893 77.9989 372.666 78.3374 372.213  c
78.6760 371.760 78.8452 371.143 78.8452 370.361  c
78.8452 369.591 78.6760 368.976 78.3374 368.518  c
77.9989 368.059 77.5432 367.830 76.9702 367.830  c
h
76.9702 366.924 m
77.9077 366.924 78.6447 367.229 79.1812 367.838  c
79.7176 368.447 79.9859 369.289 79.9859 370.361  c
79.9859 371.434 79.7176 372.278 79.1812 372.893  c
78.6447 373.507 77.9077 373.815 76.9702 373.815  c
76.0327 373.815 75.2958 373.507 74.7593 372.893  c
74.2228 372.278 73.9546 371.434 73.9546 370.361  c
73.9546 369.289 74.2228 368.447 74.7593 367.838  c
75.2958 367.229 76.0327 366.924 76.9702 366.924  c
h
85.5777 368.080 m
85.4527 368.018 85.3198 367.968 85.1792 367.932  c
85.0386 367.895 84.8797 367.877 84.7027 367.877  c
84.0985 367.877 83.6323 368.075 83.3042 368.471  c
82.9761 368.867 82.8120 369.440 82.8120 370.190  c
82.8120 373.643 l
81.7339 373.643 l
81.7339 367.080 l
82.8120 367.080 l
82.8120 368.096 l
83.0412 367.700 83.3381 367.406 83.7027 367.213  c
84.0672 367.020 84.5100 366.924 85.0308 366.924  c
85.1037 366.924 85.1844 366.929 85.2730 366.940  c
85.3615 366.950 85.4579 366.966 85.5620 366.986  c
85.5777 368.080 l
h
87.7769 365.221 m
87.7769 367.080 l
89.9956 367.080 l
89.9956 367.924 l
87.7769 367.924 l
87.7769 371.486 l
87.7769 372.018 87.8498 372.359 87.9956 372.510  c
88.1415 372.661 88.4383 372.736 88.8863 372.736  c
89.9956 372.736 l
89.9956 373.643 l
88.8863 373.643 l
88.0529 373.643 87.4774 373.486 87.1597 373.174  c
86.8420 372.861 86.6831 372.299 86.6831 371.486  c
86.6831 367.924 l
85.9019 367.924 l
85.9019 367.080 l
86.6831 367.080 l
86.6831 365.221 l
87.7769 365.221 l
h
97.0288 370.096 m
97.0288 370.611 l
92.0601 370.611 l
92.1122 371.361 92.3387 371.929 92.7398 372.315  c
93.1408 372.700 93.6955 372.893 94.4038 372.893  c
94.8205 372.893 95.2241 372.843 95.6148 372.744  c
96.0054 372.645 96.3934 372.492 96.7788 372.283  c
96.7788 373.315 l
96.3830 373.471 95.9820 373.593 95.5757 373.682  c
95.1695 373.770 94.7580 373.815 94.3413 373.815  c
93.2997 373.815 92.4715 373.510 91.8570 372.900  c
91.2424 372.291 90.9351 371.466 90.9351 370.424  c
90.9351 369.351 91.2267 368.499 91.8101 367.869  c
92.3934 367.239 93.1747 366.924 94.1538 366.924  c
95.0392 366.924 95.7398 367.208 96.2554 367.775  c
96.7710 368.343 97.0288 369.117 97.0288 370.096  c
h
95.9507 369.768 m
95.9403 369.184 95.7736 368.716 95.4507 368.361  c
95.1278 368.007 94.7007 367.830 94.1695 367.830  c
93.5653 367.830 93.0835 368.002 92.7241 368.346  c
92.3648 368.690 92.1590 369.169 92.1070 369.783  c
95.9507 369.768 l
h
103.115 368.080 m
103.115 364.518 l
104.193 364.518 l
104.193 373.643 l
103.115 373.643 l
103.115 372.658 l
102.886 373.044 102.599 373.333 102.255 373.525  c
101.912 373.718 101.495 373.815 101.005 373.815  c
100.214 373.815 99.5679 373.497 99.0679 372.861  c
98.5679 372.226 98.3179 371.393 98.3179 370.361  c
98.3179 369.330 98.5679 368.499 99.0679 367.869  c
99.5679 367.239 100.214 366.924 101.005 366.924  c
101.495 366.924 101.912 367.018 102.255 367.205  c
102.599 367.393 102.886 367.684 103.115 368.080  c
h
99.4429 370.361 m
99.4429 371.153 99.6044 371.775 99.9273 372.229  c
100.250 372.682 100.698 372.908 101.271 372.908  c
101.844 372.908 102.294 372.682 102.623 372.229  c
102.951 371.775 103.115 371.153 103.115 370.361  c
103.115 369.570 102.951 368.950 102.623 368.502  c
102.294 368.054 101.844 367.830 101.271 367.830  c
100.698 367.830 100.250 368.054 99.9273 368.502  c
99.6044 368.950 99.4429 369.570 99.4429 370.361  c
h
f
2 J
10.0000 M
1.00000 1.00000 1.00000 RG
newpath
85.4800 326.504 m
115.480 326.504 l
115.480 356.504 l
85.4800 356.504 l
85.4800 326.504 l
h
f
0 J
1.45000 M
0.00000 0.00000 0.00000 RG
newpath
85.4800 326.504 m
115.480 326.504 l
115.480 356.504 l
85.4800 356.504 l
85.4800 326.504 l
h
S
2 J
10.0000 M
1.00000 1.00000 1.00000 RG
newpath
115.480 326.504 m
145.480 326.504 l
145.480 356.504 l
115.480 356.504 l
115.480 326.504 l
h
f
0 J
1.45000 M
0.00000 0.00000 0.00000 RG
newpath
115.480 326.504 m
145.480 326.504 l
145.480 356.504 l
115.480 356.504 l
115.480 326.504 l
h
S
2 J
10.0000 M
1.00000 1.00000 1.00000 RG
newpath
346.630 326.504 m
376.630 326.504 l
376.630 356.504 l
346.630 356.504 l
346.630 326.504 l
h
f
0 J
1.45000 M
0.00000 0.00000 0.00000 RG
newpath
346.630 326.504 m
376.630 326.504 l
376.630 356.504 l
346.630 356.504 l
346.630 326.504 l
h
S
2 J
10.0000 M
1.00000 1.00000 1.00000 RG
newpath
376.630 326.504 m
406.630 326.504 l
406.630 356.504 l
376.630 356.504 l
376.630 326.504 l
h
f
0 J
1.45000 M
0.00000 0.00000 0.00000 RG
newpath
376.630 326.504 m
406.630 326.504 l
406.630 356.504 l
376.630 356.504 l
376.630 326.504 l
h
S
2 J
10.0000 M
0 J
1.45000 M
newpath
393.253 365.174 m
393.253 366.330 l
392.805 366.122 392.381 365.963 391.980 365.854  c
391.579 365.744 391.196 365.690 390.831 365.690  c
390.186 365.690 389.688 365.815 389.339 366.065  c
388.990 366.315 388.816 366.674 388.816 367.143  c
388.816 367.528 388.930 367.820 389.159 368.018  c
389.389 368.216 389.831 368.372 390.488 368.486  c
391.191 368.643 l
392.076 368.809 392.730 369.104 393.152 369.525  c
393.574 369.947 393.784 370.512 393.784 371.221  c
393.784 372.075 393.501 372.721 392.933 373.158  c
392.365 373.596 391.529 373.815 390.425 373.815  c
390.019 373.815 389.581 373.768 389.113 373.674  c
388.644 373.580 388.159 373.440 387.659 373.252  c
387.659 372.033 l
388.139 372.304 388.610 372.507 389.074 372.643  c
389.537 372.778 389.988 372.846 390.425 372.846  c
391.102 372.846 391.626 372.713 391.995 372.447  c
392.365 372.182 392.550 371.804 392.550 371.315  c
392.550 370.887 392.417 370.552 392.152 370.307  c
391.886 370.062 391.451 369.882 390.847 369.768  c
390.128 369.627 l
389.243 369.450 388.605 369.174 388.214 368.799  c
387.824 368.424 387.628 367.903 387.628 367.236  c
387.628 366.455 387.899 365.843 388.441 365.400  c
388.982 364.958 389.732 364.736 390.691 364.736  c
391.107 364.736 391.527 364.773 391.949 364.846  c
392.370 364.919 392.805 365.028 393.253 365.174  c
h
398.120 367.830 m
397.548 367.830 397.092 368.057 396.753 368.510  c
396.415 368.963 396.245 369.580 396.245 370.361  c
396.245 371.153 396.412 371.773 396.745 372.221  c
397.079 372.669 397.537 372.893 398.120 372.893  c
398.693 372.893 399.149 372.666 399.488 372.213  c
399.826 371.760 399.995 371.143 399.995 370.361  c
399.995 369.591 399.826 368.976 399.488 368.518  c
399.149 368.059 398.693 367.830 398.120 367.830  c
h
398.120 366.924 m
399.058 366.924 399.795 367.229 400.331 367.838  c
400.868 368.447 401.136 369.289 401.136 370.361  c
401.136 371.434 400.868 372.278 400.331 372.893  c
399.795 373.507 399.058 373.815 398.120 373.815  c
397.183 373.815 396.446 373.507 395.909 372.893  c
395.373 372.278 395.105 371.434 395.105 370.361  c
395.105 369.289 395.373 368.447 395.909 367.838  c
396.446 367.229 397.183 366.924 398.120 366.924  c
h
406.728 368.080 m
406.603 368.018 406.470 367.968 406.329 367.932  c
406.189 367.895 406.030 367.877 405.853 367.877  c
405.249 367.877 404.783 368.075 404.454 368.471  c
404.126 368.867 403.962 369.440 403.962 370.190  c
403.962 373.643 l
402.884 373.643 l
402.884 367.080 l
403.962 367.080 l
403.962 368.096 l
404.191 367.700 404.488 367.406 404.853 367.213  c
405.217 367.020 405.660 366.924 406.181 366.924  c
406.254 366.924 406.335 366.929 406.423 366.940  c
406.512 366.950 406.608 366.966 406.712 366.986  c
406.728 368.080 l
h
408.927 365.221 m
408.927 367.080 l
411.146 367.080 l
411.146 367.924 l
408.927 367.924 l
408.927 371.486 l
408.927 372.018 409.000 372.359 409.146 372.510  c
409.292 372.661 409.589 372.736 410.036 372.736  c
411.146 372.736 l
411.146 373.643 l
410.036 373.643 l
409.203 373.643 408.628 373.486 408.310 373.174  c
407.992 372.861 407.833 372.299 407.833 371.486  c
407.833 367.924 l
407.052 367.924 l
407.052 367.080 l
407.833 367.080 l
407.833 365.221 l
408.927 365.221 l
h
418.179 370.096 m
418.179 370.611 l
413.210 370.611 l
413.262 371.361 413.489 371.929 413.890 372.315  c
414.291 372.700 414.846 372.893 415.554 372.893  c
415.971 372.893 416.374 372.843 416.765 372.744  c
417.156 372.645 417.544 372.492 417.929 372.283  c
417.929 373.315 l
417.533 373.471 417.132 373.593 416.726 373.682  c
416.320 373.770 415.908 373.815 415.492 373.815  c
414.450 373.815 413.622 373.510 413.007 372.900  c
412.393 372.291 412.085 371.466 412.085 370.424  c
412.085 369.351 412.377 368.499 412.960 367.869  c
413.544 367.239 414.325 366.924 415.304 366.924  c
416.189 366.924 416.890 367.208 417.406 367.775  c
417.921 368.343 418.179 369.117 418.179 370.096  c
h
417.101 369.768 m
417.090 369.184 416.924 368.716 416.601 368.361  c
416.278 368.007 415.851 367.830 415.320 367.830  c
414.715 367.830 414.234 368.002 413.874 368.346  c
413.515 368.690 413.309 369.169 413.257 369.783  c
417.101 369.768 l
h
424.265 368.080 m
424.265 364.518 l
425.343 364.518 l
425.343 373.643 l
424.265 373.643 l
424.265 372.658 l
424.036 373.044 423.749 373.333 423.406 373.525  c
423.062 373.718 422.645 373.815 422.156 373.815  c
421.364 373.815 420.718 373.497 420.218 372.861  c
419.718 372.226 419.468 371.393 419.468 370.361  c
419.468 369.330 419.718 368.499 420.218 367.869  c
420.718 367.239 421.364 366.924 422.156 366.924  c
422.645 366.924 423.062 367.018 423.406 367.205  c
423.749 367.393 424.036 367.684 424.265 368.080  c
h
420.593 370.361 m
420.593 371.153 420.755 371.775 421.077 372.229  c
421.400 372.682 421.848 372.908 422.421 372.908  c
422.994 372.908 423.445 372.682 423.773 372.229  c
424.101 371.775 424.265 371.153 424.265 370.361  c
424.265 369.570 424.101 368.950 423.773 368.502  c
423.445 368.054 422.994 367.830 422.421 367.830  c
421.848 367.830 421.400 368.054 421.077 368.502  c
420.755 368.950 420.593 369.570 420.593 370.361  c
h
f
2 J
10.0000 M
1.00000 1.00000 1.00000 RG
newpath
406.630 326.504 m
436.630 326.504 l
436.630 356.504 l
406.630 356.504 l
406.630 326.504 l
h
f
0 J
1.45000 M
0.00000 0.00000 0.00000 RG
newpath
406.630 326.504 m
436.630 326.504 l
436.630 356.504 l
406.630 356.504 l
406.630 326.504 l
h
S
2 J
10.0000 M
1.00000 1.00000 1.00000 RG
newpath
436.630 326.504 m
466.630 326.504 l
466.630 356.504 l
436.630 356.504 l
436.630 326.504 l
h
f
0 J
1.45000 M
0.00000 0.00000 0.00000 RG
newpath
436.630 326.504 m
466.630 326.504 l
466.630 356.504 l
436.630 356.504 l
436.630 326.504 l
h
S
2 J
10.0000 M
1.00000 1.00000 1.00000 RG
newpath
186.235 326.504 m
216.235 326.504 l
216.235 356.504 l
186.235 356.504 l
186.235 326.504 l
h
f
0 J
1.45000 M
0.00000 0.00000 0.00000 RG
newpath
186.235 326.504 m
216.235 326.504 l
216.235 356.504 l
186.235 356.504 l
186.235 326.504 l
h
S
2 J
10.0000 M
1.00000 1.00000 1.00000 RG
newpath
216.235 326.504 m
246.235 326.504 l
246.235 356.504 l
216.235 356.504 l
216.235 326.504 l
h
f
0 J
1.45000 M
0.00000 0.00000 0.00000 RG
newpath
216.235 326.504 m
246.235 326.504 l
246.235 356.504 l
216.235 356.504 l
216.235 326.504 l
h
S
2 J
10.0000 M
0 J
1.45000 M
newpath
232.858 365.174 m
232.858 366.330 l
232.411 366.122 231.986 365.963 231.585 365.854  c
231.184 365.744 230.801 365.690 230.437 365.690  c
229.791 365.690 229.293 365.815 228.944 366.065  c
228.595 366.315 228.421 366.674 228.421 367.143  c
228.421 367.528 228.536 367.820 228.765 368.018  c
228.994 368.216 229.437 368.372 230.093 368.486  c
230.796 368.643 l
231.681 368.809 232.335 369.104 232.757 369.525  c
233.179 369.947 233.390 370.512 233.390 371.221  c
233.390 372.075 233.106 372.721 232.538 373.158  c
231.970 373.596 231.135 373.815 230.030 373.815  c
229.624 373.815 229.187 373.768 228.718 373.674  c
228.249 373.580 227.765 373.440 227.265 373.252  c
227.265 372.033 l
227.744 372.304 228.215 372.507 228.679 372.643  c
229.142 372.778 229.593 372.846 230.030 372.846  c
230.707 372.846 231.231 372.713 231.601 372.447  c
231.970 372.182 232.155 371.804 232.155 371.315  c
232.155 370.887 232.023 370.552 231.757 370.307  c
231.491 370.062 231.056 369.882 230.452 369.768  c
229.733 369.627 l
228.848 369.450 228.210 369.174 227.819 368.799  c
227.429 368.424 227.233 367.903 227.233 367.236  c
227.233 366.455 227.504 365.843 228.046 365.400  c
228.588 364.958 229.338 364.736 230.296 364.736  c
230.713 364.736 231.132 364.773 231.554 364.846  c
231.976 364.919 232.411 365.028 232.858 365.174  c
h
237.726 367.830 m
237.153 367.830 236.697 368.057 236.358 368.510  c
236.020 368.963 235.851 369.580 235.851 370.361  c
235.851 371.153 236.017 371.773 236.351 372.221  c
236.684 372.669 237.142 372.893 237.726 372.893  c
238.299 372.893 238.754 372.666 239.093 372.213  c
239.431 371.760 239.601 371.143 239.601 370.361  c
239.601 369.591 239.431 368.976 239.093 368.518  c
238.754 368.059 238.299 367.830 237.726 367.830  c
h
237.726 366.924 m
238.663 366.924 239.400 367.229 239.937 367.838  c
240.473 368.447 240.741 369.289 240.741 370.361  c
240.741 371.434 240.473 372.278 239.937 372.893  c
239.400 373.507 238.663 373.815 237.726 373.815  c
236.788 373.815 236.051 373.507 235.515 372.893  c
234.978 372.278 234.710 371.434 234.710 370.361  c
234.710 369.289 234.978 368.447 235.515 367.838  c
236.051 367.229 236.788 366.924 237.726 366.924  c
h
246.333 368.080 m
246.208 368.018 246.075 367.968 245.935 367.932  c
245.794 367.895 245.635 367.877 245.458 367.877  c
244.854 367.877 244.388 368.075 244.060 368.471  c
243.732 368.867 243.567 369.440 243.567 370.190  c
243.567 373.643 l
242.489 373.643 l
242.489 367.080 l
243.567 367.080 l
243.567 368.096 l
243.797 367.700 244.094 367.406 244.458 367.213  c
244.823 367.020 245.265 366.924 245.786 366.924  c
245.859 366.924 245.940 366.929 246.028 366.940  c
246.117 366.950 246.213 366.966 246.317 366.986  c
246.333 368.080 l
h
248.532 365.221 m
248.532 367.080 l
250.751 367.080 l
250.751 367.924 l
248.532 367.924 l
248.532 371.486 l
248.532 372.018 248.605 372.359 248.751 372.510  c
248.897 372.661 249.194 372.736 249.642 372.736  c
250.751 372.736 l
250.751 373.643 l
249.642 373.643 l
248.808 373.643 248.233 373.486 247.915 373.174  c
247.597 372.861 247.439 372.299 247.439 371.486  c
247.439 367.924 l
246.657 367.924 l
246.657 367.080 l
247.439 367.080 l
247.439 365.221 l
248.532 365.221 l
h
257.784 370.096 m
257.784 370.611 l
252.816 370.611 l
252.868 371.361 253.094 371.929 253.495 372.315  c
253.896 372.700 254.451 372.893 255.159 372.893  c
255.576 372.893 255.980 372.843 256.370 372.744  c
256.761 372.645 257.149 372.492 257.534 372.283  c
257.534 373.315 l
257.138 373.471 256.737 373.593 256.331 373.682  c
255.925 373.770 255.513 373.815 255.097 373.815  c
254.055 373.815 253.227 373.510 252.612 372.900  c
251.998 372.291 251.691 371.466 251.691 370.424  c
251.691 369.351 251.982 368.499 252.566 367.869  c
253.149 367.239 253.930 366.924 254.909 366.924  c
255.795 366.924 256.495 367.208 257.011 367.775  c
257.526 368.343 257.784 369.117 257.784 370.096  c
h
256.706 369.768 m
256.696 369.184 256.529 368.716 256.206 368.361  c
255.883 368.007 255.456 367.830 254.925 367.830  c
254.321 367.830 253.839 368.002 253.480 368.346  c
253.120 368.690 252.914 369.169 252.862 369.783  c
256.706 369.768 l
h
263.870 368.080 m
263.870 364.518 l
264.948 364.518 l
264.948 373.643 l
263.870 373.643 l
263.870 372.658 l
263.641 373.044 263.355 373.333 263.011 373.525  c
262.667 373.718 262.250 373.815 261.761 373.815  c
260.969 373.815 260.323 373.497 259.823 372.861  c
259.323 372.226 259.073 371.393 259.073 370.361  c
259.073 369.330 259.323 368.499 259.823 367.869  c
260.323 367.239 260.969 366.924 261.761 366.924  c
262.250 366.924 262.667 367.018 263.011 367.205  c
263.355 367.393 263.641 367.684 263.870 368.080  c
h
260.198 370.361 m
260.198 371.153 260.360 371.775 260.683 372.229  c
261.006 372.682 261.454 372.908 262.026 372.908  c
262.599 372.908 263.050 372.682 263.378 372.229  c
263.706 371.775 263.870 371.153 263.870 370.361  c
263.870 369.570 263.706 368.950 263.378 368.502  c
263.050 368.054 262.599 367.830 262.026 367.830  c
261.454 367.830 261.006 368.054 260.683 368.502  c
260.360 368.950 260.198 369.570 260.198 370.361  c
h
f
2 J
10.0000 M
1.00000 1.00000 1.00000 RG
newpath
246.235 326.504 m
276.235 326.504 l
276.235 356.504 l
246.235 356.504 l
246.235 326.504 l
h
f
0 J
1.45000 M
0.00000 0.00000 0.00000 RG
newpath
246.235 326.504 m
276.235 326.504 l
276.235 356.504 l
246.235 356.504 l
246.235 326.504 l
h
S
2 J
10.0000 M
1.00000 1.00000 1.00000 RG
newpath
276.235 326.504 m
306.235 326.504 l
306.235 356.504 l
276.235 356.504 l
276.235 326.504 l
h
f
0 J
1.45000 M
0.00000 0.00000 0.00000 RG
newpath
276.235 326.504 m
306.235 326.504 l
306.235 356.504 l
276.235 356.504 l
276.235 326.504 l
h
S
2 J
10.0000 M
1.00000 1.00000 1.00000 RG
newpath
505.480 326.504 m
535.480 326.504 l
535.480 356.504 l
505.480 356.504 l
505.480 326.504 l
h
f
0 J
1.45000 M
0.00000 0.00000 0.00000 RG
newpath
505.480 326.504 m
535.480 326.504 l
535.480 356.504 l
505.480 356.504 l
505.480 326.504 l
h
S
2 J
10.0000 M
1.00000 1.00000 1.00000 RG
newpath
535.480 326.504 m
565.480 326.504 l
565.480 356.504 l
535.480 356.504 l
535.480 326.504 l
h
f
0 J
1.45000 M
0.00000 0.00000 0.00000 RG
newpath
535.480 326.504 m
565.480 326.504 l
565.480 356.504 l
535.480 356.504 l
535.480 326.504 l
h
S
2 J
10.0000 M
0 J
1.45000 M
newpath
552.103 365.174 m
552.103 366.330 l
551.655 366.122 551.231 365.963 550.830 365.854  c
550.429 365.744 550.046 365.690 549.681 365.690  c
549.035 365.690 548.538 365.815 548.189 366.065  c
547.840 366.315 547.666 366.674 547.666 367.143  c
547.666 367.528 547.780 367.820 548.009 368.018  c
548.238 368.216 548.681 368.372 549.337 368.486  c
550.041 368.643 l
550.926 368.809 551.580 369.104 552.001 369.525  c
552.423 369.947 552.634 370.512 552.634 371.221  c
552.634 372.075 552.350 372.721 551.783 373.158  c
551.215 373.596 550.379 373.815 549.275 373.815  c
548.869 373.815 548.431 373.768 547.962 373.674  c
547.494 373.580 547.009 373.440 546.509 373.252  c
546.509 372.033 l
546.988 372.304 547.460 372.507 547.923 372.643  c
548.387 372.778 548.837 372.846 549.275 372.846  c
549.952 372.846 550.475 372.713 550.845 372.447  c
551.215 372.182 551.400 371.804 551.400 371.315  c
551.400 370.887 551.267 370.552 551.001 370.307  c
550.736 370.062 550.301 369.882 549.697 369.768  c
548.978 369.627 l
548.093 369.450 547.455 369.174 547.064 368.799  c
546.673 368.424 546.478 367.903 546.478 367.236  c
546.478 366.455 546.749 365.843 547.291 365.400  c
547.832 364.958 548.582 364.736 549.541 364.736  c
549.957 364.736 550.376 364.773 550.798 364.846  c
551.220 364.919 551.655 365.028 552.103 365.174  c
h
556.970 367.830 m
556.397 367.830 555.942 368.057 555.603 368.510  c
555.264 368.963 555.095 369.580 555.095 370.361  c
555.095 371.153 555.262 371.773 555.595 372.221  c
555.929 372.669 556.387 372.893 556.970 372.893  c
557.543 372.893 557.999 372.666 558.337 372.213  c
558.676 371.760 558.845 371.143 558.845 370.361  c
558.845 369.591 558.676 368.976 558.337 368.518  c
557.999 368.059 557.543 367.830 556.970 367.830  c
h
556.970 366.924 m
557.908 366.924 558.645 367.229 559.181 367.838  c
559.718 368.447 559.986 369.289 559.986 370.361  c
559.986 371.434 559.718 372.278 559.181 372.893  c
558.645 373.507 557.908 373.815 556.970 373.815  c
556.033 373.815 555.296 373.507 554.759 372.893  c
554.223 372.278 553.955 371.434 553.955 370.361  c
553.955 369.289 554.223 368.447 554.759 367.838  c
555.296 367.229 556.033 366.924 556.970 366.924  c
h
565.578 368.080 m
565.453 368.018 565.320 367.968 565.179 367.932  c
565.039 367.895 564.880 367.877 564.703 367.877  c
564.098 367.877 563.632 368.075 563.304 368.471  c
562.976 368.867 562.812 369.440 562.812 370.190  c
562.812 373.643 l
561.734 373.643 l
561.734 367.080 l
562.812 367.080 l
562.812 368.096 l
563.041 367.700 563.338 367.406 563.703 367.213  c
564.067 367.020 564.510 366.924 565.031 366.924  c
565.104 366.924 565.184 366.929 565.273 366.940  c
565.361 366.950 565.458 366.966 565.562 366.986  c
565.578 368.080 l
h
567.777 365.221 m
567.777 367.080 l
569.996 367.080 l
569.996 367.924 l
567.777 367.924 l
567.777 371.486 l
567.777 372.018 567.850 372.359 567.996 372.510  c
568.141 372.661 568.438 372.736 568.886 372.736  c
569.996 372.736 l
569.996 373.643 l
568.886 373.643 l
568.053 373.643 567.477 373.486 567.160 373.174  c
566.842 372.861 566.683 372.299 566.683 371.486  c
566.683 367.924 l
565.902 367.924 l
565.902 367.080 l
566.683 367.080 l
566.683 365.221 l
567.777 365.221 l
h
577.029 370.096 m
577.029 370.611 l
572.060 370.611 l
572.112 371.361 572.339 371.929 572.740 372.315  c
573.141 372.700 573.695 372.893 574.404 372.893  c
574.820 372.893 575.224 372.843 575.615 372.744  c
576.005 372.645 576.393 372.492 576.779 372.283  c
576.779 373.315 l
576.383 373.471 575.982 373.593 575.576 373.682  c
575.169 373.770 574.758 373.815 574.341 373.815  c
573.300 373.815 572.472 373.510 571.857 372.900  c
571.242 372.291 570.935 371.466 570.935 370.424  c
570.935 369.351 571.227 368.499 571.810 367.869  c
572.393 367.239 573.175 366.924 574.154 366.924  c
575.039 366.924 575.740 367.208 576.255 367.775  c
576.771 368.343 577.029 369.117 577.029 370.096  c
h
575.951 369.768 m
575.940 369.184 575.774 368.716 575.451 368.361  c
575.128 368.007 574.701 367.830 574.169 367.830  c
573.565 367.830 573.083 368.002 572.724 368.346  c
572.365 368.690 572.159 369.169 572.107 369.783  c
575.951 369.768 l
h
583.115 368.080 m
583.115 364.518 l
584.193 364.518 l
584.193 373.643 l
583.115 373.643 l
583.115 372.658 l
582.886 373.044 582.599 373.333 582.255 373.525  c
581.912 373.718 581.495 373.815 581.005 373.815  c
580.214 373.815 579.568 373.497 579.068 372.861  c
578.568 372.226 578.318 371.393 578.318 370.361  c
578.318 369.330 578.568 368.499 579.068 367.869  c
579.568 367.239 580.214 366.924 581.005 366.924  c
581.495 366.924 581.912 367.018 582.255 367.205  c
582.599 367.393 582.886 367.684 583.115 368.080  c
h
579.443 370.361 m
579.443 371.153 579.604 371.775 579.927 372.229  c
580.250 372.682 580.698 372.908 581.271 372.908  c
581.844 372.908 582.294 372.682 582.623 372.229  c
582.951 371.775 583.115 371.153 583.115 370.361  c
583.115 369.570 582.951 368.950 582.623 368.502  c
582.294 368.054 581.844 367.830 581.271 367.830  c
580.698 367.830 580.250 368.054 579.927 368.502  c
579.604 368.950 579.443 369.570 579.443 370.361  c
h
f
2 J
10.0000 M
1.00000 1.00000 1.00000 RG
newpath
565.480 326.504 m
595.480 326.504 l
595.480 356.504 l
565.480 356.504 l
565.480 326.504 l
h
f
0 J
1.45000 M
0.00000 0.00000 0.00000 RG
newpath
565.480 326.504 m
595.480 326.504 l
595.480 356.504 l
565.480 356.504 l
565.480 326.504 l
h
S
2 J
10.0000 M
1.00000 1.00000 1.00000 RG
newpath
595.480 326.504 m
625.480 326.504 l
625.480 356.504 l
595.480 356.504 l
595.480 326.504 l
h
f
0 J
1.45000 M
0.00000 0.00000 0.00000 RG
newpath
595.480 326.504 m
625.480 326.504 l
625.480 356.504 l
595.480 356.504 l
595.480 326.504 l
h
S
2 J
10.0000 M
1.00000 1.00000 1.00000 RG
newpath
85.6258 425.400 m
115.626 425.400 l
115.626 455.400 l
85.6258 455.400 l
85.6258 425.400 l
h
f
0 J
1.45000 M
0.00000 0.00000 0.00000 RG
newpath
85.6258 425.400 m
115.626 425.400 l
115.626 455.400 l
85.6258 455.400 l
85.6258 425.400 l
h
S
2 J
10.0000 M
1.00000 1.00000 1.00000 RG
newpath
115.626 425.400 m
145.626 425.400 l
145.626 455.400 l
115.626 455.400 l
115.626 425.400 l
h
f
0 J
1.45000 M
0.00000 0.00000 0.00000 RG
newpath
115.626 425.400 m
145.626 425.400 l
145.626 455.400 l
115.626 455.400 l
115.626 425.400 l
h
S
2 J
10.0000 M
1.00000 1.00000 1.00000 RG
newpath
175.626 425.400 m
205.626 425.400 l
205.626 455.400 l
175.626 455.400 l
175.626 425.400 l
h
f
0 J
1.45000 M
0.00000 0.00000 0.00000 RG
newpath
175.626 425.400 m
205.626 425.400 l
205.626 455.400 l
175.626 455.400 l
175.626 425.400 l
h
S
2 J
10.0000 M
1.00000 1.00000 1.00000 RG
newpath
205.626 425.400 m
235.626 425.400 l
235.626 455.400 l
205.626 455.400 l
205.626 425.400 l
h
f
0 J
1.45000 M
0.00000 0.00000 0.00000 RG
newpath
205.626 425.400 m
235.626 425.400 l
235.626 455.400 l
205.626 455.400 l
205.626 425.400 l
h
S
2 J
10.0000 M
1.00000 1.00000 1.00000 RG
newpath
235.626 425.400 m
265.626 425.400 l
265.626 455.400 l
235.626 455.400 l
235.626 425.400 l
h
f
0 J
1.45000 M
0.00000 0.00000 0.00000 RG
newpath
235.626 425.400 m
265.626 425.400 l
265.626 455.400 l
235.626 455.400 l
235.626 425.400 l
h
S
2 J
10.0000 M
1.00000 1.00000 1.00000 RG
newpath
265.626 425.400 m
295.626 425.400 l
295.626 455.400 l
265.626 455.400 l
265.626 425.400 l
h
f
0 J
1.45000 M
0.00000 0.00000 0.00000 RG
newpath
265.626 425.400 m
295.626 425.400 l
295.626 455.400 l
265.626 455.400 l
265.626 425.400 l
h
S
2 J
10.0000 M
1.00000 1.00000 1.00000 RG
newpath
295.626 425.400 m
325.626 425.400 l
325.626 455.400 l
295.626 455.400 l
295.626 425.400 l
h
f
0 J
1.45000 M
0.00000 0.00000 0.00000 RG
newpath
295.626 425.400 m
325.626 425.400 l
325.626 455.400 l
295.626 455.400 l
295.626 425.400 l
h
S
2 J
10.0000 M
1.00000 1.00000 1.00000 RG
newpath
325.626 425.400 m
355.626 425.400 l
355.626 455.400 l
325.626 455.400 l
325.626 425.400 l
h
f
0 J
1.45000 M
0.00000 0.00000 0.00000 RG
newpath
325.626 425.400 m
355.626 425.400 l
355.626 455.400 l
325.626 455.400 l
325.626 425.400 l
h
S
2 J
10.0000 M
1.00000 1.00000 1.00000 RG
newpath
355.626 425.400 m
385.626 425.400 l
385.626 455.400 l
355.626 455.400 l
355.626 425.400 l
h
f
0 J
1.45000 M
0.00000 0.00000 0.00000 RG
newpath
355.626 425.400 m
385.626 425.400 l
385.626 455.400 l
355.626 455.400 l
355.626 425.400 l
h
S
2 J
10.0000 M
1.00000 1.00000 1.00000 RG
newpath
385.626 425.400 m
415.626 425.400 l
415.626 455.400 l
385.626 455.400 l
385.626 425.400 l
h
f
0 J
1.45000 M
0.00000 0.00000 0.00000 RG
newpath
385.626 425.400 m
415.626 425.400 l
415.626 455.400 l
385.626 455.400 l
385.626 425.400 l
h
S
2 J
10.0000 M
1.00000 1.00000 1.00000 RG
newpath
415.626 425.400 m
445.626 425.400 l
445.626 455.400 l
415.626 455.400 l
415.626 425.400 l
h
f
0 J
1.45000 M
0.00000 0.00000 0.00000 RG
newpath
415.626 425.400 m
445.626 425.400 l
445.626 455.400 l
415.626 455.400 l
415.626 425.400 l
h
S
2 J
10.0000 M
1.00000 1.00000 1.00000 RG
newpath
445.626 425.400 m
475.626 425.400 l
475.626 455.400 l
445.626 455.400 l
445.626 425.400 l
h
f
0 J
1.45000 M
0.00000 0.00000 0.00000 RG
newpath
445.626 425.400 m
475.626 425.400 l
475.626 455.400 l
445.626 455.400 l
445.626 425.400 l
h
S
2 J
10.0000 M
1.00000 1.00000 1.00000 RG
newpath
475.626 425.400 m
505.626 425.400 l
505.626 455.400 l
475.626 455.400 l
475.626 425.400 l
h
f
0 J
1.45000 M
0.00000 0.00000 0.00000 RG
newpath
475.626 425.400 m
505.626 425.400 l
505.626 455.400 l
475.626 455.400 l
475.626 425.400 l
h
S
2 J
10.0000 M
1.00000 1.00000 1.00000 RG
newpath
505.626 425.400 m
535.626 425.400 l
535.626 455.400 l
505.626 455.400 l
505.626 425.400 l
h
f
0 J
1.45000 M
0.00000 0.00000 0.00000 RG
newpath
505.626 425.400 m
535.626 425.400 l
535.626 455.400 l
505.626 455.400 l
505.626 425.400 l
h
S
2 J
10.0000 M
1.00000 1.00000 1.00000 RG
newpath
535.626 425.400 m
565.626 425.400 l
565.626 455.400 l
535.626 455.400 l
535.626 425.400 l
h
f
0 J
1.45000 M
0.00000 0.00000 0.00000 RG
newpath
535.626 425.400 m
565.626 425.400 l
565.626 455.400 l
535.626 455.400 l
535.626 425.400 l
h
S
2 J
10.0000 M
1.00000 1.00000 1.00000 RG
newpath
145.626 425.400 m
175.626 425.400 l
175.626 455.400 l
145.626 455.400 l
145.626 425.400 l
h
f
0 J
1.45000 M
0.00000 0.00000 0.00000 RG
newpath
145.626 425.400 m
175.626 425.400 l
175.626 455.400 l
145.626 455.400 l
145.626 425.400 l
h
S
2 J
10.0000 M
0 J
1.45000 M
newpath
311.925 464.070 m
311.925 465.226 l
311.478 465.018 311.053 464.859 310.652 464.750  c
310.251 464.640 309.868 464.586 309.504 464.586  c
308.858 464.586 308.360 464.711 308.011 464.961  c
307.662 465.211 307.488 465.570 307.488 466.039  c
307.488 466.424 307.603 466.716 307.832 466.914  c
308.061 467.112 308.504 467.268 309.160 467.382  c
309.863 467.539 l
310.748 467.705 311.402 468.000 311.824 468.421  c
312.246 468.843 312.457 469.408 312.457 470.117  c
312.457 470.971 312.173 471.617 311.605 472.054  c
311.037 472.492 310.201 472.711 309.097 472.711  c
308.691 472.711 308.254 472.664 307.785 472.570  c
307.316 472.476 306.832 472.336 306.332 472.148  c
306.332 470.929 l
306.811 471.200 307.282 471.403 307.746 471.539  c
308.209 471.674 308.660 471.742 309.097 471.742  c
309.774 471.742 310.298 471.609 310.668 471.343  c
311.037 471.078 311.222 470.700 311.222 470.211  c
311.222 469.783 311.090 469.448 310.824 469.203  c
310.558 468.958 310.123 468.778 309.519 468.664  c
308.800 468.523 l
307.915 468.346 307.277 468.070 306.886 467.695  c
306.496 467.320 306.300 466.799 306.300 466.132  c
306.300 465.351 306.571 464.739 307.113 464.296  c
307.655 463.854 308.405 463.632 309.363 463.632  c
309.780 463.632 310.199 463.669 310.621 463.742  c
311.043 463.815 311.478 463.924 311.925 464.070  c
h
316.793 466.726 m
316.220 466.726 315.764 466.953 315.425 467.406  c
315.087 467.859 314.918 468.476 314.918 469.257  c
314.918 470.049 315.084 470.669 315.418 471.117  c
315.751 471.565 316.209 471.789 316.793 471.789  c
317.366 471.789 317.821 471.562 318.160 471.109  c
318.498 470.656 318.668 470.039 318.668 469.257  c
318.668 468.487 318.498 467.872 318.160 467.414  c
317.821 466.955 317.366 466.726 316.793 466.726  c
h
316.793 465.820 m
317.730 465.820 318.467 466.125 319.004 466.734  c
319.540 467.343 319.808 468.184 319.808 469.257  c
319.808 470.330 319.540 471.174 319.004 471.789  c
318.467 472.403 317.730 472.711 316.793 472.711  c
315.855 472.711 315.118 472.403 314.582 471.789  c
314.045 471.174 313.777 470.330 313.777 469.257  c
313.777 468.184 314.045 467.343 314.582 466.734  c
315.118 466.125 315.855 465.820 316.793 465.820  c
h
325.400 466.976 m
325.275 466.914 325.142 466.864 325.002 466.828  c
324.861 466.791 324.702 466.773 324.525 466.773  c
323.921 466.773 323.455 466.971 323.127 467.367  c
322.798 467.763 322.634 468.336 322.634 469.086  c
322.634 472.539 l
321.556 472.539 l
321.556 465.976 l
322.634 465.976 l
322.634 466.992 l
322.864 466.596 323.160 466.302 323.525 466.109  c
323.890 465.916 324.332 465.820 324.853 465.820  c
324.926 465.820 325.007 465.825 325.095 465.836  c
325.184 465.846 325.280 465.862 325.384 465.882  c
325.400 466.976 l
h
327.599 464.117 m
327.599 465.976 l
329.818 465.976 l
329.818 466.820 l
327.599 466.820 l
327.599 470.382 l
327.599 470.914 327.672 471.255 327.818 471.406  c
327.964 471.557 328.261 471.632 328.709 471.632  c
329.818 471.632 l
329.818 472.539 l
328.709 472.539 l
327.875 472.539 327.300 472.382 326.982 472.070  c
326.664 471.757 326.506 471.195 326.506 470.382  c
326.506 466.820 l
325.724 466.820 l
325.724 465.976 l
326.506 465.976 l
326.506 464.117 l
327.599 464.117 l
h
336.851 468.992 m
336.851 469.507 l
331.882 469.507 l
331.935 470.257 332.161 470.825 332.562 471.211  c
332.963 471.596 333.518 471.789 334.226 471.789  c
334.643 471.789 335.047 471.739 335.437 471.640  c
335.828 471.541 336.216 471.388 336.601 471.179  c
336.601 472.211 l
336.205 472.367 335.804 472.489 335.398 472.578  c
334.992 472.666 334.580 472.711 334.164 472.711  c
333.122 472.711 332.294 472.406 331.679 471.796  c
331.065 471.187 330.757 470.362 330.757 469.320  c
330.757 468.247 331.049 467.395 331.632 466.765  c
332.216 466.135 332.997 465.820 333.976 465.820  c
334.862 465.820 335.562 466.104 336.078 466.671  c
336.593 467.239 336.851 468.013 336.851 468.992  c
h
335.773 468.664 m
335.763 468.080 335.596 467.612 335.273 467.257  c
334.950 466.903 334.523 466.726 333.992 466.726  c
333.388 466.726 332.906 466.898 332.547 467.242  c
332.187 467.586 331.981 468.065 331.929 468.679  c
335.773 468.664 l
h
342.937 466.976 m
342.937 463.414 l
344.015 463.414 l
344.015 472.539 l
342.937 472.539 l
342.937 471.554 l
342.708 471.940 342.422 472.229 342.078 472.421  c
341.734 472.614 341.317 472.711 340.828 472.711  c
340.036 472.711 339.390 472.393 338.890 471.757  c
338.390 471.122 338.140 470.289 338.140 469.257  c
338.140 468.226 338.390 467.395 338.890 466.765  c
339.390 466.135 340.036 465.820 340.828 465.820  c
341.317 465.820 341.734 465.914 342.078 466.101  c
342.422 466.289 342.708 466.580 342.937 466.976  c
h
339.265 469.257 m
339.265 470.049 339.427 470.671 339.750 471.125  c
340.073 471.578 340.520 471.804 341.093 471.804  c
341.666 471.804 342.117 471.578 342.445 471.125  c
342.773 470.671 342.937 470.049 342.937 469.257  c
342.937 468.466 342.773 467.846 342.445 467.398  c
342.117 466.950 341.666 466.726 341.093 466.726  c
340.520 466.726 340.073 466.950 339.750 467.398  c
339.427 467.846 339.265 468.466 339.265 469.257  c
h
f
2 J
10.0000 M
0 J
1.45000 M
newpath
515.011 378.761 m
453.120 414.945 l
S
newpath
446.214 418.983 m
459.097 417.243 l
453.984 414.440 l
454.050 408.610 l
h
f
2 J
10.0000 M
0 J
1.45000 M
newpath
397.940 378.751 m
388.259 411.330 l
S
newpath
385.980 418.998 m
394.191 408.920 l
388.544 410.371 l
384.606 406.071 l
h
f
2 J
10.0000 M
0 J
1.45000 M
newpath
253.968 378.754 m
262.379 411.223 l
S
newpath
264.385 418.967 m
266.216 406.097 l
262.128 410.255 l
256.535 408.605 l
h
f
2 J
10.0000 M
0 J
1.45000 M
newpath
131.738 378.784 m
187.564 414.678 l
S
newpath
194.293 419.005 m
186.904 408.309 l
186.723 414.137 l
181.495 416.721 l
h
f
2 J
10.0000 M
0 J
1.45000 M
newpath
343.670 175.248 m
383.381 224.433 l
S
newpath
388.406 230.658 m
384.758 218.180 l
382.753 223.655 l
376.978 224.462 l
h
f
2 J
10.0000 M
0 J
1.45000 M
newpath
274.014 175.227 m
145.851 227.643 l
S
newpath
138.446 230.672 m
151.446 230.757 l
146.777 227.265 l
147.661 221.501 l
h
f
2 J
10.0000 M
0 J
1.45000 M
newpath
86.1003 273.520 m
86.1003 312.117 l
S
newpath
86.1003 320.117 m
91.1003 308.117 l
86.1003 311.117 l
81.1003 308.117 l
h
f
2 J
10.0000 M
0 J
1.45000 M
newpath
308.954 175.242 m
268.958 224.456 l
S
newpath
263.912 230.664 m
275.361 224.505 l
269.589 223.680 l
267.600 218.198 l
h
f
2 J
10.0000 M
0 J
1.45000 M
newpath
246.375 273.520 m
246.375 312.117 l
S
newpath
246.375 320.117 m
251.375 308.117 l
246.375 311.117 l
241.375 308.117 l
h
f
2 J
10.0000 M
0 J
1.45000 M
newpath
378.399 175.227 m
505.740 227.627 l
S
newpath
513.138 230.672 m
503.943 221.481 l
504.815 227.247 l
500.138 230.729 l
h
f
2 J
10.0000 M
0 J
1.45000 M
newpath
565.164 273.520 m
565.164 312.117 l
S
newpath
565.164 320.117 m
570.164 308.117 l
565.164 311.117 l
560.164 308.117 l
h
f
2 J
10.0000 M
0 J
1.45000 M
newpath
406.630 267.057 m
406.630 318.491 l
S
newpath
406.630 326.491 m
411.630 314.491 l
406.630 317.491 l
401.630 314.491 l
h
f
2 J
10.0000 M
Q
[ 1.00000 0.00000 0.00000 1.00000 0.00000 0.00000 ] defaultmatrix matrix concatmatrix setmatrix
cliprestore

%%Trailer
%%EOF
