%!PS-Adobe-3.0 EPSF-3.0
%%BoundingBox: 0 0 708 341
%%Creator: yExport 1.5
%%Producer: org.freehep.graphicsio.ps.EPSGraphics2D Revision: 12753 
%%For: 
%%Title: 
%%CreationDate: Monday, January 15, 2018 12:59:16 PM CET
%%LanguageLevel: 3
%%EndComments
%%BeginProlog
100 dict dup begin

%
% File: org/freehep/graphicsio.ps/PSProlog.txt
% Author: Charles Loomis
%

% Redefinitions which save some space in the output file.  These are also
% the same as the PDF operators.
/q {gsave} def
/Q {grestore} def

/n {newpath} def
/m {moveto} def
/l {lineto} def
/c {curveto} def
/h {closepath} def

/re {4 -2 roll moveto
     dup 0 exch rlineto exch 0 rlineto
     neg 0 exch rlineto closepath} def

/f {fill} def
/f* {eofill} def
/F {gsave vg&FC fill grestore} def
/F* {gsave vg&FC eofill grestore} def

/s {closepath stroke} def
/S {stroke} def

/b {closepath gsave vg&FC fill grestore
    gsave stroke grestore newpath} def
/B {gsave vg&FC fill grestore gsave stroke grestore newpath} def
/b* {closepath gsave vg&FC eofill grestore
    gsave stroke grestore newpath} def
/B* {gsave vg&FC eofill grestore gsave stroke grestore newpath} def

/g {1 array astore /vg&fcolor exch def} def
/G {setgray} def
/k {4 array astore /vg&fcolor exch def} def
/K {setcmykcolor} def
/rg {3 array astore /vg&fcolor exch def} def
/RG {setrgbcolor} def

% Initialize the fill color.
0 0 0 rg

/vg&FC {mark vg&fcolor aload pop
        counttomark 1 eq {G} if
        counttomark 3 eq {RG} if
        counttomark 4 eq {K} if
        cleartomark } def

/vg&DFC {/vg&fcolor exch def} def

/vg&C {mark exch aload pop
       counttomark 1 eq {G} if
       counttomark 3 eq {RG} if
       counttomark 4 eq {K} if
       cleartomark } def

/w {setlinewidth} def
/j {setlinejoin} def
/J {setlinecap} def
/M {setmiterlimit} def
/d {setdash} def
/i {setflat} def

/W {clip} def
/W* {eoclip} def

% Setup the default graphics state.
% (black; 1 pt. linewidth; miter join; butt-ends; solid)
/defaultGraphicsState {0 g 1 w 0 j 0 J [] 0 d} def

% Emulation of the rectangle operators for PostScript implementations
% which do not implement all Level 2 features.  This is an INCOMPLETE
% emulation; only the "x y width height rect..." form is emulated.
/*rf {gsave newpath re fill grestore} def
/*rs {gsave newpath re stroke grestore} def
/*rc {newpath re clip} def
/rf  /rectfill where {pop /rectfill}{/*rf} ifelse load def
/rs  /rectstroke where {pop /rectstroke}{/*rs} ifelse load def
/rc  /rectclip where {pop /rectclip}{/*rc} ifelse load def

% Emulation of the selectfont operator.  This includes a 20% increase in
% the fontsize which is necessary to get sizes similar to the Java fonts.
/*sf {exch findfont exch
      dup type /arraytype eq {makefont}{scalefont} ifelse setfont} bind def
/sf /selectfont where {pop {1.2 mul selectfont}}{{1.2 mul *sf}} ifelse def

% Special version of stroke which allows the dash pattern to continue
% across path segments.  (This may be needed for PostScript although
% modern printers seem to do this correctly.)
/vg&stroke {
  currentdash pop length 0 eq
  {stroke}
  {
    currentdash /vg&doffset exch def pop
    flattenpath
    {m vg&resetdash}
    {2 copy
     currentpoint
     3 -1 roll sub dup mul
     3 1 roll sub dup mul
     add sqrt
     3 1 roll l
     currentdash 3 -1 roll add setdash}
     {}
     {h vg&resetdash}
     pathforall
     stroke
     vg&resetdash
  } ifelse
} def
/vg&resetdash {currentdash pop vg&doffset setdash} def

% Initialize variables for safety.
/delta 0 def
/xv 0 def  /yv 0 def  /width 0 def  /height 0 def

% Initialize to portrait INTERNATIONAL (Letter-height, A4-width) page.
/pw 595 def  /ph 791  def  /po true def /ftp false def

% Initialize margins to 20 points.
/ml 20 def  /mr 20 def  /mt 20 def  /mb 20 def

% Temporary matrices.
/smatrix 0 def  /nmatrix 0 def

% set page size (usage: <page width><page height> setpagesize)
/setpagesize {/ph exch def /pw exch def} def

% set page orientation (usage: portrait or landscape)
/portrait {/po true def} def
/landscape {/po false def} def

% force natural size for image (usage: naturalsize)
/naturalsize {/ftp false def} def

% resize image to fill page (usage: fittopage)
/fittopage {/ftp true def} def

% set margins of the page (usage: <left><bottom><top><right> setmargins)
/setmargins {/mr exch def /mt exch def /mb exch def /ml exch def} def

% set the graphic's size (usage: <width><height> setsize)
/setsize {/gh exch def /gw exch def} def

% set the graphic's origin (usage: <x0><y0> setorigin)
/setorigin {/gy exch def /gx exch def} def

% calculate image center
/imagecenter {pw ml sub mr sub 2 div ml add
              ph mt sub mb sub 2 div mb add} def

% calculate the necessary scaling
/imagescale {po {gw}{gh} ifelse pw ml sub mr sub div
             po {gh}{gw} ifelse ph mt sub mb sub div
             2 copy lt {exch} if pop
             ftp not {1 2 copy lt {exch} if pop} if
             1 exch div /sfactor exch def
             /gw gw sfactor mul def /gh gh sfactor mul def} def

% calculate image origin
/imageorigin {pw ml sub mr sub 2 div ml add
              po {gw}{gh} ifelse 2 div sub
              ph mt sub mb sub 2 div mb add
              po {gh}{gw} ifelse 2 div po {add}{sub} ifelse} def

% calculate the clipping origin
/cliporigin  {pw ml sub mr sub 2 div ml add
              po {gw}{gh} ifelse 2 div sub floor
              ph mt sub mb sub 2 div mb add
              po {gh}{gw} ifelse 2 div sub floor} def

% Set the clipping region to the bounding box.
/cliptobounds {cliporigin po {gw}{gh} ifelse 1 add
                          po {gh}{gw} ifelse 1 add rc} def

% set the base transformation matrix (usage: setbasematrix)
/setbasematrix {imageorigin translate
                po {0}{90} ifelse rotate
                sfactor sfactor neg scale
                /defaultmatrix matrix currentmatrix def} def

% The lower-right bias in drawing 1 pt. wide lines.
/bias  {q 0.5 0.5 translate} def
/unbias {Q} def

% Define the composite fonts used to print Unicode strings.
% Undefine particular values in an encoding array.
/vg&undef { {exch dup 3 -1 roll /.notdef put} forall } def
/vg&redef { {3 -1 roll dup 4 2 roll put} forall } def

% usage: key encoding basefontname vg&newbasefont font
/vg&newbasefont {
findfont dup length dict copy
  begin
    currentdict /FID undef
    /Encoding exch def
    dup /FontName exch def
    currentdict
  end
definefont
} def

% usage: key encoding basefontname vg&newskewedbasefont font
/vg&newskewedbasefont {
findfont dup length dict copy
  begin
    currentdict /FID undef
    /Encoding exch def
    dup /FontName exch def
    exch FontMatrix exch matrix concatmatrix /FontMatrix exch def
    currentdict
  end
definefont
} def

% usage: basekey suffix vg&nconcat name
/vg&nconcat {
  2 {dup length string cvs exch} repeat
  dup length 3 -1 roll dup length 3 -1 roll add string
  dup 0 4 -1 roll dup length 5 1 roll putinterval
  dup 4 -2 roll exch putinterval cvn
} def

%usage: fontname vg&skewmatrix matrix
/vg&skewmatrix {
findfont dup /FontInfo known
  {
    /FontInfo get dup /ItalicAngle known
    {
      [ 1 0 4 -1 roll /ItalicAngle get neg dup sin exch cos div 1 0 0 ]
    }
    {pop matrix} ifelse
  }
  {pop matrix} ifelse
} def

% usage: newfontname basefontname vg&newcompositefont --
/vg&newcompositefont {
/vg&fstyle exch def
/vg&bfont exch def
/vg&fname exch def
<<
/FontStyleBits vg&fstyle
/FontType 0
/FontMatrix matrix
/FontName vg&fname
/FMapType 2
/Encoding [ 0 1 255 {pop 6} for ]
          dup 16#00 0 put % Latin
          dup 16#03 1 put % Greek
          dup 16#20 2 put % Punctuation
          dup 16#21 3 put % Arrows
          dup 16#22 4 put % MathOps
          dup 16#27 5 put % Dingbats

/FDepVector [
vg&bfont /-UC-Latin vg&nconcat UCLatinEncoding
vg&bfont vg&newbasefont

vg&bfont vg&skewmatrix
vg&bfont /-UC-Greek vg&nconcat UCGreekEncoding
/Symbol vg&newskewedbasefont

vg&bfont /-UC-Punctuation vg&nconcat UCPunctuationEncoding
vg&bfont vg&newbasefont

/Arrows-UC findfont
/MathOps-UC findfont
/Dingbats-UC findfont
/Undefined-UC findfont ]
>>
vg&fname exch definefont pop
} def

% Null encoding vector (all elements set to .notdef)
/NullEncoding [ 256 {/.notdef} repeat ] def

% Unicode Latin encoding (unicode codes \u0000-\u00ff)
/UCLatinEncoding
  ISOLatin1Encoding dup length array copy
  dup 16#60 /grave put
  [ 16#90 16#91 16#92 16#93 16#94 16#95 16#96
    16#97 16#98 16#9a 16#9b 16#9d 16#9e 16#9f
  ] vg&undef
  def

% Unicode Greek encoding (unicode codes \u0370-\u03ff)
/UCGreekEncoding
  NullEncoding dup length array copy
  << 16#91 /Alpha    16#92 /Beta      16#93 /Gamma    16#94 /Delta
     16#95 /Epsilon  16#96 /Zeta      16#97 /Eta      16#98 /Theta
     16#99 /Iota     16#9a /Kappa     16#9b /Lambda   16#9c /Mu
     16#9d /Nu       16#9e /Xi        16#9f /Omicron  16#a0 /Pi
     16#a1 /Rho      16#a3 /Sigma     16#a4 /Tau      16#a5 /Upsilon
     16#a6 /Phi      16#a7 /Chi       16#a8 /Psi      16#a9 /Omega
     16#b1 /alpha    16#b2 /beta      16#b3 /gamma    16#b4 /delta
     16#b5 /epsilon  16#b6 /zeta      16#b7 /eta      16#b8 /theta
     16#b9 /iota     16#ba /kappa     16#bb /lambda   16#bc /mu
     16#bd /nu       16#be /xi        16#bf /omicron  16#c0 /pi
     16#c1 /rho      16#c2 /sigma1    16#c3 /sigma    16#c4 /tau
     16#c5 /upsilon  16#c6 /phi1      16#c7 /chi      16#c8 /psi
     16#c9 /omega    16#7e /semicolon 16#87 /dotmath  16#d1 /theta1
     16#d2 /Upsilon1 16#d5 /phi       16#d6 /omega1
  >> vg&redef
  def

% Unicode punctuation encoding (unicode codes \u2000-\u206f)
/UCPunctuationEncoding
  NullEncoding dup length array copy
  << 16#10 /hyphen          16#11 /hyphen              16#12 /endash
     16#13 /emdash          16#18 /quoteleft           16#19 /quoteright
     16#1a /quotesinglbase  16#1b /quotesingle         16#1c /quotedblleft
     16#1d /quotedblright   16#1e /quotedblbase        16#1f /quotedbl
     16#20 /dagger          16#21 /daggerdbl           16#22 /bullet
     16#24 /period          16#26 /ellipsis            16#27 /periodcentered
     16#30 /perthousand     16#44 /fraction
     16#70 /zerosuperior    16#74 /foursuperior        16#75 /fivesuperior
     16#76 /sixsuperior     16#77 /sevensuperior       16#78 /eightsuperior
     16#79 /ninesuperior    16#7b /hyphensuperior      16#7d /parenleftsuperior
     16#7e /parenrightsuperior
     16#80 /zeroinferior    16#84 /fourinferior        16#85 /fiveinferior
     16#81 /oneinferior     16#82 /twoinferior         16#83 /threeinferior
     16#86 /sixinferior     16#87 /seveninferior       16#88 /eightinferior
     16#89 /nineinferior    16#8b /hypheninferior      16#8d /parenleftinferior
     16#8e /parenrightinferior
  >> vg&redef
  def

% Unicode mathematical operators encoding (unicode codes \u2200-\u22ff)
/UCMathOpsEncoding
  NullEncoding dup length array copy
  << 16#00 /universal       16#02 /partialdiff         16#03 /existential
     16#05 /emptyset        16#06 /Delta               16#07 /gradient
     16#08 /element         16#09 /notelement          16#0b /suchthat
     16#0f /product         16#11 /summation           16#12 /minus
     16#15 /fraction        16#17 /asteriskmath        16#19 /bullet
     16#1a /radical         16#1d /proportional        16#1e /infinity
     16#20 /angle           16#23 /bar                 16#27 /logicaland
     16#28 /logicalor       16#29 /intersection        16#2a /union
     16#2b /integral        16#34 /therefore           16#36 /colon
     16#3c /similar         16#45 /congruent           16#48 /approxequal
     16#60 /notequal        16#61 /equivalence         16#64 /lessequal
     16#65 /greaterequal    16#82 /propersubset        16#83 /propersuperset
     16#86 /reflexsubset    16#87 /reflexsuperset      16#95 /circleplus
     16#97 /circlemultiply  16#a5 /perpendicular       16#03 /existential
     16#c0 /logicaland      16#c1 /logicalor           16#c2 /intersection
     16#c3 /union           16#c4 /diamond             16#c5 /dotmath
  >> vg&redef
  def

% Unicode arrows encoding (unicode codes \u2190-\u21ff)
% Also includes those "Letterlike" unicode characters
% which are available in the symbol font. (unicode codes \u2100-\u214f)
/UCArrowsEncoding
  NullEncoding dup length array copy
  << 16#11 /Ifraktur        16#1c /Rfraktur            16#22 /trademarkserif
     16#35 /aleph
     16#90 /arrowleft       16#91 /arrowup             16#92 /arrowright
     16#93 /arrowdown       16#94 /arrowboth           16#d0 /arrowdblleft
     16#d1 /arrowdblup      16#d2 /arrowdblright       16#d3 /arrowdbldown
     16#d4 /arrowdblboth
  >> vg&redef
  def

/ZapfDingbats findfont /Encoding get
dup length array copy /UCDingbatsEncoding exch def
16#20 1 16#7f {
  dup 16#20 sub exch
  UCDingbatsEncoding exch get
  UCDingbatsEncoding 3 1 roll put
} for
16#a0 1 16#ff {
  dup 16#40 sub exch
  UCDingbatsEncoding exch get
  UCDingbatsEncoding 3 1 roll put
} for
UCDingbatsEncoding [ 16#c0 1 16#ff {} for ] vg&undef
[ 16#00  16#05 16#0a 16#0b  16#28 16#4c 16#4e  16#53 16#54 16#55  16#57 16#5f
  16#60  16#68 16#69 16#6a  16#6b 16#6c 16#6d  16#6e 16#6f 16#70  16#71 16#72
  16#73  16#74 16#75 16#95  16#96 16#97 16#b0  16#bf
] vg&undef pop

% Define the base fonts which don't change.
/Undefined-UC NullEncoding       /Helvetica    vg&newbasefont pop
/MathOps-UC   UCMathOpsEncoding  /Symbol       vg&newbasefont pop
/Arrows-UC    UCArrowsEncoding   /Symbol       vg&newbasefont pop
/Dingbats-UC  UCDingbatsEncoding /ZapfDingbats vg&newbasefont pop

% Make the SansSerif composite fonts.
/SansSerif /Helvetica 16#00 vg&newcompositefont
/SansSerif-Bold /Helvetica-Bold 16#01 vg&newcompositefont
/SansSerif-Italic /Helvetica-Oblique 16#02 vg&newcompositefont
/SansSerif-BoldItalic /Helvetica-BoldOblique 16#03 vg&newcompositefont

% Make the Serif composite fonts.
/Serif /Times-Roman 16#00 vg&newcompositefont
/Serif-Bold /Times-Bold 16#01 vg&newcompositefont
/Serif-Italic /Times-Italic 16#02 vg&newcompositefont
/Serif-BoldItalic /Times-BoldItalic 16#03 vg&newcompositefont

% Make the Monospaced composite fonts.
/Monospaced /Courier 16#00 vg&newcompositefont
/Monospaced-Bold /Courier-Bold 16#01 vg&newcompositefont
/Monospaced-Italic /Courier-Oblique 16#02 vg&newcompositefont
/Monospaced-BoldItalic /Courier-BoldOblique 16#03 vg&newcompositefont

% Make the Dialog composite fonts.
/Dialog /Helvetica 16#00 vg&newcompositefont
/Dialog-Bold /Helvetica-Bold 16#01 vg&newcompositefont
/Dialog-Italic /Helvetica-Oblique 16#02 vg&newcompositefont
/Dialog-BoldItalic /Helvetica-BoldOblique 16#03 vg&newcompositefont

% Make the DialogInput composite fonts.
/DialogInput /Courier 16#00 vg&newcompositefont
/DialogInput-Bold /Courier-Bold 16#01 vg&newcompositefont
/DialogInput-Italic /Courier-Oblique 16#02 vg&newcompositefont
/DialogInput-BoldItalic /Courier-BoldOblique 16#03 vg&newcompositefont

% Make the Typewriter composite fonts (JDK 1.1 only).
/Typewriter /Courier 16#00 vg&newcompositefont
/Typewriter-Bold /Courier-Bold 16#01 vg&newcompositefont
/Typewriter-Italic /Courier-Oblique 16#02 vg&newcompositefont
/Typewriter-BoldItalic /Courier-BoldOblique 16#03 vg&newcompositefont


/cfontH {
 dup /fontsize exch def /SansSerif exch sf
 /vg&fontstyles [{cfontH} {cfontHB} {cfontHI} {cfontHBI}] def
} def
/cfontHB {
  dup /fontsize exch def /SansSerif-Bold exch sf
 /vg&fontstyles [{cfontH} {cfontHB} {cfontHI} {cfontHBI}] def
} def
/cfontHI {
 dup /fontsize exch def /SansSerif-Italic exch sf
 /vg&fontstyles [{cfontH} {cfontHB} {cfontHI} {cfontHBI}] def
} def
/cfontHBI {
 dup /fontsize exch def /SansSerif-BoldItalic exch sf
 /vg&fontstyles [{cfontH} {cfontHB} {cfontHI} {cfontHBI}] def
} def

/cfontT {
 dup /fontsize exch def /Serif exch sf
 /vg&fontstyles [{cfontT} {cfontTB} {cfontTI} {cfontTBI}] def
} def
/cfontTB {
 dup /fontsize exch def /Serif-Bold exch sf
 /vg&fontstyles [{cfontT} {cfontTB} {cfontTI} {cfontTBI}] def
} def
/cfontTI {
 dup /fontsize exch def /Serif-Italic exch sf
 /vg&fontstyles [{cfontT} {cfontTB} {cfontTI} {cfontTBI}] def
} def
/cfontTBI {
 dup /fontsize exch def /Serif-BoldItalic exch sf
 /vg&fontstyles [{cfontT} {cfontTB} {cfontTI} {cfontTBI}] def
} def

/cfontC {
 dup /fontsize exch def /Typewriter exch sf
 /vg&fontstyles [{cfontC} {cfontCB} {cfontCI} {cfontCBI}] def
} def
/cfontCB {
 dup /fontsize exch def /Typewriter-Bold exch sf
 /vg&fontstyles [{cfontC} {cfontCB} {cfontCI} {cfontCBI}] def
} def
/cfontCI {
 dup /fontsize exch def /Typewriter-Italic exch sf
 /vg&fontstyles [{cfontC} {cfontCB} {cfontCI} {cfontCBI}] def
} def
/cfontCBI {
 dup /fontsize exch def /Typewriter-BoldItalic exch sf
 /vg&fontstyles [{cfontC} {cfontCB} {cfontCI} {cfontCBI}] def
} def

% Darken or lighten the current color.
/darken {0.7 exch exp 3 copy
         q 4 -1 roll vg&C
         currentrgbcolor 3 {4 -2 roll mul} repeat
         3 array astore Q} def

/displayColorMap
<< /Cr   [1.00 0.00 0.00]       /Cg     [0.00 1.00 0.00]
   /Cb   [0.00 0.00 1.00]       /Cc     [1.00 0.00 0.00 0.00]
   /Cm   [0.00 1.00 0.00 0.00]  /Cy     [0.00 0.00 1.00 0.00]
   /Co   [1.00 0.78 0.00]       /Cp     [1.00 0.67 0.67]
   /Cw   [1   ]                 /Cgrl   [0.75]
   /Cgr  [0.50]                 /Cgrd   [0.25]
   /Ck   [0   ]
   /CGr  [1.00 0.00 0.00]       /CGg    [0.00 1.00 0.00]
   /CGb  [0.00 0.00 1.00]       /CGc    [1.00 0.00 0.00 0.00]
   /CGm  [0.00 1.00 0.00 0.00]  /CGy    [0.00 0.00 1.00 0.00]
   /CGo  [1.00 0.78 0.00]       /CGp    [1.00 0.67 0.67]
   /CGw  [1   ]                 /CGgrl  [0.75]
   /CGgr [0.50]                 /CGgrd  [0.25]
   /CGk  [0   ]
   /CIr  [1.00 0.00 0.00]       /CIg    [0.00 1.00 0.00]
   /CIb  [0.00 0.00 1.00]       /CIc    [1.00 0.00 0.00 0.00]
   /CIm  [0.00 1.00 0.00 0.00]  /CIy    [0.00 0.00 1.00 0.00]
   /CIo  [1.00 0.78 0.00]       /CIp    [1.00 0.67 0.67]
   /CIw  [1   ]                 /CIgrl  [0.75]
   /CIgr [0.50]                 /CIgrd  [0.25]
   /CIk  [0   ]
>> def

/printColorMap
<< /Cr   [1.00 0.33 0.33]       /Cg     [0.33 1.00 0.33]
   /Cb   [0.33 0.33 1.00]       /Cc     [1.00 0.00 0.00 0.00]
   /Cm   [0.00 1.00 0.00 0.00]  /Cy     [0.00 0.00 1.00 0.00]
   /Co   [1.00 0.78 0.00]       /Cp     [1.00 0.67 0.67]
   /Cw   [1   ]                 /Cgrl   [0.75]
   /Cgr  [0.50]                 /Cgrd   [0.25]
   /Ck   [0   ]
   /CGr  [1.00 0.33 0.33]       /CGg    [0.33 1.00 0.33]
   /CGb  [0.33 0.33 1.00]       /CGc    [1.00 0.00 0.00 0.00]
   /CGm  [0.00 1.00 0.00 0.00]  /CGy    [0.00 0.00 1.00 0.00]
   /CGo  [1.00 0.78 0.00]       /CGp    [1.00 0.67 0.67]
   /CGw  [1   ]                 /CGgrl  [0.75]
   /CGgr [0.50]                 /CGgrd  [0.25]
   /CGk  [0   ]
   /CIr  [1.00 0.33 0.33]       /CIg    [0.33 1.00 0.33]
   /CIb  [0.33 0.33 1.00]       /CIc    [1.00 0.00 0.00 0.00]
   /CIm  [0.00 1.00 0.00 0.00]  /CIy    [0.00 0.00 1.00 0.00]
   /CIo  [1.00 0.78 0.00]       /CIp    [1.00 0.67 0.67]
   /CIw  [1   ]                 /CIgrl  [0.75]
   /CIgr [0.50]                 /CIgrd  [0.25]
   /CIk  [0   ]
>> def

/grayColorMap
<< /Cr   [0   ]                 /Cg     [0   ]
   /Cb   [0   ]                 /Cc     [0   ]
   /Cm   [0   ]                 /Cy     [0   ]
   /Co   [0   ]                 /Cp     [0   ]
   /Cw   [0   ]                 /Cgrl   [0   ]
   /Cgr  [0   ]                 /Cgrd   [0   ]
   /Ck   [0   ]
   /CGr  [0.75]                 /CGg    [1   ]
   /CGb  [0.50]                 /CGc    [0.75]
   /CGm  [0.50]                 /CGy    [1   ]
   /CGo  [0.75]                 /CGp    [1   ]
   /CGw  [0   ]                 /CGgrl  [0.25]
   /CGgr [0.50]                 /CGgrd  [0.75]
   /CGk  [1   ]
   /CIr  [1   ]                 /CIg    [1   ]
   /CIb  [1   ]                 /CIc    [1   ]
   /CIm  [1   ]                 /CIy    [1   ]
   /CIo  [1   ]                 /CIp    [1   ]
   /CIw  [1   ]                 /CIgrl  [1   ]
   /CIgr [1   ]                 /CIgrd  [1   ]
   /CIk  [1   ]
>> def

/bwColorMap
<< /Cr   [0   ]                 /Cg     [0   ]
   /Cb   [0   ]                 /Cc     [0   ]
   /Cm   [0   ]                 /Cy     [0   ]
   /Co   [0   ]                 /Cp     [0   ]
   /Cw   [0   ]                 /Cgrl   [0   ]
   /Cgr  [0   ]                 /Cgrd   [0   ]
   /Ck   [0   ]
   /CGr  [1   ]                 /CGg    [1   ]
   /CGb  [1   ]                 /CGc    [1   ]
   /CGm  [1   ]                 /CGy    [1   ]
   /CGo  [1   ]                 /CGp    [1   ]
   /CGw  [0   ]                 /CGgrl  [1   ]
   /CGgr [1   ]                 /CGgrd  [1   ]
   /CGk  [1   ]
   /CIr  [1   ]                 /CIg    [1   ]
   /CIb  [1   ]                 /CIc    [1   ]
   /CIm  [1   ]                 /CIy    [1   ]
   /CIo  [1   ]                 /CIp    [1   ]
   /CIw  [1   ]                 /CIgrl  [1   ]
   /CIgr [1   ]                 /CIgrd  [1   ]
   /CIk  [1   ]
>> def

%
% The following routines handle the alignment of and printing of
% tagged strings.
%

% Predefine the bounding box values.
/bbllx 0 def /bblly 0 def /bburx 0 def /bbury 0 def

% This routine pops the first unicode character off of a string and returns
% the remainder of the string, the character code of first character,
% and a "true" if the string was non-zero length.
% <string>      popfirst <remaining string> <true>
% <null string> popfirst <false>
/popfirst {
  dup length 1 gt
    {dup 0 get /vg&fbyte exch def
     dup 1 get /vg&cbyte exch def
     dup length 2 sub 2 exch getinterval true}
    {pop false} ifelse
} def

% This routine shows a single unicode character given the font and
% character codes.
% <font code> <char code> unicharshow --
/unicharshow {
  2 string
  dup 0 5 -1 roll put
  dup 1 4 -1 roll put
  internalshow
} def

% This is an internal routine to alternate between determining the
% bounding box for stringsize and showing the string for recshow.
% <string> internalshow --
/internalshow {show} def

% This is an internal routine to alternate between determining the
% bounding box for stringsize and stroking various ornaments.
% <string> internalstroke --
/internalstroke {S} def

% Sets up internalshow to use the null device to determine string size.
% -- nullinternalshow --
/nullinternalshow {/internalshow {false charpath flattenpath
                                  pathbbox updatebbox} def} def

% Sets up internalstroke to use the null device to determine string size.
% -- nullinternalstroke --
/nullinternalstroke {
 /internalstroke {flattenpath pathbbox updatebbox} def} def

% This routine tests to see if the character code matches the first
% character of a string.
% <char code> <string> testchar <char code> <true or false>
/testchar {exch dup 3 -1 roll 0 get eq} def

% Raise the text baseline for superscripts.
% -- raise --
/raise {
  0 fontsize 2 div rmoveto
  /fontsize fontsize 2 mul 3 div def
  currentfont /FontName get fontsize sf
} def

% Un-raise the text baseline for superscripts.
% -- unraise --
/unraise {
  /fontsize fontsize 1.5 mul def
  0 fontsize 2 div neg rmoveto
} def

% Lower the text baseline for subscripts.
% -- lower --
/lower {
  0 fontsize 3 div neg rmoveto
  /fontsize fontsize 2 mul 3 div def
  currentfont /FontName get fontsize sf
} def

% Un-lower the text baseline for subscripts.
% -- unlower --
/unlower {
  /fontsize fontsize 1.5 mul def
  0 fontsize 3 div rmoveto
} def

% Compare the top two elements on the stack and leave only the
% larger one.
/maxval {2 copy gt {pop} {exch pop} ifelse} def

% Tokenize a string.  Do not use the usual PostScript token because
% parentheses will not be interpreted correctly because of rescanning
% of the string.
/vg&token {/vg&string exch def /vg&index -1 def /vg&level 0 def
0 2 vg&string length 2 sub {
  dup dup 1 add exch vg&string exch get 8 bitshift vg&string 3 -1 roll get or
  dup 16#f0fe eq {pop 1}{16#f0ff eq {-1}{0} ifelse} ifelse
  /vg&level exch vg&level add def
  vg&level 0 eq {/vg&index exch def exit} if pop
} for
vg&index 0 ge {
  vg&string vg&index 2 add dup vg&string length exch sub getinterval
  vg&index 2 gt {vg&string 2 vg&index 2 sub getinterval}{()} ifelse
  true}
{false} ifelse
} bind def

% Recursively show an unicode string.
% <string> recshow --
/recshow {
  popfirst
  {
    % Test to see if this is a string attribute.
    vg&fbyte 16#f0 and 16#e0 eq
    {
      q

      % Font style.
      currentfont dup /FontStyleBits known {/FontStyleBits get}{pop 0} ifelse
      vg&cbyte or vg&fontstyles exch get fontsize exch exec

      vg&token pop recshow currentpoint Q m recshow
    }
    {
      vg&fbyte 16#F8 and 16#F0 eq {

        % Superscript and/or subscript.
        vg&cbyte 16#00 eq {
          vg&token pop exch vg&token pop 3 -1 roll
          q raise recshow unraise currentpoint pop Q exch
          q lower recshow unlower currentpoint pop Q
          maxval currentpoint exch pop m recshow } if

        % Strikeout.
        vg&cbyte 16#01 eq {
          vg&token pop currentpoint 3 -1 roll recshow
          q 0 J vg&underline vg&uthick w
          currentpoint 4 -2 roll fontsize 3 div add moveto
          fontsize 3 div add lineto internalstroke Q
          recshow} if

        % Underline.
        vg&cbyte 16#02 eq {
          vg&token pop currentpoint 3 -1 roll recshow
          q 0 J vg&underline vg&uthick w
          currentpoint 4 -2 roll vg&uoffset add moveto
          vg&uoffset add lineto internalstroke Q
          recshow} if

        % Dashed underline.
        vg&cbyte 16#03 eq {
          vg&token pop currentpoint 3 -1 roll recshow
          q 0 J [ vg&uthick 5 mul vg&uthick 2 mul] 0 d
          vg&underline vg&uthick w
          currentpoint 4 -2 roll vg&uoffset add moveto
          vg&uoffset add lineto internalstroke Q
          recshow} if

        % Dotted underline.
        vg&cbyte 16#04 eq {
          vg&token pop currentpoint 3 -1 roll recshow
          q 1 J [ 0 vg&uthick 3 mul] 0 d
          vg&underline vg&uthick w
          currentpoint 4 -2 roll vg&uoffset add moveto
          vg&uoffset add lineto internalstroke Q
          recshow} if

        % Thick underline.
        vg&cbyte 16#05 eq {
          vg&token pop currentpoint 3 -1 roll recshow
          q 0 J vg&underline vg&uthick 2 mul w
          currentpoint 4 -2 roll vg&uoffset vg&uthick 2 div sub add moveto
          vg&uoffset vg&uthick 2 div sub add lineto internalstroke Q
          recshow} if

        % Gray thick underline.
        vg&cbyte 16#06 eq {
          vg&token pop currentpoint 3 -1 roll recshow
          q 0 J vg&underline vg&uthick 2 mul w 0.5 setgray
          currentpoint 4 -2 roll vg&uoffset vg&uthick 2 div sub add moveto
          vg&uoffset vg&uthick 2 div sub add lineto internalstroke Q
          recshow} if

        % Overbar.
        vg&cbyte 16#07 eq {
          vg&token pop dup stringsize relative 4 1 roll pop pop exch
          3 -1 roll recshow
          q 0 J vg&underline vg&uthick w
          vg&uoffset neg add dup currentpoint pop exch m l internalstroke Q
          recshow} if
      }
      {
        vg&fbyte vg&cbyte unicharshow recshow
      } ifelse
    } ifelse
  } if
} def

% Get the underline position and thickness from the current font.
/vg&underline {

currentfont dup /FontType get 0 eq {/FDepVector get 0 get} if
dup dup /FontInfo known {
  /FontInfo get dup
  dup /UnderlinePosition known {
    /UnderlinePosition get /vg&uoffset exch def
  }
  {
    pop /vg&uoffset 0 def
  } ifelse
  dup /UnderlineThickness known {
    /UnderlineThickness get /vg&uthick exch def
  }
  {
    pop /vg&uthick 0 def
  } ifelse
}
{
  pop /vg&uoffset 0 def /vg&uthick 0 def
} ifelse
/FontMatrix get
currentfont dup /FontType get 0 eq
{/FontMatrix get matrix concatmatrix}{pop} ifelse
dup 0 vg&uoffset 3 -1 roll transform /vg&uoffset exch def pop
0 vg&uthick 3 -1 roll transform /vg&uthick exch def pop
} def

% Make a frame with the coordinates on the stack.
% <llx> <lly> <urx> <ury> frame --
/frame {4 copy m 3 1 roll exch l 4 -2 roll l l h} def

% Resets the accumulated bounding box to a degenerate box at the
% current point.
% -- resetbbox --
/resetbbox {
  currentpoint 2 copy
  /bbury exch def
  /bburx exch def
  /bblly exch def
  /bbllx exch def
} def

% Update the accumulated bounding box.
% <llx'> <lly'> <urx'> <ury'> updatebbox --
/updatebbox {
  dup bbury gt {/bbury exch def} {pop} ifelse
  dup bburx gt {/bburx exch def} {pop} ifelse
  dup bblly lt {/bblly exch def} {pop} ifelse
  dup bbllx lt {/bbllx exch def} {pop} ifelse
} def

% Set the bounding box to the values on the stack.
% <llx'> <lly'> <urx'> <ury'> updatebbox --
/restorebbox {
  /bbury exch def /bburx exch def /bblly exch def /bbllx exch def
} def

% Push the accumulated bounding box onto the stack.
% -- pushbbox <llx> <lly> <urx> <ury>
/pushbbox {bbllx bblly bburx bbury} def

% Make the relative bounding box relative to the currentpoint.
% <llx'> <lly'> <urx'> <ury'> inflate <llx> <lly> <urx> <ury>
/inflate {
  2 {fontsize 0.2 mul add 4 1 roll} repeat
  2 {fontsize 0.2 mul sub 4 1 roll} repeat
} def

% Make the relative bounding box relative to the currentpoint.
% <llx'> <lly'> <urx'> <ury'> relative <llx> <lly> <urx> <ury>
/relative {
  currentpoint 3 -1 roll add 3 1 roll add exch 4 2 roll
  currentpoint 3 -1 roll add 3 1 roll add exch 4 2 roll
} def

% Returns the size of a string appropriate for recshow.
% <string> stringsize <llx> <lly> <urx> <ury>
/stringsize {
  pushbbox /internalshow load /internalstroke load 7 -1 roll
  q
  nulldevice 0 0 m
  nullinternalshow nullinternalstroke
  resetbbox
  recshow
  /internalstroke exch def /internalshow exch def
  pushbbox 8 -4 roll restorebbox
  Q
} def

% Calculate values for string positioning.
/calcval {4 copy
  3 -1 roll sub /widy exch def sub neg /widx exch def
  pop pop /dy exch def /dx exch def} def

% Utilities to position a string.
% First letter (U=upper, C=center, B=baseline, L=lower)
% Second letter (L=left, C=center, R=right)
/align [
{calcval dx neg widy dy add neg rmoveto} % UL
{calcval dx neg widy 2 div dy add neg rmoveto} % CL
{calcval dx neg 0 rmoveto} % BL
{calcval dx neg dy neg rmoveto} % LL
{calcval widx dx add neg widy dy add neg rmoveto} % UR
{calcval widx dx add neg widy 2 div dy add neg rmoveto} % CR
{calcval widx dx add neg 0 rmoveto} % BR
{calcval widx dx add neg dy neg rmoveto} % LR
{calcval widx 2 div dx add neg widy dy add neg rmoveto} % UC
{calcval widx 2 div dx add neg widy 2 div dy add neg rmoveto} % CC
{calcval widx 2 div dx add neg 0 rmoveto} % BC
{calcval widx 2 div dx add neg dy neg rmoveto} % LC
] def

/vg&str {m q 1 -1 scale dup stringsize 4 copy align 11 -1 roll get exec
         q inflate relative frame exch exec Q recshow Q} def

end /procDict exch def
%%EndProlog

%%BeginSetup
save
procDict begin
printColorMap begin
708 341 setpagesize
0 0 0 0 setmargins
0 0 setorigin
708 341 setsize
naturalsize
portrait
imagescale
cliptobounds
setbasematrix
/Helvetica 10 sf
defaultGraphicsState
%%EndSetup

0.00000 0.00000 0.00000 RG
[ 1.00000 0.00000 0.00000 1.00000 0.00000 0.00000 ] defaultmatrix matrix concatmatrix setmatrix
cliprestore
1.00000 1.00000 1.00000 RG
newpath
0.00000 0.00000 m
708.000 0.00000 l
708.000 341.000 l
0.00000 341.000 l
0.00000 0.00000 l
h
f
0.00000 0.00000 0.00000 RG
0.00000 0.00000 0.00000 RG
[ 1.00000 0.00000 0.00000 1.00000 0.00000 0.00000 ] defaultmatrix matrix concatmatrix setmatrix
cliprestore
1.00000 1.00000 1.00000 RG
newpath
0.00000 0.00000 m
708.000 0.00000 l
708.000 341.000 l
0.00000 341.000 l
0.00000 0.00000 l
h
f
0.00000 0.00000 0.00000 RG
0 0 708 341 rc
q
[ 1.00000 0.00000 0.00000 1.00000 0.00000 0.00000 ] concat
[ 1.00000 0.00000 0.00000 1.00000 44.0000 -63.0000 ] concat
1.00000 1.00000 1.00000 RG
newpath
-44.0000 63.0000 m
664.000 63.0000 l
664.000 404.000 l
-44.0000 404.000 l
-44.0000 63.0000 l
h
f
0.00000 0.00000 0.00000 RG
[ 1.00000 0.00000 0.00000 1.00000 44.0000 -63.0000 ] defaultmatrix matrix concatmatrix setmatrix
[ 1.00000 0.00000 0.00000 1.00000 44.0000 -63.0000 ] defaultmatrix matrix concatmatrix setmatrix
[ 1.00000 0.00000 0.00000 1.00000 0.00000 0.00000 ] defaultmatrix matrix concatmatrix setmatrix
[ 1.00000 0.00000 0.00000 1.00000 44.0000 -63.0000 ] defaultmatrix matrix concatmatrix setmatrix
0 J
1.45000 M
.800000 .600000 1.00000 RG
newpath
331.896 104.280 m
331.896 139.080 l
331.896 141.289 333.687 143.080 335.896 143.080  c
463.936 143.080 l
466.145 143.080 467.936 141.289 467.936 139.080  c
467.936 104.280 l
467.936 102.071 466.145 100.280 463.936 100.280  c
335.896 100.280 l
333.687 100.280 331.896 102.071 331.896 104.280  c
h
S
2 J
10.0000 M
0.00000 0.00000 0.00000 RG
0 J
1.45000 M
newpath
394.840 83.6687 m
394.840 86.9655 l
396.324 86.9655 l
396.876 86.9655 397.303 86.8223 397.606 86.5359  c
397.908 86.2494 398.059 85.8405 398.059 85.3093  c
398.059 84.7885 397.908 84.3848 397.606 84.0984  c
397.303 83.8119 396.876 83.6687 396.324 83.6687  c
394.840 83.6687 l
h
393.652 82.6999 m
396.324 82.6999 l
397.314 82.6999 398.059 82.9213 398.559 83.3640  c
399.059 83.8067 399.309 84.4551 399.309 85.3093  c
399.309 86.1739 399.059 86.8275 398.559 87.2702  c
398.059 87.7129 397.314 87.9343 396.324 87.9343  c
394.840 87.9343 l
394.840 91.4499 l
393.652 91.4499 l
393.652 82.6999 l
h
404.592 86.7312 m
405.154 86.8562 405.594 87.1088 405.912 87.4890  c
406.230 87.8692 406.389 88.3405 406.389 88.9030  c
406.389 89.7676 406.092 90.4369 405.498 90.9109  c
404.904 91.3848 404.061 91.6218 402.967 91.6218  c
402.602 91.6218 402.225 91.5853 401.834 91.5124  c
401.443 91.4395 401.045 91.3301 400.639 91.1843  c
400.639 90.0437 l
400.962 90.2312 401.318 90.3744 401.709 90.4734  c
402.100 90.5723 402.509 90.6218 402.936 90.6218  c
403.675 90.6218 404.240 90.4760 404.631 90.1843  c
405.022 89.8926 405.217 89.4655 405.217 88.9030  c
405.217 88.3926 405.035 87.9916 404.670 87.6999  c
404.305 87.4083 403.805 87.2624 403.170 87.2624  c
402.139 87.2624 l
402.139 86.2937 l
403.217 86.2937 l
403.790 86.2937 404.232 86.1765 404.545 85.9421  c
404.857 85.7077 405.014 85.3718 405.014 84.9343  c
405.014 84.4864 404.855 84.1426 404.537 83.9030  c
404.219 83.6635 403.764 83.5437 403.170 83.5437  c
402.837 83.5437 402.485 83.5775 402.115 83.6452  c
401.746 83.7129 401.337 83.8197 400.889 83.9655  c
400.889 82.9187 l
401.347 82.7937 401.772 82.6999 402.162 82.6374  c
402.553 82.5749 402.920 82.5437 403.264 82.5437  c
404.170 82.5437 404.884 82.7468 405.404 83.1530  c
405.925 83.5593 406.186 84.1114 406.186 84.8093  c
406.186 85.2989 406.048 85.7103 405.772 86.0437  c
405.496 86.3770 405.102 86.6062 404.592 86.7312  c
h
f
2 J
10.0000 M
.800000 .600000 1.00000 RG
0.00000 0.00000 0.00000 RG
1.00000 1.00000 1.00000 RG
newpath
-20.9200 106.680 m
9.08000 106.680 l
9.08000 136.680 l
-20.9200 136.680 l
-20.9200 106.680 l
h
f
0 J
1.45000 M
0.00000 0.00000 0.00000 RG
newpath
-20.9200 106.680 m
9.08000 106.680 l
9.08000 136.680 l
-20.9200 136.680 l
-20.9200 106.680 l
h
S
2 J
10.0000 M
1.00000 1.00000 1.00000 RG
newpath
9.08000 106.680 m
39.0800 106.680 l
39.0800 136.680 l
9.08000 136.680 l
9.08000 106.680 l
h
f
0 J
1.45000 M
0.00000 0.00000 0.00000 RG
newpath
9.08000 106.680 m
39.0800 106.680 l
39.0800 136.680 l
9.08000 136.680 l
9.08000 106.680 l
h
S
2 J
10.0000 M
1.00000 1.00000 1.00000 RG
newpath
39.0800 106.680 m
69.0800 106.680 l
69.0800 136.680 l
39.0800 136.680 l
39.0800 106.680 l
h
f
0 J
1.45000 M
0.00000 0.00000 0.00000 RG
newpath
39.0800 106.680 m
69.0800 106.680 l
69.0800 136.680 l
39.0800 136.680 l
39.0800 106.680 l
h
S
2 J
10.0000 M
1.00000 1.00000 1.00000 RG
newpath
69.0800 106.680 m
99.0800 106.680 l
99.0800 136.680 l
69.0800 136.680 l
69.0800 106.680 l
h
f
0 J
1.45000 M
0.00000 0.00000 0.00000 RG
newpath
69.0800 106.680 m
99.0800 106.680 l
99.0800 136.680 l
69.0800 136.680 l
69.0800 106.680 l
h
S
2 J
10.0000 M
1.00000 1.00000 1.00000 RG
newpath
339.896 106.680 m
369.896 106.680 l
369.896 136.680 l
339.896 136.680 l
339.896 106.680 l
h
f
0 J
1.45000 M
0.00000 0.00000 0.00000 RG
newpath
339.896 106.680 m
369.896 106.680 l
369.896 136.680 l
339.896 136.680 l
339.896 106.680 l
h
S
2 J
10.0000 M
1.00000 1.00000 1.00000 RG
newpath
369.896 106.680 m
399.896 106.680 l
399.896 136.680 l
369.896 136.680 l
369.896 106.680 l
h
f
0 J
1.45000 M
0.00000 0.00000 0.00000 RG
newpath
369.896 106.680 m
399.896 106.680 l
399.896 136.680 l
369.896 136.680 l
369.896 106.680 l
h
S
2 J
10.0000 M
1.00000 1.00000 1.00000 RG
newpath
399.896 106.680 m
429.896 106.680 l
429.896 136.680 l
399.896 136.680 l
399.896 106.680 l
h
f
0 J
1.45000 M
0.00000 0.00000 0.00000 RG
newpath
399.896 106.680 m
429.896 106.680 l
429.896 136.680 l
399.896 136.680 l
399.896 106.680 l
h
S
2 J
10.0000 M
1.00000 1.00000 1.00000 RG
newpath
429.896 106.680 m
459.896 106.680 l
459.896 136.680 l
429.896 136.680 l
429.896 106.680 l
h
f
0 J
1.45000 M
0.00000 0.00000 0.00000 RG
newpath
429.896 106.680 m
459.896 106.680 l
459.896 136.680 l
429.896 136.680 l
429.896 106.680 l
h
S
2 J
10.0000 M
1.00000 1.00000 1.00000 RG
newpath
159.669 106.680 m
189.669 106.680 l
189.669 136.680 l
159.669 136.680 l
159.669 106.680 l
h
f
0 J
1.45000 M
0.00000 0.00000 0.00000 RG
newpath
159.669 106.680 m
189.669 106.680 l
189.669 136.680 l
159.669 136.680 l
159.669 106.680 l
h
S
2 J
10.0000 M
1.00000 1.00000 1.00000 RG
newpath
189.669 106.680 m
219.669 106.680 l
219.669 136.680 l
189.669 136.680 l
189.669 106.680 l
h
f
0 J
1.45000 M
0.00000 0.00000 0.00000 RG
newpath
189.669 106.680 m
219.669 106.680 l
219.669 136.680 l
189.669 136.680 l
189.669 106.680 l
h
S
2 J
10.0000 M
1.00000 1.00000 1.00000 RG
newpath
219.669 106.680 m
249.669 106.680 l
249.669 136.680 l
219.669 136.680 l
219.669 106.680 l
h
f
0 J
1.45000 M
0.00000 0.00000 0.00000 RG
newpath
219.669 106.680 m
249.669 106.680 l
249.669 136.680 l
219.669 136.680 l
219.669 106.680 l
h
S
2 J
10.0000 M
1.00000 1.00000 1.00000 RG
newpath
249.669 106.680 m
279.669 106.680 l
279.669 136.680 l
249.669 136.680 l
249.669 106.680 l
h
f
0 J
1.45000 M
0.00000 0.00000 0.00000 RG
newpath
249.669 106.680 m
279.669 106.680 l
279.669 136.680 l
249.669 136.680 l
249.669 106.680 l
h
S
2 J
10.0000 M
1.00000 1.00000 1.00000 RG
newpath
520.340 106.680 m
550.340 106.680 l
550.340 136.680 l
520.340 136.680 l
520.340 106.680 l
h
f
0 J
1.45000 M
0.00000 0.00000 0.00000 RG
newpath
520.340 106.680 m
550.340 106.680 l
550.340 136.680 l
520.340 136.680 l
520.340 106.680 l
h
S
2 J
10.0000 M
1.00000 1.00000 1.00000 RG
newpath
550.340 106.680 m
580.340 106.680 l
580.340 136.680 l
550.340 136.680 l
550.340 106.680 l
h
f
0 J
1.45000 M
0.00000 0.00000 0.00000 RG
newpath
550.340 106.680 m
580.340 106.680 l
580.340 136.680 l
550.340 136.680 l
550.340 106.680 l
h
S
2 J
10.0000 M
1.00000 1.00000 1.00000 RG
newpath
580.340 106.680 m
610.340 106.680 l
610.340 136.680 l
580.340 136.680 l
580.340 106.680 l
h
f
0 J
1.45000 M
0.00000 0.00000 0.00000 RG
newpath
580.340 106.680 m
610.340 106.680 l
610.340 136.680 l
580.340 136.680 l
580.340 106.680 l
h
S
2 J
10.0000 M
1.00000 1.00000 1.00000 RG
newpath
610.340 106.680 m
640.340 106.680 l
640.340 136.680 l
610.340 136.680 l
610.340 106.680 l
h
f
0 J
1.45000 M
0.00000 0.00000 0.00000 RG
newpath
610.340 106.680 m
640.340 106.680 l
640.340 136.680 l
610.340 136.680 l
610.340 106.680 l
h
S
2 J
10.0000 M
0 J
1.45000 M
1.00000 .600000 0.00000 RG
newpath
-28.3193 104.280 m
-28.3193 139.080 l
-28.3193 141.289 -26.5284 143.080 -24.3193 143.080  c
103.720 143.080 l
105.929 143.080 107.720 141.289 107.720 139.080  c
107.720 104.280 l
107.720 102.071 105.929 100.280 103.720 100.280  c
-24.3193 100.280 l
-26.5284 100.280 -28.3193 102.071 -28.3193 104.280  c
h
S
2 J
10.0000 M
0.00000 0.00000 0.00000 RG
0 J
1.45000 M
newpath
34.6242 83.6687 m
34.6242 86.9655 l
36.1086 86.9655 l
36.6606 86.9655 37.0877 86.8223 37.3898 86.5359  c
37.6919 86.2494 37.8429 85.8405 37.8429 85.3093  c
37.8429 84.7885 37.6919 84.3848 37.3898 84.0984  c
37.0877 83.8119 36.6606 83.6687 36.1086 83.6687  c
34.6242 83.6687 l
h
33.4367 82.6999 m
36.1086 82.6999 l
37.0981 82.6999 37.8429 82.9213 38.3429 83.3640  c
38.8429 83.8067 39.0929 84.4551 39.0929 85.3093  c
39.0929 86.1739 38.8429 86.8275 38.3429 87.2702  c
37.8429 87.7129 37.0981 87.9343 36.1086 87.9343  c
34.6242 87.9343 l
34.6242 91.4499 l
33.4367 91.4499 l
33.4367 82.6999 l
h
40.9855 90.4499 m
42.9230 90.4499 l
42.9230 83.7780 l
40.8136 84.1999 l
40.8136 83.1218 l
42.9074 82.6999 l
44.0949 82.6999 l
44.0949 90.4499 l
46.0324 90.4499 l
46.0324 91.4499 l
40.9855 91.4499 l
40.9855 90.4499 l
h
f
2 J
10.0000 M
1.00000 .600000 0.00000 RG
0.00000 0.00000 0.00000 RG
0 J
1.45000 M
0.00000 1.00000 1.00000 RG
newpath
151.789 104.280 m
151.789 139.080 l
151.789 141.289 153.579 143.080 155.789 143.080  c
283.828 143.080 l
286.037 143.080 287.828 141.289 287.828 139.080  c
287.828 104.280 l
287.828 102.071 286.037 100.280 283.828 100.280  c
155.789 100.280 l
153.579 100.280 151.789 102.071 151.789 104.280  c
h
S
2 J
10.0000 M
0.00000 0.00000 0.00000 RG
0 J
1.45000 M
newpath
214.732 83.6687 m
214.732 86.9655 l
216.216 86.9655 l
216.768 86.9655 217.196 86.8223 217.498 86.5359  c
217.800 86.2494 217.951 85.8405 217.951 85.3093  c
217.951 84.7885 217.800 84.3848 217.498 84.0984  c
217.196 83.8119 216.768 83.6687 216.216 83.6687  c
214.732 83.6687 l
h
213.545 82.6999 m
216.216 82.6999 l
217.206 82.6999 217.951 82.9213 218.451 83.3640  c
218.951 83.8067 219.201 84.4551 219.201 85.3093  c
219.201 86.1739 218.951 86.8275 218.451 87.2702  c
217.951 87.7129 217.206 87.9343 216.216 87.9343  c
214.732 87.9343 l
214.732 91.4499 l
213.545 91.4499 l
213.545 82.6999 l
h
221.906 90.4499 m
226.046 90.4499 l
226.046 91.4499 l
220.484 91.4499 l
220.484 90.4499 l
220.932 89.9916 221.544 89.3692 222.320 88.5827  c
223.096 87.7963 223.583 87.2885 223.781 87.0593  c
224.166 86.6426 224.435 86.2859 224.586 85.9890  c
224.737 85.6921 224.812 85.4030 224.812 85.1218  c
224.812 84.6530 224.648 84.2728 224.320 83.9812  c
223.992 83.6895 223.567 83.5437 223.046 83.5437  c
222.671 83.5437 222.278 83.6062 221.867 83.7312  c
221.455 83.8562 221.015 84.0541 220.546 84.3249  c
220.546 83.1218 l
221.026 82.9343 221.471 82.7911 221.882 82.6921  c
222.294 82.5931 222.671 82.5437 223.015 82.5437  c
223.921 82.5437 224.645 82.7702 225.187 83.2234  c
225.729 83.6765 226.000 84.2833 226.000 85.0437  c
226.000 85.3978 225.932 85.7364 225.796 86.0593  c
225.661 86.3822 225.416 86.7624 225.062 87.1999  c
224.958 87.3145 224.645 87.6426 224.125 88.1843  c
223.604 88.7260 222.864 89.4812 221.906 90.4499  c
h
f
2 J
10.0000 M
0.00000 1.00000 1.00000 RG
0.00000 0.00000 0.00000 RG
0 J
1.45000 M
.200000 .600000 .400000 RG
newpath
512.004 104.280 m
512.004 139.080 l
512.004 141.289 513.795 143.080 516.004 143.080  c
644.044 143.080 l
646.253 143.080 648.044 141.289 648.044 139.080  c
648.044 104.280 l
648.044 102.071 646.253 100.280 644.044 100.280  c
516.004 100.280 l
513.795 100.280 512.004 102.071 512.004 104.280  c
h
S
2 J
10.0000 M
0.00000 0.00000 0.00000 RG
0 J
1.45000 M
newpath
574.948 83.6687 m
574.948 86.9655 l
576.432 86.9655 l
576.984 86.9655 577.411 86.8223 577.713 86.5359  c
578.015 86.2494 578.167 85.8405 578.167 85.3093  c
578.167 84.7885 578.015 84.3848 577.713 84.0984  c
577.411 83.8119 576.984 83.6687 576.432 83.6687  c
574.948 83.6687 l
h
573.760 82.6999 m
576.432 82.6999 l
577.422 82.6999 578.167 82.9213 578.667 83.3640  c
579.167 83.8067 579.417 84.4551 579.417 85.3093  c
579.417 86.1739 579.167 86.8275 578.667 87.2702  c
578.167 87.7129 577.422 87.9343 576.432 87.9343  c
574.948 87.9343 l
574.948 91.4499 l
573.760 91.4499 l
573.760 82.6999 l
h
584.356 83.7312 m
581.372 88.4030 l
584.356 88.4030 l
584.356 83.7312 l
h
584.043 82.6999 m
585.543 82.6999 l
585.543 88.4030 l
586.793 88.4030 l
586.793 89.3874 l
585.543 89.3874 l
585.543 91.4499 l
584.356 91.4499 l
584.356 89.3874 l
580.418 89.3874 l
580.418 88.2468 l
584.043 82.6999 l
h
f
2 J
10.0000 M
.200000 .600000 .400000 RG
0.00000 0.00000 0.00000 RG
0 J
1.45000 M
.800000 .600000 1.00000 RG
newpath
331.896 186.120 m
331.896 220.920 l
331.896 223.129 333.687 224.920 335.896 224.920  c
463.936 224.920 l
466.145 224.920 467.936 223.129 467.936 220.920  c
467.936 186.120 l
467.936 183.911 466.145 182.120 463.936 182.120  c
335.896 182.120 l
333.687 182.120 331.896 183.911 331.896 186.120  c
h
S
2 J
10.0000 M
0.00000 0.00000 0.00000 RG
0 J
1.45000 M
newpath
394.840 165.509 m
394.840 168.806 l
396.324 168.806 l
396.876 168.806 397.303 168.662 397.606 168.376  c
397.908 168.089 398.059 167.681 398.059 167.149  c
398.059 166.628 397.908 166.225 397.606 165.938  c
397.303 165.652 396.876 165.509 396.324 165.509  c
394.840 165.509 l
h
393.652 164.540 m
396.324 164.540 l
397.314 164.540 398.059 164.761 398.559 165.204  c
399.059 165.647 399.309 166.295 399.309 167.149  c
399.309 168.014 399.059 168.668 398.559 169.110  c
398.059 169.553 397.314 169.774 396.324 169.774  c
394.840 169.774 l
394.840 173.290 l
393.652 173.290 l
393.652 164.540 l
h
404.592 168.571 m
405.154 168.696 405.594 168.949 405.912 169.329  c
406.230 169.709 406.389 170.181 406.389 170.743  c
406.389 171.608 406.092 172.277 405.498 172.751  c
404.904 173.225 404.061 173.462 402.967 173.462  c
402.602 173.462 402.225 173.425 401.834 173.352  c
401.443 173.280 401.045 173.170 400.639 173.024  c
400.639 171.884 l
400.962 172.071 401.318 172.214 401.709 172.313  c
402.100 172.412 402.509 172.462 402.936 172.462  c
403.675 172.462 404.240 172.316 404.631 172.024  c
405.022 171.733 405.217 171.306 405.217 170.743  c
405.217 170.233 405.035 169.832 404.670 169.540  c
404.305 169.248 403.805 169.102 403.170 169.102  c
402.139 169.102 l
402.139 168.134 l
403.217 168.134 l
403.790 168.134 404.232 168.016 404.545 167.782  c
404.857 167.548 405.014 167.212 405.014 166.774  c
405.014 166.326 404.855 165.983 404.537 165.743  c
404.219 165.503 403.764 165.384 403.170 165.384  c
402.837 165.384 402.485 165.418 402.115 165.485  c
401.746 165.553 401.337 165.660 400.889 165.806  c
400.889 164.759 l
401.347 164.634 401.772 164.540 402.162 164.477  c
402.553 164.415 402.920 164.384 403.264 164.384  c
404.170 164.384 404.884 164.587 405.404 164.993  c
405.925 165.399 406.186 165.951 406.186 166.649  c
406.186 167.139 406.048 167.550 405.772 167.884  c
405.496 168.217 405.102 168.446 404.592 168.571  c
h
f
2 J
10.0000 M
.800000 .600000 1.00000 RG
0.00000 0.00000 0.00000 RG
1.00000 1.00000 1.00000 RG
newpath
-20.9200 188.520 m
9.08000 188.520 l
9.08000 218.520 l
-20.9200 218.520 l
-20.9200 188.520 l
h
f
0 J
1.45000 M
0.00000 0.00000 0.00000 RG
newpath
-20.9200 188.520 m
9.08000 188.520 l
9.08000 218.520 l
-20.9200 218.520 l
-20.9200 188.520 l
h
S
2 J
10.0000 M
1.00000 1.00000 1.00000 RG
newpath
9.08000 188.520 m
39.0800 188.520 l
39.0800 218.520 l
9.08000 218.520 l
9.08000 188.520 l
h
f
0 J
1.45000 M
0.00000 0.00000 0.00000 RG
newpath
9.08000 188.520 m
39.0800 188.520 l
39.0800 218.520 l
9.08000 218.520 l
9.08000 188.520 l
h
S
2 J
10.0000 M
1.00000 1.00000 1.00000 RG
newpath
39.0800 188.520 m
69.0800 188.520 l
69.0800 218.520 l
39.0800 218.520 l
39.0800 188.520 l
h
f
0 J
1.45000 M
0.00000 0.00000 0.00000 RG
newpath
39.0800 188.520 m
69.0800 188.520 l
69.0800 218.520 l
39.0800 218.520 l
39.0800 188.520 l
h
S
2 J
10.0000 M
1.00000 1.00000 1.00000 RG
newpath
69.0800 188.520 m
99.0800 188.520 l
99.0800 218.520 l
69.0800 218.520 l
69.0800 188.520 l
h
f
0 J
1.45000 M
0.00000 0.00000 0.00000 RG
newpath
69.0800 188.520 m
99.0800 188.520 l
99.0800 218.520 l
69.0800 218.520 l
69.0800 188.520 l
h
S
2 J
10.0000 M
1.00000 1.00000 1.00000 RG
newpath
339.896 188.520 m
369.896 188.520 l
369.896 218.520 l
339.896 218.520 l
339.896 188.520 l
h
f
0 J
1.45000 M
0.00000 0.00000 0.00000 RG
newpath
339.896 188.520 m
369.896 188.520 l
369.896 218.520 l
339.896 218.520 l
339.896 188.520 l
h
S
2 J
10.0000 M
1.00000 1.00000 1.00000 RG
newpath
369.896 188.520 m
399.896 188.520 l
399.896 218.520 l
369.896 218.520 l
369.896 188.520 l
h
f
0 J
1.45000 M
0.00000 0.00000 0.00000 RG
newpath
369.896 188.520 m
399.896 188.520 l
399.896 218.520 l
369.896 218.520 l
369.896 188.520 l
h
S
2 J
10.0000 M
1.00000 1.00000 1.00000 RG
newpath
399.896 188.520 m
429.896 188.520 l
429.896 218.520 l
399.896 218.520 l
399.896 188.520 l
h
f
0 J
1.45000 M
0.00000 0.00000 0.00000 RG
newpath
399.896 188.520 m
429.896 188.520 l
429.896 218.520 l
399.896 218.520 l
399.896 188.520 l
h
S
2 J
10.0000 M
1.00000 1.00000 1.00000 RG
newpath
429.896 188.520 m
459.896 188.520 l
459.896 218.520 l
429.896 218.520 l
429.896 188.520 l
h
f
0 J
1.45000 M
0.00000 0.00000 0.00000 RG
newpath
429.896 188.520 m
459.896 188.520 l
459.896 218.520 l
429.896 218.520 l
429.896 188.520 l
h
S
2 J
10.0000 M
1.00000 1.00000 1.00000 RG
newpath
159.669 188.520 m
189.669 188.520 l
189.669 218.520 l
159.669 218.520 l
159.669 188.520 l
h
f
0 J
1.45000 M
0.00000 0.00000 0.00000 RG
newpath
159.669 188.520 m
189.669 188.520 l
189.669 218.520 l
159.669 218.520 l
159.669 188.520 l
h
S
2 J
10.0000 M
1.00000 1.00000 1.00000 RG
newpath
189.669 188.520 m
219.669 188.520 l
219.669 218.520 l
189.669 218.520 l
189.669 188.520 l
h
f
0 J
1.45000 M
0.00000 0.00000 0.00000 RG
newpath
189.669 188.520 m
219.669 188.520 l
219.669 218.520 l
189.669 218.520 l
189.669 188.520 l
h
S
2 J
10.0000 M
1.00000 1.00000 1.00000 RG
newpath
219.669 188.520 m
249.669 188.520 l
249.669 218.520 l
219.669 218.520 l
219.669 188.520 l
h
f
0 J
1.45000 M
0.00000 0.00000 0.00000 RG
newpath
219.669 188.520 m
249.669 188.520 l
249.669 218.520 l
219.669 218.520 l
219.669 188.520 l
h
S
2 J
10.0000 M
1.00000 1.00000 1.00000 RG
newpath
249.669 188.520 m
279.669 188.520 l
279.669 218.520 l
249.669 218.520 l
249.669 188.520 l
h
f
0 J
1.45000 M
0.00000 0.00000 0.00000 RG
newpath
249.669 188.520 m
279.669 188.520 l
279.669 218.520 l
249.669 218.520 l
249.669 188.520 l
h
S
2 J
10.0000 M
1.00000 1.00000 1.00000 RG
newpath
520.340 188.520 m
550.340 188.520 l
550.340 218.520 l
520.340 218.520 l
520.340 188.520 l
h
f
0 J
1.45000 M
0.00000 0.00000 0.00000 RG
newpath
520.340 188.520 m
550.340 188.520 l
550.340 218.520 l
520.340 218.520 l
520.340 188.520 l
h
S
2 J
10.0000 M
1.00000 1.00000 1.00000 RG
newpath
550.340 188.520 m
580.340 188.520 l
580.340 218.520 l
550.340 218.520 l
550.340 188.520 l
h
f
0 J
1.45000 M
0.00000 0.00000 0.00000 RG
newpath
550.340 188.520 m
580.340 188.520 l
580.340 218.520 l
550.340 218.520 l
550.340 188.520 l
h
S
2 J
10.0000 M
1.00000 1.00000 1.00000 RG
newpath
580.340 188.520 m
610.340 188.520 l
610.340 218.520 l
580.340 218.520 l
580.340 188.520 l
h
f
0 J
1.45000 M
0.00000 0.00000 0.00000 RG
newpath
580.340 188.520 m
610.340 188.520 l
610.340 218.520 l
580.340 218.520 l
580.340 188.520 l
h
S
2 J
10.0000 M
1.00000 1.00000 1.00000 RG
newpath
610.340 188.520 m
640.340 188.520 l
640.340 218.520 l
610.340 218.520 l
610.340 188.520 l
h
f
0 J
1.45000 M
0.00000 0.00000 0.00000 RG
newpath
610.340 188.520 m
640.340 188.520 l
640.340 218.520 l
610.340 218.520 l
610.340 188.520 l
h
S
2 J
10.0000 M
0 J
1.45000 M
1.00000 .600000 0.00000 RG
newpath
-28.3193 186.120 m
-28.3193 220.920 l
-28.3193 223.129 -26.5284 224.920 -24.3193 224.920  c
103.720 224.920 l
105.929 224.920 107.720 223.129 107.720 220.920  c
107.720 186.120 l
107.720 183.911 105.929 182.120 103.720 182.120  c
-24.3193 182.120 l
-26.5284 182.120 -28.3193 183.911 -28.3193 186.120  c
h
S
2 J
10.0000 M
0.00000 0.00000 0.00000 RG
0 J
1.45000 M
newpath
34.6242 165.509 m
34.6242 168.806 l
36.1086 168.806 l
36.6606 168.806 37.0877 168.662 37.3898 168.376  c
37.6919 168.089 37.8429 167.681 37.8429 167.149  c
37.8429 166.628 37.6919 166.225 37.3898 165.938  c
37.0877 165.652 36.6606 165.509 36.1086 165.509  c
34.6242 165.509 l
h
33.4367 164.540 m
36.1086 164.540 l
37.0981 164.540 37.8429 164.761 38.3429 165.204  c
38.8429 165.647 39.0929 166.295 39.0929 167.149  c
39.0929 168.014 38.8429 168.668 38.3429 169.110  c
37.8429 169.553 37.0981 169.774 36.1086 169.774  c
34.6242 169.774 l
34.6242 173.290 l
33.4367 173.290 l
33.4367 164.540 l
h
40.9855 172.290 m
42.9230 172.290 l
42.9230 165.618 l
40.8136 166.040 l
40.8136 164.962 l
42.9074 164.540 l
44.0949 164.540 l
44.0949 172.290 l
46.0324 172.290 l
46.0324 173.290 l
40.9855 173.290 l
40.9855 172.290 l
h
f
2 J
10.0000 M
1.00000 .600000 0.00000 RG
0.00000 0.00000 0.00000 RG
0 J
1.45000 M
0.00000 1.00000 1.00000 RG
newpath
151.789 186.120 m
151.789 220.920 l
151.789 223.129 153.579 224.920 155.789 224.920  c
283.828 224.920 l
286.037 224.920 287.828 223.129 287.828 220.920  c
287.828 186.120 l
287.828 183.911 286.037 182.120 283.828 182.120  c
155.789 182.120 l
153.579 182.120 151.789 183.911 151.789 186.120  c
h
S
2 J
10.0000 M
0.00000 0.00000 0.00000 RG
0 J
1.45000 M
newpath
214.732 165.509 m
214.732 168.806 l
216.216 168.806 l
216.768 168.806 217.196 168.662 217.498 168.376  c
217.800 168.089 217.951 167.681 217.951 167.149  c
217.951 166.628 217.800 166.225 217.498 165.938  c
217.196 165.652 216.768 165.509 216.216 165.509  c
214.732 165.509 l
h
213.545 164.540 m
216.216 164.540 l
217.206 164.540 217.951 164.761 218.451 165.204  c
218.951 165.647 219.201 166.295 219.201 167.149  c
219.201 168.014 218.951 168.668 218.451 169.110  c
217.951 169.553 217.206 169.774 216.216 169.774  c
214.732 169.774 l
214.732 173.290 l
213.545 173.290 l
213.545 164.540 l
h
221.906 172.290 m
226.046 172.290 l
226.046 173.290 l
220.484 173.290 l
220.484 172.290 l
220.932 171.832 221.544 171.209 222.320 170.423  c
223.096 169.636 223.583 169.128 223.781 168.899  c
224.166 168.483 224.435 168.126 224.586 167.829  c
224.737 167.532 224.812 167.243 224.812 166.962  c
224.812 166.493 224.648 166.113 224.320 165.821  c
223.992 165.530 223.567 165.384 223.046 165.384  c
222.671 165.384 222.278 165.446 221.867 165.571  c
221.455 165.696 221.015 165.894 220.546 166.165  c
220.546 164.962 l
221.026 164.774 221.471 164.631 221.882 164.532  c
222.294 164.433 222.671 164.384 223.015 164.384  c
223.921 164.384 224.645 164.610 225.187 165.063  c
225.729 165.516 226.000 166.123 226.000 166.884  c
226.000 167.238 225.932 167.576 225.796 167.899  c
225.661 168.222 225.416 168.602 225.062 169.040  c
224.958 169.155 224.645 169.483 224.125 170.024  c
223.604 170.566 222.864 171.321 221.906 172.290  c
h
f
2 J
10.0000 M
0.00000 1.00000 1.00000 RG
0.00000 0.00000 0.00000 RG
0 J
1.45000 M
.200000 .600000 .400000 RG
newpath
512.004 186.120 m
512.004 220.920 l
512.004 223.129 513.795 224.920 516.004 224.920  c
644.044 224.920 l
646.253 224.920 648.044 223.129 648.044 220.920  c
648.044 186.120 l
648.044 183.911 646.253 182.120 644.044 182.120  c
516.004 182.120 l
513.795 182.120 512.004 183.911 512.004 186.120  c
h
S
2 J
10.0000 M
0.00000 0.00000 0.00000 RG
0 J
1.45000 M
newpath
574.948 165.509 m
574.948 168.806 l
576.432 168.806 l
576.984 168.806 577.411 168.662 577.713 168.376  c
578.015 168.089 578.167 167.681 578.167 167.149  c
578.167 166.628 578.015 166.225 577.713 165.938  c
577.411 165.652 576.984 165.509 576.432 165.509  c
574.948 165.509 l
h
573.760 164.540 m
576.432 164.540 l
577.422 164.540 578.167 164.761 578.667 165.204  c
579.167 165.647 579.417 166.295 579.417 167.149  c
579.417 168.014 579.167 168.668 578.667 169.110  c
578.167 169.553 577.422 169.774 576.432 169.774  c
574.948 169.774 l
574.948 173.290 l
573.760 173.290 l
573.760 164.540 l
h
584.356 165.571 m
581.372 170.243 l
584.356 170.243 l
584.356 165.571 l
h
584.043 164.540 m
585.543 164.540 l
585.543 170.243 l
586.793 170.243 l
586.793 171.227 l
585.543 171.227 l
585.543 173.290 l
584.356 173.290 l
584.356 171.227 l
580.418 171.227 l
580.418 170.087 l
584.043 164.540 l
h
f
2 J
10.0000 M
.200000 .600000 .400000 RG
0.00000 0.00000 0.00000 RG
0 J
1.45000 M
.800000 .600000 1.00000 RG
newpath
331.896 261.560 m
331.896 296.360 l
331.896 298.569 333.687 300.360 335.896 300.360  c
463.936 300.360 l
466.145 300.360 467.936 298.569 467.936 296.360  c
467.936 261.560 l
467.936 259.351 466.145 257.560 463.936 257.560  c
335.896 257.560 l
333.687 257.560 331.896 259.351 331.896 261.560  c
h
S
2 J
10.0000 M
0.00000 0.00000 0.00000 RG
0 J
1.45000 M
newpath
394.840 240.949 m
394.840 244.246 l
396.324 244.246 l
396.876 244.246 397.303 244.102 397.606 243.816  c
397.908 243.529 398.059 243.121 398.059 242.589  c
398.059 242.068 397.908 241.665 397.606 241.378  c
397.303 241.092 396.876 240.949 396.324 240.949  c
394.840 240.949 l
h
393.652 239.980 m
396.324 239.980 l
397.314 239.980 398.059 240.201 398.559 240.644  c
399.059 241.087 399.309 241.735 399.309 242.589  c
399.309 243.454 399.059 244.108 398.559 244.550  c
398.059 244.993 397.314 245.214 396.324 245.214  c
394.840 245.214 l
394.840 248.730 l
393.652 248.730 l
393.652 239.980 l
h
404.592 244.011 m
405.154 244.136 405.594 244.389 405.912 244.769  c
406.230 245.149 406.389 245.621 406.389 246.183  c
406.389 247.048 406.092 247.717 405.498 248.191  c
404.904 248.665 404.061 248.902 402.967 248.902  c
402.602 248.902 402.225 248.865 401.834 248.792  c
401.443 248.720 401.045 248.610 400.639 248.464  c
400.639 247.324 l
400.962 247.511 401.318 247.654 401.709 247.753  c
402.100 247.852 402.509 247.902 402.936 247.902  c
403.675 247.902 404.240 247.756 404.631 247.464  c
405.022 247.173 405.217 246.746 405.217 246.183  c
405.217 245.673 405.035 245.272 404.670 244.980  c
404.305 244.688 403.805 244.542 403.170 244.542  c
402.139 244.542 l
402.139 243.574 l
403.217 243.574 l
403.790 243.574 404.232 243.456 404.545 243.222  c
404.857 242.988 405.014 242.652 405.014 242.214  c
405.014 241.766 404.855 241.423 404.537 241.183  c
404.219 240.943 403.764 240.824 403.170 240.824  c
402.837 240.824 402.485 240.858 402.115 240.925  c
401.746 240.993 401.337 241.100 400.889 241.246  c
400.889 240.199 l
401.347 240.074 401.772 239.980 402.162 239.917  c
402.553 239.855 402.920 239.824 403.264 239.824  c
404.170 239.824 404.884 240.027 405.404 240.433  c
405.925 240.839 406.186 241.391 406.186 242.089  c
406.186 242.579 406.048 242.990 405.772 243.324  c
405.496 243.657 405.102 243.886 404.592 244.011  c
h
f
2 J
10.0000 M
.800000 .600000 1.00000 RG
0.00000 0.00000 0.00000 RG
1.00000 1.00000 1.00000 RG
newpath
-20.9200 263.960 m
9.08000 263.960 l
9.08000 293.960 l
-20.9200 293.960 l
-20.9200 263.960 l
h
f
0 J
1.45000 M
0.00000 0.00000 0.00000 RG
newpath
-20.9200 263.960 m
9.08000 263.960 l
9.08000 293.960 l
-20.9200 293.960 l
-20.9200 263.960 l
h
S
2 J
10.0000 M
1.00000 1.00000 1.00000 RG
newpath
9.08000 263.960 m
39.0800 263.960 l
39.0800 293.960 l
9.08000 293.960 l
9.08000 263.960 l
h
f
0 J
1.45000 M
0.00000 0.00000 0.00000 RG
newpath
9.08000 263.960 m
39.0800 263.960 l
39.0800 293.960 l
9.08000 293.960 l
9.08000 263.960 l
h
S
2 J
10.0000 M
1.00000 1.00000 1.00000 RG
newpath
39.0800 263.960 m
69.0800 263.960 l
69.0800 293.960 l
39.0800 293.960 l
39.0800 263.960 l
h
f
0 J
1.45000 M
0.00000 0.00000 0.00000 RG
newpath
39.0800 263.960 m
69.0800 263.960 l
69.0800 293.960 l
39.0800 293.960 l
39.0800 263.960 l
h
S
2 J
10.0000 M
1.00000 1.00000 1.00000 RG
newpath
69.0800 263.960 m
99.0800 263.960 l
99.0800 293.960 l
69.0800 293.960 l
69.0800 263.960 l
h
f
0 J
1.45000 M
0.00000 0.00000 0.00000 RG
newpath
69.0800 263.960 m
99.0800 263.960 l
99.0800 293.960 l
69.0800 293.960 l
69.0800 263.960 l
h
S
2 J
10.0000 M
1.00000 1.00000 1.00000 RG
newpath
339.896 263.960 m
369.896 263.960 l
369.896 293.960 l
339.896 293.960 l
339.896 263.960 l
h
f
0 J
1.45000 M
0.00000 0.00000 0.00000 RG
newpath
339.896 263.960 m
369.896 263.960 l
369.896 293.960 l
339.896 293.960 l
339.896 263.960 l
h
S
2 J
10.0000 M
1.00000 1.00000 1.00000 RG
newpath
369.896 263.960 m
399.896 263.960 l
399.896 293.960 l
369.896 293.960 l
369.896 263.960 l
h
f
0 J
1.45000 M
0.00000 0.00000 0.00000 RG
newpath
369.896 263.960 m
399.896 263.960 l
399.896 293.960 l
369.896 293.960 l
369.896 263.960 l
h
S
2 J
10.0000 M
1.00000 1.00000 1.00000 RG
newpath
399.896 263.960 m
429.896 263.960 l
429.896 293.960 l
399.896 293.960 l
399.896 263.960 l
h
f
0 J
1.45000 M
0.00000 0.00000 0.00000 RG
newpath
399.896 263.960 m
429.896 263.960 l
429.896 293.960 l
399.896 293.960 l
399.896 263.960 l
h
S
2 J
10.0000 M
1.00000 1.00000 1.00000 RG
newpath
429.896 263.960 m
459.896 263.960 l
459.896 293.960 l
429.896 293.960 l
429.896 263.960 l
h
f
0 J
1.45000 M
0.00000 0.00000 0.00000 RG
newpath
429.896 263.960 m
459.896 263.960 l
459.896 293.960 l
429.896 293.960 l
429.896 263.960 l
h
S
2 J
10.0000 M
1.00000 1.00000 1.00000 RG
newpath
159.669 263.960 m
189.669 263.960 l
189.669 293.960 l
159.669 293.960 l
159.669 263.960 l
h
f
0 J
1.45000 M
0.00000 0.00000 0.00000 RG
newpath
159.669 263.960 m
189.669 263.960 l
189.669 293.960 l
159.669 293.960 l
159.669 263.960 l
h
S
2 J
10.0000 M
1.00000 1.00000 1.00000 RG
newpath
189.669 263.960 m
219.669 263.960 l
219.669 293.960 l
189.669 293.960 l
189.669 263.960 l
h
f
0 J
1.45000 M
0.00000 0.00000 0.00000 RG
newpath
189.669 263.960 m
219.669 263.960 l
219.669 293.960 l
189.669 293.960 l
189.669 263.960 l
h
S
2 J
10.0000 M
1.00000 1.00000 1.00000 RG
newpath
219.669 263.960 m
249.669 263.960 l
249.669 293.960 l
219.669 293.960 l
219.669 263.960 l
h
f
0 J
1.45000 M
0.00000 0.00000 0.00000 RG
newpath
219.669 263.960 m
249.669 263.960 l
249.669 293.960 l
219.669 293.960 l
219.669 263.960 l
h
S
2 J
10.0000 M
1.00000 1.00000 1.00000 RG
newpath
249.669 263.960 m
279.669 263.960 l
279.669 293.960 l
249.669 293.960 l
249.669 263.960 l
h
f
0 J
1.45000 M
0.00000 0.00000 0.00000 RG
newpath
249.669 263.960 m
279.669 263.960 l
279.669 293.960 l
249.669 293.960 l
249.669 263.960 l
h
S
2 J
10.0000 M
1.00000 1.00000 1.00000 RG
newpath
520.340 263.960 m
550.340 263.960 l
550.340 293.960 l
520.340 293.960 l
520.340 263.960 l
h
f
0 J
1.45000 M
0.00000 0.00000 0.00000 RG
newpath
520.340 263.960 m
550.340 263.960 l
550.340 293.960 l
520.340 293.960 l
520.340 263.960 l
h
S
2 J
10.0000 M
1.00000 1.00000 1.00000 RG
newpath
550.340 263.960 m
580.340 263.960 l
580.340 293.960 l
550.340 293.960 l
550.340 263.960 l
h
f
0 J
1.45000 M
0.00000 0.00000 0.00000 RG
newpath
550.340 263.960 m
580.340 263.960 l
580.340 293.960 l
550.340 293.960 l
550.340 263.960 l
h
S
2 J
10.0000 M
1.00000 1.00000 1.00000 RG
newpath
580.340 263.960 m
610.340 263.960 l
610.340 293.960 l
580.340 293.960 l
580.340 263.960 l
h
f
0 J
1.45000 M
0.00000 0.00000 0.00000 RG
newpath
580.340 263.960 m
610.340 263.960 l
610.340 293.960 l
580.340 293.960 l
580.340 263.960 l
h
S
2 J
10.0000 M
1.00000 1.00000 1.00000 RG
newpath
610.340 263.960 m
640.340 263.960 l
640.340 293.960 l
610.340 293.960 l
610.340 263.960 l
h
f
0 J
1.45000 M
0.00000 0.00000 0.00000 RG
newpath
610.340 263.960 m
640.340 263.960 l
640.340 293.960 l
610.340 293.960 l
610.340 263.960 l
h
S
2 J
10.0000 M
0 J
1.45000 M
1.00000 .600000 0.00000 RG
newpath
-28.3193 261.560 m
-28.3193 296.360 l
-28.3193 298.569 -26.5284 300.360 -24.3193 300.360  c
103.720 300.360 l
105.929 300.360 107.720 298.569 107.720 296.360  c
107.720 261.560 l
107.720 259.351 105.929 257.560 103.720 257.560  c
-24.3193 257.560 l
-26.5284 257.560 -28.3193 259.351 -28.3193 261.560  c
h
S
2 J
10.0000 M
0.00000 0.00000 0.00000 RG
0 J
1.45000 M
newpath
34.6242 240.949 m
34.6242 244.246 l
36.1086 244.246 l
36.6606 244.246 37.0877 244.102 37.3898 243.816  c
37.6919 243.529 37.8429 243.121 37.8429 242.589  c
37.8429 242.068 37.6919 241.665 37.3898 241.378  c
37.0877 241.092 36.6606 240.949 36.1086 240.949  c
34.6242 240.949 l
h
33.4367 239.980 m
36.1086 239.980 l
37.0981 239.980 37.8429 240.201 38.3429 240.644  c
38.8429 241.087 39.0929 241.735 39.0929 242.589  c
39.0929 243.454 38.8429 244.108 38.3429 244.550  c
37.8429 244.993 37.0981 245.214 36.1086 245.214  c
34.6242 245.214 l
34.6242 248.730 l
33.4367 248.730 l
33.4367 239.980 l
h
40.9855 247.730 m
42.9230 247.730 l
42.9230 241.058 l
40.8136 241.480 l
40.8136 240.402 l
42.9074 239.980 l
44.0949 239.980 l
44.0949 247.730 l
46.0324 247.730 l
46.0324 248.730 l
40.9855 248.730 l
40.9855 247.730 l
h
f
2 J
10.0000 M
1.00000 .600000 0.00000 RG
0.00000 0.00000 0.00000 RG
0 J
1.45000 M
0.00000 1.00000 1.00000 RG
newpath
151.789 261.560 m
151.789 296.360 l
151.789 298.569 153.579 300.360 155.789 300.360  c
283.828 300.360 l
286.037 300.360 287.828 298.569 287.828 296.360  c
287.828 261.560 l
287.828 259.351 286.037 257.560 283.828 257.560  c
155.789 257.560 l
153.579 257.560 151.789 259.351 151.789 261.560  c
h
S
2 J
10.0000 M
0.00000 0.00000 0.00000 RG
0 J
1.45000 M
newpath
214.732 240.949 m
214.732 244.246 l
216.216 244.246 l
216.768 244.246 217.196 244.102 217.498 243.816  c
217.800 243.529 217.951 243.121 217.951 242.589  c
217.951 242.068 217.800 241.665 217.498 241.378  c
217.196 241.092 216.768 240.949 216.216 240.949  c
214.732 240.949 l
h
213.545 239.980 m
216.216 239.980 l
217.206 239.980 217.951 240.201 218.451 240.644  c
218.951 241.087 219.201 241.735 219.201 242.589  c
219.201 243.454 218.951 244.108 218.451 244.550  c
217.951 244.993 217.206 245.214 216.216 245.214  c
214.732 245.214 l
214.732 248.730 l
213.545 248.730 l
213.545 239.980 l
h
221.906 247.730 m
226.046 247.730 l
226.046 248.730 l
220.484 248.730 l
220.484 247.730 l
220.932 247.272 221.544 246.649 222.320 245.863  c
223.096 245.076 223.583 244.568 223.781 244.339  c
224.166 243.923 224.435 243.566 224.586 243.269  c
224.737 242.972 224.812 242.683 224.812 242.402  c
224.812 241.933 224.648 241.553 224.320 241.261  c
223.992 240.970 223.567 240.824 223.046 240.824  c
222.671 240.824 222.278 240.886 221.867 241.011  c
221.455 241.136 221.015 241.334 220.546 241.605  c
220.546 240.402 l
221.026 240.214 221.471 240.071 221.882 239.972  c
222.294 239.873 222.671 239.824 223.015 239.824  c
223.921 239.824 224.645 240.050 225.187 240.503  c
225.729 240.956 226.000 241.563 226.000 242.324  c
226.000 242.678 225.932 243.016 225.796 243.339  c
225.661 243.662 225.416 244.042 225.062 244.480  c
224.958 244.595 224.645 244.923 224.125 245.464  c
223.604 246.006 222.864 246.761 221.906 247.730  c
h
f
2 J
10.0000 M
0.00000 1.00000 1.00000 RG
0.00000 0.00000 0.00000 RG
0 J
1.45000 M
.200000 .600000 .400000 RG
newpath
512.004 261.560 m
512.004 296.360 l
512.004 298.569 513.795 300.360 516.004 300.360  c
644.044 300.360 l
646.253 300.360 648.044 298.569 648.044 296.360  c
648.044 261.560 l
648.044 259.351 646.253 257.560 644.044 257.560  c
516.004 257.560 l
513.795 257.560 512.004 259.351 512.004 261.560  c
h
S
2 J
10.0000 M
0.00000 0.00000 0.00000 RG
0 J
1.45000 M
newpath
574.948 240.949 m
574.948 244.246 l
576.432 244.246 l
576.984 244.246 577.411 244.102 577.713 243.816  c
578.015 243.529 578.167 243.121 578.167 242.589  c
578.167 242.068 578.015 241.665 577.713 241.378  c
577.411 241.092 576.984 240.949 576.432 240.949  c
574.948 240.949 l
h
573.760 239.980 m
576.432 239.980 l
577.422 239.980 578.167 240.201 578.667 240.644  c
579.167 241.087 579.417 241.735 579.417 242.589  c
579.417 243.454 579.167 244.108 578.667 244.550  c
578.167 244.993 577.422 245.214 576.432 245.214  c
574.948 245.214 l
574.948 248.730 l
573.760 248.730 l
573.760 239.980 l
h
584.356 241.011 m
581.372 245.683 l
584.356 245.683 l
584.356 241.011 l
h
584.043 239.980 m
585.543 239.980 l
585.543 245.683 l
586.793 245.683 l
586.793 246.667 l
585.543 246.667 l
585.543 248.730 l
584.356 248.730 l
584.356 246.667 l
580.418 246.667 l
580.418 245.527 l
584.043 239.980 l
h
f
2 J
10.0000 M
.200000 .600000 .400000 RG
0.00000 0.00000 0.00000 RG
0 J
1.45000 M
.800000 .600000 1.00000 RG
newpath
331.896 343.400 m
331.896 378.200 l
331.896 380.409 333.687 382.200 335.896 382.200  c
463.936 382.200 l
466.145 382.200 467.936 380.409 467.936 378.200  c
467.936 343.400 l
467.936 341.191 466.145 339.400 463.936 339.400  c
335.896 339.400 l
333.687 339.400 331.896 341.191 331.896 343.400  c
h
S
2 J
10.0000 M
0.00000 0.00000 0.00000 RG
0 J
1.45000 M
newpath
394.840 322.789 m
394.840 326.086 l
396.324 326.086 l
396.876 326.086 397.303 325.942 397.606 325.656  c
397.908 325.369 398.059 324.961 398.059 324.429  c
398.059 323.908 397.908 323.505 397.606 323.218  c
397.303 322.932 396.876 322.789 396.324 322.789  c
394.840 322.789 l
h
393.652 321.820 m
396.324 321.820 l
397.314 321.820 398.059 322.041 398.559 322.484  c
399.059 322.927 399.309 323.575 399.309 324.429  c
399.309 325.294 399.059 325.948 398.559 326.390  c
398.059 326.833 397.314 327.054 396.324 327.054  c
394.840 327.054 l
394.840 330.570 l
393.652 330.570 l
393.652 321.820 l
h
404.592 325.851 m
405.154 325.976 405.594 326.229 405.912 326.609  c
406.230 326.989 406.389 327.461 406.389 328.023  c
406.389 328.888 406.092 329.557 405.498 330.031  c
404.904 330.505 404.061 330.742 402.967 330.742  c
402.602 330.742 402.225 330.705 401.834 330.632  c
401.443 330.559 401.045 330.450 400.639 330.304  c
400.639 329.164 l
400.962 329.351 401.318 329.494 401.709 329.593  c
402.100 329.692 402.509 329.742 402.936 329.742  c
403.675 329.742 404.240 329.596 404.631 329.304  c
405.022 329.013 405.217 328.586 405.217 328.023  c
405.217 327.513 405.035 327.112 404.670 326.820  c
404.305 326.528 403.805 326.382 403.170 326.382  c
402.139 326.382 l
402.139 325.414 l
403.217 325.414 l
403.790 325.414 404.232 325.296 404.545 325.062  c
404.857 324.828 405.014 324.492 405.014 324.054  c
405.014 323.606 404.855 323.263 404.537 323.023  c
404.219 322.783 403.764 322.664 403.170 322.664  c
402.837 322.664 402.485 322.698 402.115 322.765  c
401.746 322.833 401.337 322.940 400.889 323.086  c
400.889 322.039 l
401.347 321.914 401.772 321.820 402.162 321.757  c
402.553 321.695 402.920 321.664 403.264 321.664  c
404.170 321.664 404.884 321.867 405.404 322.273  c
405.925 322.679 406.186 323.231 406.186 323.929  c
406.186 324.419 406.048 324.830 405.772 325.164  c
405.496 325.497 405.102 325.726 404.592 325.851  c
h
f
2 J
10.0000 M
.800000 .600000 1.00000 RG
0.00000 0.00000 0.00000 RG
1.00000 1.00000 1.00000 RG
newpath
-20.9200 345.800 m
9.08000 345.800 l
9.08000 375.800 l
-20.9200 375.800 l
-20.9200 345.800 l
h
f
0 J
1.45000 M
0.00000 0.00000 0.00000 RG
newpath
-20.9200 345.800 m
9.08000 345.800 l
9.08000 375.800 l
-20.9200 375.800 l
-20.9200 345.800 l
h
S
2 J
10.0000 M
1.00000 1.00000 1.00000 RG
newpath
9.08000 345.800 m
39.0800 345.800 l
39.0800 375.800 l
9.08000 375.800 l
9.08000 345.800 l
h
f
0 J
1.45000 M
0.00000 0.00000 0.00000 RG
newpath
9.08000 345.800 m
39.0800 345.800 l
39.0800 375.800 l
9.08000 375.800 l
9.08000 345.800 l
h
S
2 J
10.0000 M
1.00000 1.00000 1.00000 RG
newpath
39.0800 345.800 m
69.0800 345.800 l
69.0800 375.800 l
39.0800 375.800 l
39.0800 345.800 l
h
f
0 J
1.45000 M
0.00000 0.00000 0.00000 RG
newpath
39.0800 345.800 m
69.0800 345.800 l
69.0800 375.800 l
39.0800 375.800 l
39.0800 345.800 l
h
S
2 J
10.0000 M
1.00000 1.00000 1.00000 RG
newpath
69.0800 345.800 m
99.0800 345.800 l
99.0800 375.800 l
69.0800 375.800 l
69.0800 345.800 l
h
f
0 J
1.45000 M
0.00000 0.00000 0.00000 RG
newpath
69.0800 345.800 m
99.0800 345.800 l
99.0800 375.800 l
69.0800 375.800 l
69.0800 345.800 l
h
S
2 J
10.0000 M
1.00000 1.00000 1.00000 RG
newpath
339.896 345.800 m
369.896 345.800 l
369.896 375.800 l
339.896 375.800 l
339.896 345.800 l
h
f
0 J
1.45000 M
0.00000 0.00000 0.00000 RG
newpath
339.896 345.800 m
369.896 345.800 l
369.896 375.800 l
339.896 375.800 l
339.896 345.800 l
h
S
2 J
10.0000 M
1.00000 1.00000 1.00000 RG
newpath
369.896 345.800 m
399.896 345.800 l
399.896 375.800 l
369.896 375.800 l
369.896 345.800 l
h
f
0 J
1.45000 M
0.00000 0.00000 0.00000 RG
newpath
369.896 345.800 m
399.896 345.800 l
399.896 375.800 l
369.896 375.800 l
369.896 345.800 l
h
S
2 J
10.0000 M
1.00000 1.00000 1.00000 RG
newpath
399.896 345.800 m
429.896 345.800 l
429.896 375.800 l
399.896 375.800 l
399.896 345.800 l
h
f
0 J
1.45000 M
0.00000 0.00000 0.00000 RG
newpath
399.896 345.800 m
429.896 345.800 l
429.896 375.800 l
399.896 375.800 l
399.896 345.800 l
h
S
2 J
10.0000 M
1.00000 1.00000 1.00000 RG
newpath
429.896 345.800 m
459.896 345.800 l
459.896 375.800 l
429.896 375.800 l
429.896 345.800 l
h
f
0 J
1.45000 M
0.00000 0.00000 0.00000 RG
newpath
429.896 345.800 m
459.896 345.800 l
459.896 375.800 l
429.896 375.800 l
429.896 345.800 l
h
S
2 J
10.0000 M
1.00000 1.00000 1.00000 RG
newpath
159.669 345.800 m
189.669 345.800 l
189.669 375.800 l
159.669 375.800 l
159.669 345.800 l
h
f
0 J
1.45000 M
0.00000 0.00000 0.00000 RG
newpath
159.669 345.800 m
189.669 345.800 l
189.669 375.800 l
159.669 375.800 l
159.669 345.800 l
h
S
2 J
10.0000 M
1.00000 1.00000 1.00000 RG
newpath
189.669 345.800 m
219.669 345.800 l
219.669 375.800 l
189.669 375.800 l
189.669 345.800 l
h
f
0 J
1.45000 M
0.00000 0.00000 0.00000 RG
newpath
189.669 345.800 m
219.669 345.800 l
219.669 375.800 l
189.669 375.800 l
189.669 345.800 l
h
S
2 J
10.0000 M
1.00000 1.00000 1.00000 RG
newpath
219.669 345.800 m
249.669 345.800 l
249.669 375.800 l
219.669 375.800 l
219.669 345.800 l
h
f
0 J
1.45000 M
0.00000 0.00000 0.00000 RG
newpath
219.669 345.800 m
249.669 345.800 l
249.669 375.800 l
219.669 375.800 l
219.669 345.800 l
h
S
2 J
10.0000 M
1.00000 1.00000 1.00000 RG
newpath
249.669 345.800 m
279.669 345.800 l
279.669 375.800 l
249.669 375.800 l
249.669 345.800 l
h
f
0 J
1.45000 M
0.00000 0.00000 0.00000 RG
newpath
249.669 345.800 m
279.669 345.800 l
279.669 375.800 l
249.669 375.800 l
249.669 345.800 l
h
S
2 J
10.0000 M
1.00000 1.00000 1.00000 RG
newpath
520.340 345.800 m
550.340 345.800 l
550.340 375.800 l
520.340 375.800 l
520.340 345.800 l
h
f
0 J
1.45000 M
0.00000 0.00000 0.00000 RG
newpath
520.340 345.800 m
550.340 345.800 l
550.340 375.800 l
520.340 375.800 l
520.340 345.800 l
h
S
2 J
10.0000 M
1.00000 1.00000 1.00000 RG
newpath
550.340 345.800 m
580.340 345.800 l
580.340 375.800 l
550.340 375.800 l
550.340 345.800 l
h
f
0 J
1.45000 M
0.00000 0.00000 0.00000 RG
newpath
550.340 345.800 m
580.340 345.800 l
580.340 375.800 l
550.340 375.800 l
550.340 345.800 l
h
S
2 J
10.0000 M
1.00000 1.00000 1.00000 RG
newpath
580.340 345.800 m
610.340 345.800 l
610.340 375.800 l
580.340 375.800 l
580.340 345.800 l
h
f
0 J
1.45000 M
0.00000 0.00000 0.00000 RG
newpath
580.340 345.800 m
610.340 345.800 l
610.340 375.800 l
580.340 375.800 l
580.340 345.800 l
h
S
2 J
10.0000 M
1.00000 1.00000 1.00000 RG
newpath
610.340 345.800 m
640.340 345.800 l
640.340 375.800 l
610.340 375.800 l
610.340 345.800 l
h
f
0 J
1.45000 M
0.00000 0.00000 0.00000 RG
newpath
610.340 345.800 m
640.340 345.800 l
640.340 375.800 l
610.340 375.800 l
610.340 345.800 l
h
S
2 J
10.0000 M
0 J
1.45000 M
1.00000 .600000 0.00000 RG
newpath
-28.3193 343.400 m
-28.3193 378.200 l
-28.3193 380.409 -26.5284 382.200 -24.3193 382.200  c
103.720 382.200 l
105.929 382.200 107.720 380.409 107.720 378.200  c
107.720 343.400 l
107.720 341.191 105.929 339.400 103.720 339.400  c
-24.3193 339.400 l
-26.5284 339.400 -28.3193 341.191 -28.3193 343.400  c
h
S
2 J
10.0000 M
0.00000 0.00000 0.00000 RG
0 J
1.45000 M
newpath
34.6242 322.789 m
34.6242 326.086 l
36.1086 326.086 l
36.6606 326.086 37.0877 325.942 37.3898 325.656  c
37.6919 325.369 37.8429 324.961 37.8429 324.429  c
37.8429 323.908 37.6919 323.505 37.3898 323.218  c
37.0877 322.932 36.6606 322.789 36.1086 322.789  c
34.6242 322.789 l
h
33.4367 321.820 m
36.1086 321.820 l
37.0981 321.820 37.8429 322.041 38.3429 322.484  c
38.8429 322.927 39.0929 323.575 39.0929 324.429  c
39.0929 325.294 38.8429 325.948 38.3429 326.390  c
37.8429 326.833 37.0981 327.054 36.1086 327.054  c
34.6242 327.054 l
34.6242 330.570 l
33.4367 330.570 l
33.4367 321.820 l
h
40.9855 329.570 m
42.9230 329.570 l
42.9230 322.898 l
40.8136 323.320 l
40.8136 322.242 l
42.9074 321.820 l
44.0949 321.820 l
44.0949 329.570 l
46.0324 329.570 l
46.0324 330.570 l
40.9855 330.570 l
40.9855 329.570 l
h
f
2 J
10.0000 M
1.00000 .600000 0.00000 RG
0.00000 0.00000 0.00000 RG
0 J
1.45000 M
0.00000 1.00000 1.00000 RG
newpath
151.789 343.400 m
151.789 378.200 l
151.789 380.409 153.579 382.200 155.789 382.200  c
283.828 382.200 l
286.037 382.200 287.828 380.409 287.828 378.200  c
287.828 343.400 l
287.828 341.191 286.037 339.400 283.828 339.400  c
155.789 339.400 l
153.579 339.400 151.789 341.191 151.789 343.400  c
h
S
2 J
10.0000 M
0.00000 0.00000 0.00000 RG
0 J
1.45000 M
newpath
214.732 322.789 m
214.732 326.086 l
216.216 326.086 l
216.768 326.086 217.196 325.942 217.498 325.656  c
217.800 325.369 217.951 324.961 217.951 324.429  c
217.951 323.908 217.800 323.505 217.498 323.218  c
217.196 322.932 216.768 322.789 216.216 322.789  c
214.732 322.789 l
h
213.545 321.820 m
216.216 321.820 l
217.206 321.820 217.951 322.041 218.451 322.484  c
218.951 322.927 219.201 323.575 219.201 324.429  c
219.201 325.294 218.951 325.948 218.451 326.390  c
217.951 326.833 217.206 327.054 216.216 327.054  c
214.732 327.054 l
214.732 330.570 l
213.545 330.570 l
213.545 321.820 l
h
221.906 329.570 m
226.046 329.570 l
226.046 330.570 l
220.484 330.570 l
220.484 329.570 l
220.932 329.112 221.544 328.489 222.320 327.703  c
223.096 326.916 223.583 326.408 223.781 326.179  c
224.166 325.763 224.435 325.406 224.586 325.109  c
224.737 324.812 224.812 324.523 224.812 324.242  c
224.812 323.773 224.648 323.393 224.320 323.101  c
223.992 322.809 223.567 322.664 223.046 322.664  c
222.671 322.664 222.278 322.726 221.867 322.851  c
221.455 322.976 221.015 323.174 220.546 323.445  c
220.546 322.242 l
221.026 322.054 221.471 321.911 221.882 321.812  c
222.294 321.713 222.671 321.664 223.015 321.664  c
223.921 321.664 224.645 321.890 225.187 322.343  c
225.729 322.796 226.000 323.403 226.000 324.164  c
226.000 324.518 225.932 324.856 225.796 325.179  c
225.661 325.502 225.416 325.882 225.062 326.320  c
224.958 326.434 224.645 326.763 224.125 327.304  c
223.604 327.846 222.864 328.601 221.906 329.570  c
h
f
2 J
10.0000 M
0.00000 1.00000 1.00000 RG
0.00000 0.00000 0.00000 RG
0 J
1.45000 M
.200000 .600000 .400000 RG
newpath
512.004 343.400 m
512.004 378.200 l
512.004 380.409 513.795 382.200 516.004 382.200  c
644.044 382.200 l
646.253 382.200 648.044 380.409 648.044 378.200  c
648.044 343.400 l
648.044 341.191 646.253 339.400 644.044 339.400  c
516.004 339.400 l
513.795 339.400 512.004 341.191 512.004 343.400  c
h
S
2 J
10.0000 M
0.00000 0.00000 0.00000 RG
0 J
1.45000 M
newpath
574.948 322.789 m
574.948 326.086 l
576.432 326.086 l
576.984 326.086 577.411 325.942 577.713 325.656  c
578.015 325.369 578.167 324.961 578.167 324.429  c
578.167 323.908 578.015 323.505 577.713 323.218  c
577.411 322.932 576.984 322.789 576.432 322.789  c
574.948 322.789 l
h
573.760 321.820 m
576.432 321.820 l
577.422 321.820 578.167 322.041 578.667 322.484  c
579.167 322.927 579.417 323.575 579.417 324.429  c
579.417 325.294 579.167 325.948 578.667 326.390  c
578.167 326.833 577.422 327.054 576.432 327.054  c
574.948 327.054 l
574.948 330.570 l
573.760 330.570 l
573.760 321.820 l
h
584.356 322.851 m
581.372 327.523 l
584.356 327.523 l
584.356 322.851 l
h
584.043 321.820 m
585.543 321.820 l
585.543 327.523 l
586.793 327.523 l
586.793 328.507 l
585.543 328.507 l
585.543 330.570 l
584.356 330.570 l
584.356 328.507 l
580.418 328.507 l
580.418 327.367 l
584.043 321.820 l
h
f
2 J
10.0000 M
.200000 .600000 .400000 RG
0.00000 0.00000 0.00000 RG
0 J
1.45000 M
newpath
332.838 141.679 m
319.179 145.751 l
310.094 147.325 l
302.007 146.332 l
294.417 144.056 l
S
newpath
286.754 141.758 m
296.812 149.994 l
295.375 144.343 l
299.685 140.416 l
h
f
2 J
10.0000 M
0 J
1.45000 M
newpath
287.027 101.908 m
297.954 98.6939 l
307.270 97.1700 l
316.031 98.2421 l
324.514 100.612 l
S
newpath
332.219 102.765 m
322.007 94.7203 l
323.551 100.343 l
319.316 104.351 l
h
f
2 J
10.0000 M
0 J
1.45000 M
newpath
106.942 183.803 m
120.288 179.889 l
129.363 178.331 l
137.397 179.285 l
144.910 181.494 l
S
newpath
152.585 183.751 m
142.483 175.569 l
143.950 181.212 l
139.661 185.162 l
h
f
2 J
10.0000 M
0 J
1.45000 M
newpath
152.828 223.559 m
141.512 226.945 l
132.210 228.491 l
123.462 227.397 l
114.991 224.982 l
S
newpath
107.298 222.789 m
117.467 230.887 l
115.953 225.256 l
120.209 221.270 l
h
f
2 J
10.0000 M
0 J
1.45000 M
newpath
466.948 183.501 m
477.166 180.449 l
486.583 178.923 l
495.669 180.068 l
504.591 182.548 l
S
newpath
512.299 184.691 m
502.077 176.659 l
503.628 182.280 l
499.398 186.294 l
h
f
2 J
10.0000 M
0 J
1.45000 M
newpath
513.480 224.020 m
500.913 227.891 l
491.651 229.473 l
482.977 228.332 l
474.599 225.829 l
S
newpath
466.933 223.540 m
477.000 231.765 l
475.557 226.116 l
479.862 222.183 l
h
f
2 J
10.0000 M
0 J
1.45000 M
newpath
332.838 298.959 m
319.179 303.031 l
310.094 304.605 l
302.007 303.612 l
294.417 301.336 l
S
newpath
286.754 299.038 m
296.812 307.274 l
295.375 301.623 l
299.685 297.696 l
h
f
2 J
10.0000 M
0 J
1.45000 M
newpath
287.027 259.188 m
297.954 255.974 l
307.270 254.450 l
316.031 255.522 l
324.514 257.892 l
S
newpath
332.219 260.045 m
322.007 252.000 l
323.551 257.623 l
319.316 261.631 l
h
f
2 J
10.0000 M
0 J
1.45000 M
newpath
106.942 341.083 m
120.288 337.169 l
129.363 335.611 l
137.397 336.565 l
144.910 338.774 l
S
newpath
152.585 341.031 m
142.483 332.848 l
143.950 338.492 l
139.661 342.442 l
h
f
2 J
10.0000 M
0 J
1.45000 M
newpath
152.828 380.839 m
141.512 384.225 l
132.210 385.771 l
123.462 384.677 l
114.991 382.262 l
S
newpath
107.298 380.069 m
117.467 388.167 l
115.953 382.536 l
120.209 378.550 l
h
f
2 J
10.0000 M
0 J
1.45000 M
newpath
466.948 340.781 m
477.166 337.729 l
486.583 336.203 l
495.669 337.348 l
504.591 339.828 l
S
newpath
512.299 341.971 m
502.077 333.939 l
503.628 339.560 l
499.398 343.574 l
h
f
2 J
10.0000 M
0 J
1.45000 M
newpath
513.480 381.300 m
500.913 385.171 l
491.651 386.753 l
482.977 385.612 l
474.599 383.109 l
S
newpath
466.933 380.820 m
477.000 389.045 l
475.557 383.396 l
479.862 379.463 l
h
f
2 J
10.0000 M
Q
[ 1.00000 0.00000 0.00000 1.00000 0.00000 0.00000 ] defaultmatrix matrix concatmatrix setmatrix
cliprestore

%%Trailer
%%EOF
