%!PS-Adobe-3.0 EPSF-3.0
%%BoundingBox: 0 0 701 262
%%Creator: yExport 1.5
%%Producer: org.freehep.graphicsio.ps.EPSGraphics2D Revision: 12753 
%%For: 
%%Title: 
%%CreationDate: Sunday, January 14, 2018 3:30:29 PM CET
%%LanguageLevel: 3
%%EndComments
%%BeginProlog
100 dict dup begin

%
% File: org/freehep/graphicsio.ps/PSProlog.txt
% Author: Charles Loomis
%

% Redefinitions which save some space in the output file.  These are also
% the same as the PDF operators.
/q {gsave} def
/Q {grestore} def

/n {newpath} def
/m {moveto} def
/l {lineto} def
/c {curveto} def
/h {closepath} def

/re {4 -2 roll moveto
     dup 0 exch rlineto exch 0 rlineto
     neg 0 exch rlineto closepath} def

/f {fill} def
/f* {eofill} def
/F {gsave vg&FC fill grestore} def
/F* {gsave vg&FC eofill grestore} def

/s {closepath stroke} def
/S {stroke} def

/b {closepath gsave vg&FC fill grestore
    gsave stroke grestore newpath} def
/B {gsave vg&FC fill grestore gsave stroke grestore newpath} def
/b* {closepath gsave vg&FC eofill grestore
    gsave stroke grestore newpath} def
/B* {gsave vg&FC eofill grestore gsave stroke grestore newpath} def

/g {1 array astore /vg&fcolor exch def} def
/G {setgray} def
/k {4 array astore /vg&fcolor exch def} def
/K {setcmykcolor} def
/rg {3 array astore /vg&fcolor exch def} def
/RG {setrgbcolor} def

% Initialize the fill color.
0 0 0 rg

/vg&FC {mark vg&fcolor aload pop
        counttomark 1 eq {G} if
        counttomark 3 eq {RG} if
        counttomark 4 eq {K} if
        cleartomark } def

/vg&DFC {/vg&fcolor exch def} def

/vg&C {mark exch aload pop
       counttomark 1 eq {G} if
       counttomark 3 eq {RG} if
       counttomark 4 eq {K} if
       cleartomark } def

/w {setlinewidth} def
/j {setlinejoin} def
/J {setlinecap} def
/M {setmiterlimit} def
/d {setdash} def
/i {setflat} def

/W {clip} def
/W* {eoclip} def

% Setup the default graphics state.
% (black; 1 pt. linewidth; miter join; butt-ends; solid)
/defaultGraphicsState {0 g 1 w 0 j 0 J [] 0 d} def

% Emulation of the rectangle operators for PostScript implementations
% which do not implement all Level 2 features.  This is an INCOMPLETE
% emulation; only the "x y width height rect..." form is emulated.
/*rf {gsave newpath re fill grestore} def
/*rs {gsave newpath re stroke grestore} def
/*rc {newpath re clip} def
/rf  /rectfill where {pop /rectfill}{/*rf} ifelse load def
/rs  /rectstroke where {pop /rectstroke}{/*rs} ifelse load def
/rc  /rectclip where {pop /rectclip}{/*rc} ifelse load def

% Emulation of the selectfont operator.  This includes a 20% increase in
% the fontsize which is necessary to get sizes similar to the Java fonts.
/*sf {exch findfont exch
      dup type /arraytype eq {makefont}{scalefont} ifelse setfont} bind def
/sf /selectfont where {pop {1.2 mul selectfont}}{{1.2 mul *sf}} ifelse def

% Special version of stroke which allows the dash pattern to continue
% across path segments.  (This may be needed for PostScript although
% modern printers seem to do this correctly.)
/vg&stroke {
  currentdash pop length 0 eq
  {stroke}
  {
    currentdash /vg&doffset exch def pop
    flattenpath
    {m vg&resetdash}
    {2 copy
     currentpoint
     3 -1 roll sub dup mul
     3 1 roll sub dup mul
     add sqrt
     3 1 roll l
     currentdash 3 -1 roll add setdash}
     {}
     {h vg&resetdash}
     pathforall
     stroke
     vg&resetdash
  } ifelse
} def
/vg&resetdash {currentdash pop vg&doffset setdash} def

% Initialize variables for safety.
/delta 0 def
/xv 0 def  /yv 0 def  /width 0 def  /height 0 def

% Initialize to portrait INTERNATIONAL (Letter-height, A4-width) page.
/pw 595 def  /ph 791  def  /po true def /ftp false def

% Initialize margins to 20 points.
/ml 20 def  /mr 20 def  /mt 20 def  /mb 20 def

% Temporary matrices.
/smatrix 0 def  /nmatrix 0 def

% set page size (usage: <page width><page height> setpagesize)
/setpagesize {/ph exch def /pw exch def} def

% set page orientation (usage: portrait or landscape)
/portrait {/po true def} def
/landscape {/po false def} def

% force natural size for image (usage: naturalsize)
/naturalsize {/ftp false def} def

% resize image to fill page (usage: fittopage)
/fittopage {/ftp true def} def

% set margins of the page (usage: <left><bottom><top><right> setmargins)
/setmargins {/mr exch def /mt exch def /mb exch def /ml exch def} def

% set the graphic's size (usage: <width><height> setsize)
/setsize {/gh exch def /gw exch def} def

% set the graphic's origin (usage: <x0><y0> setorigin)
/setorigin {/gy exch def /gx exch def} def

% calculate image center
/imagecenter {pw ml sub mr sub 2 div ml add
              ph mt sub mb sub 2 div mb add} def

% calculate the necessary scaling
/imagescale {po {gw}{gh} ifelse pw ml sub mr sub div
             po {gh}{gw} ifelse ph mt sub mb sub div
             2 copy lt {exch} if pop
             ftp not {1 2 copy lt {exch} if pop} if
             1 exch div /sfactor exch def
             /gw gw sfactor mul def /gh gh sfactor mul def} def

% calculate image origin
/imageorigin {pw ml sub mr sub 2 div ml add
              po {gw}{gh} ifelse 2 div sub
              ph mt sub mb sub 2 div mb add
              po {gh}{gw} ifelse 2 div po {add}{sub} ifelse} def

% calculate the clipping origin
/cliporigin  {pw ml sub mr sub 2 div ml add
              po {gw}{gh} ifelse 2 div sub floor
              ph mt sub mb sub 2 div mb add
              po {gh}{gw} ifelse 2 div sub floor} def

% Set the clipping region to the bounding box.
/cliptobounds {cliporigin po {gw}{gh} ifelse 1 add
                          po {gh}{gw} ifelse 1 add rc} def

% set the base transformation matrix (usage: setbasematrix)
/setbasematrix {imageorigin translate
                po {0}{90} ifelse rotate
                sfactor sfactor neg scale
                /defaultmatrix matrix currentmatrix def} def

% The lower-right bias in drawing 1 pt. wide lines.
/bias  {q 0.5 0.5 translate} def
/unbias {Q} def

% Define the composite fonts used to print Unicode strings.
% Undefine particular values in an encoding array.
/vg&undef { {exch dup 3 -1 roll /.notdef put} forall } def
/vg&redef { {3 -1 roll dup 4 2 roll put} forall } def

% usage: key encoding basefontname vg&newbasefont font
/vg&newbasefont {
findfont dup length dict copy
  begin
    currentdict /FID undef
    /Encoding exch def
    dup /FontName exch def
    currentdict
  end
definefont
} def

% usage: key encoding basefontname vg&newskewedbasefont font
/vg&newskewedbasefont {
findfont dup length dict copy
  begin
    currentdict /FID undef
    /Encoding exch def
    dup /FontName exch def
    exch FontMatrix exch matrix concatmatrix /FontMatrix exch def
    currentdict
  end
definefont
} def

% usage: basekey suffix vg&nconcat name
/vg&nconcat {
  2 {dup length string cvs exch} repeat
  dup length 3 -1 roll dup length 3 -1 roll add string
  dup 0 4 -1 roll dup length 5 1 roll putinterval
  dup 4 -2 roll exch putinterval cvn
} def

%usage: fontname vg&skewmatrix matrix
/vg&skewmatrix {
findfont dup /FontInfo known
  {
    /FontInfo get dup /ItalicAngle known
    {
      [ 1 0 4 -1 roll /ItalicAngle get neg dup sin exch cos div 1 0 0 ]
    }
    {pop matrix} ifelse
  }
  {pop matrix} ifelse
} def

% usage: newfontname basefontname vg&newcompositefont --
/vg&newcompositefont {
/vg&fstyle exch def
/vg&bfont exch def
/vg&fname exch def
<<
/FontStyleBits vg&fstyle
/FontType 0
/FontMatrix matrix
/FontName vg&fname
/FMapType 2
/Encoding [ 0 1 255 {pop 6} for ]
          dup 16#00 0 put % Latin
          dup 16#03 1 put % Greek
          dup 16#20 2 put % Punctuation
          dup 16#21 3 put % Arrows
          dup 16#22 4 put % MathOps
          dup 16#27 5 put % Dingbats

/FDepVector [
vg&bfont /-UC-Latin vg&nconcat UCLatinEncoding
vg&bfont vg&newbasefont

vg&bfont vg&skewmatrix
vg&bfont /-UC-Greek vg&nconcat UCGreekEncoding
/Symbol vg&newskewedbasefont

vg&bfont /-UC-Punctuation vg&nconcat UCPunctuationEncoding
vg&bfont vg&newbasefont

/Arrows-UC findfont
/MathOps-UC findfont
/Dingbats-UC findfont
/Undefined-UC findfont ]
>>
vg&fname exch definefont pop
} def

% Null encoding vector (all elements set to .notdef)
/NullEncoding [ 256 {/.notdef} repeat ] def

% Unicode Latin encoding (unicode codes \u0000-\u00ff)
/UCLatinEncoding
  ISOLatin1Encoding dup length array copy
  dup 16#60 /grave put
  [ 16#90 16#91 16#92 16#93 16#94 16#95 16#96
    16#97 16#98 16#9a 16#9b 16#9d 16#9e 16#9f
  ] vg&undef
  def

% Unicode Greek encoding (unicode codes \u0370-\u03ff)
/UCGreekEncoding
  NullEncoding dup length array copy
  << 16#91 /Alpha    16#92 /Beta      16#93 /Gamma    16#94 /Delta
     16#95 /Epsilon  16#96 /Zeta      16#97 /Eta      16#98 /Theta
     16#99 /Iota     16#9a /Kappa     16#9b /Lambda   16#9c /Mu
     16#9d /Nu       16#9e /Xi        16#9f /Omicron  16#a0 /Pi
     16#a1 /Rho      16#a3 /Sigma     16#a4 /Tau      16#a5 /Upsilon
     16#a6 /Phi      16#a7 /Chi       16#a8 /Psi      16#a9 /Omega
     16#b1 /alpha    16#b2 /beta      16#b3 /gamma    16#b4 /delta
     16#b5 /epsilon  16#b6 /zeta      16#b7 /eta      16#b8 /theta
     16#b9 /iota     16#ba /kappa     16#bb /lambda   16#bc /mu
     16#bd /nu       16#be /xi        16#bf /omicron  16#c0 /pi
     16#c1 /rho      16#c2 /sigma1    16#c3 /sigma    16#c4 /tau
     16#c5 /upsilon  16#c6 /phi1      16#c7 /chi      16#c8 /psi
     16#c9 /omega    16#7e /semicolon 16#87 /dotmath  16#d1 /theta1
     16#d2 /Upsilon1 16#d5 /phi       16#d6 /omega1
  >> vg&redef
  def

% Unicode punctuation encoding (unicode codes \u2000-\u206f)
/UCPunctuationEncoding
  NullEncoding dup length array copy
  << 16#10 /hyphen          16#11 /hyphen              16#12 /endash
     16#13 /emdash          16#18 /quoteleft           16#19 /quoteright
     16#1a /quotesinglbase  16#1b /quotesingle         16#1c /quotedblleft
     16#1d /quotedblright   16#1e /quotedblbase        16#1f /quotedbl
     16#20 /dagger          16#21 /daggerdbl           16#22 /bullet
     16#24 /period          16#26 /ellipsis            16#27 /periodcentered
     16#30 /perthousand     16#44 /fraction
     16#70 /zerosuperior    16#74 /foursuperior        16#75 /fivesuperior
     16#76 /sixsuperior     16#77 /sevensuperior       16#78 /eightsuperior
     16#79 /ninesuperior    16#7b /hyphensuperior      16#7d /parenleftsuperior
     16#7e /parenrightsuperior
     16#80 /zeroinferior    16#84 /fourinferior        16#85 /fiveinferior
     16#81 /oneinferior     16#82 /twoinferior         16#83 /threeinferior
     16#86 /sixinferior     16#87 /seveninferior       16#88 /eightinferior
     16#89 /nineinferior    16#8b /hypheninferior      16#8d /parenleftinferior
     16#8e /parenrightinferior
  >> vg&redef
  def

% Unicode mathematical operators encoding (unicode codes \u2200-\u22ff)
/UCMathOpsEncoding
  NullEncoding dup length array copy
  << 16#00 /universal       16#02 /partialdiff         16#03 /existential
     16#05 /emptyset        16#06 /Delta               16#07 /gradient
     16#08 /element         16#09 /notelement          16#0b /suchthat
     16#0f /product         16#11 /summation           16#12 /minus
     16#15 /fraction        16#17 /asteriskmath        16#19 /bullet
     16#1a /radical         16#1d /proportional        16#1e /infinity
     16#20 /angle           16#23 /bar                 16#27 /logicaland
     16#28 /logicalor       16#29 /intersection        16#2a /union
     16#2b /integral        16#34 /therefore           16#36 /colon
     16#3c /similar         16#45 /congruent           16#48 /approxequal
     16#60 /notequal        16#61 /equivalence         16#64 /lessequal
     16#65 /greaterequal    16#82 /propersubset        16#83 /propersuperset
     16#86 /reflexsubset    16#87 /reflexsuperset      16#95 /circleplus
     16#97 /circlemultiply  16#a5 /perpendicular       16#03 /existential
     16#c0 /logicaland      16#c1 /logicalor           16#c2 /intersection
     16#c3 /union           16#c4 /diamond             16#c5 /dotmath
  >> vg&redef
  def

% Unicode arrows encoding (unicode codes \u2190-\u21ff)
% Also includes those "Letterlike" unicode characters
% which are available in the symbol font. (unicode codes \u2100-\u214f)
/UCArrowsEncoding
  NullEncoding dup length array copy
  << 16#11 /Ifraktur        16#1c /Rfraktur            16#22 /trademarkserif
     16#35 /aleph
     16#90 /arrowleft       16#91 /arrowup             16#92 /arrowright
     16#93 /arrowdown       16#94 /arrowboth           16#d0 /arrowdblleft
     16#d1 /arrowdblup      16#d2 /arrowdblright       16#d3 /arrowdbldown
     16#d4 /arrowdblboth
  >> vg&redef
  def

/ZapfDingbats findfont /Encoding get
dup length array copy /UCDingbatsEncoding exch def
16#20 1 16#7f {
  dup 16#20 sub exch
  UCDingbatsEncoding exch get
  UCDingbatsEncoding 3 1 roll put
} for
16#a0 1 16#ff {
  dup 16#40 sub exch
  UCDingbatsEncoding exch get
  UCDingbatsEncoding 3 1 roll put
} for
UCDingbatsEncoding [ 16#c0 1 16#ff {} for ] vg&undef
[ 16#00  16#05 16#0a 16#0b  16#28 16#4c 16#4e  16#53 16#54 16#55  16#57 16#5f
  16#60  16#68 16#69 16#6a  16#6b 16#6c 16#6d  16#6e 16#6f 16#70  16#71 16#72
  16#73  16#74 16#75 16#95  16#96 16#97 16#b0  16#bf
] vg&undef pop

% Define the base fonts which don't change.
/Undefined-UC NullEncoding       /Helvetica    vg&newbasefont pop
/MathOps-UC   UCMathOpsEncoding  /Symbol       vg&newbasefont pop
/Arrows-UC    UCArrowsEncoding   /Symbol       vg&newbasefont pop
/Dingbats-UC  UCDingbatsEncoding /ZapfDingbats vg&newbasefont pop

% Make the SansSerif composite fonts.
/SansSerif /Helvetica 16#00 vg&newcompositefont
/SansSerif-Bold /Helvetica-Bold 16#01 vg&newcompositefont
/SansSerif-Italic /Helvetica-Oblique 16#02 vg&newcompositefont
/SansSerif-BoldItalic /Helvetica-BoldOblique 16#03 vg&newcompositefont

% Make the Serif composite fonts.
/Serif /Times-Roman 16#00 vg&newcompositefont
/Serif-Bold /Times-Bold 16#01 vg&newcompositefont
/Serif-Italic /Times-Italic 16#02 vg&newcompositefont
/Serif-BoldItalic /Times-BoldItalic 16#03 vg&newcompositefont

% Make the Monospaced composite fonts.
/Monospaced /Courier 16#00 vg&newcompositefont
/Monospaced-Bold /Courier-Bold 16#01 vg&newcompositefont
/Monospaced-Italic /Courier-Oblique 16#02 vg&newcompositefont
/Monospaced-BoldItalic /Courier-BoldOblique 16#03 vg&newcompositefont

% Make the Dialog composite fonts.
/Dialog /Helvetica 16#00 vg&newcompositefont
/Dialog-Bold /Helvetica-Bold 16#01 vg&newcompositefont
/Dialog-Italic /Helvetica-Oblique 16#02 vg&newcompositefont
/Dialog-BoldItalic /Helvetica-BoldOblique 16#03 vg&newcompositefont

% Make the DialogInput composite fonts.
/DialogInput /Courier 16#00 vg&newcompositefont
/DialogInput-Bold /Courier-Bold 16#01 vg&newcompositefont
/DialogInput-Italic /Courier-Oblique 16#02 vg&newcompositefont
/DialogInput-BoldItalic /Courier-BoldOblique 16#03 vg&newcompositefont

% Make the Typewriter composite fonts (JDK 1.1 only).
/Typewriter /Courier 16#00 vg&newcompositefont
/Typewriter-Bold /Courier-Bold 16#01 vg&newcompositefont
/Typewriter-Italic /Courier-Oblique 16#02 vg&newcompositefont
/Typewriter-BoldItalic /Courier-BoldOblique 16#03 vg&newcompositefont


/cfontH {
 dup /fontsize exch def /SansSerif exch sf
 /vg&fontstyles [{cfontH} {cfontHB} {cfontHI} {cfontHBI}] def
} def
/cfontHB {
  dup /fontsize exch def /SansSerif-Bold exch sf
 /vg&fontstyles [{cfontH} {cfontHB} {cfontHI} {cfontHBI}] def
} def
/cfontHI {
 dup /fontsize exch def /SansSerif-Italic exch sf
 /vg&fontstyles [{cfontH} {cfontHB} {cfontHI} {cfontHBI}] def
} def
/cfontHBI {
 dup /fontsize exch def /SansSerif-BoldItalic exch sf
 /vg&fontstyles [{cfontH} {cfontHB} {cfontHI} {cfontHBI}] def
} def

/cfontT {
 dup /fontsize exch def /Serif exch sf
 /vg&fontstyles [{cfontT} {cfontTB} {cfontTI} {cfontTBI}] def
} def
/cfontTB {
 dup /fontsize exch def /Serif-Bold exch sf
 /vg&fontstyles [{cfontT} {cfontTB} {cfontTI} {cfontTBI}] def
} def
/cfontTI {
 dup /fontsize exch def /Serif-Italic exch sf
 /vg&fontstyles [{cfontT} {cfontTB} {cfontTI} {cfontTBI}] def
} def
/cfontTBI {
 dup /fontsize exch def /Serif-BoldItalic exch sf
 /vg&fontstyles [{cfontT} {cfontTB} {cfontTI} {cfontTBI}] def
} def

/cfontC {
 dup /fontsize exch def /Typewriter exch sf
 /vg&fontstyles [{cfontC} {cfontCB} {cfontCI} {cfontCBI}] def
} def
/cfontCB {
 dup /fontsize exch def /Typewriter-Bold exch sf
 /vg&fontstyles [{cfontC} {cfontCB} {cfontCI} {cfontCBI}] def
} def
/cfontCI {
 dup /fontsize exch def /Typewriter-Italic exch sf
 /vg&fontstyles [{cfontC} {cfontCB} {cfontCI} {cfontCBI}] def
} def
/cfontCBI {
 dup /fontsize exch def /Typewriter-BoldItalic exch sf
 /vg&fontstyles [{cfontC} {cfontCB} {cfontCI} {cfontCBI}] def
} def

% Darken or lighten the current color.
/darken {0.7 exch exp 3 copy
         q 4 -1 roll vg&C
         currentrgbcolor 3 {4 -2 roll mul} repeat
         3 array astore Q} def

/displayColorMap
<< /Cr   [1.00 0.00 0.00]       /Cg     [0.00 1.00 0.00]
   /Cb   [0.00 0.00 1.00]       /Cc     [1.00 0.00 0.00 0.00]
   /Cm   [0.00 1.00 0.00 0.00]  /Cy     [0.00 0.00 1.00 0.00]
   /Co   [1.00 0.78 0.00]       /Cp     [1.00 0.67 0.67]
   /Cw   [1   ]                 /Cgrl   [0.75]
   /Cgr  [0.50]                 /Cgrd   [0.25]
   /Ck   [0   ]
   /CGr  [1.00 0.00 0.00]       /CGg    [0.00 1.00 0.00]
   /CGb  [0.00 0.00 1.00]       /CGc    [1.00 0.00 0.00 0.00]
   /CGm  [0.00 1.00 0.00 0.00]  /CGy    [0.00 0.00 1.00 0.00]
   /CGo  [1.00 0.78 0.00]       /CGp    [1.00 0.67 0.67]
   /CGw  [1   ]                 /CGgrl  [0.75]
   /CGgr [0.50]                 /CGgrd  [0.25]
   /CGk  [0   ]
   /CIr  [1.00 0.00 0.00]       /CIg    [0.00 1.00 0.00]
   /CIb  [0.00 0.00 1.00]       /CIc    [1.00 0.00 0.00 0.00]
   /CIm  [0.00 1.00 0.00 0.00]  /CIy    [0.00 0.00 1.00 0.00]
   /CIo  [1.00 0.78 0.00]       /CIp    [1.00 0.67 0.67]
   /CIw  [1   ]                 /CIgrl  [0.75]
   /CIgr [0.50]                 /CIgrd  [0.25]
   /CIk  [0   ]
>> def

/printColorMap
<< /Cr   [1.00 0.33 0.33]       /Cg     [0.33 1.00 0.33]
   /Cb   [0.33 0.33 1.00]       /Cc     [1.00 0.00 0.00 0.00]
   /Cm   [0.00 1.00 0.00 0.00]  /Cy     [0.00 0.00 1.00 0.00]
   /Co   [1.00 0.78 0.00]       /Cp     [1.00 0.67 0.67]
   /Cw   [1   ]                 /Cgrl   [0.75]
   /Cgr  [0.50]                 /Cgrd   [0.25]
   /Ck   [0   ]
   /CGr  [1.00 0.33 0.33]       /CGg    [0.33 1.00 0.33]
   /CGb  [0.33 0.33 1.00]       /CGc    [1.00 0.00 0.00 0.00]
   /CGm  [0.00 1.00 0.00 0.00]  /CGy    [0.00 0.00 1.00 0.00]
   /CGo  [1.00 0.78 0.00]       /CGp    [1.00 0.67 0.67]
   /CGw  [1   ]                 /CGgrl  [0.75]
   /CGgr [0.50]                 /CGgrd  [0.25]
   /CGk  [0   ]
   /CIr  [1.00 0.33 0.33]       /CIg    [0.33 1.00 0.33]
   /CIb  [0.33 0.33 1.00]       /CIc    [1.00 0.00 0.00 0.00]
   /CIm  [0.00 1.00 0.00 0.00]  /CIy    [0.00 0.00 1.00 0.00]
   /CIo  [1.00 0.78 0.00]       /CIp    [1.00 0.67 0.67]
   /CIw  [1   ]                 /CIgrl  [0.75]
   /CIgr [0.50]                 /CIgrd  [0.25]
   /CIk  [0   ]
>> def

/grayColorMap
<< /Cr   [0   ]                 /Cg     [0   ]
   /Cb   [0   ]                 /Cc     [0   ]
   /Cm   [0   ]                 /Cy     [0   ]
   /Co   [0   ]                 /Cp     [0   ]
   /Cw   [0   ]                 /Cgrl   [0   ]
   /Cgr  [0   ]                 /Cgrd   [0   ]
   /Ck   [0   ]
   /CGr  [0.75]                 /CGg    [1   ]
   /CGb  [0.50]                 /CGc    [0.75]
   /CGm  [0.50]                 /CGy    [1   ]
   /CGo  [0.75]                 /CGp    [1   ]
   /CGw  [0   ]                 /CGgrl  [0.25]
   /CGgr [0.50]                 /CGgrd  [0.75]
   /CGk  [1   ]
   /CIr  [1   ]                 /CIg    [1   ]
   /CIb  [1   ]                 /CIc    [1   ]
   /CIm  [1   ]                 /CIy    [1   ]
   /CIo  [1   ]                 /CIp    [1   ]
   /CIw  [1   ]                 /CIgrl  [1   ]
   /CIgr [1   ]                 /CIgrd  [1   ]
   /CIk  [1   ]
>> def

/bwColorMap
<< /Cr   [0   ]                 /Cg     [0   ]
   /Cb   [0   ]                 /Cc     [0   ]
   /Cm   [0   ]                 /Cy     [0   ]
   /Co   [0   ]                 /Cp     [0   ]
   /Cw   [0   ]                 /Cgrl   [0   ]
   /Cgr  [0   ]                 /Cgrd   [0   ]
   /Ck   [0   ]
   /CGr  [1   ]                 /CGg    [1   ]
   /CGb  [1   ]                 /CGc    [1   ]
   /CGm  [1   ]                 /CGy    [1   ]
   /CGo  [1   ]                 /CGp    [1   ]
   /CGw  [0   ]                 /CGgrl  [1   ]
   /CGgr [1   ]                 /CGgrd  [1   ]
   /CGk  [1   ]
   /CIr  [1   ]                 /CIg    [1   ]
   /CIb  [1   ]                 /CIc    [1   ]
   /CIm  [1   ]                 /CIy    [1   ]
   /CIo  [1   ]                 /CIp    [1   ]
   /CIw  [1   ]                 /CIgrl  [1   ]
   /CIgr [1   ]                 /CIgrd  [1   ]
   /CIk  [1   ]
>> def

%
% The following routines handle the alignment of and printing of
% tagged strings.
%

% Predefine the bounding box values.
/bbllx 0 def /bblly 0 def /bburx 0 def /bbury 0 def

% This routine pops the first unicode character off of a string and returns
% the remainder of the string, the character code of first character,
% and a "true" if the string was non-zero length.
% <string>      popfirst <remaining string> <true>
% <null string> popfirst <false>
/popfirst {
  dup length 1 gt
    {dup 0 get /vg&fbyte exch def
     dup 1 get /vg&cbyte exch def
     dup length 2 sub 2 exch getinterval true}
    {pop false} ifelse
} def

% This routine shows a single unicode character given the font and
% character codes.
% <font code> <char code> unicharshow --
/unicharshow {
  2 string
  dup 0 5 -1 roll put
  dup 1 4 -1 roll put
  internalshow
} def

% This is an internal routine to alternate between determining the
% bounding box for stringsize and showing the string for recshow.
% <string> internalshow --
/internalshow {show} def

% This is an internal routine to alternate between determining the
% bounding box for stringsize and stroking various ornaments.
% <string> internalstroke --
/internalstroke {S} def

% Sets up internalshow to use the null device to determine string size.
% -- nullinternalshow --
/nullinternalshow {/internalshow {false charpath flattenpath
                                  pathbbox updatebbox} def} def

% Sets up internalstroke to use the null device to determine string size.
% -- nullinternalstroke --
/nullinternalstroke {
 /internalstroke {flattenpath pathbbox updatebbox} def} def

% This routine tests to see if the character code matches the first
% character of a string.
% <char code> <string> testchar <char code> <true or false>
/testchar {exch dup 3 -1 roll 0 get eq} def

% Raise the text baseline for superscripts.
% -- raise --
/raise {
  0 fontsize 2 div rmoveto
  /fontsize fontsize 2 mul 3 div def
  currentfont /FontName get fontsize sf
} def

% Un-raise the text baseline for superscripts.
% -- unraise --
/unraise {
  /fontsize fontsize 1.5 mul def
  0 fontsize 2 div neg rmoveto
} def

% Lower the text baseline for subscripts.
% -- lower --
/lower {
  0 fontsize 3 div neg rmoveto
  /fontsize fontsize 2 mul 3 div def
  currentfont /FontName get fontsize sf
} def

% Un-lower the text baseline for subscripts.
% -- unlower --
/unlower {
  /fontsize fontsize 1.5 mul def
  0 fontsize 3 div rmoveto
} def

% Compare the top two elements on the stack and leave only the
% larger one.
/maxval {2 copy gt {pop} {exch pop} ifelse} def

% Tokenize a string.  Do not use the usual PostScript token because
% parentheses will not be interpreted correctly because of rescanning
% of the string.
/vg&token {/vg&string exch def /vg&index -1 def /vg&level 0 def
0 2 vg&string length 2 sub {
  dup dup 1 add exch vg&string exch get 8 bitshift vg&string 3 -1 roll get or
  dup 16#f0fe eq {pop 1}{16#f0ff eq {-1}{0} ifelse} ifelse
  /vg&level exch vg&level add def
  vg&level 0 eq {/vg&index exch def exit} if pop
} for
vg&index 0 ge {
  vg&string vg&index 2 add dup vg&string length exch sub getinterval
  vg&index 2 gt {vg&string 2 vg&index 2 sub getinterval}{()} ifelse
  true}
{false} ifelse
} bind def

% Recursively show an unicode string.
% <string> recshow --
/recshow {
  popfirst
  {
    % Test to see if this is a string attribute.
    vg&fbyte 16#f0 and 16#e0 eq
    {
      q

      % Font style.
      currentfont dup /FontStyleBits known {/FontStyleBits get}{pop 0} ifelse
      vg&cbyte or vg&fontstyles exch get fontsize exch exec

      vg&token pop recshow currentpoint Q m recshow
    }
    {
      vg&fbyte 16#F8 and 16#F0 eq {

        % Superscript and/or subscript.
        vg&cbyte 16#00 eq {
          vg&token pop exch vg&token pop 3 -1 roll
          q raise recshow unraise currentpoint pop Q exch
          q lower recshow unlower currentpoint pop Q
          maxval currentpoint exch pop m recshow } if

        % Strikeout.
        vg&cbyte 16#01 eq {
          vg&token pop currentpoint 3 -1 roll recshow
          q 0 J vg&underline vg&uthick w
          currentpoint 4 -2 roll fontsize 3 div add moveto
          fontsize 3 div add lineto internalstroke Q
          recshow} if

        % Underline.
        vg&cbyte 16#02 eq {
          vg&token pop currentpoint 3 -1 roll recshow
          q 0 J vg&underline vg&uthick w
          currentpoint 4 -2 roll vg&uoffset add moveto
          vg&uoffset add lineto internalstroke Q
          recshow} if

        % Dashed underline.
        vg&cbyte 16#03 eq {
          vg&token pop currentpoint 3 -1 roll recshow
          q 0 J [ vg&uthick 5 mul vg&uthick 2 mul] 0 d
          vg&underline vg&uthick w
          currentpoint 4 -2 roll vg&uoffset add moveto
          vg&uoffset add lineto internalstroke Q
          recshow} if

        % Dotted underline.
        vg&cbyte 16#04 eq {
          vg&token pop currentpoint 3 -1 roll recshow
          q 1 J [ 0 vg&uthick 3 mul] 0 d
          vg&underline vg&uthick w
          currentpoint 4 -2 roll vg&uoffset add moveto
          vg&uoffset add lineto internalstroke Q
          recshow} if

        % Thick underline.
        vg&cbyte 16#05 eq {
          vg&token pop currentpoint 3 -1 roll recshow
          q 0 J vg&underline vg&uthick 2 mul w
          currentpoint 4 -2 roll vg&uoffset vg&uthick 2 div sub add moveto
          vg&uoffset vg&uthick 2 div sub add lineto internalstroke Q
          recshow} if

        % Gray thick underline.
        vg&cbyte 16#06 eq {
          vg&token pop currentpoint 3 -1 roll recshow
          q 0 J vg&underline vg&uthick 2 mul w 0.5 setgray
          currentpoint 4 -2 roll vg&uoffset vg&uthick 2 div sub add moveto
          vg&uoffset vg&uthick 2 div sub add lineto internalstroke Q
          recshow} if

        % Overbar.
        vg&cbyte 16#07 eq {
          vg&token pop dup stringsize relative 4 1 roll pop pop exch
          3 -1 roll recshow
          q 0 J vg&underline vg&uthick w
          vg&uoffset neg add dup currentpoint pop exch m l internalstroke Q
          recshow} if
      }
      {
        vg&fbyte vg&cbyte unicharshow recshow
      } ifelse
    } ifelse
  } if
} def

% Get the underline position and thickness from the current font.
/vg&underline {

currentfont dup /FontType get 0 eq {/FDepVector get 0 get} if
dup dup /FontInfo known {
  /FontInfo get dup
  dup /UnderlinePosition known {
    /UnderlinePosition get /vg&uoffset exch def
  }
  {
    pop /vg&uoffset 0 def
  } ifelse
  dup /UnderlineThickness known {
    /UnderlineThickness get /vg&uthick exch def
  }
  {
    pop /vg&uthick 0 def
  } ifelse
}
{
  pop /vg&uoffset 0 def /vg&uthick 0 def
} ifelse
/FontMatrix get
currentfont dup /FontType get 0 eq
{/FontMatrix get matrix concatmatrix}{pop} ifelse
dup 0 vg&uoffset 3 -1 roll transform /vg&uoffset exch def pop
0 vg&uthick 3 -1 roll transform /vg&uthick exch def pop
} def

% Make a frame with the coordinates on the stack.
% <llx> <lly> <urx> <ury> frame --
/frame {4 copy m 3 1 roll exch l 4 -2 roll l l h} def

% Resets the accumulated bounding box to a degenerate box at the
% current point.
% -- resetbbox --
/resetbbox {
  currentpoint 2 copy
  /bbury exch def
  /bburx exch def
  /bblly exch def
  /bbllx exch def
} def

% Update the accumulated bounding box.
% <llx'> <lly'> <urx'> <ury'> updatebbox --
/updatebbox {
  dup bbury gt {/bbury exch def} {pop} ifelse
  dup bburx gt {/bburx exch def} {pop} ifelse
  dup bblly lt {/bblly exch def} {pop} ifelse
  dup bbllx lt {/bbllx exch def} {pop} ifelse
} def

% Set the bounding box to the values on the stack.
% <llx'> <lly'> <urx'> <ury'> updatebbox --
/restorebbox {
  /bbury exch def /bburx exch def /bblly exch def /bbllx exch def
} def

% Push the accumulated bounding box onto the stack.
% -- pushbbox <llx> <lly> <urx> <ury>
/pushbbox {bbllx bblly bburx bbury} def

% Make the relative bounding box relative to the currentpoint.
% <llx'> <lly'> <urx'> <ury'> inflate <llx> <lly> <urx> <ury>
/inflate {
  2 {fontsize 0.2 mul add 4 1 roll} repeat
  2 {fontsize 0.2 mul sub 4 1 roll} repeat
} def

% Make the relative bounding box relative to the currentpoint.
% <llx'> <lly'> <urx'> <ury'> relative <llx> <lly> <urx> <ury>
/relative {
  currentpoint 3 -1 roll add 3 1 roll add exch 4 2 roll
  currentpoint 3 -1 roll add 3 1 roll add exch 4 2 roll
} def

% Returns the size of a string appropriate for recshow.
% <string> stringsize <llx> <lly> <urx> <ury>
/stringsize {
  pushbbox /internalshow load /internalstroke load 7 -1 roll
  q
  nulldevice 0 0 m
  nullinternalshow nullinternalstroke
  resetbbox
  recshow
  /internalstroke exch def /internalshow exch def
  pushbbox 8 -4 roll restorebbox
  Q
} def

% Calculate values for string positioning.
/calcval {4 copy
  3 -1 roll sub /widy exch def sub neg /widx exch def
  pop pop /dy exch def /dx exch def} def

% Utilities to position a string.
% First letter (U=upper, C=center, B=baseline, L=lower)
% Second letter (L=left, C=center, R=right)
/align [
{calcval dx neg widy dy add neg rmoveto} % UL
{calcval dx neg widy 2 div dy add neg rmoveto} % CL
{calcval dx neg 0 rmoveto} % BL
{calcval dx neg dy neg rmoveto} % LL
{calcval widx dx add neg widy dy add neg rmoveto} % UR
{calcval widx dx add neg widy 2 div dy add neg rmoveto} % CR
{calcval widx dx add neg 0 rmoveto} % BR
{calcval widx dx add neg dy neg rmoveto} % LR
{calcval widx 2 div dx add neg widy dy add neg rmoveto} % UC
{calcval widx 2 div dx add neg widy 2 div dy add neg rmoveto} % CC
{calcval widx 2 div dx add neg 0 rmoveto} % BC
{calcval widx 2 div dx add neg dy neg rmoveto} % LC
] def

/vg&str {m q 1 -1 scale dup stringsize 4 copy align 11 -1 roll get exec
         q inflate relative frame exch exec Q recshow Q} def

end /procDict exch def
%%EndProlog

%%BeginSetup
save
procDict begin
printColorMap begin
701 262 setpagesize
0 0 0 0 setmargins
0 0 setorigin
701 262 setsize
naturalsize
portrait
imagescale
cliptobounds
setbasematrix
/Helvetica 10 sf
defaultGraphicsState
%%EndSetup

0.00000 0.00000 0.00000 RG
[ 1.00000 0.00000 0.00000 1.00000 0.00000 0.00000 ] defaultmatrix matrix concatmatrix setmatrix
cliprestore
1.00000 1.00000 1.00000 RG
newpath
0.00000 0.00000 m
701.000 0.00000 l
701.000 262.000 l
0.00000 262.000 l
0.00000 0.00000 l
h
f
0.00000 0.00000 0.00000 RG
0.00000 0.00000 0.00000 RG
[ 1.00000 0.00000 0.00000 1.00000 0.00000 0.00000 ] defaultmatrix matrix concatmatrix setmatrix
cliprestore
1.00000 1.00000 1.00000 RG
newpath
0.00000 0.00000 m
701.000 0.00000 l
701.000 262.000 l
0.00000 262.000 l
0.00000 0.00000 l
h
f
0.00000 0.00000 0.00000 RG
0 0 701 262 rc
q
[ 1.00000 0.00000 0.00000 1.00000 0.00000 0.00000 ] concat
[ 1.00000 0.00000 0.00000 1.00000 -153.000 -73.0000 ] concat
1.00000 1.00000 1.00000 RG
newpath
153.000 73.0000 m
854.000 73.0000 l
854.000 335.000 l
153.000 335.000 l
153.000 73.0000 l
h
f
0.00000 0.00000 0.00000 RG
[ 1.00000 0.00000 0.00000 1.00000 -153.000 -73.0000 ] defaultmatrix matrix concatmatrix setmatrix
[ 1.00000 0.00000 0.00000 1.00000 -153.000 -73.0000 ] defaultmatrix matrix concatmatrix setmatrix
[ 1.00000 0.00000 0.00000 1.00000 0.00000 0.00000 ] defaultmatrix matrix concatmatrix setmatrix
[ 1.00000 0.00000 0.00000 1.00000 -153.000 -73.0000 ] defaultmatrix matrix concatmatrix setmatrix
1.00000 1.00000 1.00000 RG
newpath
228.200 130.496 m
258.200 130.496 l
258.200 160.496 l
228.200 160.496 l
228.200 130.496 l
h
f
0 J
1.45000 M
0.00000 0.00000 0.00000 RG
newpath
228.200 130.496 m
258.200 130.496 l
258.200 160.496 l
228.200 160.496 l
228.200 130.496 l
h
S
2 J
10.0000 M
1.00000 1.00000 1.00000 RG
newpath
302.536 130.496 m
332.536 130.496 l
332.536 160.496 l
302.536 160.496 l
302.536 130.496 l
h
f
0 J
1.45000 M
0.00000 0.00000 0.00000 RG
newpath
302.536 130.496 m
332.536 130.496 l
332.536 160.496 l
302.536 160.496 l
302.536 130.496 l
h
S
2 J
10.0000 M
1.00000 1.00000 1.00000 RG
newpath
376.872 130.496 m
406.872 130.496 l
406.872 160.496 l
376.872 160.496 l
376.872 130.496 l
h
f
0 J
1.45000 M
0.00000 0.00000 0.00000 RG
newpath
376.872 130.496 m
406.872 130.496 l
406.872 160.496 l
376.872 160.496 l
376.872 130.496 l
h
S
2 J
10.0000 M
1.00000 1.00000 1.00000 RG
newpath
451.208 130.496 m
481.208 130.496 l
481.208 160.496 l
451.208 160.496 l
451.208 130.496 l
h
f
0 J
1.45000 M
0.00000 0.00000 0.00000 RG
newpath
451.208 130.496 m
481.208 130.496 l
481.208 160.496 l
451.208 160.496 l
451.208 130.496 l
h
S
2 J
10.0000 M
1.00000 1.00000 1.00000 RG
newpath
525.544 130.496 m
555.544 130.496 l
555.544 160.496 l
525.544 160.496 l
525.544 130.496 l
h
f
0 J
1.45000 M
0.00000 0.00000 0.00000 RG
newpath
525.544 130.496 m
555.544 130.496 l
555.544 160.496 l
525.544 160.496 l
525.544 130.496 l
h
S
2 J
10.0000 M
1.00000 1.00000 1.00000 RG
newpath
599.880 130.496 m
629.880 130.496 l
629.880 160.496 l
599.880 160.496 l
599.880 130.496 l
h
f
0 J
1.45000 M
0.00000 0.00000 0.00000 RG
newpath
599.880 130.496 m
629.880 130.496 l
629.880 160.496 l
599.880 160.496 l
599.880 130.496 l
h
S
2 J
10.0000 M
1.00000 1.00000 1.00000 RG
newpath
228.200 242.924 m
258.200 242.924 l
258.200 272.924 l
228.200 272.924 l
228.200 242.924 l
h
f
0 J
1.45000 M
0.00000 0.00000 0.00000 RG
newpath
228.200 242.924 m
258.200 242.924 l
258.200 272.924 l
228.200 272.924 l
228.200 242.924 l
h
S
2 J
10.0000 M
1.00000 1.00000 1.00000 RG
newpath
302.536 242.924 m
332.536 242.924 l
332.536 272.924 l
302.536 272.924 l
302.536 242.924 l
h
f
0 J
1.45000 M
0.00000 0.00000 0.00000 RG
newpath
302.536 242.924 m
332.536 242.924 l
332.536 272.924 l
302.536 272.924 l
302.536 242.924 l
h
S
2 J
10.0000 M
1.00000 1.00000 1.00000 RG
newpath
376.872 242.924 m
406.872 242.924 l
406.872 272.924 l
376.872 272.924 l
376.872 242.924 l
h
f
0 J
1.45000 M
0.00000 0.00000 0.00000 RG
newpath
376.872 242.924 m
406.872 242.924 l
406.872 272.924 l
376.872 272.924 l
376.872 242.924 l
h
S
2 J
10.0000 M
1.00000 1.00000 1.00000 RG
newpath
451.208 242.924 m
481.208 242.924 l
481.208 272.924 l
451.208 272.924 l
451.208 242.924 l
h
f
0 J
1.45000 M
0.00000 0.00000 0.00000 RG
newpath
451.208 242.924 m
481.208 242.924 l
481.208 272.924 l
451.208 272.924 l
451.208 242.924 l
h
S
2 J
10.0000 M
1.00000 1.00000 1.00000 RG
newpath
525.544 242.924 m
555.544 242.924 l
555.544 272.924 l
525.544 272.924 l
525.544 242.924 l
h
f
0 J
1.45000 M
0.00000 0.00000 0.00000 RG
newpath
525.544 242.924 m
555.544 242.924 l
555.544 272.924 l
525.544 272.924 l
525.544 242.924 l
h
S
2 J
10.0000 M
1.00000 1.00000 1.00000 RG
newpath
748.552 242.924 m
778.552 242.924 l
778.552 272.924 l
748.552 272.924 l
748.552 242.924 l
h
f
0 J
1.45000 M
0.00000 0.00000 0.00000 RG
newpath
748.552 242.924 m
778.552 242.924 l
778.552 272.924 l
748.552 272.924 l
748.552 242.924 l
h
S
2 J
10.0000 M
1.00000 1.00000 1.00000 RG
newpath
674.216 130.496 m
704.216 130.496 l
704.216 160.496 l
674.216 160.496 l
674.216 130.496 l
h
f
0 J
1.45000 M
0.00000 0.00000 0.00000 RG
newpath
674.216 130.496 m
704.216 130.496 l
704.216 160.496 l
674.216 160.496 l
674.216 130.496 l
h
S
2 J
10.0000 M
1.00000 1.00000 1.00000 RG
newpath
748.552 130.496 m
778.552 130.496 l
778.552 160.496 l
748.552 160.496 l
748.552 130.496 l
h
f
0 J
1.45000 M
0.00000 0.00000 0.00000 RG
newpath
748.552 130.496 m
778.552 130.496 l
778.552 160.496 l
748.552 160.496 l
748.552 130.496 l
h
S
2 J
10.0000 M
1.00000 1.00000 1.00000 RG
newpath
599.880 242.924 m
629.880 242.924 l
629.880 272.924 l
599.880 272.924 l
599.880 242.924 l
h
f
0 J
1.45000 M
0.00000 0.00000 0.00000 RG
newpath
599.880 242.924 m
629.880 242.924 l
629.880 272.924 l
599.880 272.924 l
599.880 242.924 l
h
S
2 J
10.0000 M
1.00000 1.00000 1.00000 RG
newpath
674.216 242.924 m
704.216 242.924 l
704.216 272.924 l
674.216 272.924 l
674.216 242.924 l
h
f
0 J
1.45000 M
0.00000 0.00000 0.00000 RG
newpath
674.216 242.924 m
704.216 242.924 l
704.216 272.924 l
674.216 272.924 l
674.216 242.924 l
h
S
2 J
10.0000 M
0 J
1.45000 M
1.00000 .600000 0.00000 RG
newpath
217.080 122.208 m
217.080 167.760 l
217.080 169.969 218.871 171.760 221.080 171.760  c
488.328 171.760 l
490.537 171.760 492.328 169.969 492.328 167.760  c
492.328 122.208 l
492.328 119.999 490.537 118.208 488.328 118.208  c
221.080 118.208 l
218.871 118.208 217.080 119.999 217.080 122.208  c
h
S
2 J
10.0000 M
0.00000 0.00000 0.00000 RG
0 J
1.45000 M
newpath
349.628 98.3038 m
349.628 101.601 l
351.112 101.601 l
351.664 101.601 352.091 101.457 352.393 101.171  c
352.696 100.884 352.847 100.476 352.847 99.9444  c
352.847 99.4236 352.696 99.0199 352.393 98.7335  c
352.091 98.4470 351.664 98.3038 351.112 98.3038  c
349.628 98.3038 l
h
348.440 97.3350 m
351.112 97.3350 l
352.102 97.3350 352.847 97.5564 353.347 97.9991  c
353.847 98.4418 354.097 99.0902 354.097 99.9444  c
354.097 100.809 353.847 101.463 353.347 101.905  c
352.847 102.348 352.102 102.569 351.112 102.569  c
349.628 102.569 l
349.628 106.085 l
348.440 106.085 l
348.440 97.3350 l
h
355.989 105.085 m
357.927 105.085 l
357.927 98.4131 l
355.817 98.8350 l
355.817 97.7569 l
357.911 97.3350 l
359.099 97.3350 l
359.099 105.085 l
361.036 105.085 l
361.036 106.085 l
355.989 106.085 l
355.989 105.085 l
h
f
2 J
10.0000 M
1.00000 .600000 0.00000 RG
0.00000 0.00000 0.00000 RG
0 J
1.45000 M
0.00000 .800000 1.00000 RG
newpath
514.424 122.054 m
514.424 167.606 l
514.424 169.815 516.215 171.606 518.424 171.606  c
785.672 171.606 l
787.881 171.606 789.672 169.815 789.672 167.606  c
789.672 122.054 l
789.672 119.845 787.881 118.054 785.672 118.054  c
518.424 118.054 l
516.215 118.054 514.424 119.845 514.424 122.054  c
h
S
2 J
10.0000 M
0.00000 0.00000 0.00000 RG
0 J
1.45000 M
newpath
646.972 98.1498 m
646.972 101.447 l
648.456 101.447 l
649.008 101.447 649.435 101.303 649.737 101.017  c
650.040 100.730 650.191 100.322 650.191 99.7904  c
650.191 99.2696 650.040 98.8659 649.737 98.5795  c
649.435 98.2930 649.008 98.1498 648.456 98.1498  c
646.972 98.1498 l
h
645.784 97.1810 m
648.456 97.1810 l
649.446 97.1810 650.191 97.4024 650.691 97.8451  c
651.191 98.2878 651.441 98.9362 651.441 99.7904  c
651.441 100.655 651.191 101.309 650.691 101.751  c
650.191 102.194 649.446 102.415 648.456 102.415  c
646.972 102.415 l
646.972 105.931 l
645.784 105.931 l
645.784 97.1810 l
h
654.146 104.931 m
658.286 104.931 l
658.286 105.931 l
652.724 105.931 l
652.724 104.931 l
653.172 104.473 653.784 103.850 654.560 103.064  c
655.336 102.277 655.823 101.770 656.021 101.540  c
656.406 101.124 656.674 100.767 656.825 100.470  c
656.976 100.173 657.052 99.8841 657.052 99.6029  c
657.052 99.1341 656.888 98.7539 656.560 98.4623  c
656.232 98.1706 655.807 98.0248 655.286 98.0248  c
654.911 98.0248 654.518 98.0873 654.107 98.2123  c
653.695 98.3373 653.255 98.5352 652.786 98.8060  c
652.786 97.6029 l
653.265 97.4154 653.711 97.2722 654.122 97.1732  c
654.534 97.0742 654.911 97.0248 655.255 97.0248  c
656.161 97.0248 656.885 97.2513 657.427 97.7045  c
657.969 98.1576 658.239 98.7643 658.239 99.5248  c
658.239 99.8789 658.172 100.217 658.036 100.540  c
657.901 100.863 657.656 101.244 657.302 101.681  c
657.198 101.796 656.885 102.124 656.364 102.665  c
655.844 103.207 655.104 103.962 654.146 104.931  c
h
f
2 J
10.0000 M
0.00000 .800000 1.00000 RG
0.00000 0.00000 0.00000 RG
0 J
1.45000 M
1.00000 .600000 0.00000 RG
newpath
291.416 235.148 m
291.416 280.700 l
291.416 282.909 293.207 284.700 295.416 284.700  c
562.664 284.700 l
564.873 284.700 566.664 282.909 566.664 280.700  c
566.664 235.148 l
566.664 232.939 564.873 231.148 562.664 231.148  c
295.416 231.148 l
293.207 231.148 291.416 232.939 291.416 235.148  c
h
S
2 J
10.0000 M
0.00000 0.00000 0.00000 RG
0 J
1.45000 M
newpath
423.964 211.244 m
423.964 214.541 l
425.448 214.541 l
426.000 214.541 426.427 214.397 426.729 214.111  c
427.032 213.825 427.183 213.416 427.183 212.884  c
427.183 212.364 427.032 211.960 426.729 211.673  c
426.427 211.387 426.000 211.244 425.448 211.244  c
423.964 211.244 l
h
422.776 210.275 m
425.448 210.275 l
426.438 210.275 427.183 210.496 427.683 210.939  c
428.183 211.382 428.433 212.030 428.433 212.884  c
428.433 213.749 428.183 214.403 427.683 214.845  c
427.183 215.288 426.438 215.509 425.448 215.509  c
423.964 215.509 l
423.964 219.025 l
422.776 219.025 l
422.776 210.275 l
h
430.325 218.025 m
432.263 218.025 l
432.263 211.353 l
430.153 211.775 l
430.153 210.697 l
432.247 210.275 l
433.435 210.275 l
433.435 218.025 l
435.372 218.025 l
435.372 219.025 l
430.325 219.025 l
430.325 218.025 l
h
f
2 J
10.0000 M
1.00000 .600000 0.00000 RG
0.00000 0.00000 0.00000 RG
0 J
1.45000 M
0.00000 .800000 1.00000 RG
newpath
585.544 235.148 m
585.544 280.700 l
585.544 282.909 587.335 284.700 589.544 284.700  c
713.070 284.700 l
715.280 284.700 717.070 282.909 717.070 280.700  c
717.070 235.148 l
717.070 232.939 715.280 231.148 713.070 231.148  c
589.544 231.148 l
587.335 231.148 585.544 232.939 585.544 235.148  c
h
S
2 J
10.0000 M
0.00000 0.00000 0.00000 RG
0 J
1.45000 M
newpath
646.231 211.244 m
646.231 214.541 l
647.715 214.541 l
648.267 214.541 648.695 214.397 648.997 214.111  c
649.299 213.825 649.450 213.416 649.450 212.884  c
649.450 212.364 649.299 211.960 648.997 211.673  c
648.695 211.387 648.267 211.244 647.715 211.244  c
646.231 211.244 l
h
645.044 210.275 m
647.715 210.275 l
648.705 210.275 649.450 210.496 649.950 210.939  c
650.450 211.382 650.700 212.030 650.700 212.884  c
650.700 213.749 650.450 214.403 649.950 214.845  c
649.450 215.288 648.705 215.509 647.715 215.509  c
646.231 215.509 l
646.231 219.025 l
645.044 219.025 l
645.044 210.275 l
h
653.405 218.025 m
657.545 218.025 l
657.545 219.025 l
651.983 219.025 l
651.983 218.025 l
652.431 217.567 653.043 216.944 653.819 216.158  c
654.595 215.371 655.082 214.864 655.280 214.634  c
655.665 214.218 655.933 213.861 656.085 213.564  c
656.236 213.267 656.311 212.978 656.311 212.697  c
656.311 212.228 656.147 211.848 655.819 211.556  c
655.491 211.265 655.066 211.119 654.545 211.119  c
654.170 211.119 653.777 211.181 653.366 211.306  c
652.954 211.431 652.514 211.629 652.045 211.900  c
652.045 210.697 l
652.525 210.509 652.970 210.366 653.381 210.267  c
653.793 210.168 654.170 210.119 654.514 210.119  c
655.420 210.119 656.144 210.345 656.686 210.798  c
657.228 211.252 657.499 211.858 657.499 212.619  c
657.499 212.973 657.431 213.311 657.295 213.634  c
657.160 213.957 656.915 214.338 656.561 214.775  c
656.457 214.890 656.144 215.218 655.624 215.759  c
655.103 216.301 654.363 217.056 653.405 218.025  c
h
f
2 J
10.0000 M
0.00000 .800000 1.00000 RG
0.00000 0.00000 0.00000 RG
0 J
1.45000 M
newpath
258.191 133.804 m
261.784 131.558 l
271.076 128.074 l
280.368 126.912 l
289.660 128.074 l
295.392 130.223 l
295.476 130.276 l
S
newpath
302.634 133.848 m
294.130 124.016 l
294.582 129.829 l
289.665 132.963 l
h
f
2 J
10.0000 M
0 J
1.45000 M
newpath
302.545 157.188 m
298.952 159.434 l
289.660 162.919 l
280.368 164.080 l
271.076 162.919 l
265.344 160.769 l
265.260 160.716 l
S
newpath
258.102 157.144 m
266.606 166.976 l
266.154 161.163 l
271.071 158.029 l
h
f
2 J
10.0000 M
0 J
1.45000 M
newpath
406.863 133.804 m
410.456 131.558 l
419.748 128.074 l
429.040 126.912 l
438.332 128.074 l
444.064 130.223 l
444.148 130.276 l
S
newpath
451.306 133.848 m
442.802 124.016 l
443.254 129.829 l
438.337 132.963 l
h
f
2 J
10.0000 M
0 J
1.45000 M
newpath
406.863 133.804 m
410.456 131.558 l
419.748 128.074 l
429.040 126.912 l
438.332 128.074 l
444.064 130.223 l
444.148 130.276 l
S
newpath
451.306 133.848 m
442.802 124.016 l
443.254 129.829 l
438.337 132.963 l
h
f
2 J
10.0000 M
0 J
1.45000 M
newpath
451.217 157.188 m
447.624 159.434 l
438.332 162.919 l
429.040 164.080 l
419.748 162.919 l
414.016 160.769 l
413.932 160.716 l
S
newpath
406.774 157.144 m
415.278 166.976 l
414.826 161.163 l
419.743 158.029 l
h
f
2 J
10.0000 M
0 J
1.45000 M
newpath
555.535 133.804 m
559.128 131.558 l
568.420 128.074 l
577.712 126.912 l
587.004 128.074 l
592.736 130.223 l
592.820 130.276 l
S
newpath
599.978 133.848 m
591.474 124.016 l
591.926 129.829 l
587.009 132.963 l
h
f
2 J
10.0000 M
0 J
1.45000 M
newpath
599.889 157.188 m
596.296 159.434 l
587.004 162.919 l
577.712 164.080 l
568.420 162.919 l
562.688 160.769 l
562.604 160.716 l
S
newpath
555.446 157.144 m
563.950 166.976 l
563.498 161.163 l
568.415 158.029 l
h
f
2 J
10.0000 M
0 J
1.45000 M
newpath
332.527 246.232 m
336.120 243.986 l
345.412 240.502 l
354.704 239.340 l
363.996 240.502 l
369.728 242.651 l
369.812 242.704 l
S
newpath
376.970 246.276 m
368.466 236.444 l
368.918 242.257 l
364.001 245.391 l
h
f
2 J
10.0000 M
0 J
1.45000 M
newpath
376.881 269.616 m
373.288 271.862 l
363.996 275.346 l
354.704 276.508 l
345.412 275.346 l
339.680 273.197 l
339.596 273.144 l
S
newpath
332.438 269.572 m
340.942 279.404 l
340.490 273.591 l
345.407 270.457 l
h
f
2 J
10.0000 M
0 J
1.45000 M
newpath
481.199 246.232 m
484.792 243.986 l
494.084 240.502 l
503.376 239.340 l
512.668 240.502 l
518.400 242.651 l
518.484 242.704 l
S
newpath
525.642 246.276 m
517.138 236.444 l
517.590 242.257 l
512.673 245.391 l
h
f
2 J
10.0000 M
0 J
1.45000 M
newpath
525.553 269.616 m
521.960 271.862 l
512.668 275.346 l
503.376 276.508 l
494.084 275.346 l
488.352 273.197 l
488.268 273.144 l
S
newpath
481.110 269.572 m
489.614 279.404 l
489.162 273.591 l
494.079 270.457 l
h
f
2 J
10.0000 M
1.00000 0.00000 0.00000 RG
0 J
1.45000 M
[ 6.00000 2.00000 ] 0.00000 d
newpath
198.169 304.700 m
808.551 304.700 l
S
2 J
10.0000 M
[ ] 0.00000 d
0.00000 0.00000 0.00000 RG
1.00000 0.00000 0.00000 RG
0 J
1.45000 M
[ 6.00000 2.00000 ] 0.00000 d
newpath
198.169 191.760 m
808.551 191.760 l
S
2 J
10.0000 M
[ ] 0.00000 d
0.00000 0.00000 0.00000 RG
0 J
1.45000 M
newpath
704.207 133.804 m
707.800 131.558 l
717.092 128.074 l
726.384 126.912 l
735.676 128.074 l
741.408 130.223 l
741.492 130.276 l
S
newpath
748.650 133.848 m
740.146 124.016 l
740.598 129.829 l
735.681 132.963 l
h
f
2 J
10.0000 M
0 J
1.45000 M
newpath
748.561 157.188 m
744.968 159.434 l
735.676 162.919 l
726.384 164.080 l
717.092 162.919 l
711.360 160.769 l
711.276 160.716 l
S
newpath
704.118 157.144 m
712.622 166.976 l
712.170 161.163 l
717.087 158.029 l
h
f
2 J
10.0000 M
0 J
1.45000 M
newpath
629.871 246.232 m
633.464 243.986 l
642.756 240.502 l
652.048 239.340 l
661.340 240.502 l
667.072 242.651 l
667.156 242.704 l
S
newpath
674.314 246.276 m
665.810 236.444 l
666.262 242.257 l
661.345 245.391 l
h
f
2 J
10.0000 M
0 J
1.45000 M
newpath
674.225 269.616 m
670.632 271.862 l
661.340 275.346 l
652.048 276.508 l
642.756 275.346 l
637.024 273.197 l
636.940 273.144 l
S
newpath
629.782 269.572 m
638.286 279.404 l
637.834 273.591 l
642.751 270.457 l
h
f
2 J
10.0000 M
Q
[ 1.00000 0.00000 0.00000 1.00000 0.00000 0.00000 ] defaultmatrix matrix concatmatrix setmatrix
cliprestore

%%Trailer
%%EOF
