Bitonic_Sort_OMP,9.157,16777216,1,Sorted-correctly: Unknown
Bitonic_Sort_OMP,5.018,16777216,2,Sorted-correctly: Unknown
Bitonic_Sort_OMP,2.920,16777216,4,Sorted-correctly: Unknown
Bitonic_Sort_OMP,2.407,16777216,8,Sorted-correctly: Unknown
Bitonic_Sort_OMP,9.152,16777216,1,Sorted-correctly: Unknown
Bitonic_Sort_OMP,5.021,16777216,2,Sorted-correctly: Unknown
Bitonic_Sort_OMP,2.939,16777216,4,Sorted-correctly: Unknown
Bitonic_Sort_OMP,2.418,16777216,8,Sorted-correctly: Unknown
Bitonic_Sort_OMP,9.423,16777216,1,Sorted-correctly: Unknown
Bitonic_Sort_OMP,5.109,16777216,2,Sorted-correctly: Unknown
Bitonic_Sort_OMP,2.928,16777216,4,Sorted-correctly: Unknown
Bitonic_Sort_OMP,2.400,16777216,8,Sorted-correctly: Unknown
Bitonic_Sort_OMP,9.315,16777216,1,Sorted-correctly: Unknown
Bitonic_Sort_OMP,5.065,16777216,2,Sorted-correctly: Unknown
Bitonic_Sort_OMP,2.918,16777216,4,Sorted-correctly: Unknown
Bitonic_Sort_OMP,2.441,16777216,8,Sorted-correctly: Unknown
Bitonic_Sort_OMP,9.082,16777216,1,Sorted-correctly: Unknown
Bitonic_Sort_OMP,5.079,16777216,2,Sorted-correctly: Unknown
Bitonic_Sort_OMP,2.932,16777216,4,Sorted-correctly: Unknown
Bitonic_Sort_OMP,2.396,16777216,8,Sorted-correctly: Unknown
Bitonic_Sort_OMP,20.027,33554432,1,Sorted-correctly: Unknown
Bitonic_Sort_OMP,10.728,33554432,2,Sorted-correctly: Unknown
Bitonic_Sort_OMP,6.199,33554432,4,Sorted-correctly: Unknown
Bitonic_Sort_OMP,5.111,33554432,8,Sorted-correctly: Unknown
Bitonic_Sort_OMP,19.907,33554432,1,Sorted-correctly: Unknown
Bitonic_Sort_OMP,10.705,33554432,2,Sorted-correctly: Unknown
Bitonic_Sort_OMP,6.232,33554432,4,Sorted-correctly: Unknown
Bitonic_Sort_OMP,5.072,33554432,8,Sorted-correctly: Unknown
Bitonic_Sort_OMP,19.365,33554432,1,Sorted-correctly: Unknown
Bitonic_Sort_OMP,10.634,33554432,2,Sorted-correctly: Unknown
Bitonic_Sort_OMP,6.163,33554432,4,Sorted-correctly: Unknown
Bitonic_Sort_OMP,5.111,33554432,8,Sorted-correctly: Unknown
Bitonic_Sort_OMP,19.550,33554432,1,Sorted-correctly: Unknown
Bitonic_Sort_OMP,10.639,33554432,2,Sorted-correctly: Unknown
Bitonic_Sort_OMP,6.285,33554432,4,Sorted-correctly: Unknown
Bitonic_Sort_OMP,5.047,33554432,8,Sorted-correctly: Unknown
Bitonic_Sort_OMP,19.556,33554432,1,Sorted-correctly: Unknown
Bitonic_Sort_OMP,10.624,33554432,2,Sorted-correctly: Unknown
Bitonic_Sort_OMP,6.185,33554432,4,Sorted-correctly: Unknown
Bitonic_Sort_OMP,5.048,33554432,8,Sorted-correctly: Unknown
Bitonic_Sort_OMP,42.022,67108864,1,Sorted-correctly: Unknown
Bitonic_Sort_OMP,22.536,67108864,2,Sorted-correctly: Unknown
Bitonic_Sort_OMP,12.994,67108864,4,Sorted-correctly: Unknown
Bitonic_Sort_OMP,10.609,67108864,8,Sorted-correctly: Unknown
Bitonic_Sort_OMP,41.737,67108864,1,Sorted-correctly: Unknown
Bitonic_Sort_OMP,22.598,67108864,2,Sorted-correctly: Unknown
Bitonic_Sort_OMP,13.009,67108864,4,Sorted-correctly: Unknown
Bitonic_Sort_OMP,10.614,67108864,8,Sorted-correctly: Unknown
Bitonic_Sort_OMP,41.758,67108864,1,Sorted-correctly: Unknown
Bitonic_Sort_OMP,22.473,67108864,2,Sorted-correctly: Unknown
Bitonic_Sort_OMP,12.985,67108864,4,Sorted-correctly: Unknown
Bitonic_Sort_OMP,10.623,67108864,8,Sorted-correctly: Unknown
Bitonic_Sort_OMP,41.648,67108864,1,Sorted-correctly: Unknown
Bitonic_Sort_OMP,22.569,67108864,2,Sorted-correctly: Unknown
Bitonic_Sort_OMP,12.999,67108864,4,Sorted-correctly: Unknown
Bitonic_Sort_OMP,10.643,67108864,8,Sorted-correctly: Unknown
Bitonic_Sort_OMP,41.771,67108864,1,Sorted-correctly: Unknown
Bitonic_Sort_OMP,22.585,67108864,2,Sorted-correctly: Unknown
Bitonic_Sort_OMP,13.028,67108864,4,Sorted-correctly: Unknown
Bitonic_Sort_OMP,10.611,67108864,8,Sorted-correctly: Unknown
