Bitonic_Sort_Serial,9.299,16777216,1,Sorted-correctly: Unknown
Bitonic_Sort_Serial,9.551,16777216,2,Sorted-correctly: Unknown
Bitonic_Sort_Serial,9.429,16777216,4,Sorted-correctly: Unknown
Bitonic_Sort_Serial,9.453,16777216,8,Sorted-correctly: Unknown
Bitonic_Sort_Serial,9.450,16777216,1,Sorted-correctly: Unknown
Bitonic_Sort_Serial,9.474,16777216,2,Sorted-correctly: Unknown
Bitonic_Sort_Serial,9.466,16777216,4,Sorted-correctly: Unknown
Bitonic_Sort_Serial,9.311,16777216,8,Sorted-correctly: Unknown
Bitonic_Sort_Serial,9.403,16777216,1,Sorted-correctly: Unknown
Bitonic_Sort_Serial,9.441,16777216,2,Sorted-correctly: Unknown
Bitonic_Sort_Serial,9.416,16777216,4,Sorted-correctly: Unknown
Bitonic_Sort_Serial,9.220,16777216,8,Sorted-correctly: Unknown
Bitonic_Sort_Serial,9.413,16777216,1,Sorted-correctly: Unknown
Bitonic_Sort_Serial,9.491,16777216,2,Sorted-correctly: Unknown
Bitonic_Sort_Serial,9.397,16777216,4,Sorted-correctly: Unknown
Bitonic_Sort_Serial,9.337,16777216,8,Sorted-correctly: Unknown
Bitonic_Sort_Serial,9.422,16777216,1,Sorted-correctly: Unknown
Bitonic_Sort_Serial,9.458,16777216,2,Sorted-correctly: Unknown
Bitonic_Sort_Serial,9.275,16777216,4,Sorted-correctly: Unknown
Bitonic_Sort_Serial,9.334,16777216,8,Sorted-correctly: Unknown
Bitonic_Sort_Serial,19.786,33554432,1,Sorted-correctly: Unknown
Bitonic_Sort_Serial,19.790,33554432,2,Sorted-correctly: Unknown
Bitonic_Sort_Serial,20.288,33554432,4,Sorted-correctly: Unknown
Bitonic_Sort_Serial,19.785,33554432,8,Sorted-correctly: Unknown
Bitonic_Sort_Serial,19.844,33554432,1,Sorted-correctly: Unknown
Bitonic_Sort_Serial,19.889,33554432,2,Sorted-correctly: Unknown
Bitonic_Sort_Serial,19.939,33554432,4,Sorted-correctly: Unknown
Bitonic_Sort_Serial,20.142,33554432,8,Sorted-correctly: Unknown
Bitonic_Sort_Serial,19.935,33554432,1,Sorted-correctly: Unknown
Bitonic_Sort_Serial,19.830,33554432,2,Sorted-correctly: Unknown
Bitonic_Sort_Serial,19.882,33554432,4,Sorted-correctly: Unknown
Bitonic_Sort_Serial,20.047,33554432,8,Sorted-correctly: Unknown
Bitonic_Sort_Serial,19.895,33554432,1,Sorted-correctly: Unknown
Bitonic_Sort_Serial,19.871,33554432,2,Sorted-correctly: Unknown
Bitonic_Sort_Serial,19.706,33554432,4,Sorted-correctly: Unknown
Bitonic_Sort_Serial,19.916,33554432,8,Sorted-correctly: Unknown
Bitonic_Sort_Serial,19.678,33554432,1,Sorted-correctly: Unknown
Bitonic_Sort_Serial,20.159,33554432,2,Sorted-correctly: Unknown
Bitonic_Sort_Serial,20.247,33554432,4,Sorted-correctly: Unknown
Bitonic_Sort_Serial,19.919,33554432,8,Sorted-correctly: Unknown
Bitonic_Sort_Serial,41.950,67108864,1,Sorted-correctly: Unknown
Bitonic_Sort_Serial,41.950,67108864,2,Sorted-correctly: Unknown
Bitonic_Sort_Serial,41.950,67108864,4,Sorted-correctly: Unknown
Bitonic_Sort_Serial,41.950,67108864,8,Sorted-correctly: Unknown
Bitonic_Sort_Serial,41.923,67108864,1,Sorted-correctly: Unknown
Bitonic_Sort_Serial,41.942,67108864,2,Sorted-correctly: Unknown
Bitonic_Sort_Serial,41.950,67108864,4,Sorted-correctly: Unknown
Bitonic_Sort_Serial,41.950,67108864,8,Sorted-correctly: Unknown
Bitonic_Sort_Serial,41.950,67108864,1,Sorted-correctly: Unknown
Bitonic_Sort_Serial,41.950,67108864,2,Sorted-correctly: Unknown
Bitonic_Sort_Serial,41.809,67108864,4,Sorted-correctly: Unknown
Bitonic_Sort_Serial,41.950,67108864,8,Sorted-correctly: Unknown
Bitonic_Sort_Serial,41.950,67108864,1,Sorted-correctly: Unknown
Bitonic_Sort_Serial,41.950,67108864,2,Sorted-correctly: Unknown
Bitonic_Sort_Serial,41.950,67108864,4,Sorted-correctly: Unknown
Bitonic_Sort_Serial,41.950,67108864,8,Sorted-correctly: Unknown
Bitonic_Sort_Serial,41.950,67108864,1,Sorted-correctly: Unknown
Bitonic_Sort_Serial,41.950,67108864,2,Sorted-correctly: Unknown
Bitonic_Sort_Serial,41.356,67108864,4,Sorted-correctly: Unknown
Bitonic_Sort_MPI,9.798,16777216,1,Sorted-correctly: Unknown
Bitonic_Sort_MPI,4.798,16777216,2,Sorted-correctly: Unknown
Bitonic_Sort_MPI,2.338,16777216,4,Sorted-correctly: Unknown
Bitonic_Sort_MPI,1.729,16777216,8,Sorted-correctly: Unknown
Bitonic_Sort_MPI,9.637,16777216,1,Sorted-correctly: Unknown
Bitonic_Sort_MPI,4.796,16777216,2,Sorted-correctly: Unknown
Bitonic_Sort_MPI,2.345,16777216,4,Sorted-correctly: Unknown
Bitonic_Sort_MPI,1.720,16777216,8,Sorted-correctly: Unknown
Bitonic_Sort_MPI,9.659,16777216,1,Sorted-correctly: Unknown
Bitonic_Sort_MPI,4.793,16777216,2,Sorted-correctly: Unknown
Bitonic_Sort_MPI,2.346,16777216,4,Sorted-correctly: Unknown
Bitonic_Sort_MPI,1.733,16777216,8,Sorted-correctly: Unknown
Bitonic_Sort_MPI,9.654,16777216,1,Sorted-correctly: Unknown
Bitonic_Sort_MPI,4.747,16777216,2,Sorted-correctly: Unknown
Bitonic_Sort_MPI,2.344,16777216,4,Sorted-correctly: Unknown
Bitonic_Sort_MPI,1.721,16777216,8,Sorted-correctly: Unknown
Bitonic_Sort_MPI,9.596,16777216,1,Sorted-correctly: Unknown
Bitonic_Sort_MPI,4.764,16777216,2,Sorted-correctly: Unknown
Bitonic_Sort_MPI,2.345,16777216,4,Sorted-correctly: Unknown
Bitonic_Sort_MPI,1.722,16777216,8,Sorted-correctly: Unknown
Bitonic_Sort_MPI,20.224,33554432,1,Sorted-correctly: Unknown
Bitonic_Sort_MPI,10.132,33554432,2,Sorted-correctly: Unknown
Bitonic_Sort_MPI,4.981,33554432,4,Sorted-correctly: Unknown
Bitonic_Sort_MPI,3.645,33554432,8,Sorted-correctly: Unknown
Bitonic_Sort_MPI,20.304,33554432,1,Sorted-correctly: Unknown
Bitonic_Sort_MPI,10.086,33554432,2,Sorted-correctly: Unknown
Bitonic_Sort_MPI,5.007,33554432,4,Sorted-correctly: Unknown
Bitonic_Sort_MPI,3.636,33554432,8,Sorted-correctly: Unknown
Bitonic_Sort_MPI,20.829,33554432,1,Sorted-correctly: Unknown
Bitonic_Sort_MPI,10.084,33554432,2,Sorted-correctly: Unknown
Bitonic_Sort_MPI,4.971,33554432,4,Sorted-correctly: Unknown
Bitonic_Sort_MPI,3.634,33554432,8,Sorted-correctly: Unknown
Bitonic_Sort_MPI,20.544,33554432,1,Sorted-correctly: Unknown
Bitonic_Sort_MPI,10.077,33554432,2,Sorted-correctly: Unknown
Bitonic_Sort_MPI,4.975,33554432,4,Sorted-correctly: Unknown
Bitonic_Sort_MPI,3.660,33554432,8,Sorted-correctly: Unknown
Bitonic_Sort_MPI,20.400,33554432,1,Sorted-correctly: Unknown
Bitonic_Sort_MPI,10.055,33554432,2,Sorted-correctly: Unknown
Bitonic_Sort_MPI,4.963,33554432,4,Sorted-correctly: Unknown
Bitonic_Sort_MPI,3.666,33554432,8,Sorted-correctly: Unknown
Bitonic_Sort_MPI,43.259,67108864,1,Sorted-correctly: Unknown
Bitonic_Sort_MPI,21.256,67108864,2,Sorted-correctly: Unknown
Bitonic_Sort_MPI,10.569,67108864,4,Sorted-correctly: Unknown
Bitonic_Sort_MPI,7.751,67108864,8,Sorted-correctly: Unknown
Bitonic_Sort_MPI,43.542,67108864,1,Sorted-correctly: Unknown
Bitonic_Sort_MPI,21.292,67108864,2,Sorted-correctly: Unknown
Bitonic_Sort_MPI,10.528,67108864,4,Sorted-correctly: Unknown
Bitonic_Sort_MPI,7.772,67108864,8,Sorted-correctly: Unknown
Bitonic_Sort_MPI,44.035,67108864,1,Sorted-correctly: Unknown
Bitonic_Sort_MPI,21.474,67108864,2,Sorted-correctly: Unknown
Bitonic_Sort_MPI,10.530,67108864,4,Sorted-correctly: Unknown
Bitonic_Sort_MPI,7.774,67108864,8,Sorted-correctly: Unknown
Bitonic_Sort_MPI,43.771,67108864,1,Sorted-correctly: Unknown
Bitonic_Sort_MPI,21.353,67108864,2,Sorted-correctly: Unknown
Bitonic_Sort_MPI,10.545,67108864,4,Sorted-correctly: Unknown
Bitonic_Sort_MPI,7.785,67108864,8,Sorted-correctly: Unknown
Bitonic_Sort_MPI,43.611,67108864,1,Sorted-correctly: Unknown
Bitonic_Sort_MPI,21.459,67108864,2,Sorted-correctly: Unknown
Bitonic_Sort_MPI,10.557,67108864,4,Sorted-correctly: Unknown
Bitonic_Sort_MPI,7.801,67108864,8,Sorted-correctly: Unknown
