%!PS-Adobe-3.0 EPSF-3.0
%%BoundingBox: 0 0 451 262
%%Creator: yExport 1.5
%%Producer: org.freehep.graphicsio.ps.EPSGraphics2D Revision: 12753 
%%For: 
%%Title: 
%%CreationDate: Thursday, November 30, 2017 5:11:06 PM CET
%%LanguageLevel: 3
%%EndComments
%%BeginProlog
100 dict dup begin

%
% File: org/freehep/graphicsio.ps/PSProlog.txt
% Author: Charles Loomis
%

% Redefinitions which save some space in the output file.  These are also
% the same as the PDF operators.
/q {gsave} def
/Q {grestore} def

/n {newpath} def
/m {moveto} def
/l {lineto} def
/c {curveto} def
/h {closepath} def

/re {4 -2 roll moveto
     dup 0 exch rlineto exch 0 rlineto
     neg 0 exch rlineto closepath} def

/f {fill} def
/f* {eofill} def
/F {gsave vg&FC fill grestore} def
/F* {gsave vg&FC eofill grestore} def

/s {closepath stroke} def
/S {stroke} def

/b {closepath gsave vg&FC fill grestore
    gsave stroke grestore newpath} def
/B {gsave vg&FC fill grestore gsave stroke grestore newpath} def
/b* {closepath gsave vg&FC eofill grestore
    gsave stroke grestore newpath} def
/B* {gsave vg&FC eofill grestore gsave stroke grestore newpath} def

/g {1 array astore /vg&fcolor exch def} def
/G {setgray} def
/k {4 array astore /vg&fcolor exch def} def
/K {setcmykcolor} def
/rg {3 array astore /vg&fcolor exch def} def
/RG {setrgbcolor} def

% Initialize the fill color.
0 0 0 rg

/vg&FC {mark vg&fcolor aload pop
        counttomark 1 eq {G} if
        counttomark 3 eq {RG} if
        counttomark 4 eq {K} if
        cleartomark } def

/vg&DFC {/vg&fcolor exch def} def

/vg&C {mark exch aload pop
       counttomark 1 eq {G} if
       counttomark 3 eq {RG} if
       counttomark 4 eq {K} if
       cleartomark } def

/w {setlinewidth} def
/j {setlinejoin} def
/J {setlinecap} def
/M {setmiterlimit} def
/d {setdash} def
/i {setflat} def

/W {clip} def
/W* {eoclip} def

% Setup the default graphics state.
% (black; 1 pt. linewidth; miter join; butt-ends; solid)
/defaultGraphicsState {0 g 1 w 0 j 0 J [] 0 d} def

% Emulation of the rectangle operators for PostScript implementations
% which do not implement all Level 2 features.  This is an INCOMPLETE
% emulation; only the "x y width height rect..." form is emulated.
/*rf {gsave newpath re fill grestore} def
/*rs {gsave newpath re stroke grestore} def
/*rc {newpath re clip} def
/rf  /rectfill where {pop /rectfill}{/*rf} ifelse load def
/rs  /rectstroke where {pop /rectstroke}{/*rs} ifelse load def
/rc  /rectclip where {pop /rectclip}{/*rc} ifelse load def

% Emulation of the selectfont operator.  This includes a 20% increase in
% the fontsize which is necessary to get sizes similar to the Java fonts.
/*sf {exch findfont exch
      dup type /arraytype eq {makefont}{scalefont} ifelse setfont} bind def
/sf /selectfont where {pop {1.2 mul selectfont}}{{1.2 mul *sf}} ifelse def

% Special version of stroke which allows the dash pattern to continue
% across path segments.  (This may be needed for PostScript although
% modern printers seem to do this correctly.)
/vg&stroke {
  currentdash pop length 0 eq
  {stroke}
  {
    currentdash /vg&doffset exch def pop
    flattenpath
    {m vg&resetdash}
    {2 copy
     currentpoint
     3 -1 roll sub dup mul
     3 1 roll sub dup mul
     add sqrt
     3 1 roll l
     currentdash 3 -1 roll add setdash}
     {}
     {h vg&resetdash}
     pathforall
     stroke
     vg&resetdash
  } ifelse
} def
/vg&resetdash {currentdash pop vg&doffset setdash} def

% Initialize variables for safety.
/delta 0 def
/xv 0 def  /yv 0 def  /width 0 def  /height 0 def

% Initialize to portrait INTERNATIONAL (Letter-height, A4-width) page.
/pw 595 def  /ph 791  def  /po true def /ftp false def

% Initialize margins to 20 points.
/ml 20 def  /mr 20 def  /mt 20 def  /mb 20 def

% Temporary matrices.
/smatrix 0 def  /nmatrix 0 def

% set page size (usage: <page width><page height> setpagesize)
/setpagesize {/ph exch def /pw exch def} def

% set page orientation (usage: portrait or landscape)
/portrait {/po true def} def
/landscape {/po false def} def

% force natural size for image (usage: naturalsize)
/naturalsize {/ftp false def} def

% resize image to fill page (usage: fittopage)
/fittopage {/ftp true def} def

% set margins of the page (usage: <left><bottom><top><right> setmargins)
/setmargins {/mr exch def /mt exch def /mb exch def /ml exch def} def

% set the graphic's size (usage: <width><height> setsize)
/setsize {/gh exch def /gw exch def} def

% set the graphic's origin (usage: <x0><y0> setorigin)
/setorigin {/gy exch def /gx exch def} def

% calculate image center
/imagecenter {pw ml sub mr sub 2 div ml add
              ph mt sub mb sub 2 div mb add} def

% calculate the necessary scaling
/imagescale {po {gw}{gh} ifelse pw ml sub mr sub div
             po {gh}{gw} ifelse ph mt sub mb sub div
             2 copy lt {exch} if pop
             ftp not {1 2 copy lt {exch} if pop} if
             1 exch div /sfactor exch def
             /gw gw sfactor mul def /gh gh sfactor mul def} def

% calculate image origin
/imageorigin {pw ml sub mr sub 2 div ml add
              po {gw}{gh} ifelse 2 div sub
              ph mt sub mb sub 2 div mb add
              po {gh}{gw} ifelse 2 div po {add}{sub} ifelse} def

% calculate the clipping origin
/cliporigin  {pw ml sub mr sub 2 div ml add
              po {gw}{gh} ifelse 2 div sub floor
              ph mt sub mb sub 2 div mb add
              po {gh}{gw} ifelse 2 div sub floor} def

% Set the clipping region to the bounding box.
/cliptobounds {cliporigin po {gw}{gh} ifelse 1 add
                          po {gh}{gw} ifelse 1 add rc} def

% set the base transformation matrix (usage: setbasematrix)
/setbasematrix {imageorigin translate
                po {0}{90} ifelse rotate
                sfactor sfactor neg scale
                /defaultmatrix matrix currentmatrix def} def

% The lower-right bias in drawing 1 pt. wide lines.
/bias  {q 0.5 0.5 translate} def
/unbias {Q} def

% Define the composite fonts used to print Unicode strings.
% Undefine particular values in an encoding array.
/vg&undef { {exch dup 3 -1 roll /.notdef put} forall } def
/vg&redef { {3 -1 roll dup 4 2 roll put} forall } def

% usage: key encoding basefontname vg&newbasefont font
/vg&newbasefont {
findfont dup length dict copy
  begin
    currentdict /FID undef
    /Encoding exch def
    dup /FontName exch def
    currentdict
  end
definefont
} def

% usage: key encoding basefontname vg&newskewedbasefont font
/vg&newskewedbasefont {
findfont dup length dict copy
  begin
    currentdict /FID undef
    /Encoding exch def
    dup /FontName exch def
    exch FontMatrix exch matrix concatmatrix /FontMatrix exch def
    currentdict
  end
definefont
} def

% usage: basekey suffix vg&nconcat name
/vg&nconcat {
  2 {dup length string cvs exch} repeat
  dup length 3 -1 roll dup length 3 -1 roll add string
  dup 0 4 -1 roll dup length 5 1 roll putinterval
  dup 4 -2 roll exch putinterval cvn
} def

%usage: fontname vg&skewmatrix matrix
/vg&skewmatrix {
findfont dup /FontInfo known
  {
    /FontInfo get dup /ItalicAngle known
    {
      [ 1 0 4 -1 roll /ItalicAngle get neg dup sin exch cos div 1 0 0 ]
    }
    {pop matrix} ifelse
  }
  {pop matrix} ifelse
} def

% usage: newfontname basefontname vg&newcompositefont --
/vg&newcompositefont {
/vg&fstyle exch def
/vg&bfont exch def
/vg&fname exch def
<<
/FontStyleBits vg&fstyle
/FontType 0
/FontMatrix matrix
/FontName vg&fname
/FMapType 2
/Encoding [ 0 1 255 {pop 6} for ]
          dup 16#00 0 put % Latin
          dup 16#03 1 put % Greek
          dup 16#20 2 put % Punctuation
          dup 16#21 3 put % Arrows
          dup 16#22 4 put % MathOps
          dup 16#27 5 put % Dingbats

/FDepVector [
vg&bfont /-UC-Latin vg&nconcat UCLatinEncoding
vg&bfont vg&newbasefont

vg&bfont vg&skewmatrix
vg&bfont /-UC-Greek vg&nconcat UCGreekEncoding
/Symbol vg&newskewedbasefont

vg&bfont /-UC-Punctuation vg&nconcat UCPunctuationEncoding
vg&bfont vg&newbasefont

/Arrows-UC findfont
/MathOps-UC findfont
/Dingbats-UC findfont
/Undefined-UC findfont ]
>>
vg&fname exch definefont pop
} def

% Null encoding vector (all elements set to .notdef)
/NullEncoding [ 256 {/.notdef} repeat ] def

% Unicode Latin encoding (unicode codes \u0000-\u00ff)
/UCLatinEncoding
  ISOLatin1Encoding dup length array copy
  dup 16#60 /grave put
  [ 16#90 16#91 16#92 16#93 16#94 16#95 16#96
    16#97 16#98 16#9a 16#9b 16#9d 16#9e 16#9f
  ] vg&undef
  def

% Unicode Greek encoding (unicode codes \u0370-\u03ff)
/UCGreekEncoding
  NullEncoding dup length array copy
  << 16#91 /Alpha    16#92 /Beta      16#93 /Gamma    16#94 /Delta
     16#95 /Epsilon  16#96 /Zeta      16#97 /Eta      16#98 /Theta
     16#99 /Iota     16#9a /Kappa     16#9b /Lambda   16#9c /Mu
     16#9d /Nu       16#9e /Xi        16#9f /Omicron  16#a0 /Pi
     16#a1 /Rho      16#a3 /Sigma     16#a4 /Tau      16#a5 /Upsilon
     16#a6 /Phi      16#a7 /Chi       16#a8 /Psi      16#a9 /Omega
     16#b1 /alpha    16#b2 /beta      16#b3 /gamma    16#b4 /delta
     16#b5 /epsilon  16#b6 /zeta      16#b7 /eta      16#b8 /theta
     16#b9 /iota     16#ba /kappa     16#bb /lambda   16#bc /mu
     16#bd /nu       16#be /xi        16#bf /omicron  16#c0 /pi
     16#c1 /rho      16#c2 /sigma1    16#c3 /sigma    16#c4 /tau
     16#c5 /upsilon  16#c6 /phi1      16#c7 /chi      16#c8 /psi
     16#c9 /omega    16#7e /semicolon 16#87 /dotmath  16#d1 /theta1
     16#d2 /Upsilon1 16#d5 /phi       16#d6 /omega1
  >> vg&redef
  def

% Unicode punctuation encoding (unicode codes \u2000-\u206f)
/UCPunctuationEncoding
  NullEncoding dup length array copy
  << 16#10 /hyphen          16#11 /hyphen              16#12 /endash
     16#13 /emdash          16#18 /quoteleft           16#19 /quoteright
     16#1a /quotesinglbase  16#1b /quotesingle         16#1c /quotedblleft
     16#1d /quotedblright   16#1e /quotedblbase        16#1f /quotedbl
     16#20 /dagger          16#21 /daggerdbl           16#22 /bullet
     16#24 /period          16#26 /ellipsis            16#27 /periodcentered
     16#30 /perthousand     16#44 /fraction
     16#70 /zerosuperior    16#74 /foursuperior        16#75 /fivesuperior
     16#76 /sixsuperior     16#77 /sevensuperior       16#78 /eightsuperior
     16#79 /ninesuperior    16#7b /hyphensuperior      16#7d /parenleftsuperior
     16#7e /parenrightsuperior
     16#80 /zeroinferior    16#84 /fourinferior        16#85 /fiveinferior
     16#81 /oneinferior     16#82 /twoinferior         16#83 /threeinferior
     16#86 /sixinferior     16#87 /seveninferior       16#88 /eightinferior
     16#89 /nineinferior    16#8b /hypheninferior      16#8d /parenleftinferior
     16#8e /parenrightinferior
  >> vg&redef
  def

% Unicode mathematical operators encoding (unicode codes \u2200-\u22ff)
/UCMathOpsEncoding
  NullEncoding dup length array copy
  << 16#00 /universal       16#02 /partialdiff         16#03 /existential
     16#05 /emptyset        16#06 /Delta               16#07 /gradient
     16#08 /element         16#09 /notelement          16#0b /suchthat
     16#0f /product         16#11 /summation           16#12 /minus
     16#15 /fraction        16#17 /asteriskmath        16#19 /bullet
     16#1a /radical         16#1d /proportional        16#1e /infinity
     16#20 /angle           16#23 /bar                 16#27 /logicaland
     16#28 /logicalor       16#29 /intersection        16#2a /union
     16#2b /integral        16#34 /therefore           16#36 /colon
     16#3c /similar         16#45 /congruent           16#48 /approxequal
     16#60 /notequal        16#61 /equivalence         16#64 /lessequal
     16#65 /greaterequal    16#82 /propersubset        16#83 /propersuperset
     16#86 /reflexsubset    16#87 /reflexsuperset      16#95 /circleplus
     16#97 /circlemultiply  16#a5 /perpendicular       16#03 /existential
     16#c0 /logicaland      16#c1 /logicalor           16#c2 /intersection
     16#c3 /union           16#c4 /diamond             16#c5 /dotmath
  >> vg&redef
  def

% Unicode arrows encoding (unicode codes \u2190-\u21ff)
% Also includes those "Letterlike" unicode characters
% which are available in the symbol font. (unicode codes \u2100-\u214f)
/UCArrowsEncoding
  NullEncoding dup length array copy
  << 16#11 /Ifraktur        16#1c /Rfraktur            16#22 /trademarkserif
     16#35 /aleph
     16#90 /arrowleft       16#91 /arrowup             16#92 /arrowright
     16#93 /arrowdown       16#94 /arrowboth           16#d0 /arrowdblleft
     16#d1 /arrowdblup      16#d2 /arrowdblright       16#d3 /arrowdbldown
     16#d4 /arrowdblboth
  >> vg&redef
  def

/ZapfDingbats findfont /Encoding get
dup length array copy /UCDingbatsEncoding exch def
16#20 1 16#7f {
  dup 16#20 sub exch
  UCDingbatsEncoding exch get
  UCDingbatsEncoding 3 1 roll put
} for
16#a0 1 16#ff {
  dup 16#40 sub exch
  UCDingbatsEncoding exch get
  UCDingbatsEncoding 3 1 roll put
} for
UCDingbatsEncoding [ 16#c0 1 16#ff {} for ] vg&undef
[ 16#00  16#05 16#0a 16#0b  16#28 16#4c 16#4e  16#53 16#54 16#55  16#57 16#5f
  16#60  16#68 16#69 16#6a  16#6b 16#6c 16#6d  16#6e 16#6f 16#70  16#71 16#72
  16#73  16#74 16#75 16#95  16#96 16#97 16#b0  16#bf
] vg&undef pop

% Define the base fonts which don't change.
/Undefined-UC NullEncoding       /Helvetica    vg&newbasefont pop
/MathOps-UC   UCMathOpsEncoding  /Symbol       vg&newbasefont pop
/Arrows-UC    UCArrowsEncoding   /Symbol       vg&newbasefont pop
/Dingbats-UC  UCDingbatsEncoding /ZapfDingbats vg&newbasefont pop

% Make the SansSerif composite fonts.
/SansSerif /Helvetica 16#00 vg&newcompositefont
/SansSerif-Bold /Helvetica-Bold 16#01 vg&newcompositefont
/SansSerif-Italic /Helvetica-Oblique 16#02 vg&newcompositefont
/SansSerif-BoldItalic /Helvetica-BoldOblique 16#03 vg&newcompositefont

% Make the Serif composite fonts.
/Serif /Times-Roman 16#00 vg&newcompositefont
/Serif-Bold /Times-Bold 16#01 vg&newcompositefont
/Serif-Italic /Times-Italic 16#02 vg&newcompositefont
/Serif-BoldItalic /Times-BoldItalic 16#03 vg&newcompositefont

% Make the Monospaced composite fonts.
/Monospaced /Courier 16#00 vg&newcompositefont
/Monospaced-Bold /Courier-Bold 16#01 vg&newcompositefont
/Monospaced-Italic /Courier-Oblique 16#02 vg&newcompositefont
/Monospaced-BoldItalic /Courier-BoldOblique 16#03 vg&newcompositefont

% Make the Dialog composite fonts.
/Dialog /Helvetica 16#00 vg&newcompositefont
/Dialog-Bold /Helvetica-Bold 16#01 vg&newcompositefont
/Dialog-Italic /Helvetica-Oblique 16#02 vg&newcompositefont
/Dialog-BoldItalic /Helvetica-BoldOblique 16#03 vg&newcompositefont

% Make the DialogInput composite fonts.
/DialogInput /Courier 16#00 vg&newcompositefont
/DialogInput-Bold /Courier-Bold 16#01 vg&newcompositefont
/DialogInput-Italic /Courier-Oblique 16#02 vg&newcompositefont
/DialogInput-BoldItalic /Courier-BoldOblique 16#03 vg&newcompositefont

% Make the Typewriter composite fonts (JDK 1.1 only).
/Typewriter /Courier 16#00 vg&newcompositefont
/Typewriter-Bold /Courier-Bold 16#01 vg&newcompositefont
/Typewriter-Italic /Courier-Oblique 16#02 vg&newcompositefont
/Typewriter-BoldItalic /Courier-BoldOblique 16#03 vg&newcompositefont


/cfontH {
 dup /fontsize exch def /SansSerif exch sf
 /vg&fontstyles [{cfontH} {cfontHB} {cfontHI} {cfontHBI}] def
} def
/cfontHB {
  dup /fontsize exch def /SansSerif-Bold exch sf
 /vg&fontstyles [{cfontH} {cfontHB} {cfontHI} {cfontHBI}] def
} def
/cfontHI {
 dup /fontsize exch def /SansSerif-Italic exch sf
 /vg&fontstyles [{cfontH} {cfontHB} {cfontHI} {cfontHBI}] def
} def
/cfontHBI {
 dup /fontsize exch def /SansSerif-BoldItalic exch sf
 /vg&fontstyles [{cfontH} {cfontHB} {cfontHI} {cfontHBI}] def
} def

/cfontT {
 dup /fontsize exch def /Serif exch sf
 /vg&fontstyles [{cfontT} {cfontTB} {cfontTI} {cfontTBI}] def
} def
/cfontTB {
 dup /fontsize exch def /Serif-Bold exch sf
 /vg&fontstyles [{cfontT} {cfontTB} {cfontTI} {cfontTBI}] def
} def
/cfontTI {
 dup /fontsize exch def /Serif-Italic exch sf
 /vg&fontstyles [{cfontT} {cfontTB} {cfontTI} {cfontTBI}] def
} def
/cfontTBI {
 dup /fontsize exch def /Serif-BoldItalic exch sf
 /vg&fontstyles [{cfontT} {cfontTB} {cfontTI} {cfontTBI}] def
} def

/cfontC {
 dup /fontsize exch def /Typewriter exch sf
 /vg&fontstyles [{cfontC} {cfontCB} {cfontCI} {cfontCBI}] def
} def
/cfontCB {
 dup /fontsize exch def /Typewriter-Bold exch sf
 /vg&fontstyles [{cfontC} {cfontCB} {cfontCI} {cfontCBI}] def
} def
/cfontCI {
 dup /fontsize exch def /Typewriter-Italic exch sf
 /vg&fontstyles [{cfontC} {cfontCB} {cfontCI} {cfontCBI}] def
} def
/cfontCBI {
 dup /fontsize exch def /Typewriter-BoldItalic exch sf
 /vg&fontstyles [{cfontC} {cfontCB} {cfontCI} {cfontCBI}] def
} def

% Darken or lighten the current color.
/darken {0.7 exch exp 3 copy
         q 4 -1 roll vg&C
         currentrgbcolor 3 {4 -2 roll mul} repeat
         3 array astore Q} def

/displayColorMap
<< /Cr   [1.00 0.00 0.00]       /Cg     [0.00 1.00 0.00]
   /Cb   [0.00 0.00 1.00]       /Cc     [1.00 0.00 0.00 0.00]
   /Cm   [0.00 1.00 0.00 0.00]  /Cy     [0.00 0.00 1.00 0.00]
   /Co   [1.00 0.78 0.00]       /Cp     [1.00 0.67 0.67]
   /Cw   [1   ]                 /Cgrl   [0.75]
   /Cgr  [0.50]                 /Cgrd   [0.25]
   /Ck   [0   ]
   /CGr  [1.00 0.00 0.00]       /CGg    [0.00 1.00 0.00]
   /CGb  [0.00 0.00 1.00]       /CGc    [1.00 0.00 0.00 0.00]
   /CGm  [0.00 1.00 0.00 0.00]  /CGy    [0.00 0.00 1.00 0.00]
   /CGo  [1.00 0.78 0.00]       /CGp    [1.00 0.67 0.67]
   /CGw  [1   ]                 /CGgrl  [0.75]
   /CGgr [0.50]                 /CGgrd  [0.25]
   /CGk  [0   ]
   /CIr  [1.00 0.00 0.00]       /CIg    [0.00 1.00 0.00]
   /CIb  [0.00 0.00 1.00]       /CIc    [1.00 0.00 0.00 0.00]
   /CIm  [0.00 1.00 0.00 0.00]  /CIy    [0.00 0.00 1.00 0.00]
   /CIo  [1.00 0.78 0.00]       /CIp    [1.00 0.67 0.67]
   /CIw  [1   ]                 /CIgrl  [0.75]
   /CIgr [0.50]                 /CIgrd  [0.25]
   /CIk  [0   ]
>> def

/printColorMap
<< /Cr   [1.00 0.33 0.33]       /Cg     [0.33 1.00 0.33]
   /Cb   [0.33 0.33 1.00]       /Cc     [1.00 0.00 0.00 0.00]
   /Cm   [0.00 1.00 0.00 0.00]  /Cy     [0.00 0.00 1.00 0.00]
   /Co   [1.00 0.78 0.00]       /Cp     [1.00 0.67 0.67]
   /Cw   [1   ]                 /Cgrl   [0.75]
   /Cgr  [0.50]                 /Cgrd   [0.25]
   /Ck   [0   ]
   /CGr  [1.00 0.33 0.33]       /CGg    [0.33 1.00 0.33]
   /CGb  [0.33 0.33 1.00]       /CGc    [1.00 0.00 0.00 0.00]
   /CGm  [0.00 1.00 0.00 0.00]  /CGy    [0.00 0.00 1.00 0.00]
   /CGo  [1.00 0.78 0.00]       /CGp    [1.00 0.67 0.67]
   /CGw  [1   ]                 /CGgrl  [0.75]
   /CGgr [0.50]                 /CGgrd  [0.25]
   /CGk  [0   ]
   /CIr  [1.00 0.33 0.33]       /CIg    [0.33 1.00 0.33]
   /CIb  [0.33 0.33 1.00]       /CIc    [1.00 0.00 0.00 0.00]
   /CIm  [0.00 1.00 0.00 0.00]  /CIy    [0.00 0.00 1.00 0.00]
   /CIo  [1.00 0.78 0.00]       /CIp    [1.00 0.67 0.67]
   /CIw  [1   ]                 /CIgrl  [0.75]
   /CIgr [0.50]                 /CIgrd  [0.25]
   /CIk  [0   ]
>> def

/grayColorMap
<< /Cr   [0   ]                 /Cg     [0   ]
   /Cb   [0   ]                 /Cc     [0   ]
   /Cm   [0   ]                 /Cy     [0   ]
   /Co   [0   ]                 /Cp     [0   ]
   /Cw   [0   ]                 /Cgrl   [0   ]
   /Cgr  [0   ]                 /Cgrd   [0   ]
   /Ck   [0   ]
   /CGr  [0.75]                 /CGg    [1   ]
   /CGb  [0.50]                 /CGc    [0.75]
   /CGm  [0.50]                 /CGy    [1   ]
   /CGo  [0.75]                 /CGp    [1   ]
   /CGw  [0   ]                 /CGgrl  [0.25]
   /CGgr [0.50]                 /CGgrd  [0.75]
   /CGk  [1   ]
   /CIr  [1   ]                 /CIg    [1   ]
   /CIb  [1   ]                 /CIc    [1   ]
   /CIm  [1   ]                 /CIy    [1   ]
   /CIo  [1   ]                 /CIp    [1   ]
   /CIw  [1   ]                 /CIgrl  [1   ]
   /CIgr [1   ]                 /CIgrd  [1   ]
   /CIk  [1   ]
>> def

/bwColorMap
<< /Cr   [0   ]                 /Cg     [0   ]
   /Cb   [0   ]                 /Cc     [0   ]
   /Cm   [0   ]                 /Cy     [0   ]
   /Co   [0   ]                 /Cp     [0   ]
   /Cw   [0   ]                 /Cgrl   [0   ]
   /Cgr  [0   ]                 /Cgrd   [0   ]
   /Ck   [0   ]
   /CGr  [1   ]                 /CGg    [1   ]
   /CGb  [1   ]                 /CGc    [1   ]
   /CGm  [1   ]                 /CGy    [1   ]
   /CGo  [1   ]                 /CGp    [1   ]
   /CGw  [0   ]                 /CGgrl  [1   ]
   /CGgr [1   ]                 /CGgrd  [1   ]
   /CGk  [1   ]
   /CIr  [1   ]                 /CIg    [1   ]
   /CIb  [1   ]                 /CIc    [1   ]
   /CIm  [1   ]                 /CIy    [1   ]
   /CIo  [1   ]                 /CIp    [1   ]
   /CIw  [1   ]                 /CIgrl  [1   ]
   /CIgr [1   ]                 /CIgrd  [1   ]
   /CIk  [1   ]
>> def

%
% The following routines handle the alignment of and printing of
% tagged strings.
%

% Predefine the bounding box values.
/bbllx 0 def /bblly 0 def /bburx 0 def /bbury 0 def

% This routine pops the first unicode character off of a string and returns
% the remainder of the string, the character code of first character,
% and a "true" if the string was non-zero length.
% <string>      popfirst <remaining string> <true>
% <null string> popfirst <false>
/popfirst {
  dup length 1 gt
    {dup 0 get /vg&fbyte exch def
     dup 1 get /vg&cbyte exch def
     dup length 2 sub 2 exch getinterval true}
    {pop false} ifelse
} def

% This routine shows a single unicode character given the font and
% character codes.
% <font code> <char code> unicharshow --
/unicharshow {
  2 string
  dup 0 5 -1 roll put
  dup 1 4 -1 roll put
  internalshow
} def

% This is an internal routine to alternate between determining the
% bounding box for stringsize and showing the string for recshow.
% <string> internalshow --
/internalshow {show} def

% This is an internal routine to alternate between determining the
% bounding box for stringsize and stroking various ornaments.
% <string> internalstroke --
/internalstroke {S} def

% Sets up internalshow to use the null device to determine string size.
% -- nullinternalshow --
/nullinternalshow {/internalshow {false charpath flattenpath
                                  pathbbox updatebbox} def} def

% Sets up internalstroke to use the null device to determine string size.
% -- nullinternalstroke --
/nullinternalstroke {
 /internalstroke {flattenpath pathbbox updatebbox} def} def

% This routine tests to see if the character code matches the first
% character of a string.
% <char code> <string> testchar <char code> <true or false>
/testchar {exch dup 3 -1 roll 0 get eq} def

% Raise the text baseline for superscripts.
% -- raise --
/raise {
  0 fontsize 2 div rmoveto
  /fontsize fontsize 2 mul 3 div def
  currentfont /FontName get fontsize sf
} def

% Un-raise the text baseline for superscripts.
% -- unraise --
/unraise {
  /fontsize fontsize 1.5 mul def
  0 fontsize 2 div neg rmoveto
} def

% Lower the text baseline for subscripts.
% -- lower --
/lower {
  0 fontsize 3 div neg rmoveto
  /fontsize fontsize 2 mul 3 div def
  currentfont /FontName get fontsize sf
} def

% Un-lower the text baseline for subscripts.
% -- unlower --
/unlower {
  /fontsize fontsize 1.5 mul def
  0 fontsize 3 div rmoveto
} def

% Compare the top two elements on the stack and leave only the
% larger one.
/maxval {2 copy gt {pop} {exch pop} ifelse} def

% Tokenize a string.  Do not use the usual PostScript token because
% parentheses will not be interpreted correctly because of rescanning
% of the string.
/vg&token {/vg&string exch def /vg&index -1 def /vg&level 0 def
0 2 vg&string length 2 sub {
  dup dup 1 add exch vg&string exch get 8 bitshift vg&string 3 -1 roll get or
  dup 16#f0fe eq {pop 1}{16#f0ff eq {-1}{0} ifelse} ifelse
  /vg&level exch vg&level add def
  vg&level 0 eq {/vg&index exch def exit} if pop
} for
vg&index 0 ge {
  vg&string vg&index 2 add dup vg&string length exch sub getinterval
  vg&index 2 gt {vg&string 2 vg&index 2 sub getinterval}{()} ifelse
  true}
{false} ifelse
} bind def

% Recursively show an unicode string.
% <string> recshow --
/recshow {
  popfirst
  {
    % Test to see if this is a string attribute.
    vg&fbyte 16#f0 and 16#e0 eq
    {
      q

      % Font style.
      currentfont dup /FontStyleBits known {/FontStyleBits get}{pop 0} ifelse
      vg&cbyte or vg&fontstyles exch get fontsize exch exec

      vg&token pop recshow currentpoint Q m recshow
    }
    {
      vg&fbyte 16#F8 and 16#F0 eq {

        % Superscript and/or subscript.
        vg&cbyte 16#00 eq {
          vg&token pop exch vg&token pop 3 -1 roll
          q raise recshow unraise currentpoint pop Q exch
          q lower recshow unlower currentpoint pop Q
          maxval currentpoint exch pop m recshow } if

        % Strikeout.
        vg&cbyte 16#01 eq {
          vg&token pop currentpoint 3 -1 roll recshow
          q 0 J vg&underline vg&uthick w
          currentpoint 4 -2 roll fontsize 3 div add moveto
          fontsize 3 div add lineto internalstroke Q
          recshow} if

        % Underline.
        vg&cbyte 16#02 eq {
          vg&token pop currentpoint 3 -1 roll recshow
          q 0 J vg&underline vg&uthick w
          currentpoint 4 -2 roll vg&uoffset add moveto
          vg&uoffset add lineto internalstroke Q
          recshow} if

        % Dashed underline.
        vg&cbyte 16#03 eq {
          vg&token pop currentpoint 3 -1 roll recshow
          q 0 J [ vg&uthick 5 mul vg&uthick 2 mul] 0 d
          vg&underline vg&uthick w
          currentpoint 4 -2 roll vg&uoffset add moveto
          vg&uoffset add lineto internalstroke Q
          recshow} if

        % Dotted underline.
        vg&cbyte 16#04 eq {
          vg&token pop currentpoint 3 -1 roll recshow
          q 1 J [ 0 vg&uthick 3 mul] 0 d
          vg&underline vg&uthick w
          currentpoint 4 -2 roll vg&uoffset add moveto
          vg&uoffset add lineto internalstroke Q
          recshow} if

        % Thick underline.
        vg&cbyte 16#05 eq {
          vg&token pop currentpoint 3 -1 roll recshow
          q 0 J vg&underline vg&uthick 2 mul w
          currentpoint 4 -2 roll vg&uoffset vg&uthick 2 div sub add moveto
          vg&uoffset vg&uthick 2 div sub add lineto internalstroke Q
          recshow} if

        % Gray thick underline.
        vg&cbyte 16#06 eq {
          vg&token pop currentpoint 3 -1 roll recshow
          q 0 J vg&underline vg&uthick 2 mul w 0.5 setgray
          currentpoint 4 -2 roll vg&uoffset vg&uthick 2 div sub add moveto
          vg&uoffset vg&uthick 2 div sub add lineto internalstroke Q
          recshow} if

        % Overbar.
        vg&cbyte 16#07 eq {
          vg&token pop dup stringsize relative 4 1 roll pop pop exch
          3 -1 roll recshow
          q 0 J vg&underline vg&uthick w
          vg&uoffset neg add dup currentpoint pop exch m l internalstroke Q
          recshow} if
      }
      {
        vg&fbyte vg&cbyte unicharshow recshow
      } ifelse
    } ifelse
  } if
} def

% Get the underline position and thickness from the current font.
/vg&underline {

currentfont dup /FontType get 0 eq {/FDepVector get 0 get} if
dup dup /FontInfo known {
  /FontInfo get dup
  dup /UnderlinePosition known {
    /UnderlinePosition get /vg&uoffset exch def
  }
  {
    pop /vg&uoffset 0 def
  } ifelse
  dup /UnderlineThickness known {
    /UnderlineThickness get /vg&uthick exch def
  }
  {
    pop /vg&uthick 0 def
  } ifelse
}
{
  pop /vg&uoffset 0 def /vg&uthick 0 def
} ifelse
/FontMatrix get
currentfont dup /FontType get 0 eq
{/FontMatrix get matrix concatmatrix}{pop} ifelse
dup 0 vg&uoffset 3 -1 roll transform /vg&uoffset exch def pop
0 vg&uthick 3 -1 roll transform /vg&uthick exch def pop
} def

% Make a frame with the coordinates on the stack.
% <llx> <lly> <urx> <ury> frame --
/frame {4 copy m 3 1 roll exch l 4 -2 roll l l h} def

% Resets the accumulated bounding box to a degenerate box at the
% current point.
% -- resetbbox --
/resetbbox {
  currentpoint 2 copy
  /bbury exch def
  /bburx exch def
  /bblly exch def
  /bbllx exch def
} def

% Update the accumulated bounding box.
% <llx'> <lly'> <urx'> <ury'> updatebbox --
/updatebbox {
  dup bbury gt {/bbury exch def} {pop} ifelse
  dup bburx gt {/bburx exch def} {pop} ifelse
  dup bblly lt {/bblly exch def} {pop} ifelse
  dup bbllx lt {/bbllx exch def} {pop} ifelse
} def

% Set the bounding box to the values on the stack.
% <llx'> <lly'> <urx'> <ury'> updatebbox --
/restorebbox {
  /bbury exch def /bburx exch def /bblly exch def /bbllx exch def
} def

% Push the accumulated bounding box onto the stack.
% -- pushbbox <llx> <lly> <urx> <ury>
/pushbbox {bbllx bblly bburx bbury} def

% Make the relative bounding box relative to the currentpoint.
% <llx'> <lly'> <urx'> <ury'> inflate <llx> <lly> <urx> <ury>
/inflate {
  2 {fontsize 0.2 mul add 4 1 roll} repeat
  2 {fontsize 0.2 mul sub 4 1 roll} repeat
} def

% Make the relative bounding box relative to the currentpoint.
% <llx'> <lly'> <urx'> <ury'> relative <llx> <lly> <urx> <ury>
/relative {
  currentpoint 3 -1 roll add 3 1 roll add exch 4 2 roll
  currentpoint 3 -1 roll add 3 1 roll add exch 4 2 roll
} def

% Returns the size of a string appropriate for recshow.
% <string> stringsize <llx> <lly> <urx> <ury>
/stringsize {
  pushbbox /internalshow load /internalstroke load 7 -1 roll
  q
  nulldevice 0 0 m
  nullinternalshow nullinternalstroke
  resetbbox
  recshow
  /internalstroke exch def /internalshow exch def
  pushbbox 8 -4 roll restorebbox
  Q
} def

% Calculate values for string positioning.
/calcval {4 copy
  3 -1 roll sub /widy exch def sub neg /widx exch def
  pop pop /dy exch def /dx exch def} def

% Utilities to position a string.
% First letter (U=upper, C=center, B=baseline, L=lower)
% Second letter (L=left, C=center, R=right)
/align [
{calcval dx neg widy dy add neg rmoveto} % UL
{calcval dx neg widy 2 div dy add neg rmoveto} % CL
{calcval dx neg 0 rmoveto} % BL
{calcval dx neg dy neg rmoveto} % LL
{calcval widx dx add neg widy dy add neg rmoveto} % UR
{calcval widx dx add neg widy 2 div dy add neg rmoveto} % CR
{calcval widx dx add neg 0 rmoveto} % BR
{calcval widx dx add neg dy neg rmoveto} % LR
{calcval widx 2 div dx add neg widy dy add neg rmoveto} % UC
{calcval widx 2 div dx add neg widy 2 div dy add neg rmoveto} % CC
{calcval widx 2 div dx add neg 0 rmoveto} % BC
{calcval widx 2 div dx add neg dy neg rmoveto} % LC
] def

/vg&str {m q 1 -1 scale dup stringsize 4 copy align 11 -1 roll get exec
         q inflate relative frame exch exec Q recshow Q} def

end /procDict exch def
%%EndProlog

%%BeginSetup
save
procDict begin
printColorMap begin
451 262 setpagesize
0 0 0 0 setmargins
0 0 setorigin
451 262 setsize
naturalsize
portrait
imagescale
cliptobounds
setbasematrix
/Helvetica 10 sf
defaultGraphicsState
%%EndSetup

0.00000 0.00000 0.00000 RG
[ 1.00000 0.00000 0.00000 1.00000 0.00000 0.00000 ] defaultmatrix matrix concatmatrix setmatrix
cliprestore
1.00000 1.00000 1.00000 RG
newpath
0.00000 0.00000 m
451.000 0.00000 l
451.000 262.000 l
0.00000 262.000 l
0.00000 0.00000 l
h
f
0.00000 0.00000 0.00000 RG
0.00000 0.00000 0.00000 RG
[ 1.00000 0.00000 0.00000 1.00000 0.00000 0.00000 ] defaultmatrix matrix concatmatrix setmatrix
cliprestore
1.00000 1.00000 1.00000 RG
newpath
0.00000 0.00000 m
451.000 0.00000 l
451.000 262.000 l
0.00000 262.000 l
0.00000 0.00000 l
h
f
0.00000 0.00000 0.00000 RG
0 0 451 262 rc
q
[ 1.00000 0.00000 0.00000 1.00000 0.00000 0.00000 ] concat
[ 1.00000 0.00000 0.00000 1.00000 -168.000 -85.0000 ] concat
1.00000 1.00000 1.00000 RG
newpath
168.000 85.0000 m
619.000 85.0000 l
619.000 347.000 l
168.000 347.000 l
168.000 85.0000 l
h
f
0.00000 0.00000 0.00000 RG
[ 1.00000 0.00000 0.00000 1.00000 -168.000 -85.0000 ] defaultmatrix matrix concatmatrix setmatrix
[ 1.00000 0.00000 0.00000 1.00000 -168.000 -85.0000 ] defaultmatrix matrix concatmatrix setmatrix
[ 1.00000 0.00000 0.00000 1.00000 0.00000 0.00000 ] defaultmatrix matrix concatmatrix setmatrix
[ 1.00000 0.00000 0.00000 1.00000 -168.000 -85.0000 ] defaultmatrix matrix concatmatrix setmatrix
1.00000 1.00000 1.00000 RG
newpath
168.296 85.4400 m
198.296 85.4400 l
198.296 115.440 l
168.296 115.440 l
168.296 85.4400 l
h
f
0 J
1.45000 M
0.00000 0.00000 0.00000 RG
newpath
168.296 85.4400 m
198.296 85.4400 l
198.296 115.440 l
168.296 115.440 l
168.296 85.4400 l
h
S
2 J
10.0000 M
0 J
1.45000 M
newpath
184.354 99.8755 m
184.916 100.001 185.356 100.253 185.674 100.633  c
185.992 101.014 186.150 101.485 186.150 102.047  c
186.150 102.912 185.854 103.581 185.260 104.055  c
184.666 104.529 183.822 104.766 182.729 104.766  c
182.364 104.766 181.986 104.730 181.596 104.657  c
181.205 104.584 180.807 104.475 180.400 104.329  c
180.400 103.188 l
180.723 103.376 181.080 103.519 181.471 103.618  c
181.861 103.717 182.270 103.766 182.697 103.766  c
183.437 103.766 184.002 103.620 184.393 103.329  c
184.783 103.037 184.979 102.610 184.979 102.047  c
184.979 101.537 184.796 101.136 184.432 100.844  c
184.067 100.553 183.567 100.407 182.932 100.407  c
181.900 100.407 l
181.900 99.4380 l
182.979 99.4380 l
183.552 99.4380 183.994 99.3209 184.307 99.0865  c
184.619 98.8521 184.775 98.5162 184.775 98.0787  c
184.775 97.6308 184.617 97.2870 184.299 97.0474  c
183.981 96.8078 183.525 96.6880 182.932 96.6880  c
182.598 96.6880 182.247 96.7219 181.877 96.7896  c
181.507 96.8573 181.098 96.9641 180.650 97.1099  c
180.650 96.0630 l
181.109 95.9380 181.533 95.8443 181.924 95.7818  c
182.315 95.7193 182.682 95.6880 183.025 95.6880  c
183.932 95.6880 184.645 95.8912 185.166 96.2974  c
185.687 96.7037 185.947 97.2558 185.947 97.9537  c
185.947 98.4433 185.809 98.8547 185.533 99.1880  c
185.257 99.5214 184.864 99.7505 184.354 99.8755  c
h
f
2 J
10.0000 M
1.00000 1.00000 1.00000 RG
newpath
228.296 85.4400 m
258.296 85.4400 l
258.296 115.440 l
228.296 115.440 l
228.296 85.4400 l
h
f
0 J
1.45000 M
0.00000 0.00000 0.00000 RG
newpath
228.296 85.4400 m
258.296 85.4400 l
258.296 115.440 l
228.296 115.440 l
228.296 85.4400 l
h
S
2 J
10.0000 M
0 J
1.45000 M
newpath
240.775 95.8443 m
245.416 95.8443 l
245.416 96.8443 l
241.854 96.8443 l
241.854 98.9849 l
242.031 98.9224 242.205 98.8782 242.377 98.8521  c
242.549 98.8261 242.718 98.8130 242.885 98.8130  c
243.864 98.8130 244.640 99.0813 245.213 99.6177  c
245.786 100.154 246.072 100.876 246.072 101.782  c
246.072 102.730 245.778 103.464 245.190 103.985  c
244.601 104.506 243.775 104.766 242.713 104.766  c
242.338 104.766 241.960 104.735 241.580 104.672  c
241.200 104.610 240.807 104.516 240.400 104.391  c
240.400 103.204 l
240.755 103.391 241.119 103.532 241.494 103.626  c
241.869 103.719 242.265 103.766 242.682 103.766  c
243.359 103.766 243.895 103.589 244.291 103.235  c
244.687 102.881 244.885 102.396 244.885 101.782  c
244.885 101.178 244.687 100.698 244.291 100.344  c
243.895 99.9901 243.359 99.8130 242.682 99.8130  c
242.369 99.8130 242.054 99.8469 241.736 99.9146  c
241.419 99.9823 241.098 100.089 240.775 100.235  c
240.775 95.8443 l
h
f
2 J
10.0000 M
1.00000 1.00000 1.00000 RG
newpath
288.296 85.4400 m
318.296 85.4400 l
318.296 115.440 l
288.296 115.440 l
288.296 85.4400 l
h
f
0 J
1.45000 M
0.00000 0.00000 0.00000 RG
newpath
288.296 85.4400 m
318.296 85.4400 l
318.296 115.440 l
288.296 115.440 l
288.296 85.4400 l
h
S
2 J
10.0000 M
0 J
1.45000 M
newpath
303.291 100.438 m
302.729 100.438 302.286 100.589 301.963 100.891  c
301.640 101.193 301.479 101.605 301.479 102.126  c
301.479 102.657 301.640 103.073 301.963 103.376  c
302.286 103.678 302.729 103.829 303.291 103.829  c
303.854 103.829 304.296 103.678 304.619 103.376  c
304.942 103.073 305.104 102.657 305.104 102.126  c
305.104 101.605 304.945 101.193 304.627 100.891  c
304.309 100.589 303.864 100.438 303.291 100.438  c
h
302.104 99.9380 m
301.604 99.8130 301.210 99.5761 300.924 99.2271  c
300.637 98.8782 300.494 98.4537 300.494 97.9537  c
300.494 97.2558 300.744 96.7037 301.244 96.2974  c
301.744 95.8912 302.427 95.6880 303.291 95.6880  c
304.166 95.6880 304.851 95.8912 305.346 96.2974  c
305.841 96.7037 306.088 97.2558 306.088 97.9537  c
306.088 98.4537 305.947 98.8782 305.666 99.2271  c
305.385 99.5761 304.989 99.8130 304.479 99.9380  c
305.052 100.073 305.497 100.334 305.815 100.719  c
306.132 101.105 306.291 101.573 306.291 102.126  c
306.291 102.980 306.033 103.633 305.518 104.086  c
305.002 104.540 304.260 104.766 303.291 104.766  c
302.333 104.766 301.593 104.540 301.072 104.086  c
300.552 103.633 300.291 102.980 300.291 102.126  c
300.291 101.573 300.453 101.105 300.775 100.719  c
301.098 100.334 301.541 100.073 302.104 99.9380  c
h
301.682 98.0630 m
301.682 98.5214 301.822 98.8755 302.104 99.1255  c
302.385 99.3755 302.781 99.5005 303.291 99.5005  c
303.802 99.5005 304.200 99.3755 304.486 99.1255  c
304.773 98.8755 304.916 98.5214 304.916 98.0630  c
304.916 97.6151 304.773 97.2636 304.486 97.0084  c
304.200 96.7532 303.802 96.6255 303.291 96.6255  c
302.781 96.6255 302.385 96.7532 302.104 97.0084  c
301.822 97.2636 301.682 97.6151 301.682 98.0630  c
h
f
2 J
10.0000 M
1.00000 1.00000 1.00000 RG
newpath
348.296 85.4400 m
378.296 85.4400 l
378.296 115.440 l
348.296 115.440 l
348.296 85.4400 l
h
f
0 J
1.45000 M
0.00000 0.00000 0.00000 RG
newpath
348.296 85.4400 m
378.296 85.4400 l
378.296 115.440 l
348.296 115.440 l
348.296 85.4400 l
h
S
2 J
10.0000 M
0 J
1.45000 M
newpath
360.791 104.407 m
360.791 103.329 l
361.093 103.475 361.395 103.584 361.697 103.657  c
361.999 103.730 362.302 103.766 362.604 103.766  c
363.385 103.766 363.981 103.503 364.393 102.977  c
364.804 102.451 365.036 101.652 365.088 100.579  c
364.869 100.922 364.585 101.183 364.236 101.360  c
363.887 101.537 363.499 101.626 363.072 101.626  c
362.197 101.626 361.505 101.363 360.994 100.836  c
360.484 100.310 360.229 99.5839 360.229 98.6568  c
360.229 97.7610 360.494 97.0422 361.025 96.5005  c
361.557 95.9589 362.265 95.6880 363.150 95.6880  c
364.161 95.6880 364.934 96.0761 365.471 96.8521  c
366.007 97.6282 366.275 98.7558 366.275 100.235  c
366.275 101.610 365.947 102.709 365.291 103.532  c
364.635 104.355 363.755 104.766 362.650 104.766  c
362.348 104.766 362.046 104.738 361.744 104.680  c
361.442 104.623 361.124 104.532 360.791 104.407  c
h
363.150 100.704 m
363.682 100.704 364.104 100.521 364.416 100.157  c
364.729 99.7922 364.885 99.2922 364.885 98.6568  c
364.885 98.0318 364.729 97.5370 364.416 97.1724  c
364.104 96.8078 363.682 96.6255 363.150 96.6255  c
362.619 96.6255 362.200 96.8078 361.893 97.1724  c
361.585 97.5370 361.432 98.0318 361.432 98.6568  c
361.432 99.2922 361.585 99.7922 361.893 100.157  c
362.200 100.521 362.619 100.704 363.150 100.704  c
h
f
2 J
10.0000 M
1.00000 1.00000 1.00000 RG
newpath
408.296 85.4400 m
438.296 85.4400 l
438.296 115.440 l
408.296 115.440 l
408.296 85.4400 l
h
f
0 J
1.45000 M
0.00000 0.00000 0.00000 RG
newpath
408.296 85.4400 m
438.296 85.4400 l
438.296 115.440 l
408.296 115.440 l
408.296 85.4400 l
h
S
2 J
10.0000 M
0 J
1.45000 M
newpath
420.463 95.8443 m
426.088 95.8443 l
426.088 96.3443 l
422.916 104.594 l
421.682 104.594 l
424.666 96.8443 l
420.463 96.8443 l
420.463 95.8443 l
h
f
2 J
10.0000 M
1.00000 1.00000 1.00000 RG
newpath
468.296 85.4400 m
498.296 85.4400 l
498.296 115.440 l
468.296 115.440 l
468.296 85.4400 l
h
f
0 J
1.45000 M
0.00000 0.00000 0.00000 RG
newpath
468.296 85.4400 m
498.296 85.4400 l
498.296 115.440 l
468.296 115.440 l
468.296 85.4400 l
h
S
2 J
10.0000 M
0 J
1.45000 M
newpath
484.010 96.8755 m
481.025 101.547 l
484.010 101.547 l
484.010 96.8755 l
h
483.697 95.8443 m
485.197 95.8443 l
485.197 101.547 l
486.447 101.547 l
486.447 102.532 l
485.197 102.532 l
485.197 104.594 l
484.010 104.594 l
484.010 102.532 l
480.072 102.532 l
480.072 101.391 l
483.697 95.8443 l
h
f
2 J
10.0000 M
1.00000 1.00000 1.00000 RG
newpath
528.296 85.4400 m
558.296 85.4400 l
558.296 115.440 l
528.296 115.440 l
528.296 85.4400 l
h
f
0 J
1.45000 M
0.00000 0.00000 0.00000 RG
newpath
528.296 85.4400 m
558.296 85.4400 l
558.296 115.440 l
528.296 115.440 l
528.296 85.4400 l
h
S
2 J
10.0000 M
0 J
1.45000 M
newpath
541.776 103.594 m
545.916 103.594 l
545.916 104.594 l
540.354 104.594 l
540.354 103.594 l
540.802 103.136 541.414 102.514 542.190 101.727  c
542.966 100.941 543.453 100.433 543.651 100.204  c
544.036 99.7870 544.304 99.4302 544.455 99.1334  c
544.606 98.8365 544.682 98.5474 544.682 98.2662  c
544.682 97.7974 544.518 97.4172 544.190 97.1255  c
543.861 96.8339 543.437 96.6880 542.916 96.6880  c
542.541 96.6880 542.148 96.7505 541.736 96.8755  c
541.325 97.0005 540.885 97.1985 540.416 97.4693  c
540.416 96.2662 l
540.895 96.0787 541.341 95.9354 541.752 95.8365  c
542.164 95.7375 542.541 95.6880 542.885 95.6880  c
543.791 95.6880 544.515 95.9146 545.057 96.3677  c
545.598 96.8209 545.869 97.4276 545.869 98.1880  c
545.869 98.5422 545.802 98.8808 545.666 99.2037  c
545.531 99.5266 545.286 99.9068 544.932 100.344  c
544.828 100.459 544.515 100.787 543.994 101.329  c
543.473 101.870 542.734 102.626 541.776 103.594  c
h
f
2 J
10.0000 M
1.00000 1.00000 1.00000 RG
newpath
588.296 85.4400 m
618.296 85.4400 l
618.296 115.440 l
588.296 115.440 l
588.296 85.4400 l
h
f
0 J
1.45000 M
0.00000 0.00000 0.00000 RG
newpath
588.296 85.4400 m
618.296 85.4400 l
618.296 115.440 l
588.296 115.440 l
588.296 85.4400 l
h
S
2 J
10.0000 M
0 J
1.45000 M
newpath
600.963 103.594 m
602.901 103.594 l
602.901 96.9224 l
600.791 97.3443 l
600.791 96.2662 l
602.885 95.8443 l
604.072 95.8443 l
604.072 103.594 l
606.010 103.594 l
606.010 104.594 l
600.963 104.594 l
600.963 103.594 l
h
f
2 J
10.0000 M
1.00000 1.00000 1.00000 RG
newpath
168.296 256.428 m
198.296 256.428 l
198.296 286.428 l
168.296 286.428 l
168.296 256.428 l
h
f
0 J
1.45000 M
0.00000 0.00000 0.00000 RG
newpath
168.296 256.428 m
198.296 256.428 l
198.296 286.428 l
168.296 286.428 l
168.296 256.428 l
h
S
2 J
10.0000 M
0 J
1.45000 M
newpath
181.775 274.582 m
185.916 274.582 l
185.916 275.582 l
180.354 275.582 l
180.354 274.582 l
180.802 274.124 181.414 273.502 182.190 272.715  c
182.966 271.929 183.453 271.421 183.650 271.192  c
184.036 270.775 184.304 270.418 184.455 270.121  c
184.606 269.824 184.682 269.535 184.682 269.254  c
184.682 268.785 184.518 268.405 184.190 268.114  c
183.861 267.822 183.437 267.676 182.916 267.676  c
182.541 267.676 182.148 267.739 181.736 267.864  c
181.325 267.989 180.885 268.186 180.416 268.457  c
180.416 267.254 l
180.895 267.067 181.341 266.923 181.752 266.824  c
182.164 266.726 182.541 266.676 182.885 266.676  c
183.791 266.676 184.515 266.903 185.057 267.356  c
185.598 267.809 185.869 268.416 185.869 269.176  c
185.869 269.530 185.802 269.869 185.666 270.192  c
185.531 270.515 185.286 270.895 184.932 271.332  c
184.828 271.447 184.515 271.775 183.994 272.317  c
183.473 272.858 182.734 273.614 181.775 274.582  c
h
f
2 J
10.0000 M
1.00000 1.00000 1.00000 RG
newpath
228.296 256.428 m
258.296 256.428 l
258.296 286.428 l
228.296 286.428 l
228.296 256.428 l
h
f
0 J
1.45000 M
0.00000 0.00000 0.00000 RG
newpath
228.296 256.428 m
258.296 256.428 l
258.296 286.428 l
228.296 286.428 l
228.296 256.428 l
h
S
2 J
10.0000 M
0 J
1.45000 M
newpath
240.963 274.582 m
242.900 274.582 l
242.900 267.910 l
240.791 268.332 l
240.791 267.254 l
242.885 266.832 l
244.072 266.832 l
244.072 274.582 l
246.010 274.582 l
246.010 275.582 l
240.963 275.582 l
240.963 274.582 l
h
f
2 J
10.0000 M
1.00000 1.00000 1.00000 RG
newpath
288.296 256.428 m
318.296 256.428 l
318.296 286.428 l
288.296 286.428 l
288.296 256.428 l
h
f
0 J
1.45000 M
0.00000 0.00000 0.00000 RG
newpath
288.296 256.428 m
318.296 256.428 l
318.296 286.428 l
288.296 286.428 l
288.296 256.428 l
h
S
2 J
10.0000 M
0 J
1.45000 M
newpath
304.354 270.864 m
304.916 270.989 305.356 271.241 305.674 271.621  c
305.992 272.002 306.150 272.473 306.150 273.035  c
306.150 273.900 305.854 274.569 305.260 275.043  c
304.666 275.517 303.822 275.754 302.729 275.754  c
302.364 275.754 301.986 275.718 301.596 275.645  c
301.205 275.572 300.807 275.463 300.400 275.317  c
300.400 274.176 l
300.723 274.364 301.080 274.507 301.471 274.606  c
301.861 274.705 302.270 274.754 302.697 274.754  c
303.437 274.754 304.002 274.608 304.393 274.317  c
304.783 274.025 304.979 273.598 304.979 273.035  c
304.979 272.525 304.796 272.124 304.432 271.832  c
304.067 271.541 303.567 271.395 302.932 271.395  c
301.900 271.395 l
301.900 270.426 l
302.979 270.426 l
303.552 270.426 303.994 270.309 304.307 270.074  c
304.619 269.840 304.775 269.504 304.775 269.067  c
304.775 268.619 304.617 268.275 304.299 268.035  c
303.981 267.796 303.525 267.676 302.932 267.676  c
302.598 267.676 302.247 267.710 301.877 267.778  c
301.507 267.845 301.098 267.952 300.650 268.098  c
300.650 267.051 l
301.109 266.926 301.533 266.832 301.924 266.770  c
302.315 266.707 302.682 266.676 303.025 266.676  c
303.932 266.676 304.645 266.879 305.166 267.285  c
305.687 267.692 305.947 268.244 305.947 268.942  c
305.947 269.431 305.809 269.843 305.533 270.176  c
305.257 270.509 304.864 270.739 304.354 270.864  c
h
f
2 J
10.0000 M
1.00000 1.00000 1.00000 RG
newpath
348.296 256.428 m
378.296 256.428 l
378.296 286.428 l
348.296 286.428 l
348.296 256.428 l
h
f
0 J
1.45000 M
0.00000 0.00000 0.00000 RG
newpath
348.296 256.428 m
378.296 256.428 l
378.296 286.428 l
348.296 286.428 l
348.296 256.428 l
h
S
2 J
10.0000 M
0 J
1.45000 M
newpath
364.010 267.864 m
361.025 272.535 l
364.010 272.535 l
364.010 267.864 l
h
363.697 266.832 m
365.197 266.832 l
365.197 272.535 l
366.447 272.535 l
366.447 273.520 l
365.197 273.520 l
365.197 275.582 l
364.010 275.582 l
364.010 273.520 l
360.072 273.520 l
360.072 272.379 l
363.697 266.832 l
h
f
2 J
10.0000 M
1.00000 1.00000 1.00000 RG
newpath
408.296 256.428 m
438.296 256.428 l
438.296 286.428 l
408.296 286.428 l
408.296 256.428 l
h
f
0 J
1.45000 M
0.00000 0.00000 0.00000 RG
newpath
408.296 256.428 m
438.296 256.428 l
438.296 286.428 l
408.296 286.428 l
408.296 256.428 l
h
S
2 J
10.0000 M
0 J
1.45000 M
newpath
420.463 266.832 m
426.088 266.832 l
426.088 267.332 l
422.916 275.582 l
421.682 275.582 l
424.666 267.832 l
420.463 267.832 l
420.463 266.832 l
h
f
2 J
10.0000 M
1.00000 1.00000 1.00000 RG
newpath
468.296 256.428 m
498.296 256.428 l
498.296 286.428 l
468.296 286.428 l
468.296 256.428 l
h
f
0 J
1.45000 M
0.00000 0.00000 0.00000 RG
newpath
468.296 256.428 m
498.296 256.428 l
498.296 286.428 l
468.296 286.428 l
468.296 256.428 l
h
S
2 J
10.0000 M
0 J
1.45000 M
newpath
480.775 266.832 m
485.416 266.832 l
485.416 267.832 l
481.854 267.832 l
481.854 269.973 l
482.031 269.910 482.205 269.866 482.377 269.840  c
482.549 269.814 482.718 269.801 482.885 269.801  c
483.864 269.801 484.640 270.069 485.213 270.606  c
485.786 271.142 486.072 271.864 486.072 272.770  c
486.072 273.718 485.778 274.452 485.190 274.973  c
484.601 275.494 483.775 275.754 482.713 275.754  c
482.338 275.754 481.960 275.723 481.580 275.660  c
481.200 275.598 480.807 275.504 480.400 275.379  c
480.400 274.192 l
480.755 274.379 481.119 274.520 481.494 274.614  c
481.869 274.707 482.265 274.754 482.682 274.754  c
483.359 274.754 483.895 274.577 484.291 274.223  c
484.687 273.869 484.885 273.384 484.885 272.770  c
484.885 272.166 484.687 271.686 484.291 271.332  c
483.895 270.978 483.359 270.801 482.682 270.801  c
482.369 270.801 482.054 270.835 481.736 270.903  c
481.419 270.970 481.098 271.077 480.775 271.223  c
480.775 266.832 l
h
f
2 J
10.0000 M
1.00000 1.00000 1.00000 RG
newpath
528.296 256.428 m
558.296 256.428 l
558.296 286.428 l
528.296 286.428 l
528.296 256.428 l
h
f
0 J
1.45000 M
0.00000 0.00000 0.00000 RG
newpath
528.296 256.428 m
558.296 256.428 l
558.296 286.428 l
528.296 286.428 l
528.296 256.428 l
h
S
2 J
10.0000 M
0 J
1.45000 M
newpath
543.291 271.426 m
542.729 271.426 542.286 271.577 541.963 271.879  c
541.640 272.181 541.479 272.593 541.479 273.114  c
541.479 273.645 541.640 274.061 541.963 274.364  c
542.286 274.666 542.729 274.817 543.291 274.817  c
543.854 274.817 544.296 274.666 544.619 274.364  c
544.942 274.061 545.104 273.645 545.104 273.114  c
545.104 272.593 544.945 272.181 544.627 271.879  c
544.309 271.577 543.864 271.426 543.291 271.426  c
h
542.104 270.926 m
541.604 270.801 541.210 270.564 540.924 270.215  c
540.637 269.866 540.494 269.442 540.494 268.942  c
540.494 268.244 540.744 267.692 541.244 267.285  c
541.744 266.879 542.427 266.676 543.291 266.676  c
544.166 266.676 544.851 266.879 545.346 267.285  c
545.841 267.692 546.088 268.244 546.088 268.942  c
546.088 269.442 545.947 269.866 545.666 270.215  c
545.385 270.564 544.989 270.801 544.479 270.926  c
545.052 271.061 545.497 271.322 545.815 271.707  c
546.132 272.093 546.291 272.561 546.291 273.114  c
546.291 273.968 546.033 274.621 545.518 275.074  c
545.002 275.528 544.260 275.754 543.291 275.754  c
542.333 275.754 541.593 275.528 541.072 275.074  c
540.552 274.621 540.291 273.968 540.291 273.114  c
540.291 272.561 540.453 272.093 540.776 271.707  c
541.098 271.322 541.541 271.061 542.104 270.926  c
h
541.682 269.051 m
541.682 269.509 541.822 269.864 542.104 270.114  c
542.385 270.364 542.781 270.489 543.291 270.489  c
543.802 270.489 544.200 270.364 544.486 270.114  c
544.773 269.864 544.916 269.509 544.916 269.051  c
544.916 268.603 544.773 268.252 544.486 267.996  c
544.200 267.741 543.802 267.614 543.291 267.614  c
542.781 267.614 542.385 267.741 542.104 267.996  c
541.822 268.252 541.682 268.603 541.682 269.051  c
h
f
2 J
10.0000 M
1.00000 1.00000 1.00000 RG
newpath
588.296 256.428 m
618.296 256.428 l
618.296 286.428 l
588.296 286.428 l
588.296 256.428 l
h
f
0 J
1.45000 M
0.00000 0.00000 0.00000 RG
newpath
588.296 256.428 m
618.296 256.428 l
618.296 286.428 l
588.296 286.428 l
588.296 256.428 l
h
S
2 J
10.0000 M
0 J
1.45000 M
newpath
600.791 275.395 m
600.791 274.317 l
601.093 274.463 601.395 274.572 601.697 274.645  c
601.999 274.718 602.302 274.754 602.604 274.754  c
603.385 274.754 603.981 274.491 604.393 273.965  c
604.804 273.439 605.036 272.640 605.088 271.567  c
604.869 271.910 604.585 272.171 604.236 272.348  c
603.887 272.525 603.499 272.614 603.072 272.614  c
602.197 272.614 601.505 272.351 600.994 271.824  c
600.484 271.298 600.229 270.572 600.229 269.645  c
600.229 268.749 600.494 268.030 601.026 267.489  c
601.557 266.947 602.265 266.676 603.151 266.676  c
604.161 266.676 604.934 267.064 605.471 267.840  c
606.007 268.616 606.276 269.744 606.276 271.223  c
606.276 272.598 605.947 273.697 605.291 274.520  c
604.635 275.343 603.755 275.754 602.651 275.754  c
602.348 275.754 602.046 275.726 601.744 275.668  c
601.442 275.611 601.124 275.520 600.791 275.395  c
h
603.151 271.692 m
603.682 271.692 604.104 271.509 604.416 271.145  c
604.729 270.780 604.885 270.280 604.885 269.645  c
604.885 269.020 604.729 268.525 604.416 268.160  c
604.104 267.796 603.682 267.614 603.151 267.614  c
602.619 267.614 602.200 267.796 601.893 268.160  c
601.585 268.525 601.432 269.020 601.432 269.645  c
601.432 270.280 601.585 270.780 601.893 271.145  c
602.200 271.509 602.619 271.692 603.151 271.692  c
h
f
2 J
10.0000 M
1.00000 1.00000 1.00000 RG
newpath
168.296 316.428 m
198.296 316.428 l
198.296 346.428 l
168.296 346.428 l
168.296 316.428 l
h
f
0 J
1.45000 M
0.00000 0.00000 0.00000 RG
newpath
168.296 316.428 m
198.296 316.428 l
198.296 346.428 l
168.296 346.428 l
168.296 316.428 l
h
S
2 J
10.0000 M
0 J
1.45000 M
newpath
180.963 334.582 m
182.900 334.582 l
182.900 327.910 l
180.791 328.332 l
180.791 327.254 l
182.885 326.832 l
184.072 326.832 l
184.072 334.582 l
186.010 334.582 l
186.010 335.582 l
180.963 335.582 l
180.963 334.582 l
h
f
2 J
10.0000 M
1.00000 1.00000 1.00000 RG
newpath
228.296 316.428 m
258.296 316.428 l
258.296 346.428 l
228.296 346.428 l
228.296 316.428 l
h
f
0 J
1.45000 M
0.00000 0.00000 0.00000 RG
newpath
228.296 316.428 m
258.296 316.428 l
258.296 346.428 l
228.296 346.428 l
228.296 316.428 l
h
S
2 J
10.0000 M
0 J
1.45000 M
newpath
241.775 334.582 m
245.916 334.582 l
245.916 335.582 l
240.354 335.582 l
240.354 334.582 l
240.802 334.124 241.414 333.502 242.190 332.715  c
242.966 331.929 243.453 331.421 243.650 331.192  c
244.036 330.775 244.304 330.418 244.455 330.121  c
244.606 329.824 244.682 329.535 244.682 329.254  c
244.682 328.785 244.518 328.405 244.190 328.114  c
243.861 327.822 243.437 327.676 242.916 327.676  c
242.541 327.676 242.148 327.739 241.736 327.864  c
241.325 327.989 240.885 328.186 240.416 328.457  c
240.416 327.254 l
240.895 327.067 241.341 326.923 241.752 326.824  c
242.164 326.726 242.541 326.676 242.885 326.676  c
243.791 326.676 244.515 326.903 245.057 327.356  c
245.598 327.809 245.869 328.416 245.869 329.176  c
245.869 329.530 245.802 329.869 245.666 330.192  c
245.531 330.515 245.286 330.895 244.932 331.332  c
244.828 331.447 244.515 331.775 243.994 332.317  c
243.473 332.858 242.734 333.614 241.775 334.582  c
h
f
2 J
10.0000 M
1.00000 1.00000 1.00000 RG
newpath
288.296 316.428 m
318.296 316.428 l
318.296 346.428 l
288.296 346.428 l
288.296 316.428 l
h
f
0 J
1.45000 M
0.00000 0.00000 0.00000 RG
newpath
288.296 316.428 m
318.296 316.428 l
318.296 346.428 l
288.296 346.428 l
288.296 316.428 l
h
S
2 J
10.0000 M
0 J
1.45000 M
newpath
304.354 330.864 m
304.916 330.989 305.356 331.241 305.674 331.621  c
305.992 332.002 306.150 332.473 306.150 333.035  c
306.150 333.900 305.854 334.569 305.260 335.043  c
304.666 335.517 303.822 335.754 302.729 335.754  c
302.364 335.754 301.986 335.718 301.596 335.645  c
301.205 335.572 300.807 335.463 300.400 335.317  c
300.400 334.176 l
300.723 334.364 301.080 334.507 301.471 334.606  c
301.861 334.705 302.270 334.754 302.697 334.754  c
303.437 334.754 304.002 334.608 304.393 334.317  c
304.783 334.025 304.979 333.598 304.979 333.035  c
304.979 332.525 304.796 332.124 304.432 331.832  c
304.067 331.541 303.567 331.395 302.932 331.395  c
301.900 331.395 l
301.900 330.426 l
302.979 330.426 l
303.552 330.426 303.994 330.309 304.307 330.074  c
304.619 329.840 304.775 329.504 304.775 329.067  c
304.775 328.619 304.617 328.275 304.299 328.035  c
303.981 327.796 303.525 327.676 302.932 327.676  c
302.598 327.676 302.247 327.710 301.877 327.778  c
301.507 327.845 301.098 327.952 300.650 328.098  c
300.650 327.051 l
301.109 326.926 301.533 326.832 301.924 326.770  c
302.315 326.707 302.682 326.676 303.025 326.676  c
303.932 326.676 304.645 326.879 305.166 327.285  c
305.687 327.692 305.947 328.244 305.947 328.942  c
305.947 329.431 305.809 329.843 305.533 330.176  c
305.257 330.509 304.864 330.739 304.354 330.864  c
h
f
2 J
10.0000 M
1.00000 1.00000 1.00000 RG
newpath
348.296 316.428 m
378.296 316.428 l
378.296 346.428 l
348.296 346.428 l
348.296 316.428 l
h
f
0 J
1.45000 M
0.00000 0.00000 0.00000 RG
newpath
348.296 316.428 m
378.296 316.428 l
378.296 346.428 l
348.296 346.428 l
348.296 316.428 l
h
S
2 J
10.0000 M
0 J
1.45000 M
newpath
364.010 327.864 m
361.025 332.535 l
364.010 332.535 l
364.010 327.864 l
h
363.697 326.832 m
365.197 326.832 l
365.197 332.535 l
366.447 332.535 l
366.447 333.520 l
365.197 333.520 l
365.197 335.582 l
364.010 335.582 l
364.010 333.520 l
360.072 333.520 l
360.072 332.379 l
363.697 326.832 l
h
f
2 J
10.0000 M
1.00000 1.00000 1.00000 RG
newpath
408.296 316.428 m
438.296 316.428 l
438.296 346.428 l
408.296 346.428 l
408.296 316.428 l
h
f
0 J
1.45000 M
0.00000 0.00000 0.00000 RG
newpath
408.296 316.428 m
438.296 316.428 l
438.296 346.428 l
408.296 346.428 l
408.296 316.428 l
h
S
2 J
10.0000 M
0 J
1.45000 M
newpath
420.775 326.832 m
425.416 326.832 l
425.416 327.832 l
421.854 327.832 l
421.854 329.973 l
422.031 329.910 422.205 329.866 422.377 329.840  c
422.549 329.814 422.718 329.801 422.885 329.801  c
423.864 329.801 424.640 330.069 425.213 330.606  c
425.786 331.142 426.072 331.864 426.072 332.770  c
426.072 333.718 425.778 334.452 425.190 334.973  c
424.601 335.494 423.775 335.754 422.713 335.754  c
422.338 335.754 421.960 335.723 421.580 335.660  c
421.200 335.598 420.807 335.504 420.400 335.379  c
420.400 334.192 l
420.755 334.379 421.119 334.520 421.494 334.614  c
421.869 334.707 422.265 334.754 422.682 334.754  c
423.359 334.754 423.895 334.577 424.291 334.223  c
424.687 333.869 424.885 333.384 424.885 332.770  c
424.885 332.166 424.687 331.686 424.291 331.332  c
423.895 330.978 423.359 330.801 422.682 330.801  c
422.369 330.801 422.054 330.835 421.736 330.903  c
421.419 330.970 421.098 331.077 420.775 331.223  c
420.775 326.832 l
h
f
2 J
10.0000 M
1.00000 1.00000 1.00000 RG
newpath
468.296 316.428 m
498.296 316.428 l
498.296 346.428 l
468.296 346.428 l
468.296 316.428 l
h
f
0 J
1.45000 M
0.00000 0.00000 0.00000 RG
newpath
468.296 316.428 m
498.296 316.428 l
498.296 346.428 l
468.296 346.428 l
468.296 316.428 l
h
S
2 J
10.0000 M
0 J
1.45000 M
newpath
480.463 326.832 m
486.088 326.832 l
486.088 327.332 l
482.916 335.582 l
481.682 335.582 l
484.666 327.832 l
480.463 327.832 l
480.463 326.832 l
h
f
2 J
10.0000 M
1.00000 1.00000 1.00000 RG
newpath
528.296 316.428 m
558.296 316.428 l
558.296 346.428 l
528.296 346.428 l
528.296 316.428 l
h
f
0 J
1.45000 M
0.00000 0.00000 0.00000 RG
newpath
528.296 316.428 m
558.296 316.428 l
558.296 346.428 l
528.296 346.428 l
528.296 316.428 l
h
S
2 J
10.0000 M
0 J
1.45000 M
newpath
543.291 331.426 m
542.729 331.426 542.286 331.577 541.963 331.879  c
541.640 332.181 541.479 332.593 541.479 333.114  c
541.479 333.645 541.640 334.061 541.963 334.364  c
542.286 334.666 542.729 334.817 543.291 334.817  c
543.854 334.817 544.296 334.666 544.619 334.364  c
544.942 334.061 545.104 333.645 545.104 333.114  c
545.104 332.593 544.945 332.181 544.627 331.879  c
544.309 331.577 543.864 331.426 543.291 331.426  c
h
542.104 330.926 m
541.604 330.801 541.210 330.564 540.924 330.215  c
540.637 329.866 540.494 329.442 540.494 328.942  c
540.494 328.244 540.744 327.692 541.244 327.285  c
541.744 326.879 542.427 326.676 543.291 326.676  c
544.166 326.676 544.851 326.879 545.346 327.285  c
545.841 327.692 546.088 328.244 546.088 328.942  c
546.088 329.442 545.947 329.866 545.666 330.215  c
545.385 330.564 544.989 330.801 544.479 330.926  c
545.052 331.061 545.497 331.322 545.815 331.707  c
546.132 332.093 546.291 332.561 546.291 333.114  c
546.291 333.968 546.033 334.621 545.518 335.074  c
545.002 335.528 544.260 335.754 543.291 335.754  c
542.333 335.754 541.593 335.528 541.072 335.074  c
540.552 334.621 540.291 333.968 540.291 333.114  c
540.291 332.561 540.453 332.093 540.776 331.707  c
541.098 331.322 541.541 331.061 542.104 330.926  c
h
541.682 329.051 m
541.682 329.509 541.822 329.864 542.104 330.114  c
542.385 330.364 542.781 330.489 543.291 330.489  c
543.802 330.489 544.200 330.364 544.486 330.114  c
544.773 329.864 544.916 329.509 544.916 329.051  c
544.916 328.603 544.773 328.252 544.486 327.996  c
544.200 327.741 543.802 327.614 543.291 327.614  c
542.781 327.614 542.385 327.741 542.104 327.996  c
541.822 328.252 541.682 328.603 541.682 329.051  c
h
f
2 J
10.0000 M
1.00000 1.00000 1.00000 RG
newpath
588.296 316.428 m
618.296 316.428 l
618.296 346.428 l
588.296 346.428 l
588.296 316.428 l
h
f
0 J
1.45000 M
0.00000 0.00000 0.00000 RG
newpath
588.296 316.428 m
618.296 316.428 l
618.296 346.428 l
588.296 346.428 l
588.296 316.428 l
h
S
2 J
10.0000 M
0 J
1.45000 M
newpath
600.791 335.395 m
600.791 334.317 l
601.093 334.463 601.395 334.572 601.697 334.645  c
601.999 334.718 602.302 334.754 602.604 334.754  c
603.385 334.754 603.981 334.491 604.393 333.965  c
604.804 333.439 605.036 332.640 605.088 331.567  c
604.869 331.910 604.585 332.171 604.236 332.348  c
603.887 332.525 603.499 332.614 603.072 332.614  c
602.197 332.614 601.505 332.351 600.994 331.824  c
600.484 331.298 600.229 330.572 600.229 329.645  c
600.229 328.749 600.494 328.030 601.026 327.489  c
601.557 326.947 602.265 326.676 603.151 326.676  c
604.161 326.676 604.934 327.064 605.471 327.840  c
606.007 328.616 606.276 329.744 606.276 331.223  c
606.276 332.598 605.947 333.697 605.291 334.520  c
604.635 335.343 603.755 335.754 602.651 335.754  c
602.348 335.754 602.046 335.726 601.744 335.668  c
601.442 335.611 601.124 335.520 600.791 335.395  c
h
603.151 331.692 m
603.682 331.692 604.104 331.509 604.416 331.145  c
604.729 330.780 604.885 330.280 604.885 329.645  c
604.885 329.020 604.729 328.525 604.416 328.160  c
604.104 327.796 603.682 327.614 603.151 327.614  c
602.619 327.614 602.200 327.796 601.893 328.160  c
601.585 328.525 601.432 329.020 601.432 329.645  c
601.432 330.280 601.585 330.780 601.893 331.145  c
602.200 331.509 602.619 331.692 603.151 331.692  c
h
f
2 J
10.0000 M
1.00000 1.00000 1.00000 RG
newpath
168.296 178.464 m
198.296 178.464 l
198.296 208.464 l
168.296 208.464 l
168.296 178.464 l
h
f
0 J
1.45000 M
0.00000 0.00000 0.00000 RG
newpath
168.296 178.464 m
198.296 178.464 l
198.296 208.464 l
168.296 208.464 l
168.296 178.464 l
h
S
2 J
10.0000 M
0 J
1.45000 M
newpath
184.354 192.900 m
184.916 193.025 185.356 193.277 185.674 193.657  c
185.992 194.038 186.150 194.509 186.150 195.071  c
186.150 195.936 185.854 196.605 185.260 197.079  c
184.666 197.553 183.822 197.790 182.729 197.790  c
182.364 197.790 181.986 197.754 181.596 197.681  c
181.205 197.608 180.807 197.499 180.400 197.353  c
180.400 196.212 l
180.723 196.400 181.080 196.543 181.471 196.642  c
181.861 196.741 182.270 196.790 182.697 196.790  c
183.437 196.790 184.002 196.644 184.393 196.353  c
184.783 196.061 184.979 195.634 184.979 195.071  c
184.979 194.561 184.796 194.160 184.432 193.868  c
184.067 193.577 183.567 193.431 182.932 193.431  c
181.900 193.431 l
181.900 192.462 l
182.979 192.462 l
183.552 192.462 183.994 192.345 184.307 192.110  c
184.619 191.876 184.775 191.540 184.775 191.103  c
184.775 190.655 184.617 190.311 184.299 190.071  c
183.981 189.832 183.525 189.712 182.932 189.712  c
182.598 189.712 182.247 189.746 181.877 189.814  c
181.507 189.881 181.098 189.988 180.650 190.134  c
180.650 189.087 l
181.109 188.962 181.533 188.868 181.924 188.806  c
182.315 188.743 182.682 188.712 183.025 188.712  c
183.932 188.712 184.645 188.915 185.166 189.321  c
185.687 189.728 185.947 190.280 185.947 190.978  c
185.947 191.467 185.809 191.879 185.533 192.212  c
185.257 192.545 184.864 192.775 184.354 192.900  c
h
f
2 J
10.0000 M
1.00000 1.00000 1.00000 RG
newpath
228.296 178.464 m
258.296 178.464 l
258.296 208.464 l
228.296 208.464 l
228.296 178.464 l
h
f
0 J
1.45000 M
0.00000 0.00000 0.00000 RG
newpath
228.296 178.464 m
258.296 178.464 l
258.296 208.464 l
228.296 208.464 l
228.296 178.464 l
h
S
2 J
10.0000 M
0 J
1.45000 M
newpath
244.010 189.900 m
241.025 194.571 l
244.010 194.571 l
244.010 189.900 l
h
243.697 188.868 m
245.197 188.868 l
245.197 194.571 l
246.447 194.571 l
246.447 195.556 l
245.197 195.556 l
245.197 197.618 l
244.010 197.618 l
244.010 195.556 l
240.072 195.556 l
240.072 194.415 l
243.697 188.868 l
h
f
2 J
10.0000 M
1.00000 1.00000 1.00000 RG
newpath
288.296 178.464 m
318.296 178.464 l
318.296 208.464 l
288.296 208.464 l
288.296 178.464 l
h
f
0 J
1.45000 M
0.00000 0.00000 0.00000 RG
newpath
288.296 178.464 m
318.296 178.464 l
318.296 208.464 l
288.296 208.464 l
288.296 178.464 l
h
S
2 J
10.0000 M
0 J
1.45000 M
newpath
301.775 196.618 m
305.916 196.618 l
305.916 197.618 l
300.354 197.618 l
300.354 196.618 l
300.802 196.160 301.414 195.538 302.190 194.751  c
302.966 193.965 303.453 193.457 303.650 193.228  c
304.036 192.811 304.304 192.454 304.455 192.157  c
304.606 191.860 304.682 191.571 304.682 191.290  c
304.682 190.821 304.518 190.441 304.190 190.150  c
303.861 189.858 303.437 189.712 302.916 189.712  c
302.541 189.712 302.148 189.775 301.736 189.900  c
301.325 190.025 300.885 190.222 300.416 190.493  c
300.416 189.290 l
300.895 189.103 301.341 188.959 301.752 188.860  c
302.164 188.762 302.541 188.712 302.885 188.712  c
303.791 188.712 304.515 188.939 305.057 189.392  c
305.598 189.845 305.869 190.452 305.869 191.212  c
305.869 191.566 305.802 191.905 305.666 192.228  c
305.531 192.551 305.286 192.931 304.932 193.368  c
304.828 193.483 304.515 193.811 303.994 194.353  c
303.473 194.894 302.734 195.650 301.775 196.618  c
h
f
2 J
10.0000 M
1.00000 1.00000 1.00000 RG
newpath
348.296 178.464 m
378.296 178.464 l
378.296 208.464 l
348.296 208.464 l
348.296 178.464 l
h
f
0 J
1.45000 M
0.00000 0.00000 0.00000 RG
newpath
348.296 178.464 m
378.296 178.464 l
378.296 208.464 l
348.296 208.464 l
348.296 178.464 l
h
S
2 J
10.0000 M
0 J
1.45000 M
newpath
360.963 196.618 m
362.900 196.618 l
362.900 189.946 l
360.791 190.368 l
360.791 189.290 l
362.885 188.868 l
364.072 188.868 l
364.072 196.618 l
366.010 196.618 l
366.010 197.618 l
360.963 197.618 l
360.963 196.618 l
h
f
2 J
10.0000 M
1.00000 1.00000 1.00000 RG
newpath
408.296 178.464 m
438.296 178.464 l
438.296 208.464 l
408.296 208.464 l
408.296 178.464 l
h
f
0 J
1.45000 M
0.00000 0.00000 0.00000 RG
newpath
408.296 178.464 m
438.296 178.464 l
438.296 208.464 l
408.296 208.464 l
408.296 178.464 l
h
S
2 J
10.0000 M
0 J
1.45000 M
newpath
420.463 188.868 m
426.088 188.868 l
426.088 189.368 l
422.916 197.618 l
421.682 197.618 l
424.666 189.868 l
420.463 189.868 l
420.463 188.868 l
h
f
2 J
10.0000 M
1.00000 1.00000 1.00000 RG
newpath
468.296 178.464 m
498.296 178.464 l
498.296 208.464 l
468.296 208.464 l
468.296 178.464 l
h
f
0 J
1.45000 M
0.00000 0.00000 0.00000 RG
newpath
468.296 178.464 m
498.296 178.464 l
498.296 208.464 l
468.296 208.464 l
468.296 178.464 l
h
S
2 J
10.0000 M
0 J
1.45000 M
newpath
480.775 188.868 m
485.416 188.868 l
485.416 189.868 l
481.854 189.868 l
481.854 192.009 l
482.031 191.946 482.205 191.902 482.377 191.876  c
482.549 191.850 482.718 191.837 482.885 191.837  c
483.864 191.837 484.640 192.105 485.213 192.642  c
485.786 193.178 486.072 193.900 486.072 194.806  c
486.072 195.754 485.778 196.488 485.190 197.009  c
484.601 197.530 483.775 197.790 482.713 197.790  c
482.338 197.790 481.960 197.759 481.580 197.696  c
481.200 197.634 480.807 197.540 480.400 197.415  c
480.400 196.228 l
480.755 196.415 481.119 196.556 481.494 196.650  c
481.869 196.743 482.265 196.790 482.682 196.790  c
483.359 196.790 483.895 196.613 484.291 196.259  c
484.687 195.905 484.885 195.420 484.885 194.806  c
484.885 194.202 484.687 193.722 484.291 193.368  c
483.895 193.014 483.359 192.837 482.682 192.837  c
482.369 192.837 482.054 192.871 481.736 192.939  c
481.419 193.006 481.098 193.113 480.775 193.259  c
480.775 188.868 l
h
f
2 J
10.0000 M
1.00000 1.00000 1.00000 RG
newpath
528.296 178.464 m
558.296 178.464 l
558.296 208.464 l
528.296 208.464 l
528.296 178.464 l
h
f
0 J
1.45000 M
0.00000 0.00000 0.00000 RG
newpath
528.296 178.464 m
558.296 178.464 l
558.296 208.464 l
528.296 208.464 l
528.296 178.464 l
h
S
2 J
10.0000 M
0 J
1.45000 M
newpath
543.291 193.462 m
542.729 193.462 542.286 193.613 541.963 193.915  c
541.640 194.217 541.479 194.629 541.479 195.150  c
541.479 195.681 541.640 196.097 541.963 196.400  c
542.286 196.702 542.729 196.853 543.291 196.853  c
543.854 196.853 544.296 196.702 544.619 196.400  c
544.942 196.097 545.104 195.681 545.104 195.150  c
545.104 194.629 544.945 194.217 544.627 193.915  c
544.309 193.613 543.864 193.462 543.291 193.462  c
h
542.104 192.962 m
541.604 192.837 541.210 192.600 540.924 192.251  c
540.637 191.902 540.494 191.478 540.494 190.978  c
540.494 190.280 540.744 189.728 541.244 189.321  c
541.744 188.915 542.427 188.712 543.291 188.712  c
544.166 188.712 544.851 188.915 545.346 189.321  c
545.841 189.728 546.088 190.280 546.088 190.978  c
546.088 191.478 545.947 191.902 545.666 192.251  c
545.385 192.600 544.989 192.837 544.479 192.962  c
545.052 193.097 545.497 193.358 545.815 193.743  c
546.132 194.129 546.291 194.597 546.291 195.150  c
546.291 196.004 546.033 196.657 545.518 197.110  c
545.002 197.564 544.260 197.790 543.291 197.790  c
542.333 197.790 541.593 197.564 541.072 197.110  c
540.552 196.657 540.291 196.004 540.291 195.150  c
540.291 194.597 540.453 194.129 540.776 193.743  c
541.098 193.358 541.541 193.097 542.104 192.962  c
h
541.682 191.087 m
541.682 191.545 541.822 191.900 542.104 192.150  c
542.385 192.400 542.781 192.525 543.291 192.525  c
543.802 192.525 544.200 192.400 544.486 192.150  c
544.773 191.900 544.916 191.545 544.916 191.087  c
544.916 190.639 544.773 190.288 544.486 190.032  c
544.200 189.777 543.802 189.650 543.291 189.650  c
542.781 189.650 542.385 189.777 542.104 190.032  c
541.822 190.288 541.682 190.639 541.682 191.087  c
h
f
2 J
10.0000 M
1.00000 1.00000 1.00000 RG
newpath
588.296 178.464 m
618.296 178.464 l
618.296 208.464 l
588.296 208.464 l
588.296 178.464 l
h
f
0 J
1.45000 M
0.00000 0.00000 0.00000 RG
newpath
588.296 178.464 m
618.296 178.464 l
618.296 208.464 l
588.296 208.464 l
588.296 178.464 l
h
S
2 J
10.0000 M
0 J
1.45000 M
newpath
600.791 197.431 m
600.791 196.353 l
601.093 196.499 601.395 196.608 601.697 196.681  c
601.999 196.754 602.302 196.790 602.604 196.790  c
603.385 196.790 603.981 196.527 604.393 196.001  c
604.804 195.475 605.036 194.676 605.088 193.603  c
604.869 193.946 604.585 194.207 604.236 194.384  c
603.887 194.561 603.499 194.650 603.072 194.650  c
602.197 194.650 601.505 194.387 600.994 193.860  c
600.484 193.334 600.229 192.608 600.229 191.681  c
600.229 190.785 600.494 190.066 601.026 189.525  c
601.557 188.983 602.265 188.712 603.151 188.712  c
604.161 188.712 604.934 189.100 605.471 189.876  c
606.007 190.652 606.276 191.780 606.276 193.259  c
606.276 194.634 605.947 195.733 605.291 196.556  c
604.635 197.379 603.755 197.790 602.651 197.790  c
602.348 197.790 602.046 197.762 601.744 197.704  c
601.442 197.647 601.124 197.556 600.791 197.431  c
h
603.151 193.728 m
603.682 193.728 604.104 193.545 604.416 193.181  c
604.729 192.816 604.885 192.316 604.885 191.681  c
604.885 191.056 604.729 190.561 604.416 190.196  c
604.104 189.832 603.682 189.650 603.151 189.650  c
602.619 189.650 602.200 189.832 601.893 190.196  c
601.585 190.561 601.432 191.056 601.432 191.681  c
601.432 192.316 601.585 192.816 601.893 193.181  c
602.200 193.545 602.619 193.728 603.151 193.728  c
h
f
2 J
10.0000 M
0 J
1.45000 M
newpath
190.115 119.623 m
198.296 124.640 l
213.296 132.614 l
228.296 139.361 l
243.296 144.881 l
258.296 149.175 l
273.296 152.241 l
288.296 154.082 l
303.296 154.695 l
318.296 154.082 l
333.296 152.241 l
348.296 149.175 l
363.296 144.881 l
378.296 139.361 l
393.296 132.614 l
408.296 124.640 l
416.477 119.623 l
S
newpath
183.296 115.440 m
190.911 125.976 l
190.968 120.146 l
196.139 117.452 l
h
f
newpath
423.296 115.440 m
410.453 117.452 l
415.624 120.146 l
415.681 125.976 l
h
f
2 J
10.0000 M
0 J
1.45000 M
newpath
250.063 119.707 m
258.296 124.898 l
273.296 133.094 l
288.296 140.030 l
303.296 145.704 l
318.296 150.118 l
333.296 153.270 l
348.296 155.162 l
363.296 155.792 l
378.296 155.162 l
393.296 153.270 l
408.296 150.118 l
423.296 145.704 l
438.296 140.030 l
453.296 133.094 l
468.296 124.898 l
476.529 119.707 l
S
newpath
243.296 115.440 m
250.780 126.070 l
250.909 120.240 l
256.114 117.611 l
h
f
newpath
483.296 115.440 m
470.478 117.611 l
475.683 120.240 l
475.812 126.070 l
h
f
2 J
10.0000 M
0 J
1.45000 M
newpath
309.965 119.858 m
318.296 125.378 l
333.296 133.990 l
348.296 141.277 l
363.296 147.240 l
378.296 151.878 l
393.296 155.190 l
408.296 157.177 l
423.296 157.840 l
438.296 157.177 l
453.296 155.190 l
468.296 151.878 l
483.296 147.240 l
498.296 141.277 l
513.296 133.990 l
528.296 125.378 l
536.627 119.858 l
S
newpath
303.296 115.440 m
310.538 126.236 l
310.799 120.411 l
316.061 117.899 l
h
f
newpath
543.296 115.440 m
530.531 117.899 l
535.793 120.411 l
536.054 126.236 l
h
f
2 J
10.0000 M
0 J
1.45000 M
newpath
370.014 119.783 m
378.296 125.137 l
393.296 133.542 l
408.296 140.654 l
423.296 146.472 l
438.296 150.997 l
453.296 154.230 l
468.296 156.169 l
483.296 156.816 l
498.296 156.169 l
513.296 154.230 l
528.296 150.997 l
543.296 146.472 l
558.296 140.654 l
573.296 133.542 l
588.296 125.137 l
596.578 119.783 l
S
newpath
363.296 115.440 m
370.659 126.154 l
370.854 120.326 l
376.088 117.756 l
h
f
newpath
603.296 115.440 m
590.504 117.756 l
595.738 120.326 l
595.933 126.154 l
h
f
2 J
10.0000 M
0 J
1.45000 M
newpath
188.934 292.103 m
190.796 293.978 l
198.296 299.370 l
205.796 302.606 l
213.296 303.684 l
220.796 302.606 l
228.296 299.370 l
235.796 293.978 l
237.658 292.103 l
S
newpath
183.296 286.428 m
188.206 298.465 l
189.639 292.813 l
195.300 291.417 l
h
f
newpath
243.296 286.428 m
231.292 291.417 l
236.953 292.813 l
238.386 298.465 l
h
f
2 J
10.0000 M
0 J
1.45000 M
newpath
309.019 292.018 m
310.796 293.754 l
318.296 298.986 l
325.796 302.125 l
333.296 303.172 l
340.796 302.125 l
348.296 298.986 l
355.796 293.754 l
357.573 292.018 l
S
newpath
303.296 286.428 m
308.387 298.390 l
309.734 292.717 l
315.374 291.236 l
h
f
newpath
363.296 286.428 m
351.218 291.236 l
356.858 292.717 l
358.205 298.390 l
h
f
2 J
10.0000 M
0 J
1.45000 M
newpath
429.105 291.928 m
430.796 293.530 l
438.296 298.602 l
445.796 301.646 l
453.296 302.660 l
460.796 301.646 l
468.296 298.602 l
475.796 293.530 l
477.487 291.928 l
S
newpath
423.296 286.428 m
428.572 298.309 l
429.831 292.616 l
435.447 291.048 l
h
f
newpath
483.296 286.428 m
471.145 291.048 l
476.761 292.616 l
478.020 298.309 l
h
f
2 J
10.0000 M
0 J
1.45000 M
newpath
548.688 292.338 m
550.796 294.650 l
558.296 300.522 l
565.796 304.046 l
573.296 305.220 l
580.796 304.046 l
588.296 300.522 l
595.796 294.650 l
597.904 292.338 l
S
newpath
543.296 286.428 m
547.690 298.663 l
549.362 293.077 l
555.077 291.924 l
h
f
newpath
603.296 286.428 m
591.515 291.924 l
597.230 293.077 l
598.903 298.663 l
h
f
2 J
10.0000 M
0 J
1.45000 M
newpath
189.596 213.394 m
198.296 220.203 l
213.296 228.588 l
228.296 233.619 l
243.296 235.296 l
258.296 233.619 l
273.296 228.588 l
288.296 220.203 l
296.996 213.394 l
S
newpath
183.296 208.464 m
189.665 219.797 l
190.384 214.011 l
195.828 211.922 l
h
f
newpath
303.296 208.464 m
290.764 211.922 l
296.208 214.011 l
296.927 219.797 l
h
f
2 J
10.0000 M
0 J
1.45000 M
newpath
249.825 213.086 m
258.296 219.083 l
273.296 226.668 l
288.296 231.219 l
303.296 232.736 l
318.296 231.219 l
333.296 226.668 l
348.296 219.083 l
356.767 213.086 l
S
newpath
243.296 208.464 m
250.201 219.479 l
250.642 213.664 l
255.979 211.317 l
h
f
newpath
363.296 208.464 m
350.613 211.317 l
355.950 213.664 l
356.391 219.479 l
h
f
2 J
10.0000 M
0 J
1.45000 M
newpath
429.779 213.151 m
438.296 219.307 l
453.296 227.052 l
468.296 231.699 l
483.296 233.248 l
498.296 231.699 l
513.296 227.052 l
528.296 219.307 l
536.813 213.151 l
S
newpath
423.296 208.464 m
430.092 219.546 l
430.590 213.737 l
435.950 211.442 l
h
f
newpath
543.296 208.464 m
530.642 211.442 l
536.002 213.737 l
536.500 219.546 l
h
f
2 J
10.0000 M
0 J
1.45000 M
newpath
489.825 213.086 m
498.296 219.083 l
513.296 226.668 l
528.296 231.219 l
543.296 232.736 l
558.296 231.219 l
573.296 226.668 l
588.296 219.083 l
596.767 213.086 l
S
newpath
483.296 208.464 m
490.201 219.479 l
490.642 213.664 l
495.979 211.317 l
h
f
newpath
603.296 208.464 m
590.613 211.317 l
595.950 213.664 l
596.391 219.479 l
h
f
2 J
10.0000 M
0 J
1.45000 M
newpath
273.296 169.953 m
273.296 215.571 l
S
2 J
10.0000 M
0 J
1.45000 M
newpath
393.296 169.953 m
393.296 215.571 l
S
2 J
10.0000 M
0 J
1.45000 M
newpath
513.296 169.953 m
513.296 215.571 l
S
2 J
10.0000 M
0 J
1.45000 M
newpath
213.296 250.141 m
213.296 295.759 l
S
2 J
10.0000 M
0 J
1.45000 M
newpath
273.296 250.141 m
273.296 295.759 l
S
2 J
10.0000 M
0 J
1.45000 M
newpath
333.296 250.141 m
333.296 295.759 l
S
2 J
10.0000 M
0 J
1.45000 M
newpath
393.296 250.141 m
393.296 295.759 l
S
2 J
10.0000 M
0 J
1.45000 M
newpath
453.296 250.141 m
453.296 295.759 l
S
2 J
10.0000 M
0 J
1.45000 M
newpath
513.296 250.141 m
513.296 295.759 l
S
2 J
10.0000 M
0 J
1.45000 M
newpath
573.296 250.141 m
573.296 295.759 l
S
2 J
10.0000 M
Q
[ 1.00000 0.00000 0.00000 1.00000 0.00000 0.00000 ] defaultmatrix matrix concatmatrix setmatrix
cliprestore

%%Trailer
%%EOF
