%!PS-Adobe-3.0 EPSF-3.0
%%BoundingBox: 0 0 404 218
%%Creator: yExport 1.5
%%Producer: org.freehep.graphicsio.ps.EPSGraphics2D Revision: 12753 
%%For: 
%%Title: 
%%CreationDate: Sunday, November 12, 2017 4:29:55 PM CET
%%LanguageLevel: 3
%%EndComments
%%BeginProlog
100 dict dup begin

%
% File: org/freehep/graphicsio.ps/PSProlog.txt
% Author: Charles Loomis
%

% Redefinitions which save some space in the output file.  These are also
% the same as the PDF operators.
/q {gsave} def
/Q {grestore} def

/n {newpath} def
/m {moveto} def
/l {lineto} def
/c {curveto} def
/h {closepath} def

/re {4 -2 roll moveto
     dup 0 exch rlineto exch 0 rlineto
     neg 0 exch rlineto closepath} def

/f {fill} def
/f* {eofill} def
/F {gsave vg&FC fill grestore} def
/F* {gsave vg&FC eofill grestore} def

/s {closepath stroke} def
/S {stroke} def

/b {closepath gsave vg&FC fill grestore
    gsave stroke grestore newpath} def
/B {gsave vg&FC fill grestore gsave stroke grestore newpath} def
/b* {closepath gsave vg&FC eofill grestore
    gsave stroke grestore newpath} def
/B* {gsave vg&FC eofill grestore gsave stroke grestore newpath} def

/g {1 array astore /vg&fcolor exch def} def
/G {setgray} def
/k {4 array astore /vg&fcolor exch def} def
/K {setcmykcolor} def
/rg {3 array astore /vg&fcolor exch def} def
/RG {setrgbcolor} def

% Initialize the fill color.
0 0 0 rg

/vg&FC {mark vg&fcolor aload pop
        counttomark 1 eq {G} if
        counttomark 3 eq {RG} if
        counttomark 4 eq {K} if
        cleartomark } def

/vg&DFC {/vg&fcolor exch def} def

/vg&C {mark exch aload pop
       counttomark 1 eq {G} if
       counttomark 3 eq {RG} if
       counttomark 4 eq {K} if
       cleartomark } def

/w {setlinewidth} def
/j {setlinejoin} def
/J {setlinecap} def
/M {setmiterlimit} def
/d {setdash} def
/i {setflat} def

/W {clip} def
/W* {eoclip} def

% Setup the default graphics state.
% (black; 1 pt. linewidth; miter join; butt-ends; solid)
/defaultGraphicsState {0 g 1 w 0 j 0 J [] 0 d} def

% Emulation of the rectangle operators for PostScript implementations
% which do not implement all Level 2 features.  This is an INCOMPLETE
% emulation; only the "x y width height rect..." form is emulated.
/*rf {gsave newpath re fill grestore} def
/*rs {gsave newpath re stroke grestore} def
/*rc {newpath re clip} def
/rf  /rectfill where {pop /rectfill}{/*rf} ifelse load def
/rs  /rectstroke where {pop /rectstroke}{/*rs} ifelse load def
/rc  /rectclip where {pop /rectclip}{/*rc} ifelse load def

% Emulation of the selectfont operator.  This includes a 20% increase in
% the fontsize which is necessary to get sizes similar to the Java fonts.
/*sf {exch findfont exch
      dup type /arraytype eq {makefont}{scalefont} ifelse setfont} bind def
/sf /selectfont where {pop {1.2 mul selectfont}}{{1.2 mul *sf}} ifelse def

% Special version of stroke which allows the dash pattern to continue
% across path segments.  (This may be needed for PostScript although
% modern printers seem to do this correctly.)
/vg&stroke {
  currentdash pop length 0 eq
  {stroke}
  {
    currentdash /vg&doffset exch def pop
    flattenpath
    {m vg&resetdash}
    {2 copy
     currentpoint
     3 -1 roll sub dup mul
     3 1 roll sub dup mul
     add sqrt
     3 1 roll l
     currentdash 3 -1 roll add setdash}
     {}
     {h vg&resetdash}
     pathforall
     stroke
     vg&resetdash
  } ifelse
} def
/vg&resetdash {currentdash pop vg&doffset setdash} def

% Initialize variables for safety.
/delta 0 def
/xv 0 def  /yv 0 def  /width 0 def  /height 0 def

% Initialize to portrait INTERNATIONAL (Letter-height, A4-width) page.
/pw 595 def  /ph 791  def  /po true def /ftp false def

% Initialize margins to 20 points.
/ml 20 def  /mr 20 def  /mt 20 def  /mb 20 def

% Temporary matrices.
/smatrix 0 def  /nmatrix 0 def

% set page size (usage: <page width><page height> setpagesize)
/setpagesize {/ph exch def /pw exch def} def

% set page orientation (usage: portrait or landscape)
/portrait {/po true def} def
/landscape {/po false def} def

% force natural size for image (usage: naturalsize)
/naturalsize {/ftp false def} def

% resize image to fill page (usage: fittopage)
/fittopage {/ftp true def} def

% set margins of the page (usage: <left><bottom><top><right> setmargins)
/setmargins {/mr exch def /mt exch def /mb exch def /ml exch def} def

% set the graphic's size (usage: <width><height> setsize)
/setsize {/gh exch def /gw exch def} def

% set the graphic's origin (usage: <x0><y0> setorigin)
/setorigin {/gy exch def /gx exch def} def

% calculate image center
/imagecenter {pw ml sub mr sub 2 div ml add
              ph mt sub mb sub 2 div mb add} def

% calculate the necessary scaling
/imagescale {po {gw}{gh} ifelse pw ml sub mr sub div
             po {gh}{gw} ifelse ph mt sub mb sub div
             2 copy lt {exch} if pop
             ftp not {1 2 copy lt {exch} if pop} if
             1 exch div /sfactor exch def
             /gw gw sfactor mul def /gh gh sfactor mul def} def

% calculate image origin
/imageorigin {pw ml sub mr sub 2 div ml add
              po {gw}{gh} ifelse 2 div sub
              ph mt sub mb sub 2 div mb add
              po {gh}{gw} ifelse 2 div po {add}{sub} ifelse} def

% calculate the clipping origin
/cliporigin  {pw ml sub mr sub 2 div ml add
              po {gw}{gh} ifelse 2 div sub floor
              ph mt sub mb sub 2 div mb add
              po {gh}{gw} ifelse 2 div sub floor} def

% Set the clipping region to the bounding box.
/cliptobounds {cliporigin po {gw}{gh} ifelse 1 add
                          po {gh}{gw} ifelse 1 add rc} def

% set the base transformation matrix (usage: setbasematrix)
/setbasematrix {imageorigin translate
                po {0}{90} ifelse rotate
                sfactor sfactor neg scale
                /defaultmatrix matrix currentmatrix def} def

% The lower-right bias in drawing 1 pt. wide lines.
/bias  {q 0.5 0.5 translate} def
/unbias {Q} def

% Define the composite fonts used to print Unicode strings.
% Undefine particular values in an encoding array.
/vg&undef { {exch dup 3 -1 roll /.notdef put} forall } def
/vg&redef { {3 -1 roll dup 4 2 roll put} forall } def

% usage: key encoding basefontname vg&newbasefont font
/vg&newbasefont {
findfont dup length dict copy
  begin
    currentdict /FID undef
    /Encoding exch def
    dup /FontName exch def
    currentdict
  end
definefont
} def

% usage: key encoding basefontname vg&newskewedbasefont font
/vg&newskewedbasefont {
findfont dup length dict copy
  begin
    currentdict /FID undef
    /Encoding exch def
    dup /FontName exch def
    exch FontMatrix exch matrix concatmatrix /FontMatrix exch def
    currentdict
  end
definefont
} def

% usage: basekey suffix vg&nconcat name
/vg&nconcat {
  2 {dup length string cvs exch} repeat
  dup length 3 -1 roll dup length 3 -1 roll add string
  dup 0 4 -1 roll dup length 5 1 roll putinterval
  dup 4 -2 roll exch putinterval cvn
} def

%usage: fontname vg&skewmatrix matrix
/vg&skewmatrix {
findfont dup /FontInfo known
  {
    /FontInfo get dup /ItalicAngle known
    {
      [ 1 0 4 -1 roll /ItalicAngle get neg dup sin exch cos div 1 0 0 ]
    }
    {pop matrix} ifelse
  }
  {pop matrix} ifelse
} def

% usage: newfontname basefontname vg&newcompositefont --
/vg&newcompositefont {
/vg&fstyle exch def
/vg&bfont exch def
/vg&fname exch def
<<
/FontStyleBits vg&fstyle
/FontType 0
/FontMatrix matrix
/FontName vg&fname
/FMapType 2
/Encoding [ 0 1 255 {pop 6} for ]
          dup 16#00 0 put % Latin
          dup 16#03 1 put % Greek
          dup 16#20 2 put % Punctuation
          dup 16#21 3 put % Arrows
          dup 16#22 4 put % MathOps
          dup 16#27 5 put % Dingbats

/FDepVector [
vg&bfont /-UC-Latin vg&nconcat UCLatinEncoding
vg&bfont vg&newbasefont

vg&bfont vg&skewmatrix
vg&bfont /-UC-Greek vg&nconcat UCGreekEncoding
/Symbol vg&newskewedbasefont

vg&bfont /-UC-Punctuation vg&nconcat UCPunctuationEncoding
vg&bfont vg&newbasefont

/Arrows-UC findfont
/MathOps-UC findfont
/Dingbats-UC findfont
/Undefined-UC findfont ]
>>
vg&fname exch definefont pop
} def

% Null encoding vector (all elements set to .notdef)
/NullEncoding [ 256 {/.notdef} repeat ] def

% Unicode Latin encoding (unicode codes \u0000-\u00ff)
/UCLatinEncoding
  ISOLatin1Encoding dup length array copy
  dup 16#60 /grave put
  [ 16#90 16#91 16#92 16#93 16#94 16#95 16#96
    16#97 16#98 16#9a 16#9b 16#9d 16#9e 16#9f
  ] vg&undef
  def

% Unicode Greek encoding (unicode codes \u0370-\u03ff)
/UCGreekEncoding
  NullEncoding dup length array copy
  << 16#91 /Alpha    16#92 /Beta      16#93 /Gamma    16#94 /Delta
     16#95 /Epsilon  16#96 /Zeta      16#97 /Eta      16#98 /Theta
     16#99 /Iota     16#9a /Kappa     16#9b /Lambda   16#9c /Mu
     16#9d /Nu       16#9e /Xi        16#9f /Omicron  16#a0 /Pi
     16#a1 /Rho      16#a3 /Sigma     16#a4 /Tau      16#a5 /Upsilon
     16#a6 /Phi      16#a7 /Chi       16#a8 /Psi      16#a9 /Omega
     16#b1 /alpha    16#b2 /beta      16#b3 /gamma    16#b4 /delta
     16#b5 /epsilon  16#b6 /zeta      16#b7 /eta      16#b8 /theta
     16#b9 /iota     16#ba /kappa     16#bb /lambda   16#bc /mu
     16#bd /nu       16#be /xi        16#bf /omicron  16#c0 /pi
     16#c1 /rho      16#c2 /sigma1    16#c3 /sigma    16#c4 /tau
     16#c5 /upsilon  16#c6 /phi1      16#c7 /chi      16#c8 /psi
     16#c9 /omega    16#7e /semicolon 16#87 /dotmath  16#d1 /theta1
     16#d2 /Upsilon1 16#d5 /phi       16#d6 /omega1
  >> vg&redef
  def

% Unicode punctuation encoding (unicode codes \u2000-\u206f)
/UCPunctuationEncoding
  NullEncoding dup length array copy
  << 16#10 /hyphen          16#11 /hyphen              16#12 /endash
     16#13 /emdash          16#18 /quoteleft           16#19 /quoteright
     16#1a /quotesinglbase  16#1b /quotesingle         16#1c /quotedblleft
     16#1d /quotedblright   16#1e /quotedblbase        16#1f /quotedbl
     16#20 /dagger          16#21 /daggerdbl           16#22 /bullet
     16#24 /period          16#26 /ellipsis            16#27 /periodcentered
     16#30 /perthousand     16#44 /fraction
     16#70 /zerosuperior    16#74 /foursuperior        16#75 /fivesuperior
     16#76 /sixsuperior     16#77 /sevensuperior       16#78 /eightsuperior
     16#79 /ninesuperior    16#7b /hyphensuperior      16#7d /parenleftsuperior
     16#7e /parenrightsuperior
     16#80 /zeroinferior    16#84 /fourinferior        16#85 /fiveinferior
     16#81 /oneinferior     16#82 /twoinferior         16#83 /threeinferior
     16#86 /sixinferior     16#87 /seveninferior       16#88 /eightinferior
     16#89 /nineinferior    16#8b /hypheninferior      16#8d /parenleftinferior
     16#8e /parenrightinferior
  >> vg&redef
  def

% Unicode mathematical operators encoding (unicode codes \u2200-\u22ff)
/UCMathOpsEncoding
  NullEncoding dup length array copy
  << 16#00 /universal       16#02 /partialdiff         16#03 /existential
     16#05 /emptyset        16#06 /Delta               16#07 /gradient
     16#08 /element         16#09 /notelement          16#0b /suchthat
     16#0f /product         16#11 /summation           16#12 /minus
     16#15 /fraction        16#17 /asteriskmath        16#19 /bullet
     16#1a /radical         16#1d /proportional        16#1e /infinity
     16#20 /angle           16#23 /bar                 16#27 /logicaland
     16#28 /logicalor       16#29 /intersection        16#2a /union
     16#2b /integral        16#34 /therefore           16#36 /colon
     16#3c /similar         16#45 /congruent           16#48 /approxequal
     16#60 /notequal        16#61 /equivalence         16#64 /lessequal
     16#65 /greaterequal    16#82 /propersubset        16#83 /propersuperset
     16#86 /reflexsubset    16#87 /reflexsuperset      16#95 /circleplus
     16#97 /circlemultiply  16#a5 /perpendicular       16#03 /existential
     16#c0 /logicaland      16#c1 /logicalor           16#c2 /intersection
     16#c3 /union           16#c4 /diamond             16#c5 /dotmath
  >> vg&redef
  def

% Unicode arrows encoding (unicode codes \u2190-\u21ff)
% Also includes those "Letterlike" unicode characters
% which are available in the symbol font. (unicode codes \u2100-\u214f)
/UCArrowsEncoding
  NullEncoding dup length array copy
  << 16#11 /Ifraktur        16#1c /Rfraktur            16#22 /trademarkserif
     16#35 /aleph
     16#90 /arrowleft       16#91 /arrowup             16#92 /arrowright
     16#93 /arrowdown       16#94 /arrowboth           16#d0 /arrowdblleft
     16#d1 /arrowdblup      16#d2 /arrowdblright       16#d3 /arrowdbldown
     16#d4 /arrowdblboth
  >> vg&redef
  def

/ZapfDingbats findfont /Encoding get
dup length array copy /UCDingbatsEncoding exch def
16#20 1 16#7f {
  dup 16#20 sub exch
  UCDingbatsEncoding exch get
  UCDingbatsEncoding 3 1 roll put
} for
16#a0 1 16#ff {
  dup 16#40 sub exch
  UCDingbatsEncoding exch get
  UCDingbatsEncoding 3 1 roll put
} for
UCDingbatsEncoding [ 16#c0 1 16#ff {} for ] vg&undef
[ 16#00  16#05 16#0a 16#0b  16#28 16#4c 16#4e  16#53 16#54 16#55  16#57 16#5f
  16#60  16#68 16#69 16#6a  16#6b 16#6c 16#6d  16#6e 16#6f 16#70  16#71 16#72
  16#73  16#74 16#75 16#95  16#96 16#97 16#b0  16#bf
] vg&undef pop

% Define the base fonts which don't change.
/Undefined-UC NullEncoding       /Helvetica    vg&newbasefont pop
/MathOps-UC   UCMathOpsEncoding  /Symbol       vg&newbasefont pop
/Arrows-UC    UCArrowsEncoding   /Symbol       vg&newbasefont pop
/Dingbats-UC  UCDingbatsEncoding /ZapfDingbats vg&newbasefont pop

% Make the SansSerif composite fonts.
/SansSerif /Helvetica 16#00 vg&newcompositefont
/SansSerif-Bold /Helvetica-Bold 16#01 vg&newcompositefont
/SansSerif-Italic /Helvetica-Oblique 16#02 vg&newcompositefont
/SansSerif-BoldItalic /Helvetica-BoldOblique 16#03 vg&newcompositefont

% Make the Serif composite fonts.
/Serif /Times-Roman 16#00 vg&newcompositefont
/Serif-Bold /Times-Bold 16#01 vg&newcompositefont
/Serif-Italic /Times-Italic 16#02 vg&newcompositefont
/Serif-BoldItalic /Times-BoldItalic 16#03 vg&newcompositefont

% Make the Monospaced composite fonts.
/Monospaced /Courier 16#00 vg&newcompositefont
/Monospaced-Bold /Courier-Bold 16#01 vg&newcompositefont
/Monospaced-Italic /Courier-Oblique 16#02 vg&newcompositefont
/Monospaced-BoldItalic /Courier-BoldOblique 16#03 vg&newcompositefont

% Make the Dialog composite fonts.
/Dialog /Helvetica 16#00 vg&newcompositefont
/Dialog-Bold /Helvetica-Bold 16#01 vg&newcompositefont
/Dialog-Italic /Helvetica-Oblique 16#02 vg&newcompositefont
/Dialog-BoldItalic /Helvetica-BoldOblique 16#03 vg&newcompositefont

% Make the DialogInput composite fonts.
/DialogInput /Courier 16#00 vg&newcompositefont
/DialogInput-Bold /Courier-Bold 16#01 vg&newcompositefont
/DialogInput-Italic /Courier-Oblique 16#02 vg&newcompositefont
/DialogInput-BoldItalic /Courier-BoldOblique 16#03 vg&newcompositefont

% Make the Typewriter composite fonts (JDK 1.1 only).
/Typewriter /Courier 16#00 vg&newcompositefont
/Typewriter-Bold /Courier-Bold 16#01 vg&newcompositefont
/Typewriter-Italic /Courier-Oblique 16#02 vg&newcompositefont
/Typewriter-BoldItalic /Courier-BoldOblique 16#03 vg&newcompositefont


/cfontH {
 dup /fontsize exch def /SansSerif exch sf
 /vg&fontstyles [{cfontH} {cfontHB} {cfontHI} {cfontHBI}] def
} def
/cfontHB {
  dup /fontsize exch def /SansSerif-Bold exch sf
 /vg&fontstyles [{cfontH} {cfontHB} {cfontHI} {cfontHBI}] def
} def
/cfontHI {
 dup /fontsize exch def /SansSerif-Italic exch sf
 /vg&fontstyles [{cfontH} {cfontHB} {cfontHI} {cfontHBI}] def
} def
/cfontHBI {
 dup /fontsize exch def /SansSerif-BoldItalic exch sf
 /vg&fontstyles [{cfontH} {cfontHB} {cfontHI} {cfontHBI}] def
} def

/cfontT {
 dup /fontsize exch def /Serif exch sf
 /vg&fontstyles [{cfontT} {cfontTB} {cfontTI} {cfontTBI}] def
} def
/cfontTB {
 dup /fontsize exch def /Serif-Bold exch sf
 /vg&fontstyles [{cfontT} {cfontTB} {cfontTI} {cfontTBI}] def
} def
/cfontTI {
 dup /fontsize exch def /Serif-Italic exch sf
 /vg&fontstyles [{cfontT} {cfontTB} {cfontTI} {cfontTBI}] def
} def
/cfontTBI {
 dup /fontsize exch def /Serif-BoldItalic exch sf
 /vg&fontstyles [{cfontT} {cfontTB} {cfontTI} {cfontTBI}] def
} def

/cfontC {
 dup /fontsize exch def /Typewriter exch sf
 /vg&fontstyles [{cfontC} {cfontCB} {cfontCI} {cfontCBI}] def
} def
/cfontCB {
 dup /fontsize exch def /Typewriter-Bold exch sf
 /vg&fontstyles [{cfontC} {cfontCB} {cfontCI} {cfontCBI}] def
} def
/cfontCI {
 dup /fontsize exch def /Typewriter-Italic exch sf
 /vg&fontstyles [{cfontC} {cfontCB} {cfontCI} {cfontCBI}] def
} def
/cfontCBI {
 dup /fontsize exch def /Typewriter-BoldItalic exch sf
 /vg&fontstyles [{cfontC} {cfontCB} {cfontCI} {cfontCBI}] def
} def

% Darken or lighten the current color.
/darken {0.7 exch exp 3 copy
         q 4 -1 roll vg&C
         currentrgbcolor 3 {4 -2 roll mul} repeat
         3 array astore Q} def

/displayColorMap
<< /Cr   [1.00 0.00 0.00]       /Cg     [0.00 1.00 0.00]
   /Cb   [0.00 0.00 1.00]       /Cc     [1.00 0.00 0.00 0.00]
   /Cm   [0.00 1.00 0.00 0.00]  /Cy     [0.00 0.00 1.00 0.00]
   /Co   [1.00 0.78 0.00]       /Cp     [1.00 0.67 0.67]
   /Cw   [1   ]                 /Cgrl   [0.75]
   /Cgr  [0.50]                 /Cgrd   [0.25]
   /Ck   [0   ]
   /CGr  [1.00 0.00 0.00]       /CGg    [0.00 1.00 0.00]
   /CGb  [0.00 0.00 1.00]       /CGc    [1.00 0.00 0.00 0.00]
   /CGm  [0.00 1.00 0.00 0.00]  /CGy    [0.00 0.00 1.00 0.00]
   /CGo  [1.00 0.78 0.00]       /CGp    [1.00 0.67 0.67]
   /CGw  [1   ]                 /CGgrl  [0.75]
   /CGgr [0.50]                 /CGgrd  [0.25]
   /CGk  [0   ]
   /CIr  [1.00 0.00 0.00]       /CIg    [0.00 1.00 0.00]
   /CIb  [0.00 0.00 1.00]       /CIc    [1.00 0.00 0.00 0.00]
   /CIm  [0.00 1.00 0.00 0.00]  /CIy    [0.00 0.00 1.00 0.00]
   /CIo  [1.00 0.78 0.00]       /CIp    [1.00 0.67 0.67]
   /CIw  [1   ]                 /CIgrl  [0.75]
   /CIgr [0.50]                 /CIgrd  [0.25]
   /CIk  [0   ]
>> def

/printColorMap
<< /Cr   [1.00 0.33 0.33]       /Cg     [0.33 1.00 0.33]
   /Cb   [0.33 0.33 1.00]       /Cc     [1.00 0.00 0.00 0.00]
   /Cm   [0.00 1.00 0.00 0.00]  /Cy     [0.00 0.00 1.00 0.00]
   /Co   [1.00 0.78 0.00]       /Cp     [1.00 0.67 0.67]
   /Cw   [1   ]                 /Cgrl   [0.75]
   /Cgr  [0.50]                 /Cgrd   [0.25]
   /Ck   [0   ]
   /CGr  [1.00 0.33 0.33]       /CGg    [0.33 1.00 0.33]
   /CGb  [0.33 0.33 1.00]       /CGc    [1.00 0.00 0.00 0.00]
   /CGm  [0.00 1.00 0.00 0.00]  /CGy    [0.00 0.00 1.00 0.00]
   /CGo  [1.00 0.78 0.00]       /CGp    [1.00 0.67 0.67]
   /CGw  [1   ]                 /CGgrl  [0.75]
   /CGgr [0.50]                 /CGgrd  [0.25]
   /CGk  [0   ]
   /CIr  [1.00 0.33 0.33]       /CIg    [0.33 1.00 0.33]
   /CIb  [0.33 0.33 1.00]       /CIc    [1.00 0.00 0.00 0.00]
   /CIm  [0.00 1.00 0.00 0.00]  /CIy    [0.00 0.00 1.00 0.00]
   /CIo  [1.00 0.78 0.00]       /CIp    [1.00 0.67 0.67]
   /CIw  [1   ]                 /CIgrl  [0.75]
   /CIgr [0.50]                 /CIgrd  [0.25]
   /CIk  [0   ]
>> def

/grayColorMap
<< /Cr   [0   ]                 /Cg     [0   ]
   /Cb   [0   ]                 /Cc     [0   ]
   /Cm   [0   ]                 /Cy     [0   ]
   /Co   [0   ]                 /Cp     [0   ]
   /Cw   [0   ]                 /Cgrl   [0   ]
   /Cgr  [0   ]                 /Cgrd   [0   ]
   /Ck   [0   ]
   /CGr  [0.75]                 /CGg    [1   ]
   /CGb  [0.50]                 /CGc    [0.75]
   /CGm  [0.50]                 /CGy    [1   ]
   /CGo  [0.75]                 /CGp    [1   ]
   /CGw  [0   ]                 /CGgrl  [0.25]
   /CGgr [0.50]                 /CGgrd  [0.75]
   /CGk  [1   ]
   /CIr  [1   ]                 /CIg    [1   ]
   /CIb  [1   ]                 /CIc    [1   ]
   /CIm  [1   ]                 /CIy    [1   ]
   /CIo  [1   ]                 /CIp    [1   ]
   /CIw  [1   ]                 /CIgrl  [1   ]
   /CIgr [1   ]                 /CIgrd  [1   ]
   /CIk  [1   ]
>> def

/bwColorMap
<< /Cr   [0   ]                 /Cg     [0   ]
   /Cb   [0   ]                 /Cc     [0   ]
   /Cm   [0   ]                 /Cy     [0   ]
   /Co   [0   ]                 /Cp     [0   ]
   /Cw   [0   ]                 /Cgrl   [0   ]
   /Cgr  [0   ]                 /Cgrd   [0   ]
   /Ck   [0   ]
   /CGr  [1   ]                 /CGg    [1   ]
   /CGb  [1   ]                 /CGc    [1   ]
   /CGm  [1   ]                 /CGy    [1   ]
   /CGo  [1   ]                 /CGp    [1   ]
   /CGw  [0   ]                 /CGgrl  [1   ]
   /CGgr [1   ]                 /CGgrd  [1   ]
   /CGk  [1   ]
   /CIr  [1   ]                 /CIg    [1   ]
   /CIb  [1   ]                 /CIc    [1   ]
   /CIm  [1   ]                 /CIy    [1   ]
   /CIo  [1   ]                 /CIp    [1   ]
   /CIw  [1   ]                 /CIgrl  [1   ]
   /CIgr [1   ]                 /CIgrd  [1   ]
   /CIk  [1   ]
>> def

%
% The following routines handle the alignment of and printing of
% tagged strings.
%

% Predefine the bounding box values.
/bbllx 0 def /bblly 0 def /bburx 0 def /bbury 0 def

% This routine pops the first unicode character off of a string and returns
% the remainder of the string, the character code of first character,
% and a "true" if the string was non-zero length.
% <string>      popfirst <remaining string> <true>
% <null string> popfirst <false>
/popfirst {
  dup length 1 gt
    {dup 0 get /vg&fbyte exch def
     dup 1 get /vg&cbyte exch def
     dup length 2 sub 2 exch getinterval true}
    {pop false} ifelse
} def

% This routine shows a single unicode character given the font and
% character codes.
% <font code> <char code> unicharshow --
/unicharshow {
  2 string
  dup 0 5 -1 roll put
  dup 1 4 -1 roll put
  internalshow
} def

% This is an internal routine to alternate between determining the
% bounding box for stringsize and showing the string for recshow.
% <string> internalshow --
/internalshow {show} def

% This is an internal routine to alternate between determining the
% bounding box for stringsize and stroking various ornaments.
% <string> internalstroke --
/internalstroke {S} def

% Sets up internalshow to use the null device to determine string size.
% -- nullinternalshow --
/nullinternalshow {/internalshow {false charpath flattenpath
                                  pathbbox updatebbox} def} def

% Sets up internalstroke to use the null device to determine string size.
% -- nullinternalstroke --
/nullinternalstroke {
 /internalstroke {flattenpath pathbbox updatebbox} def} def

% This routine tests to see if the character code matches the first
% character of a string.
% <char code> <string> testchar <char code> <true or false>
/testchar {exch dup 3 -1 roll 0 get eq} def

% Raise the text baseline for superscripts.
% -- raise --
/raise {
  0 fontsize 2 div rmoveto
  /fontsize fontsize 2 mul 3 div def
  currentfont /FontName get fontsize sf
} def

% Un-raise the text baseline for superscripts.
% -- unraise --
/unraise {
  /fontsize fontsize 1.5 mul def
  0 fontsize 2 div neg rmoveto
} def

% Lower the text baseline for subscripts.
% -- lower --
/lower {
  0 fontsize 3 div neg rmoveto
  /fontsize fontsize 2 mul 3 div def
  currentfont /FontName get fontsize sf
} def

% Un-lower the text baseline for subscripts.
% -- unlower --
/unlower {
  /fontsize fontsize 1.5 mul def
  0 fontsize 3 div rmoveto
} def

% Compare the top two elements on the stack and leave only the
% larger one.
/maxval {2 copy gt {pop} {exch pop} ifelse} def

% Tokenize a string.  Do not use the usual PostScript token because
% parentheses will not be interpreted correctly because of rescanning
% of the string.
/vg&token {/vg&string exch def /vg&index -1 def /vg&level 0 def
0 2 vg&string length 2 sub {
  dup dup 1 add exch vg&string exch get 8 bitshift vg&string 3 -1 roll get or
  dup 16#f0fe eq {pop 1}{16#f0ff eq {-1}{0} ifelse} ifelse
  /vg&level exch vg&level add def
  vg&level 0 eq {/vg&index exch def exit} if pop
} for
vg&index 0 ge {
  vg&string vg&index 2 add dup vg&string length exch sub getinterval
  vg&index 2 gt {vg&string 2 vg&index 2 sub getinterval}{()} ifelse
  true}
{false} ifelse
} bind def

% Recursively show an unicode string.
% <string> recshow --
/recshow {
  popfirst
  {
    % Test to see if this is a string attribute.
    vg&fbyte 16#f0 and 16#e0 eq
    {
      q

      % Font style.
      currentfont dup /FontStyleBits known {/FontStyleBits get}{pop 0} ifelse
      vg&cbyte or vg&fontstyles exch get fontsize exch exec

      vg&token pop recshow currentpoint Q m recshow
    }
    {
      vg&fbyte 16#F8 and 16#F0 eq {

        % Superscript and/or subscript.
        vg&cbyte 16#00 eq {
          vg&token pop exch vg&token pop 3 -1 roll
          q raise recshow unraise currentpoint pop Q exch
          q lower recshow unlower currentpoint pop Q
          maxval currentpoint exch pop m recshow } if

        % Strikeout.
        vg&cbyte 16#01 eq {
          vg&token pop currentpoint 3 -1 roll recshow
          q 0 J vg&underline vg&uthick w
          currentpoint 4 -2 roll fontsize 3 div add moveto
          fontsize 3 div add lineto internalstroke Q
          recshow} if

        % Underline.
        vg&cbyte 16#02 eq {
          vg&token pop currentpoint 3 -1 roll recshow
          q 0 J vg&underline vg&uthick w
          currentpoint 4 -2 roll vg&uoffset add moveto
          vg&uoffset add lineto internalstroke Q
          recshow} if

        % Dashed underline.
        vg&cbyte 16#03 eq {
          vg&token pop currentpoint 3 -1 roll recshow
          q 0 J [ vg&uthick 5 mul vg&uthick 2 mul] 0 d
          vg&underline vg&uthick w
          currentpoint 4 -2 roll vg&uoffset add moveto
          vg&uoffset add lineto internalstroke Q
          recshow} if

        % Dotted underline.
        vg&cbyte 16#04 eq {
          vg&token pop currentpoint 3 -1 roll recshow
          q 1 J [ 0 vg&uthick 3 mul] 0 d
          vg&underline vg&uthick w
          currentpoint 4 -2 roll vg&uoffset add moveto
          vg&uoffset add lineto internalstroke Q
          recshow} if

        % Thick underline.
        vg&cbyte 16#05 eq {
          vg&token pop currentpoint 3 -1 roll recshow
          q 0 J vg&underline vg&uthick 2 mul w
          currentpoint 4 -2 roll vg&uoffset vg&uthick 2 div sub add moveto
          vg&uoffset vg&uthick 2 div sub add lineto internalstroke Q
          recshow} if

        % Gray thick underline.
        vg&cbyte 16#06 eq {
          vg&token pop currentpoint 3 -1 roll recshow
          q 0 J vg&underline vg&uthick 2 mul w 0.5 setgray
          currentpoint 4 -2 roll vg&uoffset vg&uthick 2 div sub add moveto
          vg&uoffset vg&uthick 2 div sub add lineto internalstroke Q
          recshow} if

        % Overbar.
        vg&cbyte 16#07 eq {
          vg&token pop dup stringsize relative 4 1 roll pop pop exch
          3 -1 roll recshow
          q 0 J vg&underline vg&uthick w
          vg&uoffset neg add dup currentpoint pop exch m l internalstroke Q
          recshow} if
      }
      {
        vg&fbyte vg&cbyte unicharshow recshow
      } ifelse
    } ifelse
  } if
} def

% Get the underline position and thickness from the current font.
/vg&underline {

currentfont dup /FontType get 0 eq {/FDepVector get 0 get} if
dup dup /FontInfo known {
  /FontInfo get dup
  dup /UnderlinePosition known {
    /UnderlinePosition get /vg&uoffset exch def
  }
  {
    pop /vg&uoffset 0 def
  } ifelse
  dup /UnderlineThickness known {
    /UnderlineThickness get /vg&uthick exch def
  }
  {
    pop /vg&uthick 0 def
  } ifelse
}
{
  pop /vg&uoffset 0 def /vg&uthick 0 def
} ifelse
/FontMatrix get
currentfont dup /FontType get 0 eq
{/FontMatrix get matrix concatmatrix}{pop} ifelse
dup 0 vg&uoffset 3 -1 roll transform /vg&uoffset exch def pop
0 vg&uthick 3 -1 roll transform /vg&uthick exch def pop
} def

% Make a frame with the coordinates on the stack.
% <llx> <lly> <urx> <ury> frame --
/frame {4 copy m 3 1 roll exch l 4 -2 roll l l h} def

% Resets the accumulated bounding box to a degenerate box at the
% current point.
% -- resetbbox --
/resetbbox {
  currentpoint 2 copy
  /bbury exch def
  /bburx exch def
  /bblly exch def
  /bbllx exch def
} def

% Update the accumulated bounding box.
% <llx'> <lly'> <urx'> <ury'> updatebbox --
/updatebbox {
  dup bbury gt {/bbury exch def} {pop} ifelse
  dup bburx gt {/bburx exch def} {pop} ifelse
  dup bblly lt {/bblly exch def} {pop} ifelse
  dup bbllx lt {/bbllx exch def} {pop} ifelse
} def

% Set the bounding box to the values on the stack.
% <llx'> <lly'> <urx'> <ury'> updatebbox --
/restorebbox {
  /bbury exch def /bburx exch def /bblly exch def /bbllx exch def
} def

% Push the accumulated bounding box onto the stack.
% -- pushbbox <llx> <lly> <urx> <ury>
/pushbbox {bbllx bblly bburx bbury} def

% Make the relative bounding box relative to the currentpoint.
% <llx'> <lly'> <urx'> <ury'> inflate <llx> <lly> <urx> <ury>
/inflate {
  2 {fontsize 0.2 mul add 4 1 roll} repeat
  2 {fontsize 0.2 mul sub 4 1 roll} repeat
} def

% Make the relative bounding box relative to the currentpoint.
% <llx'> <lly'> <urx'> <ury'> relative <llx> <lly> <urx> <ury>
/relative {
  currentpoint 3 -1 roll add 3 1 roll add exch 4 2 roll
  currentpoint 3 -1 roll add 3 1 roll add exch 4 2 roll
} def

% Returns the size of a string appropriate for recshow.
% <string> stringsize <llx> <lly> <urx> <ury>
/stringsize {
  pushbbox /internalshow load /internalstroke load 7 -1 roll
  q
  nulldevice 0 0 m
  nullinternalshow nullinternalstroke
  resetbbox
  recshow
  /internalstroke exch def /internalshow exch def
  pushbbox 8 -4 roll restorebbox
  Q
} def

% Calculate values for string positioning.
/calcval {4 copy
  3 -1 roll sub /widy exch def sub neg /widx exch def
  pop pop /dy exch def /dx exch def} def

% Utilities to position a string.
% First letter (U=upper, C=center, B=baseline, L=lower)
% Second letter (L=left, C=center, R=right)
/align [
{calcval dx neg widy dy add neg rmoveto} % UL
{calcval dx neg widy 2 div dy add neg rmoveto} % CL
{calcval dx neg 0 rmoveto} % BL
{calcval dx neg dy neg rmoveto} % LL
{calcval widx dx add neg widy dy add neg rmoveto} % UR
{calcval widx dx add neg widy 2 div dy add neg rmoveto} % CR
{calcval widx dx add neg 0 rmoveto} % BR
{calcval widx dx add neg dy neg rmoveto} % LR
{calcval widx 2 div dx add neg widy dy add neg rmoveto} % UC
{calcval widx 2 div dx add neg widy 2 div dy add neg rmoveto} % CC
{calcval widx 2 div dx add neg 0 rmoveto} % BC
{calcval widx 2 div dx add neg dy neg rmoveto} % LC
] def

/vg&str {m q 1 -1 scale dup stringsize 4 copy align 11 -1 roll get exec
         q inflate relative frame exch exec Q recshow Q} def

end /procDict exch def
%%EndProlog

%%BeginSetup
save
procDict begin
printColorMap begin
404 218 setpagesize
0 0 0 0 setmargins
0 0 setorigin
404 218 setsize
naturalsize
portrait
imagescale
cliptobounds
setbasematrix
/Helvetica 10 sf
defaultGraphicsState
%%EndSetup

0.00000 0.00000 0.00000 RG
[ 1.00000 0.00000 0.00000 1.00000 0.00000 0.00000 ] defaultmatrix matrix concatmatrix setmatrix
cliprestore
1.00000 1.00000 1.00000 RG
newpath
0.00000 0.00000 m
404.000 0.00000 l
404.000 218.000 l
0.00000 218.000 l
0.00000 0.00000 l
h
f
0.00000 0.00000 0.00000 RG
0.00000 0.00000 0.00000 RG
[ 1.00000 0.00000 0.00000 1.00000 0.00000 0.00000 ] defaultmatrix matrix concatmatrix setmatrix
cliprestore
1.00000 1.00000 1.00000 RG
newpath
0.00000 0.00000 m
404.000 0.00000 l
404.000 218.000 l
0.00000 218.000 l
0.00000 0.00000 l
h
f
0.00000 0.00000 0.00000 RG
0 0 404 218 rc
q
[ 1.00000 0.00000 0.00000 1.00000 0.00000 0.00000 ] concat
[ 1.00000 0.00000 0.00000 1.00000 -237.000 -50.0000 ] concat
1.00000 1.00000 1.00000 RG
newpath
237.000 50.0000 m
641.000 50.0000 l
641.000 268.000 l
237.000 268.000 l
237.000 50.0000 l
h
f
0.00000 0.00000 0.00000 RG
[ 1.00000 0.00000 0.00000 1.00000 -237.000 -50.0000 ] defaultmatrix matrix concatmatrix setmatrix
[ 1.00000 0.00000 0.00000 1.00000 -237.000 -50.0000 ] defaultmatrix matrix concatmatrix setmatrix
[ 1.00000 0.00000 0.00000 1.00000 0.00000 0.00000 ] defaultmatrix matrix concatmatrix setmatrix
[ 1.00000 0.00000 0.00000 1.00000 -237.000 -50.0000 ] defaultmatrix matrix concatmatrix setmatrix
1.00000 1.00000 1.00000 RG
newpath
238.030 55.1296 m
268.030 55.1296 l
268.030 85.1296 l
238.030 85.1296 l
238.030 55.1296 l
h
f
0 J
1.45000 M
0.00000 0.00000 0.00000 RG
newpath
238.030 55.1296 m
268.030 55.1296 l
268.030 85.1296 l
238.030 85.1296 l
238.030 55.1296 l
h
S
2 J
10.0000 M
0 J
1.45000 M
newpath
254.088 69.5651 m
254.651 69.6901 255.091 69.9428 255.408 70.3230  c
255.726 70.7032 255.885 71.1745 255.885 71.7370  c
255.885 72.6016 255.588 73.2709 254.994 73.7448  c
254.401 74.2188 253.557 74.4558 252.463 74.4558  c
252.098 74.4558 251.721 74.4193 251.330 74.3464  c
250.940 74.2735 250.541 74.1641 250.135 74.0183  c
250.135 72.8776 l
250.458 73.0651 250.815 73.2084 251.205 73.3073  c
251.596 73.4063 252.005 73.4558 252.432 73.4558  c
253.171 73.4558 253.736 73.3099 254.127 73.0183  c
254.518 72.7266 254.713 72.2995 254.713 71.7370  c
254.713 71.2266 254.531 70.8256 254.166 70.5339  c
253.802 70.2422 253.302 70.0964 252.666 70.0964  c
251.635 70.0964 l
251.635 69.1276 l
252.713 69.1276 l
253.286 69.1276 253.729 69.0105 254.041 68.7761  c
254.354 68.5417 254.510 68.2058 254.510 67.7683  c
254.510 67.3204 254.351 66.9766 254.033 66.7370  c
253.716 66.4974 253.260 66.3776 252.666 66.3776  c
252.333 66.3776 251.981 66.4115 251.611 66.4792  c
251.242 66.5469 250.833 66.6537 250.385 66.7995  c
250.385 65.7526 l
250.843 65.6276 251.268 65.5339 251.658 65.4714  c
252.049 65.4089 252.416 65.3776 252.760 65.3776  c
253.666 65.3776 254.380 65.5808 254.901 65.9870  c
255.421 66.3933 255.682 66.9454 255.682 67.6433  c
255.682 68.1329 255.544 68.5443 255.268 68.8776  c
254.992 69.2110 254.598 69.4401 254.088 69.5651  c
h
f
2 J
10.0000 M
1.00000 1.00000 1.00000 RG
newpath
312.366 55.1296 m
342.366 55.1296 l
342.366 85.1296 l
312.366 85.1296 l
312.366 55.1296 l
h
f
0 J
1.45000 M
0.00000 0.00000 0.00000 RG
newpath
312.366 55.1296 m
342.366 55.1296 l
342.366 85.1296 l
312.366 85.1296 l
312.366 55.1296 l
h
S
2 J
10.0000 M
0 J
1.45000 M
newpath
325.846 73.2839 m
329.987 73.2839 l
329.987 74.2839 l
324.424 74.2839 l
324.424 73.2839 l
324.872 72.8256 325.484 72.2032 326.260 71.4167  c
327.036 70.6303 327.523 70.1224 327.721 69.8933  c
328.106 69.4766 328.375 69.1198 328.526 68.8230  c
328.677 68.5261 328.752 68.2370 328.752 67.9558  c
328.752 67.4870 328.588 67.1068 328.260 66.8151  c
327.932 66.5235 327.507 66.3776 326.987 66.3776  c
326.612 66.3776 326.218 66.4401 325.807 66.5651  c
325.395 66.6901 324.955 66.8881 324.487 67.1589  c
324.487 65.9558 l
324.966 65.7683 325.411 65.6250 325.822 65.5261  c
326.234 65.4271 326.612 65.3776 326.955 65.3776  c
327.862 65.3776 328.585 65.6042 329.127 66.0573  c
329.669 66.5105 329.940 67.1172 329.940 67.8776  c
329.940 68.2318 329.872 68.5704 329.737 68.8933  c
329.601 69.2162 329.356 69.5964 329.002 70.0339  c
328.898 70.1485 328.585 70.4766 328.065 71.0183  c
327.544 71.5599 326.804 72.3151 325.846 73.2839  c
h
f
2 J
10.0000 M
1.00000 1.00000 1.00000 RG
newpath
386.702 55.1296 m
416.702 55.1296 l
416.702 85.1296 l
386.702 85.1296 l
386.702 55.1296 l
h
f
0 J
1.45000 M
0.00000 0.00000 0.00000 RG
newpath
386.702 55.1296 m
416.702 55.1296 l
416.702 85.1296 l
386.702 85.1296 l
386.702 55.1296 l
h
S
2 J
10.0000 M
0 J
1.45000 M
newpath
399.182 65.5339 m
403.823 65.5339 l
403.823 66.5339 l
400.260 66.5339 l
400.260 68.6745 l
400.437 68.6120 400.612 68.5678 400.783 68.5417  c
400.955 68.5157 401.125 68.5026 401.291 68.5026  c
402.270 68.5026 403.046 68.7709 403.619 69.3073  c
404.192 69.8438 404.479 70.5651 404.479 71.4714  c
404.479 72.4193 404.184 73.1537 403.596 73.6745  c
403.007 74.1954 402.182 74.4558 401.119 74.4558  c
400.744 74.4558 400.367 74.4245 399.987 74.3620  c
399.606 74.2995 399.213 74.2058 398.807 74.0808  c
398.807 72.8933 l
399.161 73.0808 399.526 73.2214 399.901 73.3151  c
400.276 73.4089 400.671 73.4558 401.088 73.4558  c
401.765 73.4558 402.302 73.2787 402.698 72.9245  c
403.093 72.5704 403.291 72.0860 403.291 71.4714  c
403.291 70.8672 403.093 70.3881 402.698 70.0339  c
402.302 69.6797 401.765 69.5026 401.088 69.5026  c
400.776 69.5026 400.461 69.5365 400.143 69.6042  c
399.825 69.6719 399.505 69.7787 399.182 69.9245  c
399.182 65.5339 l
h
f
2 J
10.0000 M
1.00000 1.00000 1.00000 RG
newpath
461.038 55.1296 m
491.038 55.1296 l
491.038 85.1296 l
461.038 85.1296 l
461.038 55.1296 l
h
f
0 J
1.45000 M
0.00000 0.00000 0.00000 RG
newpath
461.038 55.1296 m
491.038 55.1296 l
491.038 85.1296 l
461.038 85.1296 l
461.038 55.1296 l
h
S
2 J
10.0000 M
0 J
1.45000 M
newpath
476.190 69.4401 m
475.659 69.4401 475.237 69.6224 474.924 69.9870  c
474.612 70.3516 474.455 70.8464 474.455 71.4714  c
474.455 72.1068 474.612 72.6068 474.924 72.9714  c
475.237 73.3360 475.659 73.5183 476.190 73.5183  c
476.721 73.5183 477.140 73.3360 477.448 72.9714  c
477.755 72.6068 477.909 72.1068 477.909 71.4714  c
477.909 70.8464 477.755 70.3516 477.448 69.9870  c
477.140 69.6224 476.721 69.4401 476.190 69.4401  c
h
478.534 65.7214 m
478.534 66.7995 l
478.231 66.6641 477.929 66.5599 477.627 66.4870  c
477.325 66.4141 477.028 66.3776 476.737 66.3776  c
475.955 66.3776 475.359 66.6407 474.948 67.1667  c
474.536 67.6928 474.299 68.4870 474.237 69.5495  c
474.466 69.2162 474.755 68.9584 475.104 68.7761  c
475.453 68.5938 475.836 68.5026 476.252 68.5026  c
477.127 68.5026 477.820 68.7683 478.330 69.2995  c
478.841 69.8308 479.096 70.5547 479.096 71.4714  c
479.096 72.3776 478.830 73.1016 478.299 73.6433  c
477.768 74.1849 477.065 74.4558 476.190 74.4558  c
475.169 74.4558 474.393 74.0678 473.862 73.2917  c
473.330 72.5157 473.065 71.3933 473.065 69.9245  c
473.065 68.5391 473.393 67.4349 474.049 66.6120  c
474.705 65.7891 475.586 65.3776 476.690 65.3776  c
476.981 65.3776 477.278 65.4063 477.580 65.4636  c
477.882 65.5209 478.200 65.6068 478.534 65.7214  c
h
f
2 J
10.0000 M
1.00000 1.00000 1.00000 RG
newpath
535.374 55.1296 m
565.374 55.1296 l
565.374 85.1296 l
535.374 85.1296 l
535.374 55.1296 l
h
f
0 J
1.45000 M
0.00000 0.00000 0.00000 RG
newpath
535.374 55.1296 m
565.374 55.1296 l
565.374 85.1296 l
535.374 85.1296 l
535.374 55.1296 l
h
S
2 J
10.0000 M
0 J
1.45000 M
newpath
551.088 66.5651 m
548.104 71.2370 l
551.088 71.2370 l
551.088 66.5651 l
h
550.776 65.5339 m
552.276 65.5339 l
552.276 71.2370 l
553.526 71.2370 l
553.526 72.2214 l
552.276 72.2214 l
552.276 74.2839 l
551.088 74.2839 l
551.088 72.2214 l
547.151 72.2214 l
547.151 71.0808 l
550.776 65.5339 l
h
f
2 J
10.0000 M
1.00000 1.00000 1.00000 RG
newpath
609.710 55.1296 m
639.710 55.1296 l
639.710 85.1296 l
609.710 85.1296 l
609.710 55.1296 l
h
f
0 J
1.45000 M
0.00000 0.00000 0.00000 RG
newpath
609.710 55.1296 m
639.710 55.1296 l
639.710 85.1296 l
609.710 85.1296 l
609.710 55.1296 l
h
S
2 J
10.0000 M
0 J
1.45000 M
newpath
622.377 73.2839 m
624.315 73.2839 l
624.315 66.6120 l
622.206 67.0339 l
622.206 65.9558 l
624.299 65.5339 l
625.487 65.5339 l
625.487 73.2839 l
627.424 73.2839 l
627.424 74.2839 l
622.377 74.2839 l
622.377 73.2839 l
h
f
2 J
10.0000 M
1.00000 1.00000 1.00000 RG
newpath
238.030 99.5696 m
268.030 99.5696 l
268.030 129.570 l
238.030 129.570 l
238.030 99.5696 l
h
f
0 J
1.45000 M
0.00000 0.00000 0.00000 RG
newpath
238.030 99.5696 m
268.030 99.5696 l
268.030 129.570 l
238.030 129.570 l
238.030 99.5696 l
h
S
2 J
10.0000 M
0 J
1.45000 M
newpath
251.510 117.724 m
255.651 117.724 l
255.651 118.724 l
250.088 118.724 l
250.088 117.724 l
250.536 117.266 251.148 116.643 251.924 115.857  c
252.700 115.070 253.187 114.562 253.385 114.333  c
253.770 113.917 254.039 113.560 254.190 113.263  c
254.341 112.966 254.416 112.677 254.416 112.396  c
254.416 111.927 254.252 111.547 253.924 111.255  c
253.596 110.963 253.171 110.818 252.651 110.818  c
252.276 110.818 251.882 110.880 251.471 111.005  c
251.059 111.130 250.619 111.328 250.151 111.599  c
250.151 110.396 l
250.630 110.208 251.075 110.065 251.486 109.966  c
251.898 109.867 252.276 109.818 252.619 109.818  c
253.526 109.818 254.249 110.044 254.791 110.497  c
255.333 110.950 255.604 111.557 255.604 112.318  c
255.604 112.672 255.536 113.010 255.401 113.333  c
255.265 113.656 255.020 114.036 254.666 114.474  c
254.562 114.588 254.249 114.917 253.729 115.458  c
253.208 116.000 252.468 116.755 251.510 117.724  c
h
f
2 J
10.0000 M
1.00000 1.00000 1.00000 RG
newpath
312.366 99.5696 m
342.366 99.5696 l
342.366 129.570 l
312.366 129.570 l
312.366 99.5696 l
h
f
0 J
1.45000 M
0.00000 0.00000 0.00000 RG
newpath
312.366 99.5696 m
342.366 99.5696 l
342.366 129.570 l
312.366 129.570 l
312.366 99.5696 l
h
S
2 J
10.0000 M
0 J
1.45000 M
newpath
328.424 114.005 m
328.987 114.130 329.427 114.383 329.744 114.763  c
330.062 115.143 330.221 115.615 330.221 116.177  c
330.221 117.042 329.924 117.711 329.330 118.185  c
328.737 118.659 327.893 118.896 326.799 118.896  c
326.434 118.896 326.057 118.859 325.666 118.786  c
325.276 118.713 324.877 118.604 324.471 118.458  c
324.471 117.318 l
324.794 117.505 325.151 117.648 325.541 117.747  c
325.932 117.846 326.341 117.896 326.768 117.896  c
327.507 117.896 328.072 117.750 328.463 117.458  c
328.854 117.167 329.049 116.740 329.049 116.177  c
329.049 115.667 328.867 115.266 328.502 114.974  c
328.138 114.682 327.638 114.536 327.002 114.536  c
325.971 114.536 l
325.971 113.568 l
327.049 113.568 l
327.622 113.568 328.065 113.450 328.377 113.216  c
328.690 112.982 328.846 112.646 328.846 112.208  c
328.846 111.760 328.687 111.417 328.369 111.177  c
328.052 110.937 327.596 110.818 327.002 110.818  c
326.669 110.818 326.317 110.852 325.947 110.919  c
325.578 110.987 325.169 111.094 324.721 111.240  c
324.721 110.193 l
325.179 110.068 325.604 109.974 325.994 109.911  c
326.385 109.849 326.752 109.818 327.096 109.818  c
328.002 109.818 328.716 110.021 329.237 110.427  c
329.757 110.833 330.018 111.385 330.018 112.083  c
330.018 112.573 329.880 112.984 329.604 113.318  c
329.328 113.651 328.934 113.880 328.424 114.005  c
h
f
2 J
10.0000 M
1.00000 1.00000 1.00000 RG
newpath
386.702 99.5696 m
416.702 99.5696 l
416.702 129.570 l
386.702 129.570 l
386.702 99.5696 l
h
f
0 J
1.45000 M
0.00000 0.00000 0.00000 RG
newpath
386.702 99.5696 m
416.702 99.5696 l
416.702 129.570 l
386.702 129.570 l
386.702 99.5696 l
h
S
2 J
10.0000 M
0 J
1.45000 M
newpath
399.182 109.974 m
403.823 109.974 l
403.823 110.974 l
400.260 110.974 l
400.260 113.115 l
400.437 113.052 400.612 113.008 400.783 112.982  c
400.955 112.956 401.125 112.943 401.291 112.943  c
402.270 112.943 403.046 113.211 403.619 113.747  c
404.192 114.284 404.479 115.005 404.479 115.911  c
404.479 116.859 404.184 117.594 403.596 118.115  c
403.007 118.635 402.182 118.896 401.119 118.896  c
400.744 118.896 400.367 118.865 399.987 118.802  c
399.606 118.740 399.213 118.646 398.807 118.521  c
398.807 117.333 l
399.161 117.521 399.526 117.661 399.901 117.755  c
400.276 117.849 400.671 117.896 401.088 117.896  c
401.765 117.896 402.302 117.719 402.698 117.365  c
403.093 117.010 403.291 116.526 403.291 115.911  c
403.291 115.307 403.093 114.828 402.698 114.474  c
402.302 114.120 401.765 113.943 401.088 113.943  c
400.776 113.943 400.461 113.977 400.143 114.044  c
399.825 114.112 399.505 114.219 399.182 114.365  c
399.182 109.974 l
h
f
2 J
10.0000 M
1.00000 1.00000 1.00000 RG
newpath
461.038 99.5696 m
491.038 99.5696 l
491.038 129.570 l
461.038 129.570 l
461.038 99.5696 l
h
f
0 J
1.45000 M
0.00000 0.00000 0.00000 RG
newpath
461.038 99.5696 m
491.038 99.5696 l
491.038 129.570 l
461.038 129.570 l
461.038 99.5696 l
h
S
2 J
10.0000 M
0 J
1.45000 M
newpath
476.190 113.880 m
475.659 113.880 475.237 114.062 474.924 114.427  c
474.612 114.792 474.455 115.286 474.455 115.911  c
474.455 116.547 474.612 117.047 474.924 117.411  c
475.237 117.776 475.659 117.958 476.190 117.958  c
476.721 117.958 477.140 117.776 477.448 117.411  c
477.755 117.047 477.909 116.547 477.909 115.911  c
477.909 115.286 477.755 114.792 477.448 114.427  c
477.140 114.062 476.721 113.880 476.190 113.880  c
h
478.534 110.161 m
478.534 111.240 l
478.231 111.104 477.929 111.000 477.627 110.927  c
477.325 110.854 477.028 110.818 476.737 110.818  c
475.955 110.818 475.359 111.081 474.948 111.607  c
474.536 112.133 474.299 112.927 474.237 113.990  c
474.466 113.656 474.755 113.398 475.104 113.216  c
475.453 113.034 475.836 112.943 476.252 112.943  c
477.127 112.943 477.820 113.208 478.330 113.740  c
478.841 114.271 479.096 114.995 479.096 115.911  c
479.096 116.818 478.830 117.542 478.299 118.083  c
477.768 118.625 477.065 118.896 476.190 118.896  c
475.169 118.896 474.393 118.508 473.862 117.732  c
473.330 116.956 473.065 115.833 473.065 114.365  c
473.065 112.979 473.393 111.875 474.049 111.052  c
474.705 110.229 475.586 109.818 476.690 109.818  c
476.981 109.818 477.278 109.846 477.580 109.904  c
477.882 109.961 478.200 110.047 478.534 110.161  c
h
f
2 J
10.0000 M
1.00000 1.00000 1.00000 RG
newpath
535.374 99.5696 m
565.374 99.5696 l
565.374 129.570 l
535.374 129.570 l
535.374 99.5696 l
h
f
0 J
1.45000 M
0.00000 0.00000 0.00000 RG
newpath
535.374 99.5696 m
565.374 99.5696 l
565.374 129.570 l
535.374 129.570 l
535.374 99.5696 l
h
S
2 J
10.0000 M
0 J
1.45000 M
newpath
551.088 111.005 m
548.104 115.677 l
551.088 115.677 l
551.088 111.005 l
h
550.776 109.974 m
552.276 109.974 l
552.276 115.677 l
553.526 115.677 l
553.526 116.661 l
552.276 116.661 l
552.276 118.724 l
551.088 118.724 l
551.088 116.661 l
547.151 116.661 l
547.151 115.521 l
550.776 109.974 l
h
f
2 J
10.0000 M
1.00000 1.00000 1.00000 RG
newpath
609.710 99.5696 m
639.710 99.5696 l
639.710 129.570 l
609.710 129.570 l
609.710 99.5696 l
h
f
0 J
1.45000 M
0.00000 0.00000 0.00000 RG
newpath
609.710 99.5696 m
639.710 99.5696 l
639.710 129.570 l
609.710 129.570 l
609.710 99.5696 l
h
S
2 J
10.0000 M
0 J
1.45000 M
newpath
622.377 117.724 m
624.315 117.724 l
624.315 111.052 l
622.206 111.474 l
622.206 110.396 l
624.299 109.974 l
625.487 109.974 l
625.487 117.724 l
627.424 117.724 l
627.424 118.724 l
622.377 118.724 l
622.377 117.724 l
h
f
2 J
10.0000 M
1.00000 1.00000 1.00000 RG
newpath
238.030 144.010 m
268.030 144.010 l
268.030 174.010 l
238.030 174.010 l
238.030 144.010 l
h
f
0 J
1.45000 M
0.00000 0.00000 0.00000 RG
newpath
238.030 144.010 m
268.030 144.010 l
268.030 174.010 l
238.030 174.010 l
238.030 144.010 l
h
S
2 J
10.0000 M
0 J
1.45000 M
newpath
251.510 162.164 m
255.651 162.164 l
255.651 163.164 l
250.088 163.164 l
250.088 162.164 l
250.536 161.706 251.148 161.083 251.924 160.297  c
252.700 159.510 253.187 159.002 253.385 158.773  c
253.770 158.357 254.039 158.000 254.190 157.703  c
254.341 157.406 254.416 157.117 254.416 156.836  c
254.416 156.367 254.252 155.987 253.924 155.695  c
253.596 155.403 253.171 155.258 252.651 155.258  c
252.276 155.258 251.882 155.320 251.471 155.445  c
251.059 155.570 250.619 155.768 250.151 156.039  c
250.151 154.836 l
250.630 154.648 251.075 154.505 251.486 154.406  c
251.898 154.307 252.276 154.258 252.619 154.258  c
253.526 154.258 254.249 154.484 254.791 154.937  c
255.333 155.390 255.604 155.997 255.604 156.758  c
255.604 157.112 255.536 157.450 255.401 157.773  c
255.265 158.096 255.020 158.476 254.666 158.914  c
254.562 159.028 254.249 159.357 253.729 159.898  c
253.208 160.440 252.468 161.195 251.510 162.164  c
h
f
2 J
10.0000 M
1.00000 1.00000 1.00000 RG
newpath
312.366 144.010 m
342.366 144.010 l
342.366 174.010 l
312.366 174.010 l
312.366 144.010 l
h
f
0 J
1.45000 M
0.00000 0.00000 0.00000 RG
newpath
312.366 144.010 m
342.366 144.010 l
342.366 174.010 l
312.366 174.010 l
312.366 144.010 l
h
S
2 J
10.0000 M
0 J
1.45000 M
newpath
328.424 158.445 m
328.987 158.570 329.427 158.823 329.744 159.203  c
330.062 159.583 330.221 160.055 330.221 160.617  c
330.221 161.482 329.924 162.151 329.330 162.625  c
328.737 163.099 327.893 163.336 326.799 163.336  c
326.434 163.336 326.057 163.299 325.666 163.226  c
325.276 163.153 324.877 163.044 324.471 162.898  c
324.471 161.758 l
324.794 161.945 325.151 162.088 325.541 162.187  c
325.932 162.286 326.341 162.336 326.768 162.336  c
327.507 162.336 328.072 162.190 328.463 161.898  c
328.854 161.607 329.049 161.180 329.049 160.617  c
329.049 160.107 328.867 159.706 328.502 159.414  c
328.138 159.122 327.638 158.976 327.002 158.976  c
325.971 158.976 l
325.971 158.008 l
327.049 158.008 l
327.622 158.008 328.065 157.890 328.377 157.656  c
328.690 157.422 328.846 157.086 328.846 156.648  c
328.846 156.200 328.687 155.857 328.369 155.617  c
328.052 155.377 327.596 155.258 327.002 155.258  c
326.669 155.258 326.317 155.291 325.947 155.359  c
325.578 155.427 325.169 155.534 324.721 155.680  c
324.721 154.633 l
325.179 154.508 325.604 154.414 325.994 154.351  c
326.385 154.289 326.752 154.258 327.096 154.258  c
328.002 154.258 328.716 154.461 329.237 154.867  c
329.757 155.273 330.018 155.825 330.018 156.523  c
330.018 157.013 329.880 157.424 329.604 157.758  c
329.328 158.091 328.934 158.320 328.424 158.445  c
h
f
2 J
10.0000 M
1.00000 1.00000 1.00000 RG
newpath
386.702 144.010 m
416.702 144.010 l
416.702 174.010 l
386.702 174.010 l
386.702 144.010 l
h
f
0 J
1.45000 M
0.00000 0.00000 0.00000 RG
newpath
386.702 144.010 m
416.702 144.010 l
416.702 174.010 l
386.702 174.010 l
386.702 144.010 l
h
S
2 J
10.0000 M
0 J
1.45000 M
newpath
399.182 154.414 m
403.823 154.414 l
403.823 155.414 l
400.260 155.414 l
400.260 157.555 l
400.437 157.492 400.612 157.448 400.783 157.422  c
400.955 157.396 401.125 157.383 401.291 157.383  c
402.270 157.383 403.046 157.651 403.619 158.187  c
404.192 158.724 404.479 159.445 404.479 160.351  c
404.479 161.299 404.184 162.034 403.596 162.555  c
403.007 163.075 402.182 163.336 401.119 163.336  c
400.744 163.336 400.367 163.305 399.987 163.242  c
399.606 163.180 399.213 163.086 398.807 162.961  c
398.807 161.773 l
399.161 161.961 399.526 162.101 399.901 162.195  c
400.276 162.289 400.671 162.336 401.088 162.336  c
401.765 162.336 402.302 162.159 402.698 161.805  c
403.093 161.450 403.291 160.966 403.291 160.351  c
403.291 159.747 403.093 159.268 402.698 158.914  c
402.302 158.560 401.765 158.383 401.088 158.383  c
400.776 158.383 400.461 158.416 400.143 158.484  c
399.825 158.552 399.505 158.659 399.182 158.805  c
399.182 154.414 l
h
f
2 J
10.0000 M
1.00000 1.00000 1.00000 RG
newpath
461.038 144.010 m
491.038 144.010 l
491.038 174.010 l
461.038 174.010 l
461.038 144.010 l
h
f
0 J
1.45000 M
0.00000 0.00000 0.00000 RG
newpath
461.038 144.010 m
491.038 144.010 l
491.038 174.010 l
461.038 174.010 l
461.038 144.010 l
h
S
2 J
10.0000 M
0 J
1.45000 M
newpath
476.190 158.320 m
475.659 158.320 475.237 158.502 474.924 158.867  c
474.612 159.232 474.455 159.726 474.455 160.351  c
474.455 160.987 474.612 161.487 474.924 161.851  c
475.237 162.216 475.659 162.398 476.190 162.398  c
476.721 162.398 477.140 162.216 477.448 161.851  c
477.755 161.487 477.909 160.987 477.909 160.351  c
477.909 159.726 477.755 159.232 477.448 158.867  c
477.140 158.502 476.721 158.320 476.190 158.320  c
h
478.534 154.601 m
478.534 155.680 l
478.231 155.544 477.929 155.440 477.627 155.367  c
477.325 155.294 477.028 155.258 476.737 155.258  c
475.955 155.258 475.359 155.521 474.948 156.047  c
474.536 156.573 474.299 157.367 474.237 158.430  c
474.466 158.096 474.755 157.838 475.104 157.656  c
475.453 157.474 475.836 157.383 476.252 157.383  c
477.127 157.383 477.820 157.648 478.330 158.180  c
478.841 158.711 479.096 159.435 479.096 160.351  c
479.096 161.258 478.830 161.982 478.299 162.523  c
477.768 163.065 477.065 163.336 476.190 163.336  c
475.169 163.336 474.393 162.948 473.862 162.172  c
473.330 161.396 473.065 160.273 473.065 158.805  c
473.065 157.419 473.393 156.315 474.049 155.492  c
474.705 154.669 475.586 154.258 476.690 154.258  c
476.981 154.258 477.278 154.286 477.580 154.344  c
477.882 154.401 478.200 154.487 478.534 154.601  c
h
f
2 J
10.0000 M
1.00000 1.00000 1.00000 RG
newpath
535.374 144.010 m
565.374 144.010 l
565.374 174.010 l
535.374 174.010 l
535.374 144.010 l
h
f
0 J
1.45000 M
0.00000 0.00000 0.00000 RG
newpath
535.374 144.010 m
565.374 144.010 l
565.374 174.010 l
535.374 174.010 l
535.374 144.010 l
h
S
2 J
10.0000 M
0 J
1.45000 M
newpath
551.088 155.445 m
548.104 160.117 l
551.088 160.117 l
551.088 155.445 l
h
550.776 154.414 m
552.276 154.414 l
552.276 160.117 l
553.526 160.117 l
553.526 161.101 l
552.276 161.101 l
552.276 163.164 l
551.088 163.164 l
551.088 161.101 l
547.151 161.101 l
547.151 159.961 l
550.776 154.414 l
h
f
2 J
10.0000 M
1.00000 1.00000 1.00000 RG
newpath
609.710 144.010 m
639.710 144.010 l
639.710 174.010 l
609.710 174.010 l
609.710 144.010 l
h
f
0 J
1.45000 M
0.00000 0.00000 0.00000 RG
newpath
609.710 144.010 m
639.710 144.010 l
639.710 174.010 l
609.710 174.010 l
609.710 144.010 l
h
S
2 J
10.0000 M
0 J
1.45000 M
newpath
622.377 162.164 m
624.315 162.164 l
624.315 155.492 l
622.206 155.914 l
622.206 154.836 l
624.299 154.414 l
625.487 154.414 l
625.487 162.164 l
627.424 162.164 l
627.424 163.164 l
622.377 163.164 l
622.377 162.164 l
h
f
2 J
10.0000 M
1.00000 1.00000 1.00000 RG
newpath
238.030 188.450 m
268.030 188.450 l
268.030 218.450 l
238.030 218.450 l
238.030 188.450 l
h
f
0 J
1.45000 M
0.00000 0.00000 0.00000 RG
newpath
238.030 188.450 m
268.030 188.450 l
268.030 218.450 l
238.030 218.450 l
238.030 188.450 l
h
S
2 J
10.0000 M
0 J
1.45000 M
newpath
251.510 206.604 m
255.651 206.604 l
255.651 207.604 l
250.088 207.604 l
250.088 206.604 l
250.536 206.146 251.148 205.523 251.924 204.737  c
252.700 203.950 253.187 203.442 253.385 203.213  c
253.770 202.797 254.039 202.440 254.190 202.143  c
254.341 201.846 254.416 201.557 254.416 201.276  c
254.416 200.807 254.252 200.427 253.924 200.135  c
253.596 199.843 253.171 199.698 252.651 199.698  c
252.276 199.698 251.882 199.760 251.471 199.885  c
251.059 200.010 250.619 200.208 250.151 200.479  c
250.151 199.276 l
250.630 199.088 251.075 198.945 251.486 198.846  c
251.898 198.747 252.276 198.698 252.619 198.698  c
253.526 198.698 254.249 198.924 254.791 199.377  c
255.333 199.830 255.604 200.437 255.604 201.198  c
255.604 201.552 255.536 201.890 255.401 202.213  c
255.265 202.536 255.020 202.916 254.666 203.354  c
254.562 203.468 254.249 203.797 253.729 204.338  c
253.208 204.880 252.468 205.635 251.510 206.604  c
h
f
2 J
10.0000 M
1.00000 1.00000 1.00000 RG
newpath
312.366 188.450 m
342.366 188.450 l
342.366 218.450 l
312.366 218.450 l
312.366 188.450 l
h
f
0 J
1.45000 M
0.00000 0.00000 0.00000 RG
newpath
312.366 188.450 m
342.366 188.450 l
342.366 218.450 l
312.366 218.450 l
312.366 188.450 l
h
S
2 J
10.0000 M
0 J
1.45000 M
newpath
328.424 202.885 m
328.987 203.010 329.427 203.263 329.744 203.643  c
330.062 204.023 330.221 204.495 330.221 205.057  c
330.221 205.922 329.924 206.591 329.330 207.065  c
328.737 207.539 327.893 207.776 326.799 207.776  c
326.434 207.776 326.057 207.739 325.666 207.666  c
325.276 207.593 324.877 207.484 324.471 207.338  c
324.471 206.198 l
324.794 206.385 325.151 206.528 325.541 206.627  c
325.932 206.726 326.341 206.776 326.768 206.776  c
327.507 206.776 328.072 206.630 328.463 206.338  c
328.854 206.047 329.049 205.620 329.049 205.057  c
329.049 204.547 328.867 204.146 328.502 203.854  c
328.138 203.562 327.638 203.416 327.002 203.416  c
325.971 203.416 l
325.971 202.448 l
327.049 202.448 l
327.622 202.448 328.065 202.330 328.377 202.096  c
328.690 201.862 328.846 201.526 328.846 201.088  c
328.846 200.640 328.687 200.297 328.369 200.057  c
328.052 199.817 327.596 199.698 327.002 199.698  c
326.669 199.698 326.317 199.732 325.947 199.799  c
325.578 199.867 325.169 199.974 324.721 200.120  c
324.721 199.073 l
325.179 198.948 325.604 198.854 325.994 198.791  c
326.385 198.729 326.752 198.698 327.096 198.698  c
328.002 198.698 328.716 198.901 329.237 199.307  c
329.757 199.713 330.018 200.265 330.018 200.963  c
330.018 201.453 329.880 201.864 329.604 202.198  c
329.328 202.531 328.934 202.760 328.424 202.885  c
h
f
2 J
10.0000 M
1.00000 1.00000 1.00000 RG
newpath
386.702 188.450 m
416.702 188.450 l
416.702 218.450 l
386.702 218.450 l
386.702 188.450 l
h
f
0 J
1.45000 M
0.00000 0.00000 0.00000 RG
newpath
386.702 188.450 m
416.702 188.450 l
416.702 218.450 l
386.702 218.450 l
386.702 188.450 l
h
S
2 J
10.0000 M
0 J
1.45000 M
newpath
399.182 198.854 m
403.823 198.854 l
403.823 199.854 l
400.260 199.854 l
400.260 201.995 l
400.437 201.932 400.612 201.888 400.783 201.862  c
400.955 201.836 401.125 201.823 401.291 201.823  c
402.270 201.823 403.046 202.091 403.619 202.627  c
404.192 203.164 404.479 203.885 404.479 204.791  c
404.479 205.739 404.184 206.474 403.596 206.995  c
403.007 207.515 402.182 207.776 401.119 207.776  c
400.744 207.776 400.367 207.745 399.987 207.682  c
399.606 207.620 399.213 207.526 398.807 207.401  c
398.807 206.213 l
399.161 206.401 399.526 206.541 399.901 206.635  c
400.276 206.729 400.671 206.776 401.088 206.776  c
401.765 206.776 402.302 206.599 402.698 206.245  c
403.093 205.890 403.291 205.406 403.291 204.791  c
403.291 204.187 403.093 203.708 402.698 203.354  c
402.302 203.000 401.765 202.823 401.088 202.823  c
400.776 202.823 400.461 202.857 400.143 202.924  c
399.825 202.992 399.505 203.099 399.182 203.245  c
399.182 198.854 l
h
f
2 J
10.0000 M
1.00000 1.00000 1.00000 RG
newpath
461.038 188.450 m
491.038 188.450 l
491.038 218.450 l
461.038 218.450 l
461.038 188.450 l
h
f
0 J
1.45000 M
0.00000 0.00000 0.00000 RG
newpath
461.038 188.450 m
491.038 188.450 l
491.038 218.450 l
461.038 218.450 l
461.038 188.450 l
h
S
2 J
10.0000 M
0 J
1.45000 M
newpath
476.190 202.760 m
475.659 202.760 475.237 202.942 474.924 203.307  c
474.612 203.672 474.455 204.166 474.455 204.791  c
474.455 205.427 474.612 205.927 474.924 206.291  c
475.237 206.656 475.659 206.838 476.190 206.838  c
476.721 206.838 477.140 206.656 477.448 206.291  c
477.755 205.927 477.909 205.427 477.909 204.791  c
477.909 204.166 477.755 203.672 477.448 203.307  c
477.140 202.942 476.721 202.760 476.190 202.760  c
h
478.534 199.041 m
478.534 200.120 l
478.231 199.984 477.929 199.880 477.627 199.807  c
477.325 199.734 477.028 199.698 476.737 199.698  c
475.955 199.698 475.359 199.961 474.948 200.487  c
474.536 201.013 474.299 201.807 474.237 202.870  c
474.466 202.536 474.755 202.278 475.104 202.096  c
475.453 201.914 475.836 201.823 476.252 201.823  c
477.127 201.823 477.820 202.088 478.330 202.620  c
478.841 203.151 479.096 203.875 479.096 204.791  c
479.096 205.698 478.830 206.422 478.299 206.963  c
477.768 207.505 477.065 207.776 476.190 207.776  c
475.169 207.776 474.393 207.388 473.862 206.612  c
473.330 205.836 473.065 204.713 473.065 203.245  c
473.065 201.859 473.393 200.755 474.049 199.932  c
474.705 199.109 475.586 198.698 476.690 198.698  c
476.981 198.698 477.278 198.726 477.580 198.784  c
477.882 198.841 478.200 198.927 478.534 199.041  c
h
f
2 J
10.0000 M
1.00000 1.00000 1.00000 RG
newpath
535.374 188.450 m
565.374 188.450 l
565.374 218.450 l
535.374 218.450 l
535.374 188.450 l
h
f
0 J
1.45000 M
0.00000 0.00000 0.00000 RG
newpath
535.374 188.450 m
565.374 188.450 l
565.374 218.450 l
535.374 218.450 l
535.374 188.450 l
h
S
2 J
10.0000 M
0 J
1.45000 M
newpath
551.088 199.885 m
548.104 204.557 l
551.088 204.557 l
551.088 199.885 l
h
550.776 198.854 m
552.276 198.854 l
552.276 204.557 l
553.526 204.557 l
553.526 205.541 l
552.276 205.541 l
552.276 207.604 l
551.088 207.604 l
551.088 205.541 l
547.151 205.541 l
547.151 204.401 l
550.776 198.854 l
h
f
2 J
10.0000 M
1.00000 1.00000 1.00000 RG
newpath
609.710 188.450 m
639.710 188.450 l
639.710 218.450 l
609.710 218.450 l
609.710 188.450 l
h
f
0 J
1.45000 M
0.00000 0.00000 0.00000 RG
newpath
609.710 188.450 m
639.710 188.450 l
639.710 218.450 l
609.710 218.450 l
609.710 188.450 l
h
S
2 J
10.0000 M
0 J
1.45000 M
newpath
622.377 206.604 m
624.315 206.604 l
624.315 199.932 l
622.206 200.354 l
622.206 199.276 l
624.299 198.854 l
625.487 198.854 l
625.487 206.604 l
627.424 206.604 l
627.424 207.604 l
622.377 207.604 l
622.377 206.604 l
h
f
2 J
10.0000 M
1.00000 1.00000 1.00000 RG
newpath
238.030 232.890 m
268.030 232.890 l
268.030 262.890 l
238.030 262.890 l
238.030 232.890 l
h
f
0 J
1.45000 M
0.00000 0.00000 0.00000 RG
newpath
238.030 232.890 m
268.030 232.890 l
268.030 262.890 l
238.030 262.890 l
238.030 232.890 l
h
S
2 J
10.0000 M
0 J
1.45000 M
newpath
251.510 251.044 m
255.651 251.044 l
255.651 252.044 l
250.088 252.044 l
250.088 251.044 l
250.536 250.586 251.148 249.963 251.924 249.177  c
252.700 248.390 253.187 247.882 253.385 247.653  c
253.770 247.237 254.039 246.880 254.190 246.583  c
254.341 246.286 254.416 245.997 254.416 245.716  c
254.416 245.247 254.252 244.867 253.924 244.575  c
253.596 244.283 253.171 244.138 252.651 244.138  c
252.276 244.138 251.882 244.200 251.471 244.325  c
251.059 244.450 250.619 244.648 250.151 244.919  c
250.151 243.716 l
250.630 243.528 251.075 243.385 251.486 243.286  c
251.898 243.187 252.276 243.138 252.619 243.138  c
253.526 243.138 254.249 243.364 254.791 243.817  c
255.333 244.270 255.604 244.877 255.604 245.638  c
255.604 245.992 255.536 246.330 255.401 246.653  c
255.265 246.976 255.020 247.356 254.666 247.794  c
254.562 247.908 254.249 248.237 253.729 248.778  c
253.208 249.320 252.468 250.075 251.510 251.044  c
h
f
2 J
10.0000 M
1.00000 1.00000 1.00000 RG
newpath
312.366 232.890 m
342.366 232.890 l
342.366 262.890 l
312.366 262.890 l
312.366 232.890 l
h
f
0 J
1.45000 M
0.00000 0.00000 0.00000 RG
newpath
312.366 232.890 m
342.366 232.890 l
342.366 262.890 l
312.366 262.890 l
312.366 232.890 l
h
S
2 J
10.0000 M
0 J
1.45000 M
newpath
328.424 247.325 m
328.987 247.450 329.427 247.703 329.744 248.083  c
330.062 248.463 330.221 248.935 330.221 249.497  c
330.221 250.362 329.924 251.031 329.330 251.505  c
328.737 251.979 327.893 252.216 326.799 252.216  c
326.434 252.216 326.057 252.179 325.666 252.106  c
325.276 252.033 324.877 251.924 324.471 251.778  c
324.471 250.638 l
324.794 250.825 325.151 250.968 325.541 251.067  c
325.932 251.166 326.341 251.216 326.768 251.216  c
327.507 251.216 328.072 251.070 328.463 250.778  c
328.854 250.487 329.049 250.060 329.049 249.497  c
329.049 248.987 328.867 248.586 328.502 248.294  c
328.138 248.002 327.638 247.856 327.002 247.856  c
325.971 247.856 l
325.971 246.888 l
327.049 246.888 l
327.622 246.888 328.065 246.770 328.377 246.536  c
328.690 246.302 328.846 245.966 328.846 245.528  c
328.846 245.080 328.687 244.737 328.369 244.497  c
328.052 244.257 327.596 244.138 327.002 244.138  c
326.669 244.138 326.317 244.172 325.947 244.239  c
325.578 244.307 325.169 244.414 324.721 244.560  c
324.721 243.513 l
325.179 243.388 325.604 243.294 325.994 243.231  c
326.385 243.169 326.752 243.138 327.096 243.138  c
328.002 243.138 328.716 243.341 329.237 243.747  c
329.757 244.153 330.018 244.705 330.018 245.403  c
330.018 245.893 329.880 246.304 329.604 246.638  c
329.328 246.971 328.934 247.200 328.424 247.325  c
h
f
2 J
10.0000 M
1.00000 1.00000 1.00000 RG
newpath
386.702 232.890 m
416.702 232.890 l
416.702 262.890 l
386.702 262.890 l
386.702 232.890 l
h
f
0 J
1.45000 M
0.00000 0.00000 0.00000 RG
newpath
386.702 232.890 m
416.702 232.890 l
416.702 262.890 l
386.702 262.890 l
386.702 232.890 l
h
S
2 J
10.0000 M
0 J
1.45000 M
newpath
399.182 243.294 m
403.823 243.294 l
403.823 244.294 l
400.260 244.294 l
400.260 246.435 l
400.437 246.372 400.612 246.328 400.783 246.302  c
400.955 246.276 401.125 246.263 401.291 246.263  c
402.270 246.263 403.046 246.531 403.619 247.067  c
404.192 247.604 404.479 248.325 404.479 249.231  c
404.479 250.179 404.184 250.914 403.596 251.435  c
403.007 251.955 402.182 252.216 401.119 252.216  c
400.744 252.216 400.367 252.185 399.987 252.122  c
399.606 252.060 399.213 251.966 398.807 251.841  c
398.807 250.653 l
399.161 250.841 399.526 250.981 399.901 251.075  c
400.276 251.169 400.671 251.216 401.088 251.216  c
401.765 251.216 402.302 251.039 402.698 250.685  c
403.093 250.330 403.291 249.846 403.291 249.231  c
403.291 248.627 403.093 248.148 402.698 247.794  c
402.302 247.440 401.765 247.263 401.088 247.263  c
400.776 247.263 400.461 247.297 400.143 247.364  c
399.825 247.432 399.505 247.539 399.182 247.685  c
399.182 243.294 l
h
f
2 J
10.0000 M
1.00000 1.00000 1.00000 RG
newpath
461.038 232.890 m
491.038 232.890 l
491.038 262.890 l
461.038 262.890 l
461.038 232.890 l
h
f
0 J
1.45000 M
0.00000 0.00000 0.00000 RG
newpath
461.038 232.890 m
491.038 232.890 l
491.038 262.890 l
461.038 262.890 l
461.038 232.890 l
h
S
2 J
10.0000 M
0 J
1.45000 M
newpath
476.752 244.325 m
473.768 248.997 l
476.752 248.997 l
476.752 244.325 l
h
476.440 243.294 m
477.940 243.294 l
477.940 248.997 l
479.190 248.997 l
479.190 249.981 l
477.940 249.981 l
477.940 252.044 l
476.752 252.044 l
476.752 249.981 l
472.815 249.981 l
472.815 248.841 l
476.440 243.294 l
h
f
2 J
10.0000 M
1.00000 1.00000 1.00000 RG
newpath
535.374 232.890 m
565.374 232.890 l
565.374 262.890 l
535.374 262.890 l
535.374 232.890 l
h
f
0 J
1.45000 M
0.00000 0.00000 0.00000 RG
newpath
535.374 232.890 m
565.374 232.890 l
565.374 262.890 l
535.374 262.890 l
535.374 232.890 l
h
S
2 J
10.0000 M
0 J
1.45000 M
newpath
550.526 247.200 m
549.995 247.200 549.573 247.382 549.260 247.747  c
548.948 248.112 548.791 248.606 548.791 249.231  c
548.791 249.867 548.948 250.367 549.260 250.731  c
549.573 251.096 549.995 251.278 550.526 251.278  c
551.057 251.278 551.476 251.096 551.784 250.731  c
552.091 250.367 552.245 249.867 552.245 249.231  c
552.245 248.606 552.091 248.112 551.784 247.747  c
551.476 247.382 551.057 247.200 550.526 247.200  c
h
552.870 243.481 m
552.870 244.560 l
552.567 244.424 552.265 244.320 551.963 244.247  c
551.661 244.174 551.364 244.138 551.073 244.138  c
550.291 244.138 549.695 244.401 549.284 244.927  c
548.872 245.453 548.635 246.247 548.573 247.310  c
548.802 246.976 549.091 246.718 549.440 246.536  c
549.789 246.354 550.172 246.263 550.588 246.263  c
551.463 246.263 552.156 246.528 552.666 247.060  c
553.177 247.591 553.432 248.315 553.432 249.231  c
553.432 250.138 553.166 250.862 552.635 251.403  c
552.104 251.945 551.401 252.216 550.526 252.216  c
549.505 252.216 548.729 251.828 548.198 251.052  c
547.666 250.276 547.401 249.153 547.401 247.685  c
547.401 246.299 547.729 245.195 548.385 244.372  c
549.041 243.549 549.922 243.138 551.026 243.138  c
551.317 243.138 551.614 243.166 551.916 243.224  c
552.218 243.281 552.536 243.367 552.870 243.481  c
h
f
2 J
10.0000 M
1.00000 1.00000 1.00000 RG
newpath
609.710 232.890 m
639.710 232.890 l
639.710 262.890 l
609.710 262.890 l
609.710 232.890 l
h
f
0 J
1.45000 M
0.00000 0.00000 0.00000 RG
newpath
609.710 232.890 m
639.710 232.890 l
639.710 262.890 l
609.710 262.890 l
609.710 232.890 l
h
S
2 J
10.0000 M
0 J
1.45000 M
newpath
622.377 251.044 m
624.315 251.044 l
624.315 244.372 l
622.206 244.794 l
622.206 243.716 l
624.299 243.294 l
625.487 243.294 l
625.487 251.044 l
627.424 251.044 l
627.424 252.044 l
622.377 252.044 l
622.377 251.044 l
h
f
2 J
10.0000 M
0 J
1.45000 M
newpath
268.021 58.4375 m
271.614 56.1916 l
280.906 52.7071 l
290.198 51.5456 l
299.490 52.7071 l
305.222 54.8565 l
305.307 54.9095 l
S
newpath
312.465 58.4819 m
303.961 48.6495 l
304.412 54.4629 l
299.495 57.5970 l
h
f
2 J
10.0000 M
0 J
1.45000 M
newpath
312.376 81.8217 m
308.782 84.0676 l
299.490 87.5521 l
290.198 88.7136 l
280.906 87.5521 l
275.175 85.4027 l
275.090 85.3497 l
S
newpath
267.932 81.7773 m
276.436 91.6097 l
275.985 85.7963 l
280.902 82.6622 l
h
f
2 J
10.0000 M
0 J
1.45000 M
newpath
342.357 102.877 m
345.950 100.632 l
355.242 97.1471 l
364.534 95.9856 l
373.826 97.1471 l
379.558 99.2965 l
379.643 99.3495 l
S
newpath
386.801 102.922 m
378.297 93.0895 l
378.748 98.9029 l
373.831 102.037 l
h
f
2 J
10.0000 M
0 J
1.45000 M
newpath
386.712 126.262 m
383.118 128.508 l
373.826 131.992 l
364.534 133.154 l
355.242 131.992 l
349.511 129.843 l
349.426 129.790 l
S
newpath
342.268 126.217 m
350.772 136.050 l
350.321 130.236 l
355.238 127.102 l
h
f
2 J
10.0000 M
0 J
1.45000 M
newpath
416.693 147.317 m
420.286 145.072 l
429.578 141.587 l
438.870 140.426 l
448.162 141.587 l
453.894 143.736 l
453.979 143.789 l
S
newpath
461.137 147.362 m
452.633 137.529 l
453.084 143.343 l
448.167 146.477 l
h
f
2 J
10.0000 M
0 J
1.45000 M
newpath
461.048 170.702 m
457.454 172.948 l
448.162 176.432 l
438.870 177.594 l
429.578 176.432 l
423.847 174.283 l
423.762 174.230 l
S
newpath
416.604 170.657 m
425.108 180.490 l
424.657 174.676 l
429.574 171.542 l
h
f
2 J
10.0000 M
0 J
1.45000 M
newpath
491.029 191.757 m
494.622 189.512 l
503.914 186.027 l
513.206 184.866 l
522.498 186.027 l
528.230 188.176 l
528.315 188.229 l
S
newpath
535.473 191.802 m
526.969 181.969 l
527.420 187.783 l
522.503 190.917 l
h
f
2 J
10.0000 M
0 J
1.45000 M
newpath
535.384 215.142 m
531.790 217.388 l
522.498 220.872 l
513.206 222.034 l
503.914 220.872 l
498.183 218.723 l
498.098 218.670 l
S
newpath
490.940 215.097 m
499.444 224.930 l
498.993 219.116 l
503.910 215.982 l
h
f
2 J
10.0000 M
0 J
1.45000 M
newpath
565.365 236.197 m
568.958 233.952 l
578.250 230.467 l
587.542 229.306 l
596.834 230.467 l
602.566 232.616 l
602.651 232.669 l
S
newpath
609.809 236.242 m
601.305 226.409 l
601.756 232.223 l
596.839 235.357 l
h
f
2 J
10.0000 M
0 J
1.45000 M
newpath
609.720 259.582 m
606.126 261.828 l
596.834 265.312 l
587.542 266.474 l
578.250 265.312 l
572.519 263.163 l
572.434 263.110 l
S
newpath
565.276 259.537 m
573.780 269.370 l
573.329 263.556 l
578.246 260.422 l
h
f
2 J
10.0000 M
Q
[ 1.00000 0.00000 0.00000 1.00000 0.00000 0.00000 ] defaultmatrix matrix concatmatrix setmatrix
cliprestore

%%Trailer
%%EOF
