%!PS-Adobe-3.0 EPSF-3.0
%%Title: test.eps
%%Creator: matplotlib version 2.1.0, http://matplotlib.org/
%%CreationDate: Sat Dec  9 19:52:36 2017
%%Orientation: portrait
%%BoundingBox: 101 238 510 553
%%EndComments
%%BeginProlog
/mpldict 8 dict def
mpldict begin
/m { moveto } bind def
/l { lineto } bind def
/r { rlineto } bind def
/c { curveto } bind def
/cl { closepath } bind def
/box {
m
1 index 0 r
0 exch r
neg 0 r
cl
} bind def
/clipbox {
box
clip
newpath
} bind def
%!PS-Adobe-3.0 Resource-Font
%%Title: DejaVu Sans
%%Copyright: Copyright (c) 2003 by Bitstream, Inc. All Rights Reserved. Copyright (c) 2006 by Tavmjong Bah. All Rights Reserved. DejaVu changes are in public domain 
%%Creator: Converted from TrueType to type 3 by PPR
25 dict begin
/_d{bind def}bind def
/_m{moveto}_d
/_l{lineto}_d
/_cl{closepath eofill}_d
/_c{curveto}_d
/_sc{7 -1 roll{setcachedevice}{pop pop pop pop pop pop}ifelse}_d
/_e{exec}_d
/FontName /DejaVuSans def
/PaintType 0 def
/FontMatrix[.001 0 0 .001 0 0]def
/FontBBox[-1021 -463 1793 1232]def
/FontType 3 def
/Encoding [ /space /hyphen /zero /one /two /three /four /five /six /seven /eight /N /T /underscore /a /b /c /d /e /f /h /i /l /m /n /o /p /r /s /t /u /v ] def
/FontInfo 10 dict dup begin
/FamilyName (DejaVu Sans) def
/FullName (DejaVu Sans) def
/Notice (Copyright (c) 2003 by Bitstream, Inc. All Rights Reserved. Copyright (c) 2006 by Tavmjong Bah. All Rights Reserved. DejaVu changes are in public domain ) def
/Weight (Book) def
/Version (Version 2.35) def
/ItalicAngle 0.0 def
/isFixedPitch false def
/UnderlinePosition -130 def
/UnderlineThickness 90 def
end readonly def
/CharStrings 33 dict dup begin
/.notdef 0 def
/space{318 0 0 0 0 0 _sc
}_d
/hyphen{361 0 49 234 312 314 _sc
49 314 _m
312 314 _l
312 234 _l
49 234 _l
49 314 _l
_cl}_d
/zero{636 0 66 -13 570 742 _sc
318 664 _m
267 664 229 639 203 589 _c
177 539 165 464 165 364 _c
165 264 177 189 203 139 _c
229 89 267 64 318 64 _c
369 64 407 89 433 139 _c
458 189 471 264 471 364 _c
471 464 458 539 433 589 _c
407 639 369 664 318 664 _c
318 742 _m
399 742 461 709 505 645 _c
548 580 570 486 570 364 _c
570 241 548 147 505 83 _c
461 19 399 -13 318 -13 _c
236 -13 173 19 130 83 _c
87 147 66 241 66 364 _c
66 486 87 580 130 645 _c
173 709 236 742 318 742 _c
_cl}_d
/one{636 0 110 0 544 729 _sc
124 83 _m
285 83 _l
285 639 _l
110 604 _l
110 694 _l
284 729 _l
383 729 _l
383 83 _l
544 83 _l
544 0 _l
124 0 _l
124 83 _l
_cl}_d
/two{{636 0 73 0 536 742 _sc
192 83 _m
536 83 _l
536 0 _l
73 0 _l
73 83 _l
110 121 161 173 226 239 _c
290 304 331 346 348 365 _c
380 400 402 430 414 455 _c
426 479 433 504 433 528 _c
433 566 419 598 392 622 _c
365 646 330 659 286 659 _c
255 659 222 653 188 643 _c
154 632 117 616 78 594 _c
78 694 _l
118 710 155 722 189 730 _c
223 738 255 742 284 742 _c
}_e{359 742 419 723 464 685 _c
509 647 532 597 532 534 _c
532 504 526 475 515 449 _c
504 422 484 390 454 354 _c
446 344 420 317 376 272 _c
332 227 271 164 192 83 _c
_cl}_e}_d
/three{{636 0 76 -13 556 742 _sc
406 393 _m
453 383 490 362 516 330 _c
542 298 556 258 556 212 _c
556 140 531 84 482 45 _c
432 6 362 -13 271 -13 _c
240 -13 208 -10 176 -4 _c
144 1 110 10 76 22 _c
76 117 _l
103 101 133 89 166 81 _c
198 73 232 69 268 69 _c
330 69 377 81 409 105 _c
441 129 458 165 458 212 _c
458 254 443 288 413 312 _c
383 336 341 349 287 349 _c
}_e{202 349 _l
202 430 _l
291 430 _l
339 430 376 439 402 459 _c
428 478 441 506 441 543 _c
441 580 427 609 401 629 _c
374 649 336 659 287 659 _c
260 659 231 656 200 650 _c
169 644 135 635 98 623 _c
98 711 _l
135 721 170 729 203 734 _c
235 739 266 742 296 742 _c
370 742 429 725 473 691 _c
517 657 539 611 539 553 _c
539 513 527 479 504 451 _c
481 423 448 403 406 393 _c
_cl}_e}_d
/four{636 0 49 0 580 729 _sc
378 643 _m
129 254 _l
378 254 _l
378 643 _l
352 729 _m
476 729 _l
476 254 _l
580 254 _l
580 172 _l
476 172 _l
476 0 _l
378 0 _l
378 172 _l
49 172 _l
49 267 _l
352 729 _l
_cl}_d
/five{{636 0 77 -13 549 729 _sc
108 729 _m
495 729 _l
495 646 _l
198 646 _l
198 467 _l
212 472 227 476 241 478 _c
255 480 270 482 284 482 _c
365 482 429 459 477 415 _c
525 370 549 310 549 234 _c
549 155 524 94 475 51 _c
426 8 357 -13 269 -13 _c
238 -13 207 -10 175 -6 _c
143 -1 111 6 77 17 _c
77 116 _l
106 100 136 88 168 80 _c
199 72 232 69 267 69 _c
}_e{323 69 368 83 401 113 _c
433 143 450 183 450 234 _c
450 284 433 324 401 354 _c
368 384 323 399 267 399 _c
241 399 214 396 188 390 _c
162 384 135 375 108 363 _c
108 729 _l
_cl}_e}_d
/six{{636 0 70 -13 573 742 _sc
330 404 _m
286 404 251 388 225 358 _c
199 328 186 286 186 234 _c
186 181 199 139 225 109 _c
251 79 286 64 330 64 _c
374 64 409 79 435 109 _c
461 139 474 181 474 234 _c
474 286 461 328 435 358 _c
409 388 374 404 330 404 _c
526 713 _m
526 623 _l
501 635 476 644 451 650 _c
425 656 400 659 376 659 _c
310 659 260 637 226 593 _c
}_e{192 549 172 482 168 394 _c
187 422 211 444 240 459 _c
269 474 301 482 336 482 _c
409 482 467 459 509 415 _c
551 371 573 310 573 234 _c
573 159 550 99 506 54 _c
462 9 403 -13 330 -13 _c
246 -13 181 19 137 83 _c
92 147 70 241 70 364 _c
70 479 97 571 152 639 _c
206 707 280 742 372 742 _c
396 742 421 739 447 735 _c
472 730 498 723 526 713 _c
_cl}_e}_d
/seven{636 0 82 0 551 729 _sc
82 729 _m
551 729 _l
551 687 _l
286 0 _l
183 0 _l
432 646 _l
82 646 _l
82 729 _l
_cl}_d
/eight{{636 0 68 -13 568 742 _sc
318 346 _m
271 346 234 333 207 308 _c
180 283 167 249 167 205 _c
167 161 180 126 207 101 _c
234 76 271 64 318 64 _c
364 64 401 76 428 102 _c
455 127 469 161 469 205 _c
469 249 455 283 429 308 _c
402 333 365 346 318 346 _c
219 388 _m
177 398 144 418 120 447 _c
96 476 85 511 85 553 _c
85 611 105 657 147 691 _c
188 725 245 742 318 742 _c
}_e{390 742 447 725 489 691 _c
530 657 551 611 551 553 _c
551 511 539 476 515 447 _c
491 418 459 398 417 388 _c
464 377 501 355 528 323 _c
554 291 568 251 568 205 _c
568 134 546 80 503 43 _c
459 5 398 -13 318 -13 _c
237 -13 175 5 132 43 _c
89 80 68 134 68 205 _c
68 251 81 291 108 323 _c
134 355 171 377 219 388 _c
183 544 _m
183 506 194 476 218 455 _c
}_e{242 434 275 424 318 424 _c
360 424 393 434 417 455 _c
441 476 453 506 453 544 _c
453 582 441 611 417 632 _c
393 653 360 664 318 664 _c
275 664 242 653 218 632 _c
194 611 183 582 183 544 _c
_cl}_e}_d
/N{748 0 98 0 650 729 _sc
98 729 _m
231 729 _l
554 119 _l
554 729 _l
650 729 _l
650 0 _l
517 0 _l
194 610 _l
194 0 _l
98 0 _l
98 729 _l
_cl}_d
/T{611 0 -2 0 614 729 _sc
-2 729 _m
614 729 _l
614 646 _l
355 646 _l
355 0 _l
256 0 _l
256 646 _l
-2 646 _l
-2 729 _l
_cl}_d
/underscore{500 0 -9 -235 510 -165 _sc
510 -165 _m
510 -235 _l
-9 -235 _l
-9 -165 _l
510 -165 _l
_cl}_d
/a{{613 0 60 -13 522 560 _sc
343 275 _m
270 275 220 266 192 250 _c
164 233 150 205 150 165 _c
150 133 160 107 181 89 _c
202 70 231 61 267 61 _c
317 61 357 78 387 114 _c
417 149 432 196 432 255 _c
432 275 _l
343 275 _l
522 312 _m
522 0 _l
432 0 _l
432 83 _l
411 49 385 25 355 10 _c
325 -5 287 -13 243 -13 _c
187 -13 142 2 109 33 _c
76 64 60 106 60 159 _c
}_e{60 220 80 266 122 298 _c
163 329 224 345 306 345 _c
432 345 _l
432 354 _l
432 395 418 427 391 450 _c
364 472 326 484 277 484 _c
245 484 215 480 185 472 _c
155 464 127 453 100 439 _c
100 522 _l
132 534 164 544 195 550 _c
226 556 256 560 286 560 _c
365 560 424 539 463 498 _c
502 457 522 395 522 312 _c
_cl}_e}_d
/b{{635 0 91 -13 580 760 _sc
487 273 _m
487 339 473 390 446 428 _c
418 466 381 485 334 485 _c
286 485 249 466 222 428 _c
194 390 181 339 181 273 _c
181 207 194 155 222 117 _c
249 79 286 61 334 61 _c
381 61 418 79 446 117 _c
473 155 487 207 487 273 _c
181 464 _m
199 496 223 520 252 536 _c
281 552 316 560 356 560 _c
422 560 476 533 518 481 _c
559 428 580 359 580 273 _c
}_e{580 187 559 117 518 65 _c
476 13 422 -13 356 -13 _c
316 -13 281 -5 252 10 _c
223 25 199 49 181 82 _c
181 0 _l
91 0 _l
91 760 _l
181 760 _l
181 464 _l
_cl}_e}_d
/c{{550 0 55 -13 488 560 _sc
488 526 _m
488 442 _l
462 456 437 466 411 473 _c
385 480 360 484 334 484 _c
276 484 230 465 198 428 _c
166 391 150 339 150 273 _c
150 206 166 154 198 117 _c
230 80 276 62 334 62 _c
360 62 385 65 411 72 _c
437 79 462 90 488 104 _c
488 21 _l
462 9 436 0 410 -5 _c
383 -10 354 -13 324 -13 _c
242 -13 176 12 128 64 _c
}_e{79 115 55 185 55 273 _c
55 362 79 432 128 483 _c
177 534 244 560 330 560 _c
358 560 385 557 411 551 _c
437 545 463 537 488 526 _c
_cl}_e}_d
/d{{635 0 55 -13 544 760 _sc
454 464 _m
454 760 _l
544 760 _l
544 0 _l
454 0 _l
454 82 _l
435 49 411 25 382 10 _c
353 -5 319 -13 279 -13 _c
213 -13 159 13 117 65 _c
75 117 55 187 55 273 _c
55 359 75 428 117 481 _c
159 533 213 560 279 560 _c
319 560 353 552 382 536 _c
411 520 435 496 454 464 _c
148 273 _m
148 207 161 155 188 117 _c
215 79 253 61 301 61 _c
}_e{348 61 385 79 413 117 _c
440 155 454 207 454 273 _c
454 339 440 390 413 428 _c
385 466 348 485 301 485 _c
253 485 215 466 188 428 _c
161 390 148 339 148 273 _c
_cl}_e}_d
/e{{615 0 55 -13 562 560 _sc
562 296 _m
562 252 _l
149 252 _l
153 190 171 142 205 110 _c
238 78 284 62 344 62 _c
378 62 412 66 444 74 _c
476 82 509 95 541 113 _c
541 28 _l
509 14 476 3 442 -3 _c
408 -9 373 -13 339 -13 _c
251 -13 182 12 131 62 _c
80 112 55 181 55 268 _c
55 357 79 428 127 481 _c
175 533 241 560 323 560 _c
397 560 455 536 498 489 _c
}_e{540 441 562 377 562 296 _c
472 322 _m
471 371 457 410 431 440 _c
404 469 368 484 324 484 _c
274 484 234 469 204 441 _c
174 413 156 373 152 322 _c
472 322 _l
_cl}_e}_d
/f{352 0 23 0 371 760 _sc
371 760 _m
371 685 _l
285 685 _l
253 685 230 678 218 665 _c
205 652 199 629 199 595 _c
199 547 _l
347 547 _l
347 477 _l
199 477 _l
199 0 _l
109 0 _l
109 477 _l
23 477 _l
23 547 _l
109 547 _l
109 585 _l
109 645 123 690 151 718 _c
179 746 224 760 286 760 _c
371 760 _l
_cl}_d
/h{634 0 91 0 549 760 _sc
549 330 _m
549 0 _l
459 0 _l
459 327 _l
459 379 448 417 428 443 _c
408 469 378 482 338 482 _c
289 482 251 466 223 435 _c
195 404 181 362 181 309 _c
181 0 _l
91 0 _l
91 760 _l
181 760 _l
181 462 _l
202 494 227 519 257 535 _c
286 551 320 560 358 560 _c
420 560 468 540 500 501 _c
532 462 549 405 549 330 _c
_cl}_d
/i{278 0 94 0 184 760 _sc
94 547 _m
184 547 _l
184 0 _l
94 0 _l
94 547 _l
94 760 _m
184 760 _l
184 646 _l
94 646 _l
94 760 _l
_cl}_d
/l{278 0 94 0 184 760 _sc
94 760 _m
184 760 _l
184 0 _l
94 0 _l
94 760 _l
_cl}_d
/m{{974 0 91 0 889 560 _sc
520 442 _m
542 482 569 511 600 531 _c
631 550 668 560 711 560 _c
767 560 811 540 842 500 _c
873 460 889 403 889 330 _c
889 0 _l
799 0 _l
799 327 _l
799 379 789 418 771 444 _c
752 469 724 482 686 482 _c
639 482 602 466 575 435 _c
548 404 535 362 535 309 _c
535 0 _l
445 0 _l
445 327 _l
445 379 435 418 417 444 _c
398 469 369 482 331 482 _c
}_e{285 482 248 466 221 435 _c
194 404 181 362 181 309 _c
181 0 _l
91 0 _l
91 547 _l
181 547 _l
181 462 _l
201 495 226 520 255 536 _c
283 552 317 560 357 560 _c
397 560 430 550 458 530 _c
486 510 506 480 520 442 _c
_cl}_e}_d
/n{634 0 91 0 549 560 _sc
549 330 _m
549 0 _l
459 0 _l
459 327 _l
459 379 448 417 428 443 _c
408 469 378 482 338 482 _c
289 482 251 466 223 435 _c
195 404 181 362 181 309 _c
181 0 _l
91 0 _l
91 547 _l
181 547 _l
181 462 _l
202 494 227 519 257 535 _c
286 551 320 560 358 560 _c
420 560 468 540 500 501 _c
532 462 549 405 549 330 _c
_cl}_d
/o{612 0 55 -13 557 560 _sc
306 484 _m
258 484 220 465 192 427 _c
164 389 150 338 150 273 _c
150 207 163 156 191 118 _c
219 80 257 62 306 62 _c
354 62 392 80 420 118 _c
448 156 462 207 462 273 _c
462 337 448 389 420 427 _c
392 465 354 484 306 484 _c
306 560 _m
384 560 445 534 490 484 _c
534 433 557 363 557 273 _c
557 183 534 113 490 63 _c
445 12 384 -13 306 -13 _c
227 -13 165 12 121 63 _c
77 113 55 183 55 273 _c
55 363 77 433 121 484 _c
165 534 227 560 306 560 _c
_cl}_d
/p{{635 0 91 -207 580 560 _sc
181 82 _m
181 -207 _l
91 -207 _l
91 547 _l
181 547 _l
181 464 _l
199 496 223 520 252 536 _c
281 552 316 560 356 560 _c
422 560 476 533 518 481 _c
559 428 580 359 580 273 _c
580 187 559 117 518 65 _c
476 13 422 -13 356 -13 _c
316 -13 281 -5 252 10 _c
223 25 199 49 181 82 _c
487 273 _m
487 339 473 390 446 428 _c
418 466 381 485 334 485 _c
}_e{286 485 249 466 222 428 _c
194 390 181 339 181 273 _c
181 207 194 155 222 117 _c
249 79 286 61 334 61 _c
381 61 418 79 446 117 _c
473 155 487 207 487 273 _c
_cl}_e}_d
/r{411 0 91 0 411 560 _sc
411 463 _m
401 469 390 473 378 476 _c
366 478 353 480 339 480 _c
288 480 249 463 222 430 _c
194 397 181 350 181 288 _c
181 0 _l
91 0 _l
91 547 _l
181 547 _l
181 462 _l
199 495 224 520 254 536 _c
284 552 321 560 365 560 _c
371 560 378 559 386 559 _c
393 558 401 557 411 555 _c
411 463 _l
_cl}_d
/s{{521 0 54 -13 472 560 _sc
443 531 _m
443 446 _l
417 458 391 468 364 475 _c
336 481 308 485 279 485 _c
234 485 200 478 178 464 _c
156 450 145 430 145 403 _c
145 382 153 366 169 354 _c
185 342 217 330 265 320 _c
296 313 _l
360 299 405 279 432 255 _c
458 230 472 195 472 151 _c
472 100 452 60 412 31 _c
372 1 316 -13 246 -13 _c
216 -13 186 -10 154 -5 _c
}_e{122 0 89 8 54 20 _c
54 113 _l
87 95 120 82 152 74 _c
184 65 216 61 248 61 _c
290 61 323 68 346 82 _c
368 96 380 117 380 144 _c
380 168 371 187 355 200 _c
339 213 303 226 247 238 _c
216 245 _l
160 257 119 275 95 299 _c
70 323 58 356 58 399 _c
58 450 76 490 112 518 _c
148 546 200 560 268 560 _c
301 560 332 557 362 552 _c
391 547 418 540 443 531 _c
}_e{_cl}_e}_d
/t{392 0 27 0 368 702 _sc
183 702 _m
183 547 _l
368 547 _l
368 477 _l
183 477 _l
183 180 _l
183 135 189 106 201 94 _c
213 81 238 75 276 75 _c
368 75 _l
368 0 _l
276 0 _l
206 0 158 13 132 39 _c
106 65 93 112 93 180 _c
93 477 _l
27 477 _l
27 547 _l
93 547 _l
93 702 _l
183 702 _l
_cl}_d
/u{634 0 85 -13 543 560 _sc
85 216 _m
85 547 _l
175 547 _l
175 219 _l
175 167 185 129 205 103 _c
225 77 255 64 296 64 _c
344 64 383 79 411 110 _c
439 141 453 183 453 237 _c
453 547 _l
543 547 _l
543 0 _l
453 0 _l
453 84 _l
431 50 405 26 377 10 _c
348 -5 315 -13 277 -13 _c
214 -13 166 6 134 45 _c
101 83 85 140 85 216 _c
311 560 _m
311 560 _l
_cl}_d
/v{592 0 30 0 562 547 _sc
30 547 _m
125 547 _l
296 88 _l
467 547 _l
562 547 _l
357 0 _l
235 0 _l
30 547 _l
_cl}_d
end readonly def

/BuildGlyph
 {exch begin
 CharStrings exch
 2 copy known not{pop /.notdef}if
 true 3 1 roll get exec
 end}_d

/BuildChar {
 1 index /Encoding get exch get
 1 index /BuildGlyph get exec
}_d

FontName currentdict end definefont pop
end
%%EndProlog
mpldict begin
101.795 238.822 translate
408.411 314.356 0 0 clipbox
gsave
0 0 m
408.410625 0 l
408.410625 314.35575 l
0 314.35575 l
cl
1.000 setgray
fill
grestore
gsave
40.590625 37.54375 m
397.710625 37.54375 l
397.710625 303.65575 l
40.590625 303.65575 l
cl
1.000 setgray
fill
grestore
0.800 setlinewidth
1 setlinejoin
0 setlinecap
[] 0 setdash
0.000 setgray
gsave
/o {
gsave
newpath
translate
0.8 setlinewidth
1 setlinejoin
0 setlinecap
0 0 m
0 -3.5 l

gsave
0.000 setgray
fill
grestore
stroke
grestore
} bind def
40.5906 37.5438 o
grestore
/DejaVuSans findfont
10.000 scalefont
setfont
gsave
37.410938 22.950000 translate
0.000000 rotate
0.000000 0.000000 m /zero glyphshow
grestore
gsave
/o {
gsave
newpath
translate
0.8 setlinewidth
1 setlinejoin
0 setlinecap
0 0 m
0 -3.5 l

gsave
0.000 setgray
fill
grestore
stroke
grestore
} bind def
85.2306 37.5438 o
grestore
gsave
82.050938 22.950000 translate
0.000000 rotate
0.000000 0.000000 m /one glyphshow
grestore
gsave
/o {
gsave
newpath
translate
0.8 setlinewidth
1 setlinejoin
0 setlinecap
0 0 m
0 -3.5 l

gsave
0.000 setgray
fill
grestore
stroke
grestore
} bind def
129.871 37.5438 o
grestore
gsave
126.690938 22.950000 translate
0.000000 rotate
0.000000 0.000000 m /two glyphshow
grestore
gsave
/o {
gsave
newpath
translate
0.8 setlinewidth
1 setlinejoin
0 setlinecap
0 0 m
0 -3.5 l

gsave
0.000 setgray
fill
grestore
stroke
grestore
} bind def
174.511 37.5438 o
grestore
gsave
171.330938 22.950000 translate
0.000000 rotate
0.000000 0.000000 m /three glyphshow
grestore
gsave
/o {
gsave
newpath
translate
0.8 setlinewidth
1 setlinejoin
0 setlinecap
0 0 m
0 -3.5 l

gsave
0.000 setgray
fill
grestore
stroke
grestore
} bind def
219.151 37.5438 o
grestore
gsave
215.970938 22.950000 translate
0.000000 rotate
0.000000 0.000000 m /four glyphshow
grestore
gsave
/o {
gsave
newpath
translate
0.8 setlinewidth
1 setlinejoin
0 setlinecap
0 0 m
0 -3.5 l

gsave
0.000 setgray
fill
grestore
stroke
grestore
} bind def
263.791 37.5438 o
grestore
gsave
260.610938 22.950000 translate
0.000000 rotate
0.000000 0.000000 m /five glyphshow
grestore
gsave
/o {
gsave
newpath
translate
0.8 setlinewidth
1 setlinejoin
0 setlinecap
0 0 m
0 -3.5 l

gsave
0.000 setgray
fill
grestore
stroke
grestore
} bind def
308.431 37.5438 o
grestore
gsave
305.250938 22.950000 translate
0.000000 rotate
0.000000 0.000000 m /six glyphshow
grestore
gsave
/o {
gsave
newpath
translate
0.8 setlinewidth
1 setlinejoin
0 setlinecap
0 0 m
0 -3.5 l

gsave
0.000 setgray
fill
grestore
stroke
grestore
} bind def
353.071 37.5438 o
grestore
gsave
349.890938 22.950000 translate
0.000000 rotate
0.000000 0.000000 m /seven glyphshow
grestore
gsave
/o {
gsave
newpath
translate
0.8 setlinewidth
1 setlinejoin
0 setlinecap
0 0 m
0 -3.5 l

gsave
0.000 setgray
fill
grestore
stroke
grestore
} bind def
397.711 37.5438 o
grestore
gsave
394.530938 22.950000 translate
0.000000 rotate
0.000000 0.000000 m /eight glyphshow
grestore
gsave
171.939688 9.278125 translate
0.000000 rotate
0.000000 0.000000 m /N glyphshow
7.480469 0.000000 m /u glyphshow
13.818359 0.000000 m /m glyphshow
23.559570 0.000000 m /b glyphshow
29.907227 0.000000 m /e glyphshow
36.059570 0.000000 m /r glyphshow
40.170898 0.000000 m /space glyphshow
43.349609 0.000000 m /o glyphshow
49.467773 0.000000 m /f glyphshow
52.988281 0.000000 m /space glyphshow
56.166992 0.000000 m /t glyphshow
60.087891 0.000000 m /h glyphshow
66.425781 0.000000 m /r glyphshow
70.537109 0.000000 m /e glyphshow
76.689453 0.000000 m /a glyphshow
82.817383 0.000000 m /d glyphshow
89.165039 0.000000 m /s glyphshow
grestore
gsave
/o {
gsave
newpath
translate
0.8 setlinewidth
1 setlinejoin
0 setlinecap
0 0 m
-3.5 0 l

gsave
0.000 setgray
fill
grestore
stroke
grestore
} bind def
40.5906 37.5438 o
grestore
gsave
27.231250 33.746875 translate
0.000000 rotate
0.000000 0.000000 m /zero glyphshow
grestore
gsave
/o {
gsave
newpath
translate
0.8 setlinewidth
1 setlinejoin
0 setlinecap
0 0 m
-3.5 0 l

gsave
0.000 setgray
fill
grestore
stroke
grestore
} bind def
40.5906 85.9278 o
grestore
gsave
20.871875 82.130875 translate
0.000000 rotate
0.000000 0.000000 m /one glyphshow
6.362305 0.000000 m /zero glyphshow
grestore
gsave
/o {
gsave
newpath
translate
0.8 setlinewidth
1 setlinejoin
0 setlinecap
0 0 m
-3.5 0 l

gsave
0.000 setgray
fill
grestore
stroke
grestore
} bind def
40.5906 134.312 o
grestore
gsave
20.871875 130.514875 translate
0.000000 rotate
0.000000 0.000000 m /two glyphshow
6.362305 0.000000 m /zero glyphshow
grestore
gsave
/o {
gsave
newpath
translate
0.8 setlinewidth
1 setlinejoin
0 setlinecap
0 0 m
-3.5 0 l

gsave
0.000 setgray
fill
grestore
stroke
grestore
} bind def
40.5906 182.696 o
grestore
gsave
20.871875 178.898875 translate
0.000000 rotate
0.000000 0.000000 m /three glyphshow
6.362305 0.000000 m /zero glyphshow
grestore
gsave
/o {
gsave
newpath
translate
0.8 setlinewidth
1 setlinejoin
0 setlinecap
0 0 m
-3.5 0 l

gsave
0.000 setgray
fill
grestore
stroke
grestore
} bind def
40.5906 231.08 o
grestore
gsave
20.871875 227.282875 translate
0.000000 rotate
0.000000 0.000000 m /four glyphshow
6.362305 0.000000 m /zero glyphshow
grestore
gsave
/o {
gsave
newpath
translate
0.8 setlinewidth
1 setlinejoin
0 setlinecap
0 0 m
-3.5 0 l

gsave
0.000 setgray
fill
grestore
stroke
grestore
} bind def
40.5906 279.464 o
grestore
gsave
20.871875 275.666875 translate
0.000000 rotate
0.000000 0.000000 m /five glyphshow
6.362305 0.000000 m /zero glyphshow
grestore
gsave
14.793750 129.998188 translate
90.000000 rotate
0.000000 0.000000 m /T glyphshow
6.108398 0.000000 m /i glyphshow
8.886719 0.000000 m /m glyphshow
18.627930 0.000000 m /e glyphshow
24.780273 0.000000 m /space glyphshow
27.958984 0.000000 m /i glyphshow
30.737305 0.000000 m /n glyphshow
37.075195 0.000000 m /space glyphshow
40.253906 0.000000 m /s glyphshow
45.463867 0.000000 m /e glyphshow
51.616211 0.000000 m /c glyphshow
57.114258 0.000000 m /o glyphshow
63.232422 0.000000 m /n glyphshow
69.570312 0.000000 m /d glyphshow
75.917969 0.000000 m /s glyphshow
grestore
1.500 setlinewidth
2 setlinecap
0.122 0.467 0.706 setrgbcolor
gsave
357.1 266.1 40.59 37.54 clipbox
85.230625 52.978246 m
129.870625 53.021792 l
219.150625 52.750841 l
397.710625 52.750841 l
stroke
grestore
1.000 0.498 0.055 setrgbcolor
gsave
357.1 266.1 40.59 37.54 clipbox
85.230625 99.407532 m
129.870625 98.933369 l
219.150625 98.933369 l
397.710625 98.943046 l
stroke
grestore
0.173 0.627 0.173 setrgbcolor
gsave
357.1 266.1 40.59 37.54 clipbox
85.230625 285.826246 m
129.870625 285.468204 l
219.150625 285.787539 l
397.710625 285.342406 l
stroke
grestore
0.839 0.153 0.157 setrgbcolor
gsave
357.1 266.1 40.59 37.54 clipbox
85.230625 52.804064 m
129.870625 45.657747 l
219.150625 42.788576 l
397.710625 41.801542 l
stroke
grestore
0.580 0.404 0.741 setrgbcolor
gsave
357.1 266.1 40.59 37.54 clipbox
85.230625 98.662419 m
129.870625 69.11431 l
219.150625 58.10695 l
397.710625 53.645945 l
stroke
grestore
0.549 0.337 0.294 setrgbcolor
gsave
357.1 266.1 40.59 37.54 clipbox
85.230625 287.050361 m
129.870625 167.512851 l
219.150625 125.921964 l
397.710625 146.639993 l
stroke
grestore
0.890 0.467 0.761 setrgbcolor
gsave
357.1 266.1 40.59 37.54 clipbox
85.230625 52.586336 m
129.870625 41.458016 l
219.150625 38.617875 l
397.710625 37.90663 l
stroke
grestore
0.498 setgray
gsave
357.1 266.1 40.59 37.54 clipbox
85.230625 97.351212 m
129.870625 53.050822 l
219.150625 41.404793 l
397.710625 38.96624 l
stroke
grestore
0.737 0.741 0.133 setrgbcolor
gsave
357.1 266.1 40.59 37.54 clipbox
85.230625 278.438009 m
129.870625 99.920403 l
219.150625 53.718521 l
397.710625 43.80464 l
stroke
grestore
0.800 setlinewidth
0 setlinejoin
[] 0 setdash
0.000 setgray
gsave
40.590625 37.54375 m
40.590625 303.65575 l
stroke
grestore
gsave
397.710625 37.54375 m
397.710625 303.65575 l
stroke
grestore
gsave
40.590625 37.54375 m
397.710625 37.54375 l
stroke
grestore
gsave
40.590625 303.65575 m
397.710625 303.65575 l
stroke
grestore
1.000 setlinewidth
0 setlinecap
0.800 setgray
gsave
205.6325 161.077625 m
390.710625 161.077625 l
392.043958 161.077625 392.710625 161.744292 392.710625 163.077625 c
392.710625 296.65575 l
392.710625 297.989083 392.043958 298.65575 390.710625 298.65575 c
205.6325 298.65575 l
204.299167 298.65575 203.6325 297.989083 203.6325 296.65575 c
203.6325 163.077625 l
203.6325 161.744292 204.299167 161.077625 205.6325 161.077625 c
cl
gsave
1.000 setgray
fill
grestore
stroke
grestore
1.500 setlinewidth
1 setlinejoin
2 setlinecap
[] 0 setdash
0.122 0.467 0.706 setrgbcolor
gsave
207.6325 290.562 m
227.6325 290.562 l
stroke
grestore
0.000 setgray
gsave
235.632500 287.062000 translate
0.000000 rotate
0.000000 0.000000 m /o glyphshow
6.118164 0.000000 m /d glyphshow
12.465820 0.000000 m /d glyphshow
18.813477 0.000000 m /underscore glyphshow
23.813477 0.000000 m /e glyphshow
29.965820 0.000000 m /v glyphshow
35.883789 0.000000 m /e glyphshow
42.036133 0.000000 m /n glyphshow
48.374023 0.000000 m /underscore glyphshow
53.374023 0.000000 m /s glyphshow
58.583984 0.000000 m /o glyphshow
64.702148 0.000000 m /r glyphshow
68.813477 0.000000 m /t glyphshow
72.734375 0.000000 m /underscore glyphshow
77.734375 0.000000 m /s glyphshow
82.944336 0.000000 m /e glyphshow
89.096680 0.000000 m /r glyphshow
93.208008 0.000000 m /i glyphshow
95.986328 0.000000 m /a glyphshow
102.114258 0.000000 m /l glyphshow
104.892578 0.000000 m /space glyphshow
108.071289 0.000000 m /hyphen glyphshow
111.679688 0.000000 m /space glyphshow
114.858398 0.000000 m /five glyphshow
121.220703 0.000000 m /zero glyphshow
127.583008 0.000000 m /zero glyphshow
133.945312 0.000000 m /zero glyphshow
140.307617 0.000000 m /zero glyphshow
grestore
1.000 0.498 0.055 setrgbcolor
gsave
207.6325 275.608875 m
227.6325 275.608875 l
stroke
grestore
0.000 setgray
gsave
235.632500 272.108875 translate
0.000000 rotate
0.000000 0.000000 m /o glyphshow
6.118164 0.000000 m /d glyphshow
12.465820 0.000000 m /d glyphshow
18.813477 0.000000 m /underscore glyphshow
23.813477 0.000000 m /e glyphshow
29.965820 0.000000 m /v glyphshow
35.883789 0.000000 m /e glyphshow
42.036133 0.000000 m /n glyphshow
48.374023 0.000000 m /underscore glyphshow
53.374023 0.000000 m /s glyphshow
58.583984 0.000000 m /o glyphshow
64.702148 0.000000 m /r glyphshow
68.813477 0.000000 m /t glyphshow
72.734375 0.000000 m /underscore glyphshow
77.734375 0.000000 m /s glyphshow
82.944336 0.000000 m /e glyphshow
89.096680 0.000000 m /r glyphshow
93.208008 0.000000 m /i glyphshow
95.986328 0.000000 m /a glyphshow
102.114258 0.000000 m /l glyphshow
104.892578 0.000000 m /space glyphshow
108.071289 0.000000 m /hyphen glyphshow
111.679688 0.000000 m /space glyphshow
114.858398 0.000000 m /one glyphshow
121.220703 0.000000 m /zero glyphshow
127.583008 0.000000 m /zero glyphshow
133.945312 0.000000 m /zero glyphshow
140.307617 0.000000 m /zero glyphshow
146.669922 0.000000 m /zero glyphshow
grestore
0.173 0.627 0.173 setrgbcolor
gsave
207.6325 260.65575 m
227.6325 260.65575 l
stroke
grestore
0.000 setgray
gsave
235.632500 257.155750 translate
0.000000 rotate
0.000000 0.000000 m /o glyphshow
6.118164 0.000000 m /d glyphshow
12.465820 0.000000 m /d glyphshow
18.813477 0.000000 m /underscore glyphshow
23.813477 0.000000 m /e glyphshow
29.965820 0.000000 m /v glyphshow
35.883789 0.000000 m /e glyphshow
42.036133 0.000000 m /n glyphshow
48.374023 0.000000 m /underscore glyphshow
53.374023 0.000000 m /s glyphshow
58.583984 0.000000 m /o glyphshow
64.702148 0.000000 m /r glyphshow
68.813477 0.000000 m /t glyphshow
72.734375 0.000000 m /underscore glyphshow
77.734375 0.000000 m /s glyphshow
82.944336 0.000000 m /e glyphshow
89.096680 0.000000 m /r glyphshow
93.208008 0.000000 m /i glyphshow
95.986328 0.000000 m /a glyphshow
102.114258 0.000000 m /l glyphshow
104.892578 0.000000 m /space glyphshow
108.071289 0.000000 m /hyphen glyphshow
111.679688 0.000000 m /space glyphshow
114.858398 0.000000 m /two glyphshow
121.220703 0.000000 m /zero glyphshow
127.583008 0.000000 m /zero glyphshow
133.945312 0.000000 m /zero glyphshow
140.307617 0.000000 m /zero glyphshow
146.669922 0.000000 m /zero glyphshow
grestore
0.839 0.153 0.157 setrgbcolor
gsave
207.6325 245.702625 m
227.6325 245.702625 l
stroke
grestore
0.000 setgray
gsave
235.632500 242.202625 translate
0.000000 rotate
0.000000 0.000000 m /o glyphshow
6.118164 0.000000 m /d glyphshow
12.465820 0.000000 m /d glyphshow
18.813477 0.000000 m /underscore glyphshow
23.813477 0.000000 m /e glyphshow
29.965820 0.000000 m /v glyphshow
35.883789 0.000000 m /e glyphshow
42.036133 0.000000 m /n glyphshow
48.374023 0.000000 m /underscore glyphshow
53.374023 0.000000 m /s glyphshow
58.583984 0.000000 m /o glyphshow
64.702148 0.000000 m /r glyphshow
68.813477 0.000000 m /t glyphshow
72.734375 0.000000 m /underscore glyphshow
77.734375 0.000000 m /o glyphshow
83.852539 0.000000 m /m glyphshow
93.593750 0.000000 m /p glyphshow
99.941406 0.000000 m /space glyphshow
103.120117 0.000000 m /hyphen glyphshow
106.728516 0.000000 m /space glyphshow
109.907227 0.000000 m /five glyphshow
116.269531 0.000000 m /zero glyphshow
122.631836 0.000000 m /zero glyphshow
128.994141 0.000000 m /zero glyphshow
135.356445 0.000000 m /zero glyphshow
grestore
0.580 0.404 0.741 setrgbcolor
gsave
207.6325 230.7495 m
227.6325 230.7495 l
stroke
grestore
0.000 setgray
gsave
235.632500 227.249500 translate
0.000000 rotate
0.000000 0.000000 m /o glyphshow
6.118164 0.000000 m /d glyphshow
12.465820 0.000000 m /d glyphshow
18.813477 0.000000 m /underscore glyphshow
23.813477 0.000000 m /e glyphshow
29.965820 0.000000 m /v glyphshow
35.883789 0.000000 m /e glyphshow
42.036133 0.000000 m /n glyphshow
48.374023 0.000000 m /underscore glyphshow
53.374023 0.000000 m /s glyphshow
58.583984 0.000000 m /o glyphshow
64.702148 0.000000 m /r glyphshow
68.813477 0.000000 m /t glyphshow
72.734375 0.000000 m /underscore glyphshow
77.734375 0.000000 m /o glyphshow
83.852539 0.000000 m /m glyphshow
93.593750 0.000000 m /p glyphshow
99.941406 0.000000 m /space glyphshow
103.120117 0.000000 m /hyphen glyphshow
106.728516 0.000000 m /space glyphshow
109.907227 0.000000 m /one glyphshow
116.269531 0.000000 m /zero glyphshow
122.631836 0.000000 m /zero glyphshow
128.994141 0.000000 m /zero glyphshow
135.356445 0.000000 m /zero glyphshow
141.718750 0.000000 m /zero glyphshow
grestore
0.549 0.337 0.294 setrgbcolor
gsave
207.6325 215.796375 m
227.6325 215.796375 l
stroke
grestore
0.000 setgray
gsave
235.632500 212.296375 translate
0.000000 rotate
0.000000 0.000000 m /o glyphshow
6.118164 0.000000 m /d glyphshow
12.465820 0.000000 m /d glyphshow
18.813477 0.000000 m /underscore glyphshow
23.813477 0.000000 m /e glyphshow
29.965820 0.000000 m /v glyphshow
35.883789 0.000000 m /e glyphshow
42.036133 0.000000 m /n glyphshow
48.374023 0.000000 m /underscore glyphshow
53.374023 0.000000 m /s glyphshow
58.583984 0.000000 m /o glyphshow
64.702148 0.000000 m /r glyphshow
68.813477 0.000000 m /t glyphshow
72.734375 0.000000 m /underscore glyphshow
77.734375 0.000000 m /o glyphshow
83.852539 0.000000 m /m glyphshow
93.593750 0.000000 m /p glyphshow
99.941406 0.000000 m /space glyphshow
103.120117 0.000000 m /hyphen glyphshow
106.728516 0.000000 m /space glyphshow
109.907227 0.000000 m /two glyphshow
116.269531 0.000000 m /zero glyphshow
122.631836 0.000000 m /zero glyphshow
128.994141 0.000000 m /zero glyphshow
135.356445 0.000000 m /zero glyphshow
141.718750 0.000000 m /zero glyphshow
grestore
0.890 0.467 0.761 setrgbcolor
gsave
207.6325 200.84325 m
227.6325 200.84325 l
stroke
grestore
0.000 setgray
gsave
235.632500 197.343250 translate
0.000000 rotate
0.000000 0.000000 m /o glyphshow
6.118164 0.000000 m /d glyphshow
12.465820 0.000000 m /d glyphshow
18.813477 0.000000 m /underscore glyphshow
23.813477 0.000000 m /e glyphshow
29.965820 0.000000 m /v glyphshow
35.883789 0.000000 m /e glyphshow
42.036133 0.000000 m /n glyphshow
48.374023 0.000000 m /underscore glyphshow
53.374023 0.000000 m /s glyphshow
58.583984 0.000000 m /o glyphshow
64.702148 0.000000 m /r glyphshow
68.813477 0.000000 m /t glyphshow
72.734375 0.000000 m /underscore glyphshow
77.734375 0.000000 m /m glyphshow
87.475586 0.000000 m /p glyphshow
93.823242 0.000000 m /i glyphshow
96.601562 0.000000 m /space glyphshow
99.780273 0.000000 m /hyphen glyphshow
103.388672 0.000000 m /space glyphshow
106.567383 0.000000 m /five glyphshow
112.929688 0.000000 m /zero glyphshow
119.291992 0.000000 m /zero glyphshow
125.654297 0.000000 m /zero glyphshow
132.016602 0.000000 m /zero glyphshow
grestore
0.498 setgray
gsave
207.6325 185.890125 m
227.6325 185.890125 l
stroke
grestore
0.000 setgray
gsave
235.632500 182.390125 translate
0.000000 rotate
0.000000 0.000000 m /o glyphshow
6.118164 0.000000 m /d glyphshow
12.465820 0.000000 m /d glyphshow
18.813477 0.000000 m /underscore glyphshow
23.813477 0.000000 m /e glyphshow
29.965820 0.000000 m /v glyphshow
35.883789 0.000000 m /e glyphshow
42.036133 0.000000 m /n glyphshow
48.374023 0.000000 m /underscore glyphshow
53.374023 0.000000 m /s glyphshow
58.583984 0.000000 m /o glyphshow
64.702148 0.000000 m /r glyphshow
68.813477 0.000000 m /t glyphshow
72.734375 0.000000 m /underscore glyphshow
77.734375 0.000000 m /m glyphshow
87.475586 0.000000 m /p glyphshow
93.823242 0.000000 m /i glyphshow
96.601562 0.000000 m /space glyphshow
99.780273 0.000000 m /hyphen glyphshow
103.388672 0.000000 m /space glyphshow
106.567383 0.000000 m /one glyphshow
112.929688 0.000000 m /zero glyphshow
119.291992 0.000000 m /zero glyphshow
125.654297 0.000000 m /zero glyphshow
132.016602 0.000000 m /zero glyphshow
138.378906 0.000000 m /zero glyphshow
grestore
0.737 0.741 0.133 setrgbcolor
gsave
207.6325 170.937 m
227.6325 170.937 l
stroke
grestore
0.000 setgray
gsave
235.632500 167.437000 translate
0.000000 rotate
0.000000 0.000000 m /o glyphshow
6.118164 0.000000 m /d glyphshow
12.465820 0.000000 m /d glyphshow
18.813477 0.000000 m /underscore glyphshow
23.813477 0.000000 m /e glyphshow
29.965820 0.000000 m /v glyphshow
35.883789 0.000000 m /e glyphshow
42.036133 0.000000 m /n glyphshow
48.374023 0.000000 m /underscore glyphshow
53.374023 0.000000 m /s glyphshow
58.583984 0.000000 m /o glyphshow
64.702148 0.000000 m /r glyphshow
68.813477 0.000000 m /t glyphshow
72.734375 0.000000 m /underscore glyphshow
77.734375 0.000000 m /m glyphshow
87.475586 0.000000 m /p glyphshow
93.823242 0.000000 m /i glyphshow
96.601562 0.000000 m /space glyphshow
99.780273 0.000000 m /hyphen glyphshow
103.388672 0.000000 m /space glyphshow
106.567383 0.000000 m /two glyphshow
112.929688 0.000000 m /zero glyphshow
119.291992 0.000000 m /zero glyphshow
125.654297 0.000000 m /zero glyphshow
132.016602 0.000000 m /zero glyphshow
138.378906 0.000000 m /zero glyphshow
grestore

end
showpage
